/* XPM */
static char * compose_xpm[] = {
"64 42 5 1",
"X	c Gray75 s backgroundToolBarColor",
"o	c black",
"O	c Gray90",
"+	c Gray60",
"@	c white",
"XXXXXXXXXXXXXXXXXXXXXXXXXXXXXXXXXXXXXXXXXXXXXXXXXXXXXXXXXXXXXXXX",
"XXXXXXXXXXXXXXXXXXXXXXXXXXXXXXXXXXXXXXXXXXXXXXXXXXXXXXXXXXXXXXXX",
"XXXXXXXXXXXXXXXXXXXXXXXXXoooooooooooXXXXXXXXXXXXXXXXXXXXXXXXXXXX",
"XXXXXXXXXXXXXXXXXXXXXXXXXoOOOOOOOOOooXXXXXXXXXXXXXXXXXXXXXXXXXXX",
"XXXXXXXXXXXXXXXXXXXXXXXXXoOOOOOOOOOo+oXXXXXXXXXXXXXXXXXXXXXXXXXX",
"XXXXXXXXXXXXXXXXXXXXXXXXXoOOOOOOOOOooooXXXXXXXXXXXXXXXXXXXXXXXXX",
"XXXXXXXXXXXXXXXXXXXXXXXXXoOOOOOOOOOOOOoXXXXXXXXXXXXXXXXXXXXXXXXX",
"XXXXXXXXXXXXXXXXXXXXooooooooooooooooooooooooXXXXXXXXXXXXXXXXXXXX",
"XXXXXXXXXXXXXXXXXXXXo@@@@@@@@@@@@@@@@@@@@@@oXXXXXXXXXXXXXXXXXXXX",
"XXXXXXXXXXXXXXXXXXXXo@oo@@@@@@@@@@@@@@@ooo@oXXXXXXXXXXXXXXXXXXXX",
"XXXXXXXXXXXXXXXXXXXXo@@@@@@@@@@@@@@@@@@o+o@oXXXXXXXXXXXXXXXXXXXX",
"XXXXXXXXXXXXXXXXXXXXo@@@@@@@@@@@@@@@@@@o+o@oXXXXXXXXXXXXXXXXXXXX",
"XXXXXXXXXXXXXXXXXXXXo@@@@@ooooooooo@@@@ooo@oXXXXXXXXXXXXXXXXXXXX",
"XXXXXXXXXXXXXXXXXXXXo@@@@@@@@@@@@@@@@@@@@@@oXXXXXXXXXXXXXXXXXXXX",
"XXXXXXXXXXXXXXXXXXXXo@@@@@ooooooo@@@@@@@@@@oXXXXXXXXXXXXXXXXXXXX",
"XXXXXXXXXXXXXXXXXXXXo@@@@@@@@@@@@@@@@@@@@@@oXXXXXXXXXXXXXXXXXXXX",
"XXXXXXXXXXXXXXXXXXXXo@@@@@ooooo@@@@@@@@@@@@oXXXXXXXXXXXXXXXXXXXX",
"XXXXXXXXXXXXXXXXXXXXo@@@@@@@@@@@@@@@@@@@@@@oXXXXXXXXXXXXXXXXXXXX",
"XXXXXXXXXXXXXXXXXXXXo@@@@@@@@@@@@@@@@@@@@@@oXXXXXXXXXXXXXXXXXXXX",
"XXXXXXXXXXXXXXXXXXXXo@@@@@@@@@@@@@@@@@@@@@@oXXXXXXXXXXXXXXXXXXXX",
"XXXXXXXXXXXXXXXXXXXXooooooooooooooooooooooooXXXXXXXXXXXXXXXXXXXX",
"XXXXXXXXXXXXXXXXXXXXXXXXXoOOOOOOOOOOOOoXXXXXXXXXXXXXXXXXXXXXXXXX",
"XXXXXXXXXXXXXXXXXXXXXXXXXooooooooooooooXXXXXXXXXXXXXXXXXXXXXXXXX",
"XXXXXXXXXXXXXXXXXXXXXXXXXXXXXXXXXXXXXXXXXXXXXXXXXXXXXXXXXXXXXXXX",
"XXXXXXXXXXXXXXXXXXXXXXXXXXXXXXXXXXXXXXXXXXXXXXXXXXXXXXXXXXXXXXXX",
"XXXXXXXXooooXXXXXXXXXXXXXXXXXXXXXXXXXXXXXXXXXXXXXXXXXXXXXXXXXXXX",
"XXXXXXXooXXooXXXXXXXXXXXXXXXXXXXXXXXXXXXXXXXXXXXXXXXXXXXXXXXXXXX",
"XXXXXXooXXXXXXooooXXoXoooXoooXXooXooXXXooooXXXooooXXXooooXXXXXXX",
"XXXXXXooXXXXXooXXooXooXXooXXooXoooXooXooXXooXooXXooXooXXooXXXXXX",
"XXXXXXooXXXXXooXXooXooXXooXXooXooXXooXooXXooXoooXXXXooXXooXXXXXX",
"XXXXXXooXXXXXooXXooXooXXooXXooXooXXooXooXXooXXXoooXXooooooXXXXXX",
"XXXXXXooXXXXXooXXooXooXXooXXooXooXXooXooXXooXXXXoooXooXXXXXXXXXX",
"XXXXXXXooXXooooXXooXooXXooXXooXoooXooXooXXooXooXXooXooXXooXXXXXX",
"XXXXXXXXooooXXooooXXooXXooXXooXooXooXXXooooXXXooooXXXooooXXXXXXX",
"XXXXXXXXXXXXXXXXXXXXXXXXXXXXXXXooXXXXXXXXXXXXXXXXXXXXXXXXXXXXXXX",
"XXXXXXXXXXXXXXXXXXXXXXXXXXXXXXXooXXXXXXXXXXXXXXXXXXXXXXXXXXXXXXX",
"XXXXXXXXXXXXXXXXXXXXXXXXXXXXXXXooXXXXXXXXXXXXXXXXXXXXXXXXXXXXXXX",
"XXXXXXXXXXXXXXXXXXXXXXXXXXXXXXXXXXXXXXXXXXXXXXXXXXXXXXXXXXXXXXXX",
"XXXXXXXXXXXXXXXXXXXXXXXXXXXXXXXXXXXXXXXXXXXXXXXXXXXXXXXXXXXXXXXX",
"XXXXXXXXXXXXXXXXXXXXXXXXXXXXXXXXXXXXXXXXXXXXXXXXXXXXXXXXXXXXXXXX",
"XXXXXXXXXXXXXXXXXXXXXXXXXXXXXXXXXXXXXXXXXXXXXXXXXXXXXXXXXXXXXXXX",
"XXXXXXXXXXXXXXXXXXXXXXXXXXXXXXXXXXXXXXXXXXXXXXXXXXXXXXXXXXXXXXXX"};
