[symbol2]
bbox -224 256 512 608
uniq 210
[tools]
[attributes]
[layers]
<symbol>
l 100 0 0 80 288 trecsDcStatus
r 0 -224 256 512 608
[comments]
RCS: $Name:  $ $Id: trecsDcStatus.sym,v 0.0 2003/04/25 15:21:15 hon Developmental $
