[symbol2]
bbox 32 32 192 192
uniq 957
[tools]
[attributes]
[layers]
<symbol>
r 0 32 32 192 192
l 100 0 0 52 107 trecsMotor
[comments]
RCS: $Name:  $ $Id: trecsMotor.sym,v 0.0 2003/04/25 15:21:15 hon Developmental $
