: "Configuration database"

the_date='Thu May 26 16:19:09 EDT 1994'
the_host='common'
the_os='the_os'

contains='grep'
copy='ln -s'
n=''
c='\c'
sed='sed'
cppinvoke='CC'
cppname='CC'
extension='cpp'
template_extension='cc'
optimize='-O'
str_compiler_name='a generic CFront'
cfront='1'
special=''
tflags=''

RW_LIBINTL='-lintl'
RW_LIBW='-lw'
RW_LIBXDR='-lnsl'

START_SYMBOLS='1'
RW_BROKEN_TEMPLATES='1'
RW_BYTES_PER_PTR='4'
RW_BYTES_PER_WORD='4'
RW_COMPILE_INSTANTIATE='0'
RW_GLOBAL_ENUMS='0'
RW_INLINE86_ASSEMBLY='0'
RW_IOS_XALLOC_BROKEN='1'
RW_KR_ONLY='1'
RW_NON_ANSI_HEADERS='0'
RW_NO_ACCESS_ADJUSTMENT='0'
RW_NO_ANSI_SPRINTF='0'
RW_NO_CLOCK='0'
RW_NO_CONST_OVERLOAD='0'
RW_NO_CPP_RECURSION='0'
RW_NO_EXCEPTIONS='1'
RW_NO_GETTIMEOFDAY='0'
RW_NO_GLOBAL_TZ='0'
RW_NO_LEADING_UNDERSCORE='1'
RW_NO_LOCALE='0'
RW_NO_MEMMOVE='0'
RW_NO_NESTED_QUOTES='0'
RW_NO_OVERLOAD_UCHAR='0'
RW_NO_OVERLOAD_WCHAR='1'
RW_NO_POSTFIX='0'
RW_NO_SCHAR='1'
RW_NO_STRFTIME_CAPC='0'
RW_NO_STRICMP='1'
RW_NO_STRNICMP='1'
RW_NO_STRSTR='0'
RW_NO_TEMPLATES='0'
RW_NO_WSTR='0'
RW_NO_XDR='0'
RW_NO_XMSG='1'
RW_STRUCT_TM_TZ='0'
RW_WRAP_C='0'
__ATT2__='0'
__ATT3__='1'
__GLOCK__='0'
STOP_SYMBOLS='1'
