CRVPT? 21,  1
CRVPT? 21,  2
CRVPT? 21,  3
CRVPT? 21,  4
CRVPT? 21,  5
CRVPT? 21,  6
CRVPT? 21,  7
CRVPT? 21,  8
CRVPT? 21,  9
CRVPT? 21, 10 
CRVPT? 21, 11 
CRVPT? 21, 12 
CRVPT? 21, 13 
CRVPT? 21, 14 
CRVPT? 21, 15 
CRVPT? 21, 16
CRVPT? 21, 17
CRVPT? 21, 18
CRVPT? 21, 19
CRVPT? 21, 20
CRVPT? 21, 21
CRVPT? 21, 22
CRVPT? 21, 23
CRVPT? 21, 24
CRVPT? 21, 25
CRVPT? 21, 26
CRVPT? 21, 27
CRVPT? 21, 28
CRVPT? 21, 29
CRVPT? 21, 30
CRVPT? 21, 31
CRVPT? 21, 32 
CRVPT? 21, 33 
CRVPT? 21, 34 
CRVPT? 21, 35 
CRVPT? 21, 36 
CRVPT? 21, 37 
CRVPT? 21, 38 
CRVPT? 21, 39 
CRVPT? 21, 40 
CRVPT? 21, 41 
CRVPT? 21, 42 
CRVPT? 21, 43 
CRVPT? 21, 44 
CRVPT? 21, 45 
CRVPT? 21, 46 
CRVPT? 21, 47 
CRVPT? 21, 48 
CRVPT? 21, 49 
CRVPT? 21, 50 
CRVPT? 21, 51 
CRVPT? 21, 52 
CRVPT? 21, 53 
CRVPT? 21, 54 
CRVPT? 21, 55 
CRVPT? 21, 56 
CRVPT? 21, 57 
CRVPT? 21, 58 
CRVPT? 21, 59 
CRVPT? 21, 60 
CRVPT? 21, 61 
CRVPT? 21, 62 
CRVPT? 21, 63 
CRVPT? 21, 64 
CRVPT? 21, 65 
CRVPT? 21, 66 
CRVPT? 21, 67
