%!PS-Adobe-2.0 EPSF-1.2
%%BoundingBox: 63 162 584 669
                        
%%Title: From AutoCAD Drawing "\\Gatircam\gatircam\Flamingos\MOSLABLS.dwg"
%%Creator: AutoCAD
%%CreationDate: 75101 16:55:8
%%EndComments
/m {moveto} bind def
/l {lineto} bind def
/s {stroke} bind def
/n {newpath} bind def
/r {rlineto} bind def
/o {rmoveto} bind def
/x {0 rlineto} bind def
/y {0 exch rlineto} bind def
/U {0 1 rlineto} bind def
/D {0 -1 rlineto} bind def
/L {-1 0 rlineto} bind def
/R {1 0 rlineto} bind def
/a {1 1 rlineto} bind def
/b {1 -1 rlineto} bind def
/c {-1 -1 rlineto} bind def
/d {-1 1 rlineto} bind def
/f {fill} bind def
/e {setrgbcolor} bind def
/p {closepath} bind def
1 setlinejoin
1 setlinecap
0.120000 0.120000 scale

150 150 translate
n
%Pen 1
6.000000 setlinewidth
859 2430 m
203 -274 r
1065 2179 m
-184 247 r
935 2507 m
757 561 r
1682 3138 m
-986 -172 r
986 172 r
1701 3124 m
-928 -161 r
638 3302 m
986 172 r
-986 -172 r
709 3331 m
928 162 r
1659 3559 m
-957 290 r
957 -290 r
1670 3538 m
-901 274 r
800 4175 m
958 -290 r
-958 290 r
877 4169 m
901 -273 r
1688 3046 m
-803 -597 r
803 597 r
2558 1362 m
88 2 r
89 6 r
88 10 r
88 13 r
87 17 r
86 21 r
85 25 r
84 29 r
83 32 r
81 36 r
80 39 r
78 43 r
76 46 r
73 49 r
72 53 r
69 55 r
67 59 r
64 61 r
61 64 r
59 67 r
55 69 r
53 72 r
49 73 r
46 76 r
43 78 r
39 80 r
36 81 r
32 83 r
29 84 r
25 85 r
21 86 r
17 87 r
13 88 r
10 88 r
6 89 r
2 88 r
-2 89 r
-6 89 r
-10 88 r
-13 88 r
-17 87 r
-21 86 r
-25 85 r
-29 84 r
-32 83 r
-36 81 r
-39 80 r
-43 77 r
-46 76 r
-49 74 r
-53 72 r
-55 69 r
-59 67 r
-61 64 r
-64 61 r
-67 59 r
-69 55 r
-72 53 r
-73 49 r
-76 46 r
-78 43 r
-80 39 r
-81 36 r
-83 32 r
-84 28 r
-85 25 r
-86 21 r
-87 18 r
-88 13 r
-88 10 r
-89 6 r
-88 1 r
-89 -1 r
-89 -6 r
-88 -10 r
-88 -13 r
-87 -18 r
-86 -21 r
-85 -25 r
-84 -28 r
-83 -32 r
-81 -36 r
-80 -39 r
-78 -43 r
-75 -46 r
s
n
1465 5112 m
-74 -49 r
-72 -53 r
-69 -55 r
-67 -59 r
-64 -61 r
-61 -64 r
-59 -67 r
-55 -69 r
-53 -72 r
-49 -74 r
-46 -76 r
-43 -77 r
-39 -80 r
-36 -81 r
-32 -83 r
-29 -84 r
-24 -85 r
-21 -86 r
-18 -87 r
-13 -88 r
-10 -88 r
-6 -89 r
-2 -89 r
2 -88 r
6 -89 r
10 -88 r
13 -88 r
18 -87 r
21 -86 r
24 -85 r
29 -84 r
32 -83 r
36 -81 r
39 -80 r
43 -78 r
46 -76 r
49 -73 r
53 -72 r
55 -69 r
59 -67 r
61 -64 r
64 -61 r
67 -59 r
69 -55 r
72 -53 r
74 -49 r
75 -46 r
78 -43 r
80 -39 r
81 -36 r
83 -32 r
84 -29 r
85 -25 r
86 -21 r
87 -17 r
88 -13 r
88 -10 r
89 -6 r
89 -2 r
644 3320 m
-2 15 r
706 3346 m
-3 10 r
-6 8 r
-9 6 r
-9 3 r
-11 x
-9 -3 r
-9 -6 r
-5 -9 r
-3 -10 r
-10 y
674 3329 m
6 2 r
4 4 r
2 6 r
-2 6 r
-4 4 r
-6 1 r
-6 -1 r
-4 -4 r
-2 -6 r
2 -6 r
4 -4 r
6 -2 r
-4 y
8 2 r
5 6 r
2 8 r
-2 7 r
-5 6 r
-8 2 r
-8 -2 r
-5 -6 r
-2 -7 r
2 -8 r
5 -6 r
8 -2 r
s
n
670 3859 m
99 326 r
780 4164 m
-89 -294 r
814 4188 m
5 15 r
881 4184 m
-4 -15 r
881 4184 m
2 10 r
-2 10 r
-5 9 r
-7 7 r
-9 5 r
-11 1 r
-10 -2 r
-9 -5 r
-7 -7 r
-4 -9 r
850 4182 m
6 1 r
4 4 r
2 6 r
-2 6 r
-4 4 r
-6 2 r
-6 -2 r
-4 -4 r
-2 -6 r
2 -6 r
4 -4 r
6 -1 r
-4 y
8 2 r
5 6 r
2 7 r
-2 8 r
-5 5 r
-8 3 r
-8 -3 r
-5 -5 r
-2 -8 r
2 -7 r
5 -6 r
8 -2 r
814 4188 m
-25 8 r
-8 x
-8 -4 r
-4 -7 r
792 4176 m
8 -1 r
792 4176 m
-8 -4 r
-4 -8 r
706 3346 m
3 -15 r
670 3850 m
9 y
670 3850 m
4 -7 r
7 -5 r
769 3812 m
-5 -15 r
701 3816 m
5 15 r
-25 7 r
701 3816 m
-1 -10 r
2 -10 r
5 -9 r
7 -7 r
9 -5 r
11 -1 r
10 2 r
9 5 r
7 7 r
4 9 r
690 3861 m
1 9 r
690 3861 m
4 -7 r
8 -5 r
733 3791 m
8 2 r
5 6 r
2 8 r
-2 7 r
-5 6 r
-8 2 r
-8 -2 r
-5 -6 r
-2 -7 r
2 -8 r
5 -6 r
8 -2 r
4 y
6 2 r
4 4 r
2 6 r
-2 6 r
-4 4 r
-6 1 r
-6 -1 r
-4 -4 r
-2 -6 r
2 -6 r
4 -4 r
6 -2 r
s
n
605 3297 m
59 -336 r
677 2980 m
-53 303 r
664 2961 m
3 -8 r
7 -5 r
9 -1 r
776 2948 m
-3 15 r
708 2952 m
3 -15 r
708 2952 m
-25 -5 r
681 2972 m
-4 8 r
681 2972 m
7 -5 r
8 -1 r
743 2927 m
8 2 r
5 6 r
2 8 r
-2 7 r
-5 6 r
-8 2 r
-7 -2 r
-6 -6 r
-2 -7 r
2 -8 r
6 -6 r
7 -2 r
4 y
6 2 r
4 4 r
2 6 r
-2 5 r
-4 5 r
-6 1 r
-6 -1 r
-4 -5 r
-1 -5 r
1 -6 r
4 -4 r
6 -2 r
644 3320 m
-25 -4 r
-8 -4 r
-5 -7 r
-1 -8 r
630 3299 m
8 3 r
630 3299 m
-5 -7 r
-1 -9 r
711 2937 m
3 -10 r
6 -8 r
9 -6 r
10 -3 r
10 x
10 4 r
8 6 r
6 8 r
3 10 r
10 y
885 2449 m
-5 -6 r
-2 -9 r
3 -8 r
883 2468 m
-9 12 r
935 2507 m
-9 12 r
-7 8 r
-9 4 r
-10 2 r
-10 -2 r
-9 -5 r
-8 -7 r
-4 -9 r
-2 -10 r
2 -11 r
5 -9 r
900 2488 m
6 2 r
4 4 r
2 6 r
-2 6 r
-4 4 r
-6 2 r
-6 -2 r
-4 -4 r
-2 -6 r
2 -6 r
4 -4 r
6 -2 r
-3 y
8 2 r
5 5 r
2 8 r
-2 8 r
-5 5 r
-8 2 r
-8 -2 r
-5 -5 r
-2 -8 r
2 -8 r
5 -5 r
8 -2 r
s
n
883 2468 m
-21 -15 r
-5 -7 r
-2 -8 r
4 -8 r
3081 4134 m
535 855 r
3637 4976 m
-535 -855 r
3087 4072 m
586 939 r
3632 5037 m
-587 -938 r
2117 4186 m
-542 851 r
1596 5050 m
542 -850 r
2133 4138 m
-594 934 r
1580 5099 m
595 -934 r
4126 4563 m
-235 247 r
3891 4786 m
212 -223 r
3140 4303 m
1001 y
2107 5304 m
-1001 y
3142 4097 m
725 690 r
-725 -690 r
3119 4098 m
683 649 r
1099 4617 m
-19 18 r
1103 4635 m
725 -690 r
-725 690 r
1338 4882 m
725 -689 r
-725 689 r
1404 4842 m
682 -649 r
2123 5320 m
1001 x
1596 5050 m
-5 5 r
-6 1 r
-6 -2 r
-4 -5 r
-2 -6 r
2 -6 r
1565 5075 m
-6 -1 r
1565 5075 m
4 4 r
2 6 r
-2 6 r
-4 4 r
-6 2 r
-6 -2 r
-4 -4 r
-1 -6 r
1 -6 r
4 -4 r
6 -1 r
-3 y
8 2 r
5 5 r
2 7 r
-2 8 r
-5 5 r
-8 2 r
-7 -2 r
-5 -5 r
-2 -8 r
2 -7 r
5 -5 r
7 -2 r
1573 5105 m
7 -6 r
1573 5105 m
-8 4 r
-10 1 r
-9 -4 r
-7 -7 r
-4 -8 r
-10 y
4 -9 r
1079 4658 m
-4 -8 r
1 -8 r
4 -7 r
1099 4651 m
4 7 r
1099 4651 m
-9 y
4 -7 r
1356 4887 m
11 11 r
1414 4853 m
-10 -11 r
1414 4853 m
6 9 r
3 9 r
11 y
-4 9 r
-6 9 r
-8 5 r
-10 3 r
-10 x
-10 -3 r
-8 -7 r
s
n
1391 4864 m
5 2 r
5 4 r
1 6 r
-1 6 r
-5 4 r
-5 1 r
-6 -1 r
-4 -4 r
-2 -6 r
2 -6 r
4 -4 r
6 -2 r
-3 y
7 2 r
6 5 r
2 8 r
-2 7 r
-6 6 r
-7 2 r
-8 -2 r
-6 -6 r
-2 -7 r
2 -8 r
6 -5 r
8 -2 r
1356 4887 m
-18 18 r
-8 4 r
-8 x
-8 -4 r
1331 4886 m
7 -4 r
1331 4886 m
-9 x
-7 -4 r
1314 4905 m
-235 -247 r
1103 4658 m
212 224 r
2115 5318 m
8 2 r
2115 5318 m
-6 -6 r
-2 -8 r
3140 5304 m
-2 8 r
-6 6 r
-8 2 r
3639 4982 m
-2 -6 r
3639 4982 m
-2 6 r
-4 5 r
-6 2 r
-6 -1 r
-5 -5 r
3652 5013 m
6 1 r
5 5 r
1 5 r
-1 6 r
-5 5 r
-6 1 r
-5 -1 r
-5 -5 r
-1 -6 r
1 -5 r
5 -5 r
5 -1 r
-3 y
8 2 r
5 5 r
2 7 r
-2 8 r
-5 5 r
-8 2 r
-7 -2 r
-5 -5 r
-2 -8 r
2 -7 r
5 -5 r
7 -2 r
3673 5011 m
4 9 r
-1 10 r
-4 9 r
-7 6 r
-9 4 r
-9 -1 r
-9 -4 r
-6 -7 r
3884 4814 m
7 -4 r
3884 4814 m
-9 x
-7 -4 r
s
n
3839 4803 m
10 -11 r
19 18 r
3883 4791 m
8 -5 r
3883 4791 m
-8 x
-8 -4 r
3791 4758 m
11 -11 r
3815 4769 m
6 2 r
4 4 r
2 6 r
-2 6 r
-4 4 r
-6 1 r
-6 -1 r
-4 -4 r
-2 -6 r
2 -6 r
4 -4 r
6 -2 r
3831 4810 m
8 -7 r
3831 4810 m
-10 3 r
-10 x
-10 -3 r
-9 -6 r
-6 -8 r
-3 -9 r
-11 y
2 -9 r
6 -9 r
3815 4765 m
8 3 r
5 5 r
2 8 r
-2 7 r
-5 6 r
-8 2 r
-8 -2 r
-5 -6 r
-2 -7 r
2 -8 r
5 -5 r
8 -3 r
4178 2324 m
-203 -273 r
3972 2074 m
184 247 r
4384 3202 m
-928 161 r
3411 3008 m
986 -171 r
-986 171 r
3392 2995 m
928 -161 r
4353 4050 m
-958 -290 r
958 290 r
4276 4044 m
-901 -273 r
3483 3413 m
902 273 r
4152 2344 m
-803 596 r
803 -596 r
4102 2402 m
-757 561 r
3494 3433 m
958 290 r
-958 -290 r
3469 3344 m
986 -171 r
-986 171 r
3378 3850 m
724 690 r
-724 -690 r
3377 3827 m
682 649 r
3870 2090 m
-5 -9 r
-2 -11 r
2 -10 r
4 -9 r
8 -7 r
9 -5 r
10 -2 r
10 2 r
9 4 r
8 8 r
3509 1740 m
-450 893 r
450 -893 r
3490 1814 m
-424 841 r
2754 2480 m
450 -894 r
-450 894 r
2732 2487 m
424 -841 r
2662 1489 m
1000 y
-1000 y
2679 1564 m
942 y
2321 2489 m
-1000 y
1000 y
s
n
2305 2506 m
-942 y
1489 1799 m
450 893 r
-450 -893 r
1508 1873 m
424 841 r
2244 2539 m
-450 -894 r
450 894 r
2266 2546 m
-424 -841 r
2338 2506 m
308 x
2662 2522 m
-137 x
2123 4287 m
1001 x
2603 2873 m
-45 -2 r
2603 2873 m
46 6 r
44 10 r
44 14 r
42 18 r
41 21 r
39 24 r
36 28 r
34 31 r
31 34 r
28 36 r
24 39 r
21 40 r
18 43 r
14 43 r
10 45 r
6 46 r
2 45 r
-2 46 r
-6 45 r
-10 45 r
-14 44 r
-18 42 r
-21 41 r
-24 38 r
-28 37 r
-31 33 r
-34 31 r
-36 28 r
-39 25 r
-41 21 r
-42 18 r
-44 13 r
-44 10 r
-46 6 r
-45 2 r
-46 -2 r
-46 -6 r
-44 -10 r
-44 -13 r
-42 -18 r
-41 -21 r
-39 -25 r
-36 -28 r
-34 -31 r
-31 -33 r
-27 -37 r
-25 -38 r
-21 -41 r
-18 -42 r
-13 -44 r
-10 -45 r
-6 -45 r
-2 -46 r
2 -45 r
6 -46 r
10 -45 r
13 -43 r
18 -43 r
21 -40 r
25 -39 r
27 -36 r
31 -34 r
34 -31 r
36 -28 r
39 -24 r
41 -21 r
42 -18 r
44 -14 r
44 -10 r
46 -6 r
46 -2 r
s
n
2558 2798 m
49 2 r
49 6 r
49 10 r
47 14 r
46 18 r
45 22 r
42 25 r
40 29 r
38 32 r
35 35 r
32 38 r
29 40 r
25 42 r
22 45 r
18 46 r
14 47 r
10 49 r
6 49 r
2 49 r
-2 50 r
-6 49 r
-10 48 r
-14 48 r
-18 46 r
-22 44 r
-25 43 r
-29 40 r
-32 38 r
-35 35 r
-38 32 r
-40 29 r
-42 25 r
-45 22 r
-46 18 r
-47 14 r
-49 10 r
-49 6 r
-49 2 r
-50 -2 r
-49 -6 r
-48 -10 r
-48 -14 r
-46 -18 r
-44 -22 r
-43 -25 r
-40 -29 r
-38 -32 r
-35 -35 r
-32 -38 r
-29 -40 r
-25 -43 r
-22 -44 r
-18 -46 r
-14 -48 r
-10 -48 r
-6 -49 r
-2 -50 r
2 -49 r
6 -49 r
10 -49 r
14 -47 r
18 -46 r
22 -45 r
25 -42 r
29 -40 r
32 -38 r
35 -35 r
38 -32 r
40 -29 r
43 -25 r
44 -22 r
46 -18 r
48 -14 r
48 -10 r
49 -6 r
50 -2 r
1715 3285 m
-9 -3 r
1715 3285 m
8 6 r
6 8 r
3 10 r
11 y
-3 9 r
-6 8 r
-9 6 r
-9 3 r
-11 x
s
n
1643 3460 m
52 -303 r
1749 3744 m
40 132 r
1755 3675 m
-10 2 r
1755 3675 m
10 2 r
9 5 r
7 7 r
5 10 r
1 10 r
-2 10 r
-4 9 r
-8 7 r
-9 5 r
1789 3876 m
1 8 r
-4 8 r
-8 4 r
1829 3922 m
-683 649 r
-10 -11 r
1088 4606 m
11 11 r
1088 4606 m
-5 -9 r
-3 -10 r
-10 y
3 -10 r
7 -8 r
8 -6 r
10 -2 r
10 x
10 3 r
8 6 r
1120 4570 m
-8 -2 r
1120 4570 m
5 5 r
2 8 r
-2 8 r
-5 5 r
-8 2 r
-7 -2 r
-6 -5 r
-2 -8 r
2 -8 r
6 -5 r
7 -2 r
3 y
6 2 r
4 4 r
2 6 r
-2 6 r
-4 4 r
-6 2 r
-6 -2 r
-4 -4 r
-2 -6 r
2 -6 r
4 -4 r
6 -2 r
1679 3344 m
15 2 r
1643 3460 m
-4 8 r
-7 5 r
-8 1 r
1656 3479 m
-4 8 r
-7 5 r
-8 1 r
1680 3570 m
89 295 r
1764 3740 m
-15 4 r
1745 3677 m
-15 4 r
1754 3693 m
8 2 r
6 6 r
2 7 r
-2 8 r
-6 5 r
-8 2 r
-7 -2 r
-6 -5 r
-2 -8 r
2 -7 r
6 -6 r
7 -2 r
4 y
6 1 r
5 4 r
1 6 r
-1 6 r
-5 4 r
-6 2 r
-5 -2 r
-5 -4 r
-1 -6 r
1 -6 r
5 -4 r
5 -1 r
s
n
1730 3681 m
-39 -132 r
1679 3538 m
-9 x
1679 3538 m
7 4 r
5 7 r
1668 3559 m
-9 x
1668 3559 m
7 4 r
5 7 r
1769 3865 m
8 y
-4 8 r
-7 4 r
1656 3479 m
23 -135 r
1851 3946 m
213 223 r
1947 4023 m
-95 -100 r
2117 4186 m
5 -4 r
6 -1 r
6 2 r
5 4 r
1 7 r
-2 6 r
2154 4140 m
6 1 r
4 5 r
2 6 r
-2 5 r
-4 5 r
-6 1 r
-6 -1 r
-4 -5 r
-1 -5 r
1 -6 r
4 -5 r
6 -1 r
-3 y
8 2 r
5 5 r
2 8 r
-2 7 r
-5 5 r
-8 2 r
-7 -2 r
-5 -5 r
-2 -7 r
2 -8 r
5 -5 r
7 -2 r
2140 4131 m
-7 7 r
2140 4131 m
9 -3 r
10 -1 r
8 4 r
7 6 r
4 9 r
10 y
-3 9 r
2109 4295 m
-2 8 r
2109 4295 m
6 -6 r
8 -2 r
2087 4170 m
-95 -100 r
11 -10 r
1966 4006 m
-8 6 r
1966 4006 m
10 -3 r
10 1 r
10 3 r
8 6 r
6 9 r
3 10 r
10 y
-4 10 r
-6 8 r
1958 4012 m
-11 11 r
1980 4021 m
8 2 r
6 5 r
2 8 r
-2 8 r
-6 5 r
-8 2 r
-7 -2 r
-6 -5 r
-2 -8 r
2 -8 r
6 -5 r
7 -2 r
3 y
6 2 r
4 4 r
2 6 r
-2 6 r
-4 4 r
-6 2 r
-5 -2 r
-5 -4 r
-1 -6 r
1 -6 r
5 -4 r
5 -2 r
s
n
2064 4169 m
4 8 r
8 y
-5 8 r
2091 4177 m
-4 -7 r
2091 4177 m
9 y
-5 7 r
2078 3665 m
-7 -2 r
2078 3665 m
6 5 r
2 7 r
-2 8 r
-6 5 r
-7 2 r
-7 -2 r
-6 -5 r
-2 -8 r
2 -7 r
6 -5 r
7 -2 r
3 y
6 1 r
4 4 r
2 6 r
-2 6 r
-4 4 r
-6 2 r
-6 -2 r
-4 -4 r
-2 -6 r
2 -6 r
4 -4 r
6 -1 r
1836 3918 m
-7 4 r
1836 3918 m
9 x
7 5 r
1836 3941 m
-8 4 r
1836 3941 m
8 1 r
7 4 r
1715 3065 m
82 -110 r
1711 3042 m
184 -247 r
1892 2772 m
-804 -596 r
804 596 r
1915 2768 m
-757 -561 r
1705 3047 m
6 -5 r
1705 3047 m
-9 2 r
-8 -3 r
1708 3070 m
7 -5 r
1708 3070 m
-8 2 r
-8 -4 r
1691 3279 m
15 3 r
1708 3301 m
-8 -2 r
1708 3301 m
5 5 r
2 8 r
-2 8 r
-5 5 r
-8 2 r
-8 -2 r
-5 -5 r
-2 -8 r
2 -8 r
5 -5 r
8 -2 r
3 y
6 2 r
4 4 r
2 6 r
-2 6 r
-4 4 r
-6 2 r
-6 -2 r
-4 -4 r
-2 -6 r
2 -6 r
4 -4 r
6 -2 r
1691 3279 m
23 -136 r
1709 3128 m
-8 -4 r
1709 3128 m
4 7 r
1 8 r
1690 3141 m
-8 -3 r
1690 3141 m
5 7 r
9 y
s
n
1068 2151 m
-6 5 r
1068 2151 m
9 -2 r
8 4 r
1167 2195 m
-9 12 r
1105 2168 m
9 -12 r
1105 2168 m
-20 -15 r
1114 2156 m
8 -7 r
9 -5 r
10 -1 r
10 1 r
9 5 r
8 7 r
4 10 r
2 10 r
-2 10 r
-5 9 r
1072 2174 m
-7 5 r
1072 2174 m
8 -2 r
8 4 r
1141 2160 m
7 2 r
6 6 r
2 7 r
-2 8 r
-6 6 r
-7 2 r
-8 -2 r
-5 -6 r
-2 -8 r
2 -7 r
5 -6 r
8 -2 r
4 y
6 1 r
4 5 r
1 5 r
-1 6 r
-4 5 r
-6 1 r
-6 -1 r
-4 -5 r
-2 -6 r
2 -5 r
4 -5 r
6 -1 r
1954 2722 m
123 -62 r
1961 2700 m
275 -139 r
2142 2644 m
3 9 r
11 y
-3 9 r
-6 9 r
-8 6 r
-10 3 r
-11 x
-9 -3 r
-9 -6 r
-6 -9 r
1961 2700 m
-8 1 r
-8 -2 r
-6 -7 r
1945 2723 m
9 -1 r
1945 2723 m
-8 -2 r
-5 -7 r
1848 2911 m
-12 -9 r
82 -111 r
1920 2775 m
-5 -7 r
1920 2775 m
1 8 r
-3 8 r
1897 2778 m
-5 -6 r
1897 2778 m
1 9 r
-3 8 r
2071 3101 m
7 2 r
6 5 r
2 7 r
-2 8 r
-6 5 r
-7 2 r
-7 -2 r
-6 -5 r
-2 -8 r
2 -7 r
6 -5 r
7 -2 r
3 y
6 1 r
4 5 r
2 5 r
-2 6 r
-4 5 r
-6 1 r
-6 -1 r
-4 -5 r
-2 -6 r
2 -5 r
4 -5 r
6 -1 r
s
n
1809 2964 m
-12 -9 r
1848 2911 m
7 7 r
5 9 r
1 10 r
-1 11 r
-5 9 r
-7 7 r
-10 4 r
-10 2 r
-10 -2 r
-9 -4 r
1829 2922 m
7 2 r
6 6 r
2 7 r
-2 8 r
-6 5 r
-7 2 r
-8 -2 r
-6 -5 r
-2 -8 r
2 -7 r
6 -6 r
8 -2 r
3 y
5 2 r
5 4 r
1 6 r
-1 6 r
-5 4 r
-5 2 r
-6 -2 r
-5 -4 r
-1 -6 r
1 -6 r
5 -4 r
6 -2 r
2321 2522 m
138 x
15 y
2525 2537 m
-2 10 r
-4 10 r
-8 7 r
-9 4 r
-10 2 r
-10 -2 r
-9 -4 r
-8 -7 r
-4 -10 r
-2 -10 r
2525 2537 m
-15 y
2500 2524 m
-8 -2 r
2500 2524 m
5 6 r
2 7 r
-2 8 r
-5 5 r
-8 2 r
-8 -2 r
-5 -5 r
-2 -8 r
2 -7 r
5 -6 r
8 -2 r
4 y
6 1 r
4 4 r
2 6 r
-2 6 r
-4 4 r
-6 2 r
-6 -2 r
-4 -4 r
-2 -6 r
2 -6 r
4 -4 r
6 -1 r
2338 2506 m
-8 -2 r
-6 -6 r
-3 -9 r
2321 2522 m
-8 -2 r
-6 -6 r
-2 -8 r
2135 2630 m
7 14 r
s
n
2120 2645 m
-7 -2 r
2120 2645 m
6 6 r
2 7 r
-2 8 r
-6 6 r
-7 2 r
-8 -2 r
-5 -6 r
-2 -8 r
2 -7 r
5 -6 r
8 -2 r
4 y
6 1 r
4 5 r
1 5 r
-1 6 r
-4 5 r
-6 1 r
-6 -1 r
-4 -5 r
-2 -6 r
2 -5 r
4 -5 r
6 -1 r
2135 2630 m
123 -62 r
2267 2555 m
-1 -9 r
2267 2555 m
-2 8 r
-7 5 r
2245 2547 m
-1 -8 r
2245 2547 m
-2 8 r
-7 6 r
2077 2660 m
6 13 r
3397 3027 m
53 304 r
3437 3350 m
-24 -136 r
3354 3828 m
-95 100 r
3354 3851 m
-212 223 r
3119 4075 m
95 -100 r
3073 4073 m
-7 -2 r
3073 4073 m
5 5 r
2 7 r
-2 8 r
-5 5 r
-7 2 r
-8 -2 r
-5 -5 r
-2 -8 r
2 -7 r
5 -5 r
8 -2 r
3 y
5 1 r
5 5 r
1 5 r
-1 6 r
-5 5 r
-5 1 r
-6 -1 r
-4 -5 r
-2 -6 r
2 -5 r
4 -5 r
6 -1 r
3079 4128 m
2 6 r
3079 4128 m
2 -7 r
4 -4 r
6 -2 r
7 1 r
4 5 r
3045 4099 m
-4 -9 r
1 -10 r
4 -9 r
7 -6 r
9 -4 r
9 1 r
9 3 r
7 7 r
3124 4287 m
8 2 r
6 6 r
2 8 r
3119 4098 m
-4 -7 r
-9 y
4 -7 r
s
n
3138 4090 m
4 7 r
3138 4090 m
-8 y
4 -8 r
3052 3665 m
-8 -2 r
3052 3665 m
5 5 r
2 7 r
-2 8 r
-5 5 r
-8 2 r
-7 -2 r
-6 -5 r
-1 -8 r
1 -7 r
6 -5 r
7 -2 r
3 y
6 1 r
4 4 r
2 6 r
-2 6 r
-4 4 r
-6 2 r
-6 -2 r
-4 -4 r
-1 -6 r
1 -6 r
4 -4 r
6 -1 r
3203 3965 m
11 10 r
3225 3926 m
8 2 r
5 5 r
3 8 r
-3 8 r
-5 5 r
-8 2 r
-7 -2 r
-6 -5 r
-2 -8 r
2 -8 r
6 -5 r
7 -2 r
3 y
6 2 r
4 4 r
2 6 r
-2 6 r
-4 4 r
-6 2 r
-6 -2 r
-4 -4 r
-1 -6 r
1 -6 r
4 -4 r
6 -2 r
2565 3945 m
-7 -2 r
2565 3945 m
5 6 r
2 7 r
-2 8 r
-5 5 r
-7 2 r
-8 -2 r
-5 -5 r
-2 -8 r
2 -7 r
5 -6 r
8 -2 r
3 y
5 2 r
5 4 r
1 6 r
-1 6 r
-5 4 r
-5 2 r
-6 -2 r
-5 -4 r
-1 -6 r
1 -6 r
5 -4 r
6 -2 r
3248 3917 m
11 11 r
3196 3957 m
7 8 r
s
n
3196 3957 m
-3 -10 r
-10 y
3 -10 r
6 -9 r
8 -6 r
9 -3 r
11 -1 r
9 3 r
9 6 r
3447 3363 m
9 x
3447 3363 m
-7 -5 r
-3 -8 r
3461 3344 m
8 x
3461 3344 m
-7 -5 r
-4 -8 r
3362 3847 m
-8 4 r
3362 3847 m
8 -1 r
8 4 r
3361 3823 m
-7 5 r
3361 3823 m
8 x
8 4 r
3423 3556 m
40 -132 r
3474 3444 m
-90 295 r
3408 3551 m
15 5 r
3389 3614 m
-9 -4 r
-7 -8 r
-5 -9 r
-2 -10 r
1 -10 r
5 -9 r
7 -8 r
9 -4 r
10 -2 r
10 1 r
3404 3618 m
-15 -4 r
3399 3567 m
7 2 r
6 6 r
2 8 r
-2 7 r
-6 6 r
-7 2 r
-8 -2 r
-5 -6 r
-2 -7 r
2 -8 r
5 -6 r
8 -2 r
4 y
6 2 r
4 4 r
2 6 r
-2 5 r
-4 5 r
-6 1 r
-6 -1 r
-4 -5 r
-2 -5 r
2 -6 r
4 -4 r
6 -2 r
3404 3618 m
-40 132 r
3368 3766 m
7 5 r
3368 3766 m
-4 -7 r
-9 y
3388 3755 m
7 5 r
3388 3755 m
-4 -7 r
-9 y
3474 3444 m
4 -7 r
8 -4 r
8 x
3463 3424 m
4 -7 r
8 -4 r
8 x
3326 2937 m
-184 -248 r
3240 2849 m
82 111 r
3145 2666 m
804 -596 r
-804 596 r
3122 2663 m
757 -561 r
3139 2681 m
3 8 r
3139 2681 m
1 -8 r
5 -7 r
s
n
3116 2678 m
3 8 r
3116 2678 m
1 -8 r
5 -7 r
3119 2686 m
82 110 r
-12 9 r
3219 2863 m
9 -5 r
3219 2863 m
-10 2 r
-10 -2 r
-10 -5 r
-7 -7 r
-5 -9 r
-1 -10 r
1 -10 r
5 -9 r
7 -8 r
3228 2858 m
12 -9 r
3216 2819 m
-8 -2 r
3216 2819 m
6 5 r
2 8 r
-2 7 r
-6 6 r
-8 2 r
-7 -2 r
-6 -6 r
-2 -7 r
2 -8 r
6 -5 r
7 -2 r
3 y
6 2 r
5 4 r
1 6 r
-1 6 r
-5 4 r
-6 1 r
-5 -1 r
-5 -4 r
-1 -6 r
1 -6 r
5 -4 r
5 -2 r
3052 3103 m
-8 -2 r
3052 3103 m
5 5 r
2 7 r
-2 8 r
-5 5 r
-8 2 r
-7 -2 r
-6 -5 r
-1 -8 r
1 -7 r
6 -5 r
7 -2 r
3 y
6 1 r
4 5 r
2 5 r
-2 6 r
-4 5 r
-6 1 r
-6 -1 r
-4 -5 r
-1 -6 r
1 -5 r
4 -5 r
6 -1 r
2565 2822 m
-7 -2 r
2565 2822 m
5 5 r
2 7 r
-2 8 r
-5 5 r
-7 2 r
-8 -2 r
-5 -5 r
-2 -8 r
2 -7 r
5 -5 r
8 -2 r
3 y
5 1 r
5 5 r
1 5 r
-1 6 r
-5 5 r
-5 1 r
-6 -1 r
-5 -5 r
-1 -6 r
1 -5 r
5 -5 r
6 -1 r
s
n
2740 2509 m
123 62 r
2762 2502 m
275 139 r
2856 2585 m
7 -14 r
2915 2614 m
-6 9 r
-9 6 r
-10 3 r
-10 x
-10 -3 r
-8 -6 r
-6 -9 r
-3 -9 r
-11 y
3 -9 r
2921 2601 m
-6 13 r
2893 2586 m
-8 -2 r
2893 2586 m
5 6 r
2 7 r
-2 8 r
-5 6 r
-8 2 r
-7 -2 r
-6 -6 r
-2 -8 r
2 -7 r
6 -6 r
7 -2 r
4 y
6 1 r
4 5 r
2 5 r
-2 6 r
-4 5 r
-6 1 r
-6 -1 r
-4 -5 r
-1 -6 r
1 -5 r
4 -5 r
6 -1 r
2921 2601 m
123 62 r
3061 2662 m
5 -7 r
3061 2662 m
-8 2 r
-9 -1 r
3053 2640 m
6 -7 r
3053 2640 m
-8 2 r
-8 -1 r
2762 2502 m
-7 -6 r
-2 -8 r
1 -8 r
2740 2509 m
-7 -5 r
-2 -8 r
1 -9 r
2662 2489 m
-2 9 r
-6 6 r
-8 2 r
2679 2506 m
-2 8 r
-6 6 r
-9 2 r
3378 3014 m
24 136 r
-15 2 r
3388 3217 m
10 x
3388 3217 m
-10 -3 r
-8 -6 r
-6 -8 r
-4 -10 r
-10 y
3 -10 r
6 -8 r
8 -6 r
10 -4 r
3398 3217 m
15 -3 r
3400 3171 m
-7 -2 r
3400 3171 m
6 6 r
2 8 r
-2 7 r
-6 6 r
-7 2 r
-8 -2 r
-5 -6 r
-2 -7 r
2 -8 r
5 -6 r
8 -2 r
4 y
6 1 r
4 5 r
1 6 r
-1 5 r
-4 5 r
-6 1 r
-6 -1 r
-4 -5 r
-2 -5 r
2 -6 r
4 -5 r
6 -1 r
s
n
3397 3027 m
1 -8 r
5 -7 r
8 -4 r
3379 3006 m
-1 8 r
3379 3006 m
5 -7 r
8 -4 r
3345 2963 m
-8 3 r
-8 -1 r
-7 -5 r
3341 2943 m
8 -3 r
3341 2943 m
-9 -1 r
-6 -5 r
3932 2063 m
-9 -12 r
3870 2090 m
9 12 r
3896 2058 m
6 2 r
4 4 r
2 6 r
-2 6 r
-4 4 r
-6 2 r
-6 -2 r
-4 -4 r
-1 -6 r
1 -6 r
4 -4 r
6 -2 r
-3 y
8 2 r
5 5 r
2 8 r
-2 8 r
-5 5 r
-8 2 r
-7 -2 r
-6 -5 r
-2 -8 r
2 -8 r
6 -5 r
7 -2 r
3932 2063 m
20 -16 r
8 -3 r
9 1 r
6 6 r
3957 2067 m
-8 3 r
3957 2067 m
8 1 r
7 6 r
2662 1456 m
-341 x
2338 1472 m
308 x
1787 1614 m
-8 2 r
1787 1614 m
8 3 r
6 6 r
1780 1636 m
-8 2 r
1780 1636 m
8 3 r
6 6 r
1479 1814 m
-14 7 r
1495 1880 m
13 -7 r
1495 1880 m
-10 3 r
-10 x
-10 -3 r
-8 -6 r
-6 -9 r
-3 -9 r
-11 y
3 -10 r
6 -8 r
8 -6 r
1480 1839 m
6 1 r
4 5 r
2 6 r
-2 5 r
-4 5 r
-6 1 r
-6 -1 r
-4 -5 r
-2 -5 r
2 -6 r
4 -5 r
6 -1 r
-4 y
8 2 r
5 6 r
2 8 r
-2 7 r
-5 6 r
-8 2 r
-8 -2 r
-5 -6 r
-2 -7 r
2 -8 r
5 -6 r
8 -2 r
s
n
1479 1814 m
-12 -23 r
-2 -8 r
3 -8 r
6 -6 r
1487 1790 m
2 9 r
1487 1790 m
3 -8 r
6 -5 r
1474 1769 m
305 -153 r
1772 1638 m
-276 139 r
2290 1498 m
15 x
-26 y
2 -8 r
6 -6 r
8 -2 r
2324 1481 m
-3 8 r
2324 1481 m
6 -6 r
8 -3 r
2305 1564 m
-15 x
2290 1519 m
6 2 r
4 4 r
2 6 r
-2 6 r
-4 4 r
-6 2 r
-6 -2 r
-4 -4 r
-2 -6 r
2 -6 r
4 -4 r
6 -2 r
-3 y
8 2 r
5 6 r
2 7 r
-2 8 r
-5 5 r
-8 2 r
-8 -2 r
-5 -5 r
-2 -8 r
2 -7 r
5 -6 r
8 -2 r
2290 1564 m
-10 -2 r
-9 -4 r
-8 -8 r
-4 -9 r
-2 -10 r
2 -10 r
4 -9 r
8 -7 r
9 -5 r
10 -2 r
1856 1698 m
-14 7 r
1826 1640 m
-13 6 r
-12 -23 r
1826 1640 m
10 -4 r
10 1 r
10 3 r
8 6 r
6 8 r
3 10 r
10 y
-3 10 r
-6 8 r
-8 6 r
1849 1656 m
-8 -2 r
1849 1656 m
5 5 r
2 8 r
-2 8 r
-5 5 r
-8 2 r
-8 -2 r
-5 -5 r
-2 -8 r
2 -8 r
5 -5 r
8 -2 r
3 y
6 2 r
4 4 r
2 6 r
-2 6 r
-4 4 r
-6 2 r
-6 -2 r
-4 -4 r
-2 -6 r
2 -6 r
4 -4 r
6 -2 r
s
n
3219 1557 m
305 153 r
3502 1718 m
-276 -139 r
2694 1498 m
-15 x
-26 y
2654 1475 m
-8 -3 r
2654 1475 m
6 6 r
2 8 r
2662 1456 m
9 2 r
6 6 r
2 8 r
3172 1581 m
13 6 r
3156 1646 m
-14 -7 r
-8 -6 r
-6 -8 r
-3 -10 r
-10 y
3 -10 r
6 -8 r
8 -6 r
10 -3 r
10 -1 r
10 4 r
3163 1600 m
-6 -2 r
3163 1600 m
4 4 r
2 6 r
-2 6 r
-4 4 r
-6 2 r
-6 -2 r
-4 -4 r
-2 -6 r
2 -6 r
4 -4 r
6 -2 r
-3 y
8 2 r
5 5 r
2 8 r
-2 8 r
-5 5 r
-8 2 r
-8 -2 r
-5 -5 r
-2 -8 r
2 -8 r
5 -5 r
8 -2 r
3185 1587 m
12 -23 r
6 -6 r
8 -3 r
8 2 r
3210 1580 m
-6 6 r
3210 1580 m
8 -3 r
8 2 r
2694 1564 m
-15 x
2694 1516 m
8 2 r
5 6 r
2 7 r
-2 8 r
-5 5 r
-8 2 r
-8 -2 r
-5 -5 r
-2 -8 r
2 -7 r
5 -6 r
8 -2 r
3 y
6 2 r
4 4 r
2 6 r
-2 6 r
-4 4 r
-6 2 r
-6 -2 r
-4 -4 r
-2 -6 r
2 -6 r
4 -4 r
6 -2 r
2694 1498 m
10 2 r
9 5 r
8 7 r
4 9 r
2 10 r
-2 10 r
-4 9 r
-8 8 r
-9 4 r
-10 2 r
s
n
3524 1710 m
6 6 r
3 8 r
-2 8 r
3503 1821 m
-13 -7 r
3519 1755 m
14 7 r
3519 1755 m
12 -23 r
3533 1762 m
8 6 r
6 8 r
3 10 r
11 y
-3 9 r
-6 9 r
-8 6 r
-10 3 r
-10 x
-10 -3 r
3508 1723 m
-6 -5 r
3508 1723 m
3 8 r
-2 9 r
3518 1776 m
8 2 r
5 6 r
2 8 r
-2 7 r
-5 6 r
-8 2 r
-8 -2 r
-5 -6 r
-2 -7 r
2 -8 r
5 -6 r
8 -2 r
4 y
6 1 r
4 5 r
2 6 r
-2 5 r
-4 5 r
-6 1 r
-6 -1 r
-4 -5 r
-2 -5 r
2 -6 r
4 -5 r
6 -1 r
4483 3733 m
-99 326 r
4373 4039 m
90 -295 r
4384 4059 m
-4 8 r
-8 4 r
-8 -1 r
4272 4058 m
4 -14 r
4339 4063 m
-4 14 r
4339 4063 m
25 7 r
4335 4077 m
-5 9 r
-7 8 r
-9 5 r
-10 2 r
-10 -2 r
-10 -4 r
-7 -7 r
-5 -10 r
-2 -10 r
2 -10 r
4369 4046 m
4 -7 r
4369 4046 m
-8 4 r
-8 x
4311 4055 m
-8 -3 r
4311 4055 m
5 5 r
2 8 r
-2 7 r
-5 6 r
-8 2 r
-7 -2 r
-6 -6 r
-2 -7 r
2 -8 r
6 -5 r
7 -3 r
4 y
6 2 r
4 4 r
2 6 r
-2 6 r
-4 4 r
-6 1 r
-6 -1 r
-4 -4 r
-1 -6 r
1 -6 r
4 -4 r
6 -2 r
s
n
4117 4511 m
-10 11 r
4070 4465 m
-11 11 r
4070 4465 m
8 -6 r
10 -3 r
10 -1 r
10 3 r
8 6 r
6 8 r
4 10 r
10 y
-3 10 r
-6 9 r
4099 4478 m
-5 -2 r
4099 4478 m
5 4 r
1 6 r
-1 6 r
-5 4 r
-5 2 r
-6 -2 r
-5 -4 r
-1 -6 r
1 -6 r
5 -4 r
6 -2 r
-3 y
7 2 r
6 5 r
2 8 r
-2 8 r
-6 5 r
-7 2 r
-8 -2 r
-6 -5 r
-2 -8 r
2 -8 r
6 -5 r
8 -2 r
4107 4522 m
19 17 r
4 8 r
8 y
-4 8 r
4107 4547 m
-5 -7 r
4107 4547 m
9 y
-4 7 r
4447 3705 m
5 -14 r
4426 3671 m
-6 -2 r
4426 3671 m
4 4 r
2 6 r
-2 6 r
-4 4 r
-6 2 r
-5 -2 r
-5 -4 r
-1 -6 r
1 -6 r
5 -4 r
5 -2 r
4447 3705 m
25 8 r
7 4 r
4 8 r
8 y
4459 3728 m
-7 -5 r
4459 3728 m
4 7 r
9 y
4385 3686 m
4 -14 r
4 -10 r
8 -7 r
9 -5 r
10 -2 r
10 2 r
9 4 r
8 7 r
4 9 r
2 10 r
-1 11 r
4428 3668 m
-8 -2 r
4428 3668 m
6 5 r
2 8 r
-2 8 r
-6 5 r
-8 2 r
-7 -2 r
-6 -5 r
-2 -8 r
2 -8 r
6 -5 r
7 -2 r
s
n
4418 2819 m
-8 -1 r
4418 2819 m
7 5 r
4 8 r
4487 3167 m
9 y
-5 7 r
-8 3 r
4448 3191 m
3 15 r
4448 3191 m
26 -5 r
4468 3163 m
-9 y
4468 3163 m
-5 7 r
-8 3 r
4487 3167 m
-58 -335 r
4416 2850 m
52 304 r
4384 2823 m
-2 -15 r
4317 2819 m
3 15 r
4317 2819 m
-10 y
3 -10 r
6 -9 r
8 -6 r
10 -3 r
10 x
10 3 r
8 6 r
7 8 r
3 10 r
4355 2803 m
-5 -1 r
4355 2803 m
5 5 r
1 5 r
-1 6 r
-5 4 r
-5 2 r
-6 -2 r
-5 -4 r
-1 -6 r
1 -5 r
5 -5 r
6 -1 r
-4 y
7 2 r
6 6 r
2 7 r
-2 8 r
-6 6 r
-7 2 r
-8 -2 r
-6 -6 r
-2 -8 r
2 -7 r
6 -6 r
8 -2 r
4384 3202 m
2 15 r
4451 3216 m
-10 y
4451 3216 m
-3 10 r
-6 8 r
-8 6 r
-10 4 r
-10 x
-10 -3 r
-8 -6 r
-6 -8 r
-4 -10 r
4419 3196 m
7 2 r
6 6 r
2 7 r
-2 8 r
-6 6 r
-7 2 r
-8 -2 r
-5 -6 r
-3 -8 r
3 -7 r
5 -6 r
8 -2 r
4 y
6 1 r
4 5 r
1 5 r
-1 6 r
-4 4 r
-6 2 r
-6 -2 r
-4 -4 r
-2 -6 r
2 -5 r
4 -5 r
6 -1 r
s
n
4410 2818 m
-26 5 r
4397 2837 m
8 1 r
7 5 r
4 7 r
4182 2332 m
-4 -8 r
4182 2332 m
-2 9 r
-5 6 r
4102 2402 m
9 12 r
4163 2375 m
-9 -12 r
21 -16 r
4163 2375 m
5 9 r
2 10 r
-2 10 r
-4 10 r
-8 7 r
-9 5 r
-10 1 r
-10 -1 r
-9 -5 r
-7 -7 r
4159 2329 m
-3 -8 r
4159 2329 m
-2 8 r
-5 7 r
4145 2381 m
-8 -2 r
4145 2381 m
5 6 r
2 8 r
-2 7 r
-5 6 r
-8 2 r
-8 -2 r
-5 -6 r
-2 -7 r
2 -8 r
5 -6 r
8 -2 r
4 y
6 1 r
4 5 r
2 6 r
-2 5 r
-4 5 r
-6 1 r
-6 -1 r
-4 -5 r
-2 -5 r
2 -6 r
4 -5 r
6 -1 r
4276 4341 m
-738 -426 r
3562 3872 m
739 427 r
4252 4285 m
-653 -378 r
3586 3929 m
654 377 r
4301 4299 m
7 6 r
4 9 r
1 9 r
-3 9 r
-6 7 r
-9 5 r
-10 x
-9 -3 r
4289 4305 m
7 2 r
5 6 r
2 7 r
-2 7 r
-5 6 r
-7 2 r
-8 -2 r
-5 -6 r
-2 -7 r
2 -7 r
5 -6 r
8 -2 r
3 y
5 2 r
5 4 r
1 6 r
-1 6 r
-5 4 r
-5 2 r
-6 -2 r
-4 -4 r
-2 -6 r
2 -6 r
4 -4 r
6 -2 r
s
n
4257 4289 m
-5 -4 r
4257 4289 m
1 6 r
-1 6 r
-5 5 r
-6 2 r
-6 -2 r
3538 3915 m
-8 -7 r
-4 -8 r
-1 -10 r
4 -9 r
6 -7 r
8 -4 r
10 -1 r
9 3 r
3582 3924 m
4 5 r
3582 3924 m
-2 -6 r
2 -6 r
4 -5 r
6 -1 r
7 1 r
3556 3883 m
-6 -1 r
3556 3883 m
4 5 r
2 5 r
-2 6 r
-4 4 r
-6 2 r
-6 -2 r
-4 -4 r
-2 -6 r
2 -5 r
4 -5 r
6 -1 r
-3 y
7 2 r
6 5 r
2 7 r
-2 8 r
-6 5 r
-7 2 r
-8 -2 r
-5 -5 r
-2 -8 r
2 -7 r
5 -5 r
8 -2 r
3669 3370 m
851 49 r
4518 3468 m
-852 -49 r
3717 3385 m
754 43 r
4469 3453 m
-753 -44 r
4471 3428 m
6 2 r
4 5 r
1 6 r
-2 6 r
-5 4 r
-6 2 r
4519 3432 m
6 1 r
4 4 r
2 6 r
-2 6 r
-4 4 r
-6 2 r
-6 -2 r
-4 -4 r
-2 -6 r
2 -6 r
4 -4 r
6 -1 r
-3 y
7 2 r
6 5 r
2 7 r
-2 8 r
-6 5 r
-7 2 r
-7 -2 r
-6 -5 r
-2 -8 r
2 -7 r
6 -5 r
7 -2 r
4520 3419 m
10 2 r
7 6 r
5 8 r
2 10 r
-3 9 r
-6 8 r
-8 5 r
-9 1 r
s
n
3716 3409 m
-6 -2 r
-4 -4 r
-2 -7 r
2 -6 r
5 -4 r
6 -1 r
3675 3382 m
-8 -2 r
3675 3382 m
5 5 r
2 7 r
-2 8 r
-5 5 r
-8 2 r
-7 -2 r
-5 -5 r
-2 -8 r
2 -7 r
5 -5 r
7 -2 r
3 y
6 1 r
5 5 r
1 5 r
-1 6 r
-5 4 r
-6 2 r
-5 -2 r
-5 -4 r
-1 -6 r
1 -5 r
5 -5 r
5 -1 r
3666 3419 m
-9 -2 r
-8 -6 r
-5 -9 r
-1 -9 r
2 -9 r
6 -8 r
8 -5 r
10 -1 r
3598 2888 m
693 -300 r
4341 2579 m
-783 339 r
4321 2534 m
10 -2 r
9 2 r
8 5 r
5 8 r
3 9 r
-2 10 r
-5 8 r
-8 5 r
4338 2544 m
-7 -2 r
4338 2544 m
6 5 r
2 8 r
-2 7 r
-6 5 r
-7 2 r
-7 -2 r
-6 -5 r
-2 -7 r
2 -8 r
6 -5 r
7 -2 r
3 y
6 2 r
4 4 r
2 6 r
-2 6 r
-4 4 r
-6 1 r
-6 -1 r
-4 -4 r
-2 -6 r
2 -6 r
4 -4 r
6 -2 r
4287 2564 m
-6 1 r
4287 2564 m
6 2 r
4 5 r
1 7 r
-2 6 r
-5 4 r
4281 2565 m
-693 300 r
s
n
3538 2873 m
783 -339 r
3558 2918 m
-9 2 r
-10 -1 r
-8 -6 r
-5 -7 r
-2 -10 r
1 -9 r
5 -8 r
8 -6 r
3548 2884 m
6 2 r
4 4 r
2 6 r
-2 6 r
-4 4 r
-6 1 r
-6 -1 r
-4 -4 r
-2 -6 r
2 -6 r
4 -4 r
6 -2 r
-3 y
7 2 r
6 5 r
2 8 r
-2 7 r
-6 6 r
-7 1 r
-7 -1 r
-6 -6 r
-2 -7 r
2 -8 r
6 -5 r
7 -2 r
3592 2888 m
6 x
3592 2888 m
-6 -2 r
-4 -5 r
-1 -6 r
2 -6 r
5 -4 r
3199 2488 m
546 -654 r
3723 1879 m
-483 579 r
3236 2520 m
547 -655 r
3742 1895 m
-484 579 r
3723 1879 m
6 -3 r
6 -1 r
6 3 r
3 5 r
1 6 r
-3 6 r
3764 1838 m
6 1 r
4 4 r
2 6 r
-2 6 r
-4 4 r
-6 2 r
-6 -2 r
-4 -4 r
-1 -6 r
1 -6 r
4 -4 r
6 -1 r
-3 y
8 2 r
5 5 r
2 7 r
-2 8 r
-5 5 r
-8 2 r
-7 -2 r
-5 -5 r
-2 -8 r
2 -7 r
5 -5 r
7 -2 r
3753 1828 m
-8 6 r
3753 1828 m
9 -3 r
10 1 r
8 4 r
6 8 r
3 9 r
-1 10 r
-5 8 r
s
n
3258 2474 m
-5 4 r
-6 x
-6 -2 r
-4 -6 r
-6 y
3 -6 r
3225 2491 m
-8 -2 r
3225 2491 m
5 6 r
2 7 r
-2 7 r
-5 6 r
-8 2 r
-7 -2 r
-5 -6 r
-2 -7 r
2 -7 r
5 -6 r
7 -2 r
3 y
6 2 r
5 4 r
1 6 r
-1 6 r
-5 4 r
-6 2 r
-5 -2 r
-5 -4 r
-1 -6 r
1 -6 r
5 -4 r
5 -2 r
3229 2526 m
7 -6 r
3229 2526 m
-9 3 r
-10 -1 r
-8 -5 r
-6 -8 r
-3 -9 r
1 -9 r
5 -9 r
3750 5211 m
21 x
44 -22 r
-44 -21 r
-21 x
3771 5168 m
43 y
4162 4828 m
-33 y
11 -10 r
11 x
11 10 r
22 y
4195 4795 m
11 -10 r
11 x
11 10 r
33 y
4228 4817 m
-66 x
4437 4371 m
11 -11 r
4437 4371 m
21 y
11 11 r
44 x
11 -11 r
-21 y
-11 -11 r
4617 3984 m
-32 y
11 -11 r
44 x
11 11 r
32 y
4683 3974 m
-66 x
4653 3482 m
65 x
-44 y
4686 3460 m
22 y
4653 3482 m
-44 y
4647 2961 m
65 x
-44 y
4680 2939 m
22 y
4548 2485 m
-11 y
-33 x
33 y
11 11 r
44 x
11 -11 r
-33 y
s
n
4371 2069 m
-65 x
4339 2069 m
-43 y
4371 2026 m
-65 x
3916 1740 m
-11 -11 r
-22 y
11 -10 r
55 x
3552 1465 m
-66 x
3519 1454 m
33 -33 r
3519 1454 m
11 y
3519 1454 m
-33 -33 r
2679 1244 m
-66 x
-44 y
1560 1543 m
-66 x
1516 1521 m
44 22 r
1560 1499 m
-44 22 r
1494 1499 m
66 x
872 2171 m
-66 x
806 2127 m
66 44 r
872 2127 m
-66 x
441 3075 m
-65 x
441 3075 m
-44 y
-65 x
44 y
519 4110 m
66 x
-33 y
-11 -11 r
-11 x
-11 11 r
33 y
1015 4903 m
11 11 r
1015 4903 m
-11 11 r
11 y
11 11 r
44 x
10 -11 r
-22 y
-10 -11 r
-33 x
-11 11 r
-11 -11 r
1423 5271 m
65 x
-33 y
-11 -11 r
-11 x
-11 11 r
33 y
1455 5260 m
-32 -33 r
s
showpage

%%CreationDate: 75101 16:55:8
