This file contains any messages produced by compilers while
running configure, to aid debugging if configure makes a mistake.

It was created by configure, which was
generated by GNU Autoconf 2.68.  Invocation command line was

  $ ./configure --build=x86_64-unknown-linux-gnu --with-heatop=/Home/xtelab/dhon/jul2012/AstroH_B01/headas --with-heacore=heacore --enable-shared=yes --enable-symbols=yes --enable-strip=no --enable-hera=no --x-libraries=NONE --x-includes=NONE --with-copt= --with-cxxopt= --with-fopt= --enable-ldopt=yes

## --------- ##
## Platform. ##
## --------- ##

hostname = xen
uname -m = x86_64
uname -r = 2.6.32-220.23.1.el6.x86_64
uname -s = Linux
uname -v = #1 SMP Mon Jun 18 09:58:09 CDT 2012

/usr/bin/uname -p = unknown
/bin/uname -X     = unknown

/bin/arch              = x86_64
/usr/bin/arch -k       = unknown
/usr/convex/getsysinfo = unknown
/usr/bin/hostinfo      = unknown
/bin/machine           = unknown
/usr/bin/oslevel       = unknown
/bin/universe          = unknown

PATH: ./bin
PATH: /Home/xtelab/dhon/local/headev/astroh/etc
PATH: /Home/xtelab/dhon/local/headev/astroh/x86_64-unknown-linux-gnu-libc2.12/bin
PATH: /Home/xtelab/dhon/local/headev/x86_64-unknown-linux-gnu-libc2.12/bin
PATH: ./
PATH: /Home/xtelab/dhon/local/bin
PATH: /Home/xtelab/dhon/local/groovy/bin
PATH: /usr/local/bin
PATH: /usr/local/sbin
PATH: /usr/local/etc
PATH: /usr/local/libexec
PATH: /var/local/bin
PATH: /var/local/sbin
PATH: /var/local/etc
PATH: /var/local/libexec
PATH: /var/local/pgsql/bin
PATH: /var/local/apache2/bin
PATH: /usr/local/apache-maven-2.2.1/bin
PATH: /usr/local/raven-1.2.4-jruby-1.0.1/bin
PATH: /usr/local/groovy/bin
PATH: /usr/local/grails/bin
PATH: /usr/local/apache-ant/bin
PATH: /usr/local/cernroot/bin
PATH: /usr/X11R6/bin
PATH: /bin
PATH: /usr/bin
PATH: /sbin
PATH: /etc
PATH: /usr/sbin


## ----------- ##
## Core tests. ##
## ----------- ##

configure:2506: checking build system type
configure:2520: result: x86_64-unknown-linux-gnu
configure:2540: checking host system type
configure:2553: result: x86_64-unknown-linux-gnu
configure:2573: checking target system type
configure:2586: result: x86_64-unknown-linux-gnu
configure:2640: result: modified Linux system type is x86_64-unknown-linux-gnu-libc2.12
configure:3179: checking for strip
configure:3195: found /usr/bin/strip
configure:3207: result: strip
configure:3227: checking for ar
configure:3243: found /usr/bin/ar
configure:3255: result: ar
configure:3314: checking for ranlib
configure:3330: found /usr/bin/ranlib
configure:3341: result: ranlib
configure:3382: checking for gmake
configure:3398: found /usr/bin/gmake
configure:3409: result: gmake
configure:3424: checking whether gmake is GNU make
configure:3431: result: yes
configure:3539: checking for gcc
configure:3555: found /usr/bin/gcc
configure:3566: result: gcc
configure:3795: checking for C compiler version
configure:3804: gcc --version >&5
gcc (GCC) 4.4.6 20110731 (Red Hat 4.4.6-3)
Copyright (C) 2010 Free Software Foundation, Inc.
This is free software; see the source for copying conditions.  There is NO
warranty; not even for MERCHANTABILITY or FITNESS FOR A PARTICULAR PURPOSE.

configure:3815: $? = 0
configure:3804: gcc -v >&5
Using built-in specs.
Target: x86_64-redhat-linux
Configured with: ../configure --prefix=/usr --mandir=/usr/share/man --infodir=/usr/share/info --with-bugurl=http://bugzilla.redhat.com/bugzilla --enable-bootstrap --enable-shared --enable-threads=posix --enable-checking=release --with-system-zlib --enable-__cxa_atexit --disable-libunwind-exceptions --enable-gnu-unique-object --enable-languages=c,c++,objc,obj-c++,java,fortran,ada --enable-java-awt=gtk --disable-dssi --with-java-home=/usr/lib/jvm/java-1.5.0-gcj-1.5.0.0/jre --enable-libgcj-multifile --enable-java-maintainer-mode --with-ecj-jar=/usr/share/java/eclipse-ecj.jar --disable-libjava-multilib --with-ppl --with-cloog --with-tune=generic --with-arch_32=i686 --build=x86_64-redhat-linux
Thread model: posix
gcc version 4.4.6 20110731 (Red Hat 4.4.6-3) (GCC) 
configure:3815: $? = 0
configure:3804: gcc -V >&5
gcc: '-V' option must have argument
configure:3815: $? = 1
configure:3804: gcc -qversion >&5
gcc: unrecognized option '-qversion'
gcc: no input files
configure:3815: $? = 1
configure:3835: checking whether the C compiler works
configure:3857: gcc    conftest.c  >&5
configure:3861: $? = 0
configure:3909: result: yes
configure:3912: checking for C compiler default output file name
configure:3914: result: a.out
configure:3920: checking for suffix of executables
configure:3927: gcc -o conftest    conftest.c  >&5
configure:3931: $? = 0
configure:3953: result: 
configure:3975: checking whether we are cross compiling
configure:3983: gcc -o conftest    conftest.c  >&5
configure:3987: $? = 0
configure:3994: ./conftest
configure:3998: $? = 0
configure:4013: result: no
configure:4018: checking for suffix of object files
configure:4040: gcc -c   conftest.c >&5
configure:4044: $? = 0
configure:4065: result: o
configure:4069: checking whether we are using the GNU C compiler
configure:4088: gcc -c   conftest.c >&5
configure:4088: $? = 0
configure:4097: result: yes
configure:4106: checking whether gcc accepts -g
configure:4126: gcc -c -g  conftest.c >&5
configure:4126: $? = 0
configure:4167: result: yes
configure:4184: checking for gcc option to accept ISO C89
configure:4248: gcc  -c -g -O2  conftest.c >&5
configure:4248: $? = 0
configure:4261: result: none needed
configure:4379: checking for gfortran
configure:4395: found /usr/bin/gfortran
configure:4406: result: gfortran
configure:4432: checking for Fortran 77 compiler version
configure:4441: gfortran --version >&5
GNU Fortran (GCC) 4.4.6 20110731 (Red Hat 4.4.6-3)
Copyright (C) 2010 Free Software Foundation, Inc.

GNU Fortran comes with NO WARRANTY, to the extent permitted by law.
You may redistribute copies of GNU Fortran
under the terms of the GNU General Public License.
For more information about these matters, see the file named COPYING

configure:4452: $? = 0
configure:4441: gfortran -v >&5
Using built-in specs.
Target: x86_64-redhat-linux
Configured with: ../configure --prefix=/usr --mandir=/usr/share/man --infodir=/usr/share/info --with-bugurl=http://bugzilla.redhat.com/bugzilla --enable-bootstrap --enable-shared --enable-threads=posix --enable-checking=release --with-system-zlib --enable-__cxa_atexit --disable-libunwind-exceptions --enable-gnu-unique-object --enable-languages=c,c++,objc,obj-c++,java,fortran,ada --enable-java-awt=gtk --disable-dssi --with-java-home=/usr/lib/jvm/java-1.5.0-gcj-1.5.0.0/jre --enable-libgcj-multifile --enable-java-maintainer-mode --with-ecj-jar=/usr/share/java/eclipse-ecj.jar --disable-libjava-multilib --with-ppl --with-cloog --with-tune=generic --with-arch_32=i686 --build=x86_64-redhat-linux
Thread model: posix
gcc version 4.4.6 20110731 (Red Hat 4.4.6-3) (GCC) 
configure:4452: $? = 0
configure:4441: gfortran -V >&5
gfortran: '-V' option must have argument
configure:4452: $? = 1
configure:4441: gfortran -qversion >&5
gfortran: unrecognized option '-qversion'
gfortran: no input files
configure:4452: $? = 1
configure:4461: checking whether we are using the GNU Fortran 77 compiler
configure:4474: gfortran -c  conftest.F >&5
configure:4474: $? = 0
configure:4483: result: yes
configure:4489: checking whether gfortran accepts -g
configure:4500: gfortran -c -g conftest.f >&5
configure:4500: $? = 0
configure:4508: result: yes
configure:4667: checking for g++
configure:4683: found /usr/bin/g++
configure:4694: result: g++
configure:4721: checking for C++ compiler version
configure:4730: g++ --version >&5
g++ (GCC) 4.4.6 20110731 (Red Hat 4.4.6-3)
Copyright (C) 2010 Free Software Foundation, Inc.
This is free software; see the source for copying conditions.  There is NO
warranty; not even for MERCHANTABILITY or FITNESS FOR A PARTICULAR PURPOSE.

configure:4741: $? = 0
configure:4730: g++ -v >&5
Using built-in specs.
Target: x86_64-redhat-linux
Configured with: ../configure --prefix=/usr --mandir=/usr/share/man --infodir=/usr/share/info --with-bugurl=http://bugzilla.redhat.com/bugzilla --enable-bootstrap --enable-shared --enable-threads=posix --enable-checking=release --with-system-zlib --enable-__cxa_atexit --disable-libunwind-exceptions --enable-gnu-unique-object --enable-languages=c,c++,objc,obj-c++,java,fortran,ada --enable-java-awt=gtk --disable-dssi --with-java-home=/usr/lib/jvm/java-1.5.0-gcj-1.5.0.0/jre --enable-libgcj-multifile --enable-java-maintainer-mode --with-ecj-jar=/usr/share/java/eclipse-ecj.jar --disable-libjava-multilib --with-ppl --with-cloog --with-tune=generic --with-arch_32=i686 --build=x86_64-redhat-linux
Thread model: posix
gcc version 4.4.6 20110731 (Red Hat 4.4.6-3) (GCC) 
configure:4741: $? = 0
configure:4730: g++ -V >&5
g++: '-V' option must have argument
configure:4741: $? = 1
configure:4730: g++ -qversion >&5
g++: unrecognized option '-qversion'
g++: no input files
configure:4741: $? = 1
configure:4745: checking whether we are using the GNU C++ compiler
configure:4764: g++ -c   conftest.cpp >&5
configure:4764: $? = 0
configure:4773: result: yes
configure:4782: checking whether g++ accepts -g
configure:4802: g++ -c -g  conftest.cpp >&5
configure:4802: $? = 0
configure:4843: result: yes
configure:4907: checking for perl
configure:4925: found /Home/xtelab/dhon/local/bin/perl
configure:4937: result: /Home/xtelab/dhon/local/bin/perl
configure:4974: checking how to run the C preprocessor
configure:5005: gcc -E  conftest.c
configure:5005: $? = 0
configure:5019: gcc -E  conftest.c
conftest.c:9:28: error: ac_nonexistent.h: No such file or directory
configure:5019: $? = 1
configure: failed program was:
| /* confdefs.h */
| #define PACKAGE_NAME ""
| #define PACKAGE_TARNAME ""
| #define PACKAGE_VERSION ""
| #define PACKAGE_STRING ""
| #define PACKAGE_BUGREPORT ""
| #define PACKAGE_URL ""
| /* end confdefs.h.  */
| #include <ac_nonexistent.h>
configure:5044: result: gcc -E
configure:5064: gcc -E  conftest.c
configure:5064: $? = 0
configure:5078: gcc -E  conftest.c
conftest.c:9:28: error: ac_nonexistent.h: No such file or directory
configure:5078: $? = 1
configure: failed program was:
| /* confdefs.h */
| #define PACKAGE_NAME ""
| #define PACKAGE_TARNAME ""
| #define PACKAGE_VERSION ""
| #define PACKAGE_STRING ""
| #define PACKAGE_BUGREPORT ""
| #define PACKAGE_URL ""
| /* end confdefs.h.  */
| #include <ac_nonexistent.h>
configure:5107: checking for grep that handles long lines and -e
configure:5165: result: /bin/grep
configure:5170: checking for egrep
configure:5232: result: /bin/grep -E
configure:5237: checking for ANSI C header files
configure:5257: gcc -c -g   conftest.c >&5
configure:5257: $? = 0
configure:5330: gcc -o conftest -g    conftest.c  >&5
configure:5330: $? = 0
configure:5330: ./conftest
configure:5330: $? = 0
configure:5341: result: yes
configure:5354: checking for sys/types.h
configure:5354: gcc -c -g   conftest.c >&5
configure:5354: $? = 0
configure:5354: result: yes
configure:5354: checking for sys/stat.h
configure:5354: gcc -c -g   conftest.c >&5
configure:5354: $? = 0
configure:5354: result: yes
configure:5354: checking for stdlib.h
configure:5354: gcc -c -g   conftest.c >&5
configure:5354: $? = 0
configure:5354: result: yes
configure:5354: checking for string.h
configure:5354: gcc -c -g   conftest.c >&5
configure:5354: $? = 0
configure:5354: result: yes
configure:5354: checking for memory.h
configure:5354: gcc -c -g   conftest.c >&5
configure:5354: $? = 0
configure:5354: result: yes
configure:5354: checking for strings.h
configure:5354: gcc -c -g   conftest.c >&5
configure:5354: $? = 0
configure:5354: result: yes
configure:5354: checking for inttypes.h
configure:5354: gcc -c -g   conftest.c >&5
configure:5354: $? = 0
configure:5354: result: yes
configure:5354: checking for stdint.h
configure:5354: gcc -c -g   conftest.c >&5
configure:5354: $? = 0
configure:5354: result: yes
configure:5354: checking for unistd.h
configure:5354: gcc -c -g   conftest.c >&5
configure:5354: $? = 0
configure:5354: result: yes
configure:5370: checking size of long
configure:5375: gcc -o conftest -g    conftest.c  >&5
configure:5375: $? = 0
configure:5375: ./conftest
configure:5375: $? = 0
configure:5389: result: 8
configure:5449: checking for gethostbyname
configure:5449: result: no
configure:5453: checking for gethostbyname in -lnsl
configure:5524: gcc -o conftest -g    conftest.c -lnsl   >&5
configure:5524: $? = 0
configure:5533: result: yes
configure:5549: checking for connect
configure:5549: gcc -o conftest -g    conftest.c -lnsl  >&5
configure:5549: $? = 0
configure:5549: result: yes
configure:5549: checking for accept
configure:5549: gcc -o conftest -g    conftest.c -lnsl  >&5
configure:5549: $? = 0
configure:5549: result: yes
configure:5611: checking for X
configure:5719: gcc -E  conftest.c
configure:5719: $? = 0
configure:5750: gcc -o conftest -g    conftest.c -lX11 -lnsl  >&5
configure:5750: $? = 0
configure:5800: result: libraries , headers 
configure:5804: checking X11/Xlib.h usability
configure:5804: gcc -c -g   conftest.c >&5
configure:5804: $? = 0
configure:5804: result: yes
configure:5804: checking X11/Xlib.h presence
configure:5804: gcc -E  conftest.c
configure:5804: $? = 0
configure:5804: result: yes
configure:5804: checking for X11/Xlib.h
configure:5804: result: yes
configure:5824: checking for frexp in -lm
configure:5849: gcc -o conftest -g    conftest.c -lm  -lnsl  >&5
conftest.c:32: warning: conflicting types for built-in function 'frexp'
configure:5849: $? = 0
configure:5858: result: yes
configure:5871: checking for dlopen in -ldl
configure:5896: gcc -o conftest -g    conftest.c -ldl  -lm -lnsl  >&5
configure:5896: $? = 0
configure:5905: result: yes
configure:5965: checking for tgoto in -ltinfo
configure:5990: gcc -o conftest -g    conftest.c -ltinfo  -ldl -lm -lnsl  >&5
configure:5990: $? = 0
configure:5999: result: yes
configure:7093: creating ./config.status

## ---------------------- ##
## Running config.status. ##
## ---------------------- ##

This file was extended by config.status, which was
generated by GNU Autoconf 2.68.  Invocation command line was

  CONFIG_FILES    = 
  CONFIG_HEADERS  = 
  CONFIG_LINKS    = 
  CONFIG_COMMANDS = 
  $ ./config.status 

on xen

config.status:837: creating hmakerc
config.status:837: creating headas-setup

## ---------------- ##
## Cache variables. ##
## ---------------- ##

ac_cv_build=x86_64-unknown-linux-gnu
ac_cv_c_compiler_gnu=yes
ac_cv_cxx_compiler_gnu=yes
ac_cv_env_CCC_set=
ac_cv_env_CCC_value=
ac_cv_env_CC_set=
ac_cv_env_CC_value=
ac_cv_env_CFLAGS_set=
ac_cv_env_CFLAGS_value=
ac_cv_env_CPPFLAGS_set=
ac_cv_env_CPPFLAGS_value=
ac_cv_env_CPP_set=
ac_cv_env_CPP_value=
ac_cv_env_CXXFLAGS_set=
ac_cv_env_CXXFLAGS_value=
ac_cv_env_CXX_set=
ac_cv_env_CXX_value=
ac_cv_env_F77_set=
ac_cv_env_F77_value=
ac_cv_env_FFLAGS_set=
ac_cv_env_FFLAGS_value=
ac_cv_env_LDFLAGS_set=
ac_cv_env_LDFLAGS_value=
ac_cv_env_LIBS_set=
ac_cv_env_LIBS_value=
ac_cv_env_XMKMF_set=
ac_cv_env_XMKMF_value=
ac_cv_env_build_alias_set=set
ac_cv_env_build_alias_value=x86_64-unknown-linux-gnu
ac_cv_env_host_alias_set=
ac_cv_env_host_alias_value=
ac_cv_env_target_alias_set=
ac_cv_env_target_alias_value=
ac_cv_f77_compiler_gnu=yes
ac_cv_func_accept=yes
ac_cv_func_connect=yes
ac_cv_func_gethostbyname=no
ac_cv_have_x='have_x=yes	ac_x_includes='\'''\''	ac_x_libraries='\'''\'''
ac_cv_header_X11_Xlib_h=yes
ac_cv_header_inttypes_h=yes
ac_cv_header_memory_h=yes
ac_cv_header_stdc=yes
ac_cv_header_stdint_h=yes
ac_cv_header_stdlib_h=yes
ac_cv_header_string_h=yes
ac_cv_header_strings_h=yes
ac_cv_header_sys_stat_h=yes
ac_cv_header_sys_types_h=yes
ac_cv_header_unistd_h=yes
ac_cv_host=x86_64-unknown-linux-gnu
ac_cv_lib_dl_dlopen=yes
ac_cv_lib_m_frexp=yes
ac_cv_lib_nsl_gethostbyname=yes
ac_cv_lib_tinfo_tgoto=yes
ac_cv_objext=o
ac_cv_path_EGREP='/bin/grep -E'
ac_cv_path_GREP=/bin/grep
ac_cv_path_PERL=/Home/xtelab/dhon/local/bin/perl
ac_cv_prog_AR=ar
ac_cv_prog_CPP='gcc -E'
ac_cv_prog_MAKE=gmake
ac_cv_prog_STRIP=strip
ac_cv_prog_ac_ct_CC=gcc
ac_cv_prog_ac_ct_CXX=g++
ac_cv_prog_ac_ct_F77=gfortran
ac_cv_prog_ac_ct_RANLIB=ranlib
ac_cv_prog_cc_c89=
ac_cv_prog_cc_g=yes
ac_cv_prog_cxx_g=yes
ac_cv_prog_f77_g=yes
ac_cv_sizeof_long=8
ac_cv_target=x86_64-unknown-linux-gnu

## ----------------- ##
## Output variables. ##
## ----------------- ##

AR='ar'
ARCHIVE='ar rv'
ARCHIVE_CXX='ar rv'
ATFUNCTIONS=''
ATT_BLD_EXEC_PFX=''
ATT_EXEC_PFX=''
BSUF=''
CC='gcc'
CCFITS='CCfits_2.4'
CFITSIO='cfitsio_3.29'
CFITSIO_DIR='/Home/xtelab/dhon/jul2012/AstroH_B01/headas/heacore/cfitsio'
CFLAGS='-Wall --pedantic -Wno-long-long -g  -fPIC'
COPT=''
CPP='gcc -E'
CPPFLAGS=''
CXX='g++'
CXXFLAGS='-Wall --pedantic -Wno-long-long -g  -fPIC'
CXXOPT=''
DEFS='-DPACKAGE_NAME=\"\" -DPACKAGE_TARNAME=\"\" -DPACKAGE_VERSION=\"\" -DPACKAGE_STRING=\"\" -DPACKAGE_BUGREPORT=\"\" -DPACKAGE_URL=\"\" -DSTDC_HEADERS=1 -DHAVE_SYS_TYPES_H=1 -DHAVE_SYS_STAT_H=1 -DHAVE_STDLIB_H=1 -DHAVE_STRING_H=1 -DHAVE_MEMORY_H=1 -DHAVE_STRINGS_H=1 -DHAVE_INTTYPES_H=1 -DHAVE_STDINT_H=1 -DHAVE_UNISTD_H=1 -DSIZEOF_LONG=8 -Dg77Fortran=1 -DgFortran=1 -DHAVE_LIBNSL=1 -DHAVE_CONNECT=1 -DHAVE_ACCEPT=1 -DHAVE_LIBM=1 -DHAVE_LIBDL=1 -DHAVE_LIBTINFO=1'
ECHO_C=''
ECHO_N='-n'
ECHO_T=''
EGREP='/bin/grep -E'
EXEEXT=''
EXT='lnx'
F77='gfortran'
F77LIBS4C='-L/usr/lib/gcc/x86_64-redhat-linux/4.4.6 -L/usr/lib/gcc/x86_64-redhat-linux/4.4.6 -L/usr/lib/gcc/x86_64-redhat-linux/4.4.6/../../../../lib64 -L/lib/../lib64 -L/usr/lib/../lib64 -L/usr/lib/gcc/x86_64-redhat-linux/4.4.6/../../.. -L/usr/lib/gcc/x86_64-redhat-linux/4.4.6 -L/usr/lib/gcc/x86_64-redhat-linux/4.4.6 -L/usr/lib/gcc/x86_64-redhat-linux/4.4.6/../../../../lib64 -L/lib/../lib64 -L/usr/lib/../lib64 -L/usr/lib/gcc/x86_64-redhat-linux/4.4.6/../../.. -lgfortranbegin -lgfortran -lm -lgcc_s -lgcc -lc -lgcc_s -lgcc '
FC='gfortran'
FC_BASENAME='gfortran'
FFLAGS='-Wall --pedantic -fno-second-underscore -g  -fPIC'
FOPT=''
G77='yes'
GCC='yes'
GREP='/bin/grep'
GXX='yes'
HC_BLD_EXEC_PFX='/Home/xtelab/dhon/jul2012/AstroH_B01/headas/heacore/BLD/x86_64-unknown-linux-gnu-libc2.12'
HC_EXEC_PFX='/Home/xtelab/dhon/jul2012/AstroH_B01/headas/heacore/x86_64-unknown-linux-gnu-libc2.12'
HD_LIB_STYLE='shared'
HD_LIB_STYLE_F77='shared'
HD_LN_SYM='ln -s'
HD_SRC='/Home/xtelab/dhon/jul2012/AstroH_B01/headas/heatools'
HD_THIS_DIR='/Home/xtelab/dhon/jul2012/AstroH_B01/headas/heatools/BUILD_DIR'
HD_TOP_EXEC_PFX='/Home/xtelab/dhon/jul2012/AstroH_B01/headas/x86_64-unknown-linux-gnu-libc2.12'
HD_TOP_PFX='/Home/xtelab/dhon/jul2012/AstroH_B01/headas'
HEAINIT='hdinit_2.6'
HEAIO='hdio_2.6'
HEASP='hdsp_2.6'
HEAUTILS='hdutils_2.6'
HG_BLD_EXEC_PFX=''
HG_EXEC_PFX=''
HISTORY=''
HT_BLD_EXEC_PFX=''
HT_EXEC_PFX=''
ITCL=''
ITCL_DIR=''
ITK=''
LDFLAGS=''
LDFLAGS_C=' '
LDFLAGS_CXX=' '
LDFLAGS_F=' '
LIBOBJS=''
LIBS='-ltinfo -ldl -lm -lnsl '
LINK_PGPLOT=''
LINK_PGPLOT_TCL=''
LTLIBOBJS=''
MAKE='gmake'
OBJEXT='o'
OSUF='o'
PACKAGE_BUGREPORT=''
PACKAGE_NAME=''
PACKAGE_STRING=''
PACKAGE_TARNAME=''
PACKAGE_URL=''
PACKAGE_VERSION=''
PATH_SEPARATOR=':'
PERL='/Home/xtelab/dhon/local/bin/perl'
PGPLOT=''
PIL='ape_2.8'
RANLIB='ranlib'
READLINE='readline'
SHELL='/bin/sh'
SHLIB_LD='gcc -shared'
SHLIB_LD_CXX='g++ -shared'
SHLIB_SUFFIX='.so'
SIZEOF_LONG='8'
STRIP=':'
TCL=''
TCLREADLINE=''
TCLREADLINE_DIR=''
TCLTK_BLD_EXEC_PFX=''
TCLTK_EXEC_PFX=''
TCLXPA=''
TCL_DIR=''
TK=''
TK_DIR=''
UNAME_SYSTEM='Linux'
V_CF=''
WCSLIB='wcs-4.4.4'
XINCLUDES=''
XLIBPTH=''
XLIBS='-lX11'
XMKMF=''
XPA=''
XSPEC_BLD_EXEC_PFX=''
XSPEC_EXEC_PFX=''
ac_ct_CC='gcc'
ac_ct_CXX='g++'
ac_ct_F77='gfortran'
bindir='${exec_prefix}/bin'
build='x86_64-unknown-linux-gnu'
build_alias='x86_64-unknown-linux-gnu'
build_cpu='x86_64'
build_os='linux-gnu'
build_vendor='unknown'
datadir='${datarootdir}'
datarootdir='${prefix}/share'
docdir='${datarootdir}/doc/${PACKAGE}'
dvidir='${docdir}'
exec_prefix='/Home/xtelab/dhon/jul2012/AstroH_B01/headas/heatools/x86_64-unknown-linux-gnu-libc2.12'
h_comp='heatools'
h_vers=''
host='x86_64-unknown-linux-gnu-libc2.12'
host_alias=''
host_cpu='x86_64'
host_os='linux-gnu'
host_vendor='unknown'
htmldir='${docdir}'
includedir='${prefix}/include'
infodir='${datarootdir}/info'
libdir='${exec_prefix}/lib'
libexecdir='${exec_prefix}/libexec'
localedir='${datarootdir}/locale'
localstatedir='${prefix}/var'
mandir='${datarootdir}/man'
oldincludedir='/usr/include'
pdfdir='${docdir}'
prefix='/Home/xtelab/dhon/jul2012/AstroH_B01/headas/heatools'
program_transform_name='s,x,x,'
psdir='${docdir}'
sbindir='${exec_prefix}/sbin'
sharedstatedir='${prefix}/com'
sysconfdir='${prefix}/etc'
target='x86_64-unknown-linux-gnu'
target_alias=''
target_cpu='x86_64'
target_os='linux-gnu'
target_vendor='unknown'

## ----------- ##
## confdefs.h. ##
## ----------- ##

/* confdefs.h */
#define PACKAGE_NAME ""
#define PACKAGE_TARNAME ""
#define PACKAGE_VERSION ""
#define PACKAGE_STRING ""
#define PACKAGE_BUGREPORT ""
#define PACKAGE_URL ""
#define STDC_HEADERS 1
#define HAVE_SYS_TYPES_H 1
#define HAVE_SYS_STAT_H 1
#define HAVE_STDLIB_H 1
#define HAVE_STRING_H 1
#define HAVE_MEMORY_H 1
#define HAVE_STRINGS_H 1
#define HAVE_INTTYPES_H 1
#define HAVE_STDINT_H 1
#define HAVE_UNISTD_H 1
#define SIZEOF_LONG 8
#define g77Fortran 1
#define gFortran 1
#define HAVE_LIBNSL 1
#define HAVE_CONNECT 1
#define HAVE_ACCEPT 1
#define HAVE_LIBM 1
#define HAVE_LIBDL 1
#define HAVE_LIBTINFO 1

configure: exit 0
