[symbol2]
bbox 32 32 192 192
uniq 957
[tools]
[attributes]
[layers]
<symbol>
l 100 0 0 52 107 flamMotor
r 0 32 32 192 192
[comments]
RCS: $Name:  $ $Id: flamMotor.sym,v 0.0 2005/09/01 20:20:10 drashkin Exp $
