[symbol2]
bbox -96 -32 288 352
uniq 215
[tools]
[attributes]
[layers]
<symbol>
l 100 0 0 32 0 flamState
r 0 -96 -32 288 352
[comments]
RCS: $Name:  $ $Id: flamState.sym,v 0.0 2005/09/01 20:20:10 drashkin Exp $
