[symbol2]
bbox 32 32 224 224
uniq 1174
[tools]
[attributes]
[layers]
<symbol>
l 100 0 0 50 123 flamDcConfig
r 0 32 32 224 224
[comments]
RCS: "$Name:  $ $Id: flamDcConfig.sym,v 0.0 2005/09/01 20:20:10 drashkin Exp $"
