[symbol2]
bbox 32 32 320 288
uniq 46
[tools]
[attributes]
[layers]
<symbol>
l 100 0 0 80 155 flamSadDcConfig
r 0 32 32 320 288
[comments]
RCS: $Name:  $ $Id: flamSadDcConfig.sym,v 0.0 2005/09/01 20:20:10 drashkin Exp $
