[schematic2]
uniq 133
[tools]
[detail]
w 1282 859 100 0 VAL gem_setWcsCad.gem_setWcsCad#129.VAL 1328 1008 1440 1008 1440 848 1184 848 1184 784 1312 784 outhier.VAL.p
w 1250 891 100 0 MESS gem_setWcsCad.gem_setWcsCad#129.MESS 1328 944 1408 944 1408 880 1152 880 1152 656 1312 656 outhier.MESS.p
w 962 859 100 0 DIR inhier.DIR.P 1024 784 1088 784 1088 848 896 848 896 1008 976 1008 gem_setWcsCad.gem_setWcsCad#129.DIR
s 2240 -128 100 0 FLAMINGOS
s 2096 -176 200 1792 FLAMINGOS
s 2432 -192 100 256 FLAMINGOS setWcs Command
s 2320 -240 100 1792 Rev: B
s 2096 -240 100 1792 2001/12/25
s 2096 -272 100 1792 Author: WNR
s 2512 -240 100 1792 flamSetWcs.sch
s 2016 2032 100 1792 B
s 2240 2032 100 1792 Add WCS Calculation
s 2480 2032 100 1792 WNR
s 2624 2032 100 1792 2001/12/25
s 2016 2064 100 1792 A
s 2240 2064 100 1792 Initial Layout
s 2480 2064 100 1792 WNR
s 2624 2064 100 1792 2000/12/05
[cell use]
use gem_setWcsCad 976 887 100 0 gem_setWcsCad#129
xform 0 1152 1040
use changeBar 1984 1991 100 0 changeBar#123
xform 0 2336 2032
use changeBar 1984 2023 100 0 changeBar#124
xform 0 2336 2064
use outhier 1328 656 100 0 MESS
xform 0 1296 656
use outhier 1328 784 100 0 VAL
xform 0 1296 784
use inhier 944 656 100 0 ICID
xform 0 1024 656
use inhier 960 784 100 0 DIR
xform 0 1024 784
use bc200 -576 -408 -100 0 frame
xform 0 1104 896
use rb200abc 1984 -313 100 0 rb200abc#0
xform 0 2336 -192
[comments]
RCS: $Name:  $ $Id: flamSetWcs.sch,v 0.0 2005/09/01 20:20:10 drashkin Exp $
