[symbol2]
bbox 32 32 480 320
uniq 300
[tools]
[attributes]
[layers]
<symbol>
l 100 0 0 196 171 flamEngTop
r 0 32 32 480 320
[comments]
RCS: $Name:  $ $Id: flamLvdtTop.sym,v 0.0 2005/09/01 20:20:10 drashkin Exp $
