/* XPM */
static char * folder[] = {
"33 33 4 1",
"X	c Gray75 s backgroundToolBarColor",
"o	c black",
"O	c white",
"+	c Gray60",
"XXXXXXXXXXXXXXXXXXXXXXXXXXXXXXXXX",
"XXXXXXXXXXXXXXXXXXXXXXXXXXXXXXXXX",
"XXXXXXXXXXXXXXXXXXXXXXXXXXXXXXXXX",
"XXXXXXXXXXXXXXXXXXXXXXXXXXXXXXXXX",
"XXXXXXXXXXXoXXXXXXXooXXXXXooXXXXX",
"XXXXXXXXoooOoXXXoooOoXXooo+oXXXXX",
"XXXXXXooOOOOooooOOOoooo++++oXXXXX",
"XXXXXXoOOOOOOOOOooo+++++++oXXXXXX",
"XXXXXXXoOOOOOOoo++++++++++oXXXXXX",
"XXXXXXXoOOOOOOo++++ooo+++oXXXXXXX",
"XXXXXXXoOOOOOOo+ooo++++++oXXXXXXX",
"XXXXXXXXoOOOOo+++++++++++oXXXXXXX",
"XXXXXXXXoOOOOo+++oo+++++oXXXXXXXX",
"XXXXXXXXXoOOo++oo+++++oooXXXXXXXX",
"XXXXXXXXXoOOo++++++oooXXXXXXXXXXX",
"XXXXXXXXXoOOo+++oooXXXXXXXXXXXXXX",
"XXXXXXXXXXoo+oooXXXXXXXXXXXXXXXXX",
"XXXXXXXXXXoooXXXXXXXXXXXXXXXXXXXX",
"XXXXXXXXXXXXXXXXXXXXXXXXXXXXXXXXX",
"XXXXXXXXXXXXXXXXXXXXXXXXXXXXXXXXX",
"XXXXXXXXXXXXXXXXXXXXXXXXXXXXXXXXX",
"XXXXXXXXXXXXXXXXXXXXXXXXXXXXXXXXX",
"XXXXXXXXXXXXXXXXXXXXXXXXXXXXXXXXX",
"XXXXXXXXXXXXXXXXXXXXXXXXXXXXXXXXX",
"XXXXXXXXXXXXXXoXXXXXXXXXXXoXXXXXX",
"XXXXXXXXooooXXXXXXXXXXXXXXoXXXXXX",
"XXXXXXXXoXXXoXoXoXoXoXXXoooXXXXXX",
"XXXXXXXXoXXXoXoXooXoXoXoXXoXXXXXX",
"XXXXXXXXoXXXoXoXoXXoooXoXXoXXXXXX",
"XXXXXXXXoXXXoXoXoXXoXXXoXXoXXXXXX",
"XXXXXXXXooooXXoXoXXXooXXoooXXXXXX",
"XXXXXXXXXXXXXXXXXXXXXXXXXXXXXXXXX",
"XXXXXXXXXXXXXXXXXXXXXXXXXXXXXXXXX"};
