/* XPM */
static char *get-new-news-up[] = {
/* width height num_colors chars_per_pixel */
"    32    32       14            1",
/* colors */
". c #000000",
"# c #330098",
"a c #33fe98",
"b c #777777",
"c c #9898fe",
"d c #a9a9a9",
"e c #bababa",
"f c #cb9866",
"g c #cbcbcb s backgroundToolBarColor",
"h c #cbcbfe",
"i c #dcdcdc",
"j c #fe6633",
"k c #fecb98",
"l c #fefefe",
/* pixels */
"ggggggggggggggggdggggggggggggggg",
"gggggggggggggggdldgggggggggggggg",
"ggggggggggggggdllldggggggggggggg",
"gggggggggggggdllblldgggggggggggg",
"ggggggggggggdlldlblldggggggggggg",
"gggggggggggdlldiblllldgggggggggg",
"ggggggggggdllbbdlldilldggggggggg",
"gggggggggdlldidlllidilldgggggggg",
"ggggggggdlldbblldilibilldggggggg",
"gggggggdlldiblllidilidilldgggggg",
"ggggggdlldbblllbligilidiligggggg",
"gggggg#lllblllbablibiliiiegggggg",
"ggggggf#lllllbakablididiebgggggg",
"gggggggf#lllbikjchblidie#ggggggg",
"gggggg#lf#lllbiccbllbie#legggggg",
"ggggggf#lf#lllbhblllie#lebgggggg",
"gggggggf#lf#lllblllie#le#ggggggg",
"gggggg#lf#lf#lllllie#le#legggggg",
"ggggggf#lf#lf#lllie#le#lebgggggg",
"gggggggf#lf#lf#lie#le#le#ggggggg",
"gggggg#lf#lf#lf#e#le#le#legggggg",
"ggggggb.lf#lf#lkdle#le#le.gggggg",
"ggggggdb.lf#lf#lle#le#le.bgggggg",
"gggggggdb.lf#lf#e#le#le.bdeggggg",
"ggggggggdb.lf#lfdle#le.bdegggggg",
"gggggggggdb.lf#lle#le.bdeggggggg",
"ggggggggggdb.lf#e#le.bdegggggggg",
"gggggggggggdb.lfdle.bdeggggggggg",
"ggggggggggggdb.lle.bdegggggggggg",
"gggggggggggggdb.b.bdeggggggggggg",
"ggggggggggggggdbbbdegggggggggggg",
"gggggggggggggggeddeggggggggggggg"
};
