#define noname_width 32
#define noname_height 32
static char noname_bits[] = {
 0x00,0x00,0x00,0x00,0x49,0x49,0x52,0x72,0x20,0x04,0x08,0x10,0x0a,0x01,0x01,
 0x29,0xa0,0x82,0x60,0x8c,0x44,0x9e,0x27,0x38,0x32,0x81,0x20,0x2a,0x56,0xc0,
 0x01,0x4c,0x08,0x45,0x80,0x14,0x28,0xc0,0x40,0x04,0x82,0x70,0x22,0x57,0x10,
 0x09,0x10,0x44,0x42,0x81,0x08,0xa8,0x88,0x00,0x60,0x5a,0x60,0x1e,0x62,0x3c,
 0x26,0x05,0x61,0x19,0x16,0x20,0x30,0x4d,0x98,0xc4,0x55,0x04,0x40,0x80,0x31,
 0x94,0x14,0xf0,0x1e,0x0f,0x42,0xa8,0x48,0x20,0x00,0x54,0x00,0x08,0x94,0xaa,
 0x20,0x28,0x21,0x9d,0xe7,0x79,0xc6,0x81,0x20,0x08,0x1c,0xc2,0x71,0x2c,0x48,
 0x40,0x10,0x84,0x09,0x41,0x30,0x2c,0x20,0x74,0x1d,0x07,0x08,0x81,0x80,0x40,
 0x22,0x24,0x14,0x0a,0x00,0x01,0x81,0x40};
