#define noname_width 32
#define noname_height 32
static char noname_bits[] = {
 0x00,0x01,0x00,0x00,0x52,0x50,0x49,0x52,0x00,0x01,0x20,0x08,0x49,0x48,0x0a,
 0x02,0x60,0x21,0xa0,0x28,0x98,0x04,0x00,0x40,0x4a,0x23,0x43,0x12,0x9c,0x83,
 0x00,0x30,0x90,0x00,0x20,0x55,0x94,0x42,0x02,0x30,0xd0,0x01,0x20,0x11,0x95,
 0x20,0x01,0x70,0x90,0x05,0xa0,0x10,0x94,0x41,0x02,0x32,0x90,0x00,0xe0,0x3f,
 0x94,0x22,0xa2,0x2a,0xd0,0x00,0x60,0x80,0x95,0x83,0x62,0x24,0x90,0x00,0x20,
 0x01,0x94,0xa2,0x60,0x50,0x90,0x01,0x60,0x02,0x94,0x01,0x65,0x48,0x90,0x04,
 0x20,0x01,0x95,0x41,0x62,0x52,0xd0,0x10,0x20,0x08,0x94,0xea,0xff,0x02,0x90,
 0xa1,0x2d,0x50,0xf4,0x08,0x00,0x04,0x00,0x21,0x49,0x91,0x55,0x48,0x00,0x00,
 0x00,0x01,0x95,0x4a,0x44,0x48,0x20,0x00};
