/* XPM */
static char *prev-article-up[] = {
/* width height num_colors chars_per_pixel */
"    32    32       10            1",
/* colors */
". c #000000",
"# c #330098",
"a c #33fe98",
"b c #777777",
"c c #878787",
"d c #bababa",
"e c #cbcbcb s backgroundToolBarColor",
"f c #ededed",
"g c #fefe00",
"h c #fefefe",
/* pixels */
"eeeeeeeeeeeeeeeeeeeeeeeeeeeeeeee",
"eeeeeeeeeeeeeeeeeeeeeeeeeeeeeeee",
"eeeeeeeeeeeeeeeeeeeeeeeeeeeeeeee",
"eeeeeeeeeeeeeeeeeeeeeeeeeeeeeeee",
"eeeee##ceeeeeeeeeeeeeeeeeeeeeeee",
"eeee#ee#ceehhhhhhhhhhhhhhhhhceee",
"eee#eeee#cehhbhddbdhhdccdcdg.eee",
"ee###fe###ehhccbcchhhhhhhhhh.cee",
"eeee#fe#ceehhhhhhhhhhcddcdcg.cee",
"eeee#fe#ceehhcdddddhhhhhhhhh.cee",
"eeee#fe#ceehhhhhhhhhhbcdcdcg.cee",
"eeee#fe#ceehhdddcddhhhhhhhhh.cee",
"eeee#fe#ceehhhhhhhhhhcdcddhg.cee",
"eeee#fe#ceehhcdddcdhgahahaha.cee",
"eeee#fe#ceehhhhhhhhhh........cee",
"eeee#fe#ceehhdddcddhg.ccccccccee",
"eeee#fe#ceehhhhhhhhhh.ceeeeeeeee",
"eeee#fe#ceehhdddcddhg.ceeeeeeeee",
"eeee#fe#ceehhhhhhhhhh.ceeeeeeeee",
"eeee#fe#ceehhcdddddhg.ceeeeeeeee",
"eeee#fe#ceehhhhhhhhhh.ceeeeeeeee",
"eeee#fe#ceehhdddcddhg.ceeeeeeeee",
"eeee#fe#ceehhhhhhhhhh.ceeeeeeeee",
"eeee#fe#ceehhcdddcdhg.ceeeeeeeee",
"eeee#fe#ceehahahahaha.ceeeeeeeee",
"eeee#fe#ceebc.........ceeeeeeeee",
"eeee#fe#ceeeecccccccccceeeeeeeee",
"eeee####ceeeeeeeeeeeeeeeeeeeeeee",
"eeeeeeeeeeeeeeeeeeeeeeeeeeeeeeee",
"eeeeeeeeeeeeeeeeeeeeeeeeeeeeeeee",
"eeeeeeeeeeeeeeeeeeeeeeeeeeeeeeee",
"eeeeeeeeeeeeeeeeeeeeeeeeeeeeeeee"
};
