%!PS-Adobe-3.0
%%Title: initF3
%%Version: 001.000
%%CreationDate: Mon Apr 12 14:34:33 PDT 1993

mark
currentglobal    % save the current allocation mode to reset to later
true setglobal

/Generic /Category findresource
dup length 1 add dict copy
dup /InstanceType /dicttype put
/F3Charstring exch /Category defineresource pop

/Generic /Category findresource
dup length 1 add dict copy
dup /InstanceType /arraytype put
/F3CDevProc exch /Category defineresource pop

setglobal
cleartomark
