\relax 
\@writefile{toc}{\string\contentsline\space {section}{Education, Additional Training}{1}}
\@writefile{toc}{\string\contentsline\space {section}{Areas of Specialization}{1}}
\@writefile{toc}{\string\contentsline\space {section}{Experience Summary}{1}}
\@writefile{toc}{\string\contentsline\space {section}{Publications and Presentations}{2}}
\@writefile{toc}{\string\contentsline\space {section}{Present Position}{2}}
\@writefile{toc}{\string\contentsline\space {section}{Preceding Positions}{3}}
\@writefile{toc}{\string\contentsline\space {section}{References}{3}}
