#define Words_width 64
#define Words_height 54
static char Words_bits[] = {
   0x00, 0x00, 0x00, 0x00, 0x00, 0x00, 0x00, 0x00, 0x00, 0x00, 0x00, 0x00,
   0x00, 0x00, 0x00, 0x00, 0x00, 0x00, 0x00, 0x10, 0x00, 0x00, 0x00, 0x00,
   0x00, 0x00, 0x00, 0x28, 0x00, 0x00, 0x00, 0x00, 0x00, 0x00, 0x00, 0x44,
   0x00, 0x00, 0x00, 0x00, 0x00, 0x00, 0x00, 0x92, 0x00, 0x00, 0x00, 0x00,
   0x00, 0x00, 0x00, 0x09, 0x01, 0x00, 0x00, 0x00, 0x00, 0x00, 0x80, 0x24,
   0x02, 0x00, 0x00, 0x00, 0x00, 0x00, 0x40, 0x92, 0x04, 0x00, 0x00, 0x00,
   0x00, 0x00, 0x20, 0x08, 0x08, 0x00, 0x00, 0x00, 0x00, 0x00, 0x90, 0x24,
   0x11, 0x00, 0x00, 0x00, 0x00, 0x00, 0x48, 0x92, 0x24, 0x00, 0x00, 0x00,
   0x00, 0x00, 0x24, 0x48, 0x42, 0x00, 0x00, 0x00, 0x00, 0x00, 0x82, 0x04,
   0x88, 0x00, 0x00, 0x00, 0x00, 0x00, 0x49, 0x92, 0x24, 0x01, 0x00, 0x00,
   0x00, 0x80, 0x24, 0x49, 0x12, 0x02, 0x00, 0x00, 0x00, 0x40, 0x12, 0x20,
   0x49, 0x04, 0x00, 0x00, 0x00, 0x20, 0x49, 0x92, 0x24, 0x09, 0x00, 0x00,
   0x00, 0x10, 0x20, 0x01, 0x82, 0x10, 0x00, 0x00, 0x00, 0x48, 0x92, 0x24,
   0x49, 0x22, 0x00, 0x00, 0x00, 0x24, 0x09, 0x92, 0x24, 0x41, 0x00, 0x00,
   0x00, 0x12, 0x20, 0x49, 0x92, 0x84, 0x00, 0x00, 0x00, 0x41, 0x92, 0x24,
   0x08, 0x02, 0x01, 0x00, 0x80, 0x24, 0x09, 0x82, 0x20, 0x01, 0x02, 0x00,
   0x40, 0x12, 0x20, 0x48, 0x12, 0x00, 0x04, 0x00, 0x20, 0x49, 0x92, 0x04,
   0x49, 0x00, 0x08, 0x00, 0x40, 0x24, 0x49, 0x92, 0x24, 0x00, 0x10, 0x00,
   0x80, 0x90, 0x04, 0x09, 0x12, 0x00, 0x20, 0x00, 0x00, 0x49, 0x10, 0x20,
   0x09, 0x00, 0x40, 0x00, 0x00, 0x22, 0x49, 0x92, 0x00, 0x00, 0x80, 0x00,
   0x00, 0x84, 0x24, 0x09, 0x02, 0x00, 0x40, 0x00, 0x00, 0x48, 0x92, 0x24,
   0x01, 0x00, 0x20, 0x00, 0x00, 0x10, 0x49, 0x12, 0x00, 0x00, 0x10, 0x00,
   0x00, 0x20, 0x24, 0x49, 0xf0, 0x03, 0x08, 0x00, 0x00, 0x40, 0x92, 0x20,
   0x08, 0x04, 0x04, 0x00, 0x00, 0x80, 0x48, 0x12, 0x04, 0x08, 0x02, 0x00,
   0x00, 0x00, 0x21, 0x01, 0x32, 0x10, 0x01, 0x00, 0x00, 0x00, 0x92, 0x04,
   0x4e, 0xa0, 0x00, 0x00, 0x00, 0x00, 0x44, 0xf2, 0xfb, 0xc7, 0x03, 0x00,
   0x00, 0x00, 0x08, 0x09, 0x31, 0x80, 0x03, 0x00, 0x00, 0x00, 0x90, 0x04,
   0x02, 0x80, 0x03, 0x00, 0x00, 0x00, 0x20, 0x02, 0x04, 0x80, 0x03, 0x00,
   0x00, 0x00, 0x40, 0x00, 0x18, 0x80, 0x03, 0x00, 0x00, 0x00, 0x80, 0x00,
   0xe0, 0x9f, 0x03, 0x00, 0x00, 0x00, 0x00, 0x01, 0x00, 0xe1, 0x03, 0x00,
   0x00, 0x00, 0x00, 0x02, 0x80, 0x80, 0x03, 0x00, 0x00, 0x00, 0x00, 0x04,
   0x40, 0x00, 0x00, 0x00, 0x00, 0x00, 0x00, 0x08, 0x20, 0x00, 0x00, 0x00,
   0x00, 0x00, 0x00, 0x10, 0x10, 0x00, 0x00, 0x00, 0x00, 0x00, 0x00, 0x20,
   0x08, 0x00, 0x00, 0x00, 0x00, 0x00, 0x00, 0x40, 0x04, 0x00, 0x00, 0x00,
   0x00, 0x00, 0x00, 0x80, 0x02, 0x00, 0x00, 0x00, 0x00, 0x00, 0x00, 0x00,
   0x01, 0x00, 0x00, 0x00, 0x00, 0x00, 0x00, 0x00, 0x00, 0x00, 0x00, 0x00};
