/* XPM */
static char * cut[] = {
"33 33 4 1",
"X	c Gray75 s backgroundToolBarColor",
"o	c black",
"O	c Gray90",
"+	c white",
"XXXXXXXXXXXXXXXXXXXXXXXXXXXXXXXXX",
"XXXXXXXXXXXXXXXXXXXXXXXXXXXXXXXXX",
"XXXXXXXXXXXXXXXXXXXXXXXXXXXXXXXXX",
"XXXXXXXoooooXXXXXXXXXXXXXXXXXXXXX",
"XXXXXXooXXXooXXXXXXXXXXXXXXXXXXXX",
"XXXXXooXXXXXooXXXXXXXXXXoooXXXXXX",
"XXXXXoXXXXXXXoXXXXXXXXooOOooXXXXX",
"XXXXXooXXXXXoooXXXXXooOOooXXXXXXX",
"XXXXXXooXXXoooooXXXoooooXXXXXXXXX",
"XXXXXXXoooooXXXooooooXXXXXXXXXXXX",
"XXXXXXXXXXXXXXXXo+oXXXXXXXXXXXXXX",
"XXXXXXXoooooXXXooooooXXXXXXXXXXXX",
"XXXXXXooXXXoooooXXXoooooXXXXXXXXX",
"XXXXXooXXXXXoooXXXXXooOOooXXXXXXX",
"XXXXXoXXXXXXXoXXXXXXXXooOOooXXXXX",
"XXXXXooXXXXXooXXXXXXXXXXoooXXXXXX",
"XXXXXXooXXXooXXXXXXXXXXXXXXXXXXXX",
"XXXXXXXoooooXXXXXXXXXXXXXXXXXXXXX",
"XXXXXXXXXXXXXXXXXXXXXXXXXXXXXXXXX",
"XXXXXXXXXXXXXXXXXXXXXXXXXXXXXXXXX",
"XXXXXXXXXXXXXXXXXXXXXXXXXXXXXXXXX",
"XXXXXXXXXXXXXXXXXXXXXXXXXXXXXXXXX",
"XXXXXXXXXXXXXXXXXXXXXXXXXXXXXXXXX",
"XXXXXXXXXXXXXXXXXXXXXXXXXXXXXXXXX",
"XXXXXXXXXXXXXXXXXXXXXoXXXXXXXXXXX",
"XXXXXXXXXXXoooXXXXXXXoXXXXXXXXXXX",
"XXXXXXXXXXoXXXoXoXoXoooXXXXXXXXXX",
"XXXXXXXXXXoXXXXXoXoXXoXXXXXXXXXXX",
"XXXXXXXXXXoXXXXXoXoXXoXXXXXXXXXXX",
"XXXXXXXXXXoXXXoXoXoXXoXXXXXXXXXXX",
"XXXXXXXXXXXoooXXXooXXoXXXXXXXXXXX",
"XXXXXXXXXXXXXXXXXXXXXXXXXXXXXXXXX",
"XXXXXXXXXXXXXXXXXXXXXXXXXXXXXXXXX"};
