/* XPM */
static char * undo[] = {
"33 33 5 1",
"X	c Gray75 s backgroundToolBarColor",
"o	c black",
"O	c Gray60",
"+	c Gray90",
"@	c white",
"XXXXXXXXXXXXXXXXXXXXXXXXXXXXXXXXX",
"XXXXXXXXXXXXXXXXXXXXXXXXXXXXXXXXX",
"XXXXXXXXXXXXXXXXXXXXXXXXXXXXXXXXX",
"XXXXXXXXXXXXXXXXXXXXXooXXXXXXXXXX",
"XXXXXXXXXXXXXXXXXXXooOOooooXXXXXX",
"XXXXXXXXXXXXXXXXXooOOOOOOOOooXXXX",
"XXXXXXXXXXXXXXXooOOOOOOOOOooXXXXX",
"XXXXXXXXXXXXXoo++ooooOOOooOoXXXXX",
"XXXXXXXXXXXoo++++++++oooOOoXXXXXX",
"XXXXXXXXXoo+++++++++oooOOOoXXXXXX",
"XXXXXXXoo+++++++++oo++oOOoXXXXXXX",
"XXXXXXoo++++++++oo+++oOooXXXXXXXX",
"XXXXXo++oooo++oo+++++ooXXXXXXXXXX",
"XXXXXo++++++oo+++++ooXXXXXXXXXXXX",
"XXXXo+++++++o++++ooXXXXXXXXXXXXXX",
"XXXXo+++++++o++ooXXXXXXXXXXXXXXXX",
"XXXoo++++++o+ooXXXXXXXXXXXXXXXXXX",
"XXX@@oooo++ooXXXXXXXXXXXXXXXXXXXX",
"XXX@@@@@@ooXXXXXXXXXXXXXXXXXXXXXX",
"XXX@@@@@@XXXXXXXXXXXXXXXXXXXXXXXX",
"XXX@@@@XXXXXXXXXXXXXXXXXXXXXXXXXX",
"XXX@@@XXXXXXXXXXXXXXXXXXXXXXXXXXX",
"XXX@XXXXXXXXXXXXXXXXXXXXXXXXXXXXX",
"XXXXXXXXXXXXXXXXXXXXXXXXXXXXXXXXX",
"XXXXXXXXXXXXXXXXXXXXoXXXXXXXXXXXX",
"XXXXXXoXXXoXXXXXXXXXoXXXXXXXXXXXX",
"XXXXXXoXXXoXoooXXXoooXXooXXXXXXXX",
"XXXXXXoXXXoXoXXoXoXXoXoXXoXXXXXXX",
"XXXXXXoXXXoXoXXoXoXXoXoXXoXXXXXXX",
"XXXXXXoXXXoXoXXoXoXXoXoXXoXXXXXXX",
"XXXXXXXoooXXoXXoXXoooXXooXXXXXXXX",
"XXXXXXXXXXXXXXXXXXXXXXXXXXXXXXXXX",
"XXXXXXXXXXXXXXXXXXXXXXXXXXXXXXXXX"};
