;Motor Parameter File
; $Name:  $ $Id: mot_param.txt 14 2008-06-11 01:49:45Z hon $
;cc agent host IP number
000.000.000.000
;cc agent port number
52024
;Number of Motors
7
;# IS  TS  A   D   HC DC AN HS  FHS HD  BL  EN       Name
 1 40  80  10  10  0 15  A  80  40  1   10  Decker   Decker Wheel
 2 40  40  255 255 0 100 B  80  20  1   40  MOS      mos slit position
 3 40  80  10  10  0 15  C  80  40  0  -30  Grism    grism Wheel
 4 40  80  10  10  0 15  D  80  40  0  -10  Filter1  Filter Wheel 1
 5 40  80  10  10  0 15  E  80  40  1   20  Lyot     Lyot Wheel
 6 40  80  10  10  0 15  F  80  40  1   20  Filter2  Filter Wheel 2
 7 40  80  10  10  0 30  G  80  40  1   40  Focus    detector Focus 
;
;#  : Motor Number
;IS : Initial Speed
;TS : Terminal Speed
;A  : Acceleration
;D  : Deceleration
;HC : Hold Current
;DC : Drive Current
;AN : Axis Name (one character)
;HS : Homing Speed
;FHS: Final Homing Speed
;HD : Homing Direction 
;BL : Back-Lash correction param.
;EN : Epics Name
;Name : Motor name
;
; NOTE: There can be any number of comments between the above params
;       and the following positions,
;       but a line with keyword positions (in capitals)
;	must appear once (and only once in file) just before first ;Mot_# line.
;
;POSITIONS:
;Mot_#   #_Positions for Decker Wheel
1  3 Decker
;# Offset  Throughput  LambdaLo LambdaHi  Name (Comment)
 1 268     1.00         2.0     28.0      imaging
 2 556     1.00         2.0     28.0      long_slit
 3 841     1.00         2.0     28.0      mos
;Mot_#   #_Positions for Mos Slit
2  20 MOS
;# Offset  Throughput  LambdaLo LambdaHi  Name (Comment)
 1 0       0.50         2.0     28.0      imaging
 2 1289    0.97         0.5     18.3      circle1
 3 1289    0.97         0.5     18.3      circle2
 4 1289    0.97         0.5     18.3      1pix-slit
 5 1289    0.97         0.5     18.3      2pix-slit
 6 1289    0.97         0.5     18.3      3pix-slit
 7 1289    0.97         0.5     18.3      4pix-slit
 8 1289    0.97         0.5     18.3      5pix-slit
 9 1289    0.97         0.5     18.3      6pix-slit
10 1289    0.97         0.5     18.3      7pix-slit
11 1289    0.97         0.5     18.3      8pix-slit
12 2578    0.95         0.2     27.5      mos1
13 2578    0.95         0.2     27.5      mos2
14 2578    0.95         0.2     27.5      mos3
15 2578    0.95         0.2     27.5      mos4
16 2578    0.95         0.2     27.5      mos5
17 2578    0.95         0.2     27.5      mos6
18 2578    0.95         0.2     27.5      mos7
19 2578    0.95         0.2     27.5      mos8
20 2578    0.95         0.2     27.5      mos9
;Mot_#   #_Positions for grism Wheel
3  5 Grism
;# Offset  Throughput  LambdaLo LambdaHi  Name (Comment)
 1 21      1.00         2.0     28.0      open
 2 167     1.00         2.0     28.0      JH
 3 313     1.00         2.0     28.0      HK
 4 460     0.97         0.5     18.3      JHK
 5 607     1.00         2.0     28.0      TBD1
;Mot_#   #_Positions for Filter Wheel 1
4  9 Filter1
;# Offset  Throughput  LambdaLo LambdaHi  Name (Comment)
 1 -72     1.00         2.0     28.0      open
 2 15      0.71        17.60    25.38     dark
 3 102     0.95         7.39     8.08     J-lo
 4 189     0.77         8.39     8.81     J
 5 276     0.95         8.35     9.13     H
 6 363     1.00         2.0     28.0      Ks
 7 451     0.92         9.22    10.15     JH
 8 538     0.83        11.00    11.60     HK
 9 625     0.97         9.87    10.89     TBD1
;Mot_#   #_Positions for Lyot Wheel
5  5 Lyot
;# Offset  Throughput  LambdaLo LambdaHi  Name (Comment)
 1 809     1.00         2.0     28.0      f/16
 2 896     1.00         2.0     28.0      MCAO_over
 3 982     1.00         2.0     28.0      MCAO_under
 4 1069    0.97         2.0     28.0      H1
 5 1156    1.00         2.0     28.0      H2
;Mot_#   #_Positions for Filter Wheel 2
6  14 Filter2
;# Offset  Throughput  LambdaLo LambdaHi  Name (Comment)
 1 530     1.00         2.0     28.0      open
 2 1574    0.85         1.98     2.39     K
 3 1487    0.97         3.56     4.14     L
 4 1400    0.94         4.39     4.97     M
 5 1313    0.59        12.71    12.91     NeII-12.8um
 6 1226    0.63        13.00    13.20     NeII_ref2-13.1um
 7 1139    0.68        10.44    10.60     SIV-10.5um
 8 1052    0.64        17.61    19.11     Qa-18.3um
 9 965     0.65        17.20    18.16     Qone-17.8um
10 878     0.64        23.59    25.55     Qb-24.5um
11 791     0.85         7.74    13.03     N
12 704     1.00         2.0     28.0      Block
13 617     1.00         2.0     28.0      Align-Spot
14  0      1.00         2.0     28.0      Datum
;Mot_#   #_Positions detector focus Wheel
7  2 Focus
;# Offset  Throughput  LambdaLo LambdaHi  Name (Comment)
 1 35      1.00         2.0     28.0      f/16
 2 249     0.97         0.5     18.3      MCAO
