[symbol2]
bbox 32 32 480 320
uniq 300
[tools]
[attributes]
p 52 12 100 0 1 setEng:eng $(top)eng:
[layers]
<symbol>
l 100 0 0 196 171 flamEngTop
r 0 32 32 480 320
[comments]
RCS: $Name:  $ $Id: flamEngTop.sym,v 0.0 2007/02/02 21:09:44 aaguayo Developmental $
