[symbol2]
bbox 32 32 320 288
uniq 27
[tools]
[attributes]
[layers]
<symbol>
l 100 0 0 74 155 flamSadFits
r 0 32 32 320 288
[comments]
RCS: $Name:  $ $Id: flamSadFits.sym,v 0.0 2007/02/02 21:09:44 aaguayo Developmental $
