[schematic2]
uniq 82
[tools]
[detail]
w 2436 731 100 2 n#74 esirs.esirs#71.SIML 2432 736 2432 736 esirs.esirs#65.OMSS
w 2436 763 100 2 n#73 esirs.esirs#71.IMSS 2432 768 2432 768 esirs.esirs#65.VAL
w 2436 795 100 2 n#72 esirs.esirs#71.INP 2432 800 2432 800 esirs.esirs#65.FLNK
w 2436 1083 100 2 n#70 esirs.esirs#67.SIML 2432 1088 2432 1088 esirs.esirs#66.OMSS
w 2436 1115 100 2 n#69 esirs.esirs#67.IMSS 2432 1120 2432 1120 esirs.esirs#66.VAL
w 2436 1147 100 2 n#68 esirs.esirs#67.INP 2432 1152 2432 1152 esirs.esirs#66.FLNK
s 2624 2064 100 1792 2001/01/25
s 2480 2064 100 1792 NWR
s 2240 2064 100 1792 Initial Layout
s 2016 2064 100 1792 A
s 2528 -240 100 1792 flamSadEcConfigure.sch
s 2096 -272 100 1792 Author: NWR
s 2096 -240 100 1792 2001/01/25
s 2320 -240 100 1792 Rev: A
s 2432 -192 100 256 Flamingos EC Configure
s 2096 -176 200 1792 FLAMINGOS
s 2240 -128 100 0 FLAMINGOS
[cell use]
use esirs 2016 1655 100 0 esirs#81
xform 0 2224 1808
p 1952 1360 100 0 0 FTVL:DOUBLE
p 2208 1584 100 0 0 PREC:2
p 2080 1616 100 0 1 SCAN:Passive
p 2176 1648 100 1024 -1 name:$(top)LVDTVLTS
use esirs 2016 1223 100 0 esirs#80
xform 0 2224 1376
p 1952 928 100 0 0 FTVL:DOUBLE
p 2208 1152 100 0 0 PREC:2
p 2080 1184 100 0 1 SCAN:Passive
p 2176 1216 100 1024 -1 name:$(top)LVDTDISP
use esirs 384 1671 100 0 esirs#48
xform 0 592 1824
p 448 1632 100 0 1 SCAN:Passive
p 544 1664 100 1024 -1 name:$(top)MOSKELV
use esirs 368 1255 100 0 esirs#51
xform 0 576 1408
p 432 1216 100 0 1 SCAN:Passive
p 576 1536 100 1024 -1 name:$(top)CAMKELV
use esirs 1536 1671 100 0 esirs#52
xform 0 1744 1824
p 1472 1376 100 0 0 FTVL:DOUBLE
p 1728 1600 100 0 0 PREC:2
p 1600 1632 100 0 1 SCAN:Passive
p 1696 1664 100 1024 -1 name:$(top)CAMVAC
use esirs 1536 1239 100 0 esirs#53
xform 0 1744 1392
p 1472 944 100 0 0 FTVL:DOUBLE
p 1728 1168 100 0 0 PREC:2
p 1600 1200 100 0 1 SCAN:Passive
p 1696 1232 100 1024 -1 name:$(top)MOSVAC
use esirs 368 903 100 0 esirs#54
xform 0 576 1056
p 304 608 100 0 0 FTVL:DOUBLE
p 560 832 100 0 0 PREC:2
p 432 864 100 0 1 SCAN:Passive
p 528 896 100 1024 -1 name:$(top)CAMCOLD1
use esirs 368 551 100 0 esirs#55
xform 0 576 704
p 304 256 100 0 0 FTVL:DOUBLE
p 560 480 100 0 0 PREC:4
p 432 512 100 0 1 SCAN:Passive
p 528 544 100 1024 -1 name:$(top)CAMBENC1
use esirs 368 199 100 0 esirs#56
xform 0 576 352
p 304 -96 100 0 0 FTVL:DOUBLE
p 560 128 100 0 0 PREC:2
p 432 160 100 0 1 SCAN:Passive
p 528 192 100 1024 -1 name:$(top)MOSCOLD1
use esirs 960 199 100 0 esirs#58
xform 0 1168 352
p 896 -96 100 0 0 FTVL:DOUBLE
p 1152 128 100 0 0 PREC:2
p 1024 160 100 0 1 SCAN:Passive
p 1120 192 100 1024 -1 name:$(top)MOSBENC2
use esirs 960 551 100 0 esirs#59
xform 0 1168 704
p 896 256 100 0 0 FTVL:DOUBLE
p 1152 480 100 0 0 PREC:4
p 1024 512 100 0 1 SCAN:Passive
p 1120 544 100 1024 -1 name:$(top)CAMBENC2
use esirs 960 903 100 0 esirs#60
xform 0 1168 1056
p 896 608 100 0 0 FTVL:DOUBLE
p 1152 832 100 0 0 PREC:2
p 1024 864 100 0 1 SCAN:Passive
p 1120 896 100 1024 -1 name:$(top)CAMCOLD2
use esirs 1536 903 100 0 esirs#61
xform 0 1744 1056
p 1472 608 100 0 0 FTVL:DOUBLE
p 1728 832 100 0 0 PREC:2
p 1600 864 100 0 1 SCAN:Passive
p 1696 896 100 1024 -1 name:$(top)CAMCOLD3
use esirs 1536 551 100 0 esirs#62
xform 0 1744 704
p 1472 256 100 0 0 FTVL:DOUBLE
p 1728 480 100 0 0 PREC:4
p 1600 512 100 0 1 SCAN:Passive
p 1696 544 100 1024 -1 name:$(top)CAMBENC3
use esirs 1536 199 100 0 esirs#63
xform 0 1744 352
p 1472 -96 100 0 0 FTVL:DOUBLE
p 1728 128 100 0 0 PREC:2
p 1600 160 100 0 1 SCAN:Passive
p 1696 192 100 1024 -1 name:$(top)MOSBENC3
use esirs 2016 199 100 0 esirs#64
xform 0 2224 352
p 1952 -96 100 0 0 FTVL:DOUBLE
p 2208 128 100 0 0 PREC:2
p 2080 160 100 0 1 SCAN:Passive
p 2176 192 100 1024 -1 name:$(top)MOSBENC4
use esirs 2016 551 100 0 esirs#65
xform 0 2224 704
p 1952 256 100 0 0 FTVL:DOUBLE
p 2208 480 100 0 0 PREC:4
p 2080 512 100 0 1 SCAN:Passive
p 2176 544 100 1024 -1 name:$(top)CAMBENC4
use esirs 2016 903 100 0 esirs#66
xform 0 2224 1056
p 1952 608 100 0 0 FTVL:DOUBLE
p 2208 832 100 0 0 PREC:2
p 2080 864 100 0 1 SCAN:Passive
p 2176 896 100 1024 -1 name:$(top)CAMCOLD4
use esirs 2432 903 100 0 esirs#67
xform 0 2640 1056
p 2368 608 100 0 0 FTVL:DOUBLE
p 2624 832 100 0 0 PREC:2
p 2496 864 100 0 1 SCAN:Passive
p 2592 896 100 1024 -1 name:$(top)CAMCOLD5
use esirs 2432 551 100 0 esirs#71
xform 0 2640 704
p 2368 256 100 0 0 FTVL:DOUBLE
p 2624 480 100 0 0 PREC:4
p 2496 512 100 0 1 SCAN:Passive
p 2592 544 100 1024 -1 name:$(top)CAMBENC5
use esirs 2912 551 100 0 esirs#75
xform 0 3120 704
p 2848 256 100 0 0 FTVL:DOUBLE
p 3104 480 100 0 0 PREC:4
p 2976 512 100 0 1 SCAN:Passive
p 3072 544 100 1024 -1 name:$(top)CAMBENC6
use esirs 3392 551 100 0 esirs#76
xform 0 3600 704
p 3328 256 100 0 0 FTVL:DOUBLE
p 3584 480 100 0 0 PREC:4
p 3456 512 100 0 1 SCAN:Passive
p 3552 544 100 1024 -1 name:$(top)CAMBENC7
use esirs 3840 551 100 0 esirs#77
xform 0 4048 704
p 3776 256 100 0 0 FTVL:DOUBLE
p 4032 480 100 0 0 PREC:4
p 3904 512 100 0 1 SCAN:Passive
p 4000 544 100 1024 -1 name:$(top)CAMBENC8
use esirs 960 1255 100 0 esirs#78
xform 0 1168 1408
p 896 960 100 0 0 FTVL:DOUBLE
p 1152 1184 100 0 0 PREC:2
p 1024 1216 100 0 1 SCAN:Passive
p 1120 1248 100 1024 -1 name:$(top)CAMDETCB
use esirs 960 1687 100 0 esirs#79
xform 0 1168 1840
p 896 1392 100 0 0 FTVL:DOUBLE
p 1152 1616 100 0 0 PREC:2
p 1024 1648 100 0 1 SCAN:Passive
p 1120 1680 100 1024 -1 name:$(top)CAMBENCA
use changeBar 1984 2023 100 0 changeBar#46
xform 0 2336 2064
use bc200 -576 -408 -100 0 frame
xform 0 1104 896
use rb200abc 1984 -313 100 0 rb200abc#0
xform 0 2336 -192
[comments]
RCS: $Name:  $ $Id: flamSadEcConfig.sch,v 0.0 2007/02/02 21:09:44 aaguayo Developmental $
