[schematic2]
uniq 4
[tools]
[detail]
w -306 91 100 0 n#2 hwin.hwin#3.in -368 80 -208 80 esirs.esirs#0.INP
[cell use]
use hwin -560 39 100 0 hwin#3
xform 0 -464 80
p -557 72 100 0 -1 val(in):0
use esirs -208 -169 100 0 esirs#0
xform 0 0 -16
p -96 -176 100 1024 1 name:$(top)generic1
[comments]
