mean position   :  16:36:13.86,  66:15:00.0, (2000.0)
appar position  :  16:36:14.74,  66:15:00.8
ha/dec          :   2:23:20.34,  66:15:00.8
az/alt          :  338:39:58.1,  49:36:00.9
ha/dec rates    :    15.041069,    0.000000
utime/stime     :      3:49:20,    18:59:35
airmass/zen.dist:        1.312,     40.3997
parallactic     :        130.0
limiting airmass:        2.150
rising/setting  :     19:27:22,     7:25:25 (servo limits) 
time remaining  :      3:36:04

