STARTFONT 2.1
COMMENT  (c) Copyright Bigelow & Holmes 1986, 1985. Lucida is a registered
COMMENT  trademark of Bigelow & Holmes. See LEGAL NOTICE file for terms 
COMMENT  of the license. 
COMMENT GRID 0014 0014 0200 0200
FONT -B&H-Lucida-Bold-I-Normal-Sans-14-140-75-75-P-92-ISO8859-1
SIZE 14 72 72
FONTBOUNDINGBOX 18 15 -1 -2
STARTPROPERTIES 19
COMMENT Begin LogicalFontDescription
FONTNAME_REGISTRY ""
FOUNDRY "B&H"
FAMILY_NAME "Lucida"
WEIGHT_NAME "Bold"
SLANT "I"
SETWIDTH_NAME "Normal"
ADD_STYLE_NAME "Sans"
PIXEL_SIZE 14
POINT_SIZE 140
RESOLUTION_X 75
RESOLUTION_Y 75
SPACING "P"
AVERAGE_WIDTH 92
CHARSET_REGISTRY "ISO8859"
CHARSET_ENCODING "1"
COMMENT END LogicalFontDescription
FONT_ASCENT 13
FONT_DESCENT 2
DEFAULT_CHAR 32
COPYRIGHT "Copyright Bigelow & Holmes 1986, 1985."
ENDPROPERTIES
CHARS 228
STARTCHAR space
ENCODING 32
SWIDTH 42 0
DWIDTH 4 0
BBX 1 1 0 0
BITMAP
00
ENDCHAR
STARTCHAR exclam
ENCODING 33
SWIDTH 42 0
DWIDTH 4 0
BBX 4 10 0 0
BITMAP
30
30
30
60
60
60
40
00
C0
C0
ENDCHAR
STARTCHAR quotedbl
ENCODING 34
SWIDTH 42 0
DWIDTH 8 0
BBX 6 4 2 7
BITMAP
6C
6C
D8
D8
ENDCHAR
STARTCHAR numbersign
ENCODING 35
SWIDTH 42 0
DWIDTH 10 0
BBX 9 10 1 0
BITMAP
1B00
1B00
1B00
7F80
3600
3600
FF00
6C00
6C00
6C00
ENDCHAR
STARTCHAR dollar
ENCODING 36
SWIDTH 42 0
DWIDTH 10 0
BBX 8 12 1 -1
BITMAP
08
3E
6B
68
70
38
1C
0E
16
D6
7C
10
ENDCHAR
STARTCHAR percent
ENCODING 37
SWIDTH 42 0
DWIDTH 12 0
BBX 10 10 1 0
BITMAP
30C0
D980
DB00
6200
0400
0800
1180
36C0
66C0
C300
ENDCHAR
STARTCHAR ampersand
ENCODING 38
SWIDTH 42 0
DWIDTH 11 0
BBX 9 10 1 0
BITMAP
1E00
3300
3300
1600
3800
5980
CD80
CD00
E600
7B00
ENDCHAR
STARTCHAR quoteright
ENCODING 39
SWIDTH 42 0
DWIDTH 4 0
BBX 3 4 1 7
BITMAP
60
60
40
80
ENDCHAR
STARTCHAR parenleft
ENCODING 40
SWIDTH 42 0
DWIDTH 6 0
BBX 5 12 1 -1
BITMAP
18
30
60
60
C0
C0
C0
C0
C0
C0
60
30
ENDCHAR
STARTCHAR parenright
ENCODING 41
SWIDTH 42 0
DWIDTH 6 0
BBX 5 12 0 -1
BITMAP
60
30
18
18
18
18
18
18
30
30
60
C0
ENDCHAR
STARTCHAR asterisk
ENCODING 42
SWIDTH 42 0
DWIDTH 7 0
BBX 6 6 1 4
BITMAP
10
54
38
70
A8
20
ENDCHAR
STARTCHAR plus
ENCODING 43
SWIDTH 42 0
DWIDTH 10 0
BBX 7 7 1 1
BITMAP
08
08
10
FE
10
20
20
ENDCHAR
STARTCHAR comma
ENCODING 44
SWIDTH 42 0
DWIDTH 4 0
BBX 3 4 0 -2
BITMAP
60
60
40
80
ENDCHAR
STARTCHAR minus
ENCODING 45
SWIDTH 42 0
DWIDTH 9 0
BBX 7 1 1 4
BITMAP
FE
ENDCHAR
STARTCHAR period
ENCODING 46
SWIDTH 42 0
DWIDTH 4 0
BBX 2 2 1 0
BITMAP
C0
C0
ENDCHAR
STARTCHAR slash
ENCODING 47
SWIDTH 42 0
DWIDTH 9 0
BBX 9 12 0 -1
BITMAP
0180
0300
0300
0600
0C00
0C00
1800
1800
3000
6000
6000
C000
ENDCHAR
STARTCHAR zero
ENCODING 48
SWIDTH 42 0
DWIDTH 10 0
BBX 8 10 1 0
BITMAP
1E
33
63
63
63
C6
C6
C6
CC
78
ENDCHAR
STARTCHAR one
ENCODING 49
SWIDTH 42 0
DWIDTH 10 0
BBX 4 10 3 0
BITMAP
30
F0
30
30
30
60
60
60
60
60
ENDCHAR
STARTCHAR two
ENCODING 50
SWIDTH 42 0
DWIDTH 10 0
BBX 8 10 1 0
BITMAP
3E
43
03
03
06
1C
30
C0
FE
FE
ENDCHAR
STARTCHAR three
ENCODING 51
SWIDTH 42 0
DWIDTH 10 0
BBX 8 10 1 0
BITMAP
3E
43
03
06
3C
06
06
06
8C
78
ENDCHAR
STARTCHAR four
ENCODING 52
SWIDTH 42 0
DWIDTH 10 0
BBX 8 10 1 0
BITMAP
0E
16
26
46
86
8C
FF
0C
0C
0C
ENDCHAR
STARTCHAR five
ENCODING 53
SWIDTH 42 0
DWIDTH 10 0
BBX 8 10 1 0
BITMAP
3F
3F
20
40
7C
0E
06
06
8C
78
ENDCHAR
STARTCHAR six
ENCODING 54
SWIDTH 42 0
DWIDTH 10 0
BBX 8 10 1 0
BITMAP
1E
33
60
60
7C
C6
C6
C6
CC
78
ENDCHAR
STARTCHAR seven
ENCODING 55
SWIDTH 42 0
DWIDTH 10 0
BBX 8 10 1 0
BITMAP
7F
7F
03
06
0C
18
30
60
C0
C0
ENDCHAR
STARTCHAR eight
ENCODING 56
SWIDTH 42 0
DWIDTH 10 0
BBX 8 10 1 0
BITMAP
3E
63
63
73
3A
5C
CE
C6
C6
7C
ENDCHAR
STARTCHAR nine
ENCODING 57
SWIDTH 42 0
DWIDTH 10 0
BBX 8 10 1 0
BITMAP
1E
33
63
63
63
3E
06
06
CC
78
ENDCHAR
STARTCHAR colon
ENCODING 58
SWIDTH 42 0
DWIDTH 4 0
BBX 3 7 0 0
BITMAP
60
60
00
00
00
C0
C0
ENDCHAR
STARTCHAR semicolon
ENCODING 59
SWIDTH 42 0
DWIDTH 4 0
BBX 4 9 -1 -2
BITMAP
30
30
00
00
00
60
60
40
80
ENDCHAR
STARTCHAR less
ENCODING 60
SWIDTH 42 0
DWIDTH 10 0
BBX 7 7 1 1
BITMAP
06
1C
70
C0
60
30
18
ENDCHAR
STARTCHAR equal
ENCODING 61
SWIDTH 42 0
DWIDTH 10 0
BBX 7 3 1 3
BITMAP
7E
00
FC
ENDCHAR
STARTCHAR greater
ENCODING 62
SWIDTH 42 0
DWIDTH 10 0
BBX 7 7 1 1
BITMAP
30
18
0C
06
1C
70
C0
ENDCHAR
STARTCHAR question
ENCODING 63
SWIDTH 42 0
DWIDTH 8 0
BBX 6 10 1 0
BITMAP
78
CC
0C
1C
38
60
40
00
C0
C0
ENDCHAR
STARTCHAR at
ENCODING 64
SWIDTH 42 0
DWIDTH 13 0
BBX 10 10 1 0
BITMAP
0F00
3080
40C0
47C0
8CC0
9980
9980
8EC0
4000
3F00
ENDCHAR
STARTCHAR A
ENCODING 65
SWIDTH 42 0
DWIDTH 11 0
BBX 9 10 0 0
BITMAP
0180
0380
0780
0D80
1980
3180
3F80
6180
C180
C180
ENDCHAR
STARTCHAR B
ENCODING 66
SWIDTH 42 0
DWIDTH 10 0
BBX 9 10 1 0
BITMAP
7F00
6180
6180
6300
7E00
C300
C300
C300
C600
FC00
ENDCHAR
STARTCHAR C
ENCODING 67
SWIDTH 42 0
DWIDTH 11 0
BBX 10 10 1 0
BITMAP
0F80
30C0
6000
6000
C000
C000
C000
C000
E300
7E00
ENDCHAR
STARTCHAR D
ENCODING 68
SWIDTH 42 0
DWIDTH 12 0
BBX 10 10 1 0
BITMAP
7F80
61C0
60C0
60C0
60C0
C0C0
C180
C180
C300
FE00
ENDCHAR
STARTCHAR E
ENCODING 69
SWIDTH 42 0
DWIDTH 9 0
BBX 8 10 1 0
BITMAP
7F
60
60
60
7E
C0
C0
C0
C0
FE
ENDCHAR
STARTCHAR F
ENCODING 70
SWIDTH 42 0
DWIDTH 9 0
BBX 8 10 1 0
BITMAP
7F
60
60
60
7E
C0
C0
C0
C0
C0
ENDCHAR
STARTCHAR G
ENCODING 71
SWIDTH 42 0
DWIDTH 11 0
BBX 10 10 1 0
BITMAP
0F80
30C0
6000
6000
C000
C000
C180
C180
E300
7F00
ENDCHAR
STARTCHAR H
ENCODING 72
SWIDTH 42 0
DWIDTH 12 0
BBX 10 10 1 0
BITMAP
60C0
60C0
60C0
60C0
7FC0
C180
C180
C180
C180
C180
ENDCHAR
STARTCHAR I
ENCODING 73
SWIDTH 42 0
DWIDTH 5 0
BBX 3 10 1 0
BITMAP
60
60
60
60
60
C0
C0
C0
C0
C0
ENDCHAR
STARTCHAR J
ENCODING 74
SWIDTH 42 0
DWIDTH 7 0
BBX 6 12 0 -2
BITMAP
0C
0C
0C
0C
0C
18
18
18
18
18
30
E0
ENDCHAR
STARTCHAR K
ENCODING 75
SWIDTH 42 0
DWIDTH 11 0
BBX 9 10 1 0
BITMAP
6180
6300
6600
6C00
7800
D800
CC00
C600
C300
C180
ENDCHAR
STARTCHAR L
ENCODING 76
SWIDTH 42 0
DWIDTH 9 0
BBX 7 10 1 0
BITMAP
60
60
60
60
60
C0
C0
C0
C0
FE
ENDCHAR
STARTCHAR M
ENCODING 77
SWIDTH 42 0
DWIDTH 14 0
BBX 12 10 1 0
BITMAP
78F0
58B0
58B0
5930
4D30
8E60
8E60
8C60
8C60
8060
ENDCHAR
STARTCHAR N
ENCODING 78
SWIDTH 42 0
DWIDTH 11 0
BBX 9 10 1 0
BITMAP
7080
7080
5880
5880
5880
8D00
8D00
8D00
8700
8700
ENDCHAR
STARTCHAR O
ENCODING 79
SWIDTH 42 0
DWIDTH 12 0
BBX 10 10 1 0
BITMAP
0F80
31C0
60C0
60C0
C0C0
C0C0
C180
C180
E300
7C00
ENDCHAR
STARTCHAR P
ENCODING 80
SWIDTH 42 0
DWIDTH 9 0
BBX 8 10 1 0
BITMAP
7E
63
63
63
62
FC
C0
C0
C0
C0
ENDCHAR
STARTCHAR Q
ENCODING 81
SWIDTH 42 0
DWIDTH 12 0
BBX 10 12 1 -2
BITMAP
0F80
31C0
60C0
60C0
C0C0
C0C0
C180
C180
E300
7C00
0600
0300
ENDCHAR
STARTCHAR R
ENCODING 82
SWIDTH 42 0
DWIDTH 10 0
BBX 9 10 1 0
BITMAP
7E00
6300
6300
6300
6600
FC00
C600
C600
C300
C380
ENDCHAR
STARTCHAR S
ENCODING 83
SWIDTH 42 0
DWIDTH 10 0
BBX 8 10 1 0
BITMAP
3E
63
60
70
38
1C
0E
06
C6
7C
ENDCHAR
STARTCHAR T
ENCODING 84
SWIDTH 42 0
DWIDTH 10 0
BBX 9 10 1 0
BITMAP
FF80
1800
1800
1800
1800
3000
3000
3000
3000
3000
ENDCHAR
STARTCHAR U
ENCODING 85
SWIDTH 42 0
DWIDTH 11 0
BBX 9 10 1 0
BITMAP
6180
6180
6180
6180
C300
C300
C300
C300
6600
3C00
ENDCHAR
STARTCHAR V
ENCODING 86
SWIDTH 42 0
DWIDTH 11 0
BBX 9 10 2 0
BITMAP
C180
C180
C300
C300
C600
CC00
D800
F000
E000
C000
ENDCHAR
STARTCHAR W
ENCODING 87
SWIDTH 42 0
DWIDTH 15 0
BBX 13 10 2 0
BITMAP
C018
C618
C630
C630
CE60
CE60
D6C0
D680
E700
C600
ENDCHAR
STARTCHAR X
ENCODING 88
SWIDTH 42 0
DWIDTH 10 0
BBX 10 10 0 0
BITMAP
30C0
30C0
1980
1B00
0C00
0C00
3600
6600
C300
C300
ENDCHAR
STARTCHAR Y
ENCODING 89
SWIDTH 42 0
DWIDTH 10 0
BBX 8 10 2 0
BITMAP
C3
C3
C6
CC
D0
60
60
60
60
60
ENDCHAR
STARTCHAR Z
ENCODING 90
SWIDTH 42 0
DWIDTH 9 0
BBX 9 10 0 0
BITMAP
3F80
0380
0700
0E00
0C00
1800
3800
7000
E000
FE00
ENDCHAR
STARTCHAR bracketleft
ENCODING 91
SWIDTH 42 0
DWIDTH 6 0
BBX 6 12 0 -1
BITMAP
3C
30
30
30
60
60
60
60
C0
C0
C0
F0
ENDCHAR
STARTCHAR backslash
ENCODING 92
SWIDTH 42 0
DWIDTH 8 0
BBX 4 12 2 -1
BITMAP
C0
C0
C0
C0
60
60
60
60
30
30
30
30
ENDCHAR
STARTCHAR bracketright
ENCODING 93
SWIDTH 42 0
DWIDTH 6 0
BBX 6 12 0 -1
BITMAP
3C
0C
0C
0C
18
18
18
18
30
30
30
F0
ENDCHAR
STARTCHAR asciicircum
ENCODING 94
SWIDTH 42 0
DWIDTH 10 0
BBX 6 7 2 3
BITMAP
0C
1C
34
24
64
C4
84
ENDCHAR
STARTCHAR underscore
ENCODING 95
SWIDTH 42 0
DWIDTH 11 0
BBX 9 1 1 -1
BITMAP
FF80
ENDCHAR
STARTCHAR quoteleft
ENCODING 96
SWIDTH 42 0
DWIDTH 4 0
BBX 3 4 1 7
BITMAP
20
40
C0
C0
ENDCHAR
STARTCHAR a
ENCODING 97
SWIDTH 42 0
DWIDTH 10 0
BBX 8 8 1 0
BITMAP
1F
63
63
C3
C6
CE
D6
66
ENDCHAR
STARTCHAR b
ENCODING 98
SWIDTH 42 0
DWIDTH 10 0
BBX 8 11 1 0
BITMAP
30
30
30
66
6B
73
63
C3
C6
C6
F8
ENDCHAR
STARTCHAR c
ENCODING 99
SWIDTH 42 0
DWIDTH 8 0
BBX 7 8 1 0
BITMAP
1E
60
60
C0
C0
C0
C4
78
ENDCHAR
STARTCHAR d
ENCODING 100
SWIDTH 42 0
DWIDTH 10 0
BBX 9 11 1 0
BITMAP
0180
0180
0180
1F00
6300
6300
C300
C600
CE00
D600
6600
ENDCHAR
STARTCHAR e
ENCODING 101
SWIDTH 42 0
DWIDTH 9 0
BBX 7 8 1 0
BITMAP
1C
66
46
CC
F0
C0
C4
78
ENDCHAR
STARTCHAR f
ENCODING 102
SWIDTH 42 0
DWIDTH 7 0
BBX 7 13 1 -2
BITMAP
1E
30
30
FC
60
60
60
60
60
C0
C0
C0
C0
ENDCHAR
STARTCHAR g
ENCODING 103
SWIDTH 42 0
DWIDTH 10 0
BBX 9 10 0 -2
BITMAP
0F80
3180
3180
6180
6300
6700
3B00
0300
C600
7C00
ENDCHAR
STARTCHAR h
ENCODING 104
SWIDTH 42 0
DWIDTH 10 0
BBX 8 11 1 0
BITMAP
30
30
30
6E
73
63
63
C6
C6
C6
C6
ENDCHAR
STARTCHAR i
ENCODING 105
SWIDTH 42 0
DWIDTH 5 0
BBX 4 11 1 0
BITMAP
30
60
00
60
60
60
60
C0
C0
C0
C0
ENDCHAR
STARTCHAR j
ENCODING 106
SWIDTH 42 0
DWIDTH 5 0
BBX 6 13 -1 -2
BITMAP
0C
18
00
18
18
18
18
30
30
30
30
30
E0
ENDCHAR
STARTCHAR k
ENCODING 107
SWIDTH 42 0
DWIDTH 10 0
BBX 8 11 1 0
BITMAP
30
30
30
63
66
6C
70
D8
CC
C6
C3
ENDCHAR
STARTCHAR l
ENCODING 108
SWIDTH 42 0
DWIDTH 5 0
BBX 4 11 1 0
BITMAP
30
30
30
60
60
60
60
C0
C0
C0
C0
ENDCHAR
STARTCHAR m
ENCODING 109
SWIDTH 42 0
DWIDTH 15 0
BBX 13 8 1 0
BITMAP
6E70
7398
6318
6318
C630
C630
C630
C630
ENDCHAR
STARTCHAR n
ENCODING 110
SWIDTH 42 0
DWIDTH 10 0
BBX 8 8 1 0
BITMAP
6E
73
63
63
C6
C6
C6
C6
ENDCHAR
STARTCHAR o
ENCODING 111
SWIDTH 42 0
DWIDTH 10 0
BBX 8 8 1 0
BITMAP
1E
63
63
C3
C3
C6
C6
78
ENDCHAR
STARTCHAR p
ENCODING 112
SWIDTH 42 0
DWIDTH 10 0
BBX 9 10 0 -2
BITMAP
3700
3980
3180
3180
6180
6300
6300
7C00
C000
C000
ENDCHAR
STARTCHAR q
ENCODING 113
SWIDTH 42 0
DWIDTH 10 0
BBX 8 10 1 -2
BITMAP
3F
63
63
C3
C6
CE
D6
66
0C
0C
ENDCHAR
STARTCHAR r
ENCODING 114
SWIDTH 42 0
DWIDTH 7 0
BBX 6 8 1 0
BITMAP
6C
6C
70
60
C0
C0
C0
C0
ENDCHAR
STARTCHAR s
ENCODING 115
SWIDTH 42 0
DWIDTH 8 0
BBX 6 8 1 0
BITMAP
3C
60
60
70
38
18
18
F0
ENDCHAR
STARTCHAR t
ENCODING 116
SWIDTH 42 0
DWIDTH 6 0
BBX 6 10 1 0
BITMAP
10
30
FC
60
60
60
C0
C0
C0
70
ENDCHAR
STARTCHAR u
ENCODING 117
SWIDTH 42 0
DWIDTH 10 0
BBX 8 8 1 0
BITMAP
63
63
63
63
C6
CE
D6
66
ENDCHAR
STARTCHAR v
ENCODING 118
SWIDTH 42 0
DWIDTH 8 0
BBX 7 8 1 0
BITMAP
C6
C6
C6
C4
C8
D0
E0
C0
ENDCHAR
STARTCHAR w
ENCODING 119
SWIDTH 42 0
DWIDTH 12 0
BBX 11 8 1 0
BITMAP
C060
C660
C660
CE60
D640
D680
E700
C600
ENDCHAR
STARTCHAR x
ENCODING 120
SWIDTH 42 0
DWIDTH 8 0
BBX 8 8 0 0
BITMAP
33
33
32
1C
38
4C
CC
CC
ENDCHAR
STARTCHAR y
ENCODING 121
SWIDTH 42 0
DWIDTH 8 0
BBX 9 10 -1 -2
BITMAP
3180
3180
3180
3100
3200
3400
3800
3000
6000
C000
ENDCHAR
STARTCHAR z
ENCODING 122
SWIDTH 42 0
DWIDTH 8 0
BBX 8 8 0 0
BITMAP
7F
06
0C
18
30
60
C0
FE
ENDCHAR
STARTCHAR braceleft
ENCODING 123
SWIDTH 42 0
DWIDTH 6 0
BBX 6 12 0 -1
BITMAP
0C
18
30
30
30
10
60
10
60
C0
C0
60
ENDCHAR
STARTCHAR bar
ENCODING 124
SWIDTH 42 0
DWIDTH 4 0
BBX 4 12 0 -1
BITMAP
30
30
30
30
60
60
60
60
C0
C0
C0
C0
ENDCHAR
STARTCHAR braceright
ENCODING 125
SWIDTH 42 0
DWIDTH 6 0
BBX 6 12 0 -1
BITMAP
18
0C
0C
18
20
18
20
30
30
30
60
C0
ENDCHAR
STARTCHAR asciitilde
ENCODING 126
SWIDTH 42 0
DWIDTH 10 0
BBX 8 3 1 3
BITMAP
31
7E
8C
ENDCHAR
STARTCHAR exclamdown
ENCODING 161
SWIDTH 42 0
DWIDTH 4 0
BBX 4 10 0 -2
BITMAP
30
30
00
20
60
60
60
C0
C0
C0
ENDCHAR
STARTCHAR cent
ENCODING 162
SWIDTH 42 0
DWIDTH 10 0
BBX 8 12 2 -1
BITMAP
04
04
1E
6B
68
C8
D0
D0
D2
7C
20
20
ENDCHAR
STARTCHAR sterling
ENCODING 163
SWIDTH 42 0
DWIDTH 10 0
BBX 8 10 1 0
BITMAP
0E
19
18
18
7E
30
30
30
60
FE
ENDCHAR
STARTCHAR currency
ENCODING 164
SWIDTH 42 0
DWIDTH 10 0
BBX 11 10 -1 0
BITMAP
6060
30C0
1F80
1980
3180
3180
3300
3F00
6180
C0C0
ENDCHAR
STARTCHAR yen
ENCODING 165
SWIDTH 42 0
DWIDTH 10 0
BBX 9 10 1 0
BITMAP
6180
6180
6300
6200
6400
EE00
3000
FC00
3000
3000
ENDCHAR
STARTCHAR brokenbar
ENCODING 166
SWIDTH 42 0
DWIDTH 4 0
BBX 4 12 0 -1
BITMAP
30
30
30
30
30
00
00
C0
C0
C0
C0
C0
ENDCHAR
STARTCHAR section
ENCODING 167
SWIDTH 42 0
DWIDTH 10 0
BBX 8 11 1 -1
BITMAP
1E
31
38
1C
6E
66
76
38
1C
8C
78
ENDCHAR
STARTCHAR dieresis
ENCODING 168
SWIDTH 42 0
DWIDTH 10 0
BBX 4 2 4 9
BITMAP
90
90
ENDCHAR
STARTCHAR copyright
ENCODING 169
SWIDTH 42 0
DWIDTH 12 0
BBX 10 10 1 0
BITMAP
1E00
6180
4C80
9240
9040
9040
9240
4C80
6180
1E00
ENDCHAR
STARTCHAR ordfeminine
ENCODING 170
SWIDTH 42 0
DWIDTH 8 0
BBX 5 6 2 4
BITMAP
38
58
D8
D8
F8
D8
ENDCHAR
STARTCHAR guillemotleft
ENCODING 171
SWIDTH 42 0
DWIDTH 9 0
BBX 9 5 0 2
BITMAP
0880
3300
CC00
6600
2200
ENDCHAR
STARTCHAR logicalnot
ENCODING 172
SWIDTH 42 0
DWIDTH 10 0
BBX 7 4 1 1
BITMAP
FE
02
02
02
ENDCHAR
STARTCHAR hyphen
ENCODING 173
SWIDTH 42 0
DWIDTH 5 0
BBX 4 1 1 4
BITMAP
F0
ENDCHAR
STARTCHAR registered
ENCODING 174
SWIDTH 42 0
DWIDTH 10 0
BBX 8 8 1 2
BITMAP
3C
42
99
95
99
95
42
3C
ENDCHAR
STARTCHAR macron
ENCODING 175
SWIDTH 42 0
DWIDTH 10 0
BBX 4 1 4 9
BITMAP
F0
ENDCHAR
STARTCHAR degree
ENCODING 176
SWIDTH 42 0
DWIDTH 4 0
BBX 4 3 0 7
BITMAP
60
90
60
ENDCHAR
STARTCHAR plusminus
ENCODING 177
SWIDTH 42 0
DWIDTH 10 0
BBX 7 7 1 1
BITMAP
08
08
7E
10
10
00
FE
ENDCHAR
STARTCHAR twosuperior
ENCODING 178
SWIDTH 42 0
DWIDTH 8 0
BBX 5 6 1 4
BITMAP
70
18
18
30
60
F8
ENDCHAR
STARTCHAR threesuperior
ENCODING 179
SWIDTH 42 0
DWIDTH 8 0
BBX 6 6 1 4
BITMAP
78
0C
30
18
18
F0
ENDCHAR
STARTCHAR acute
ENCODING 180
SWIDTH 42 0
DWIDTH 10 0
BBX 5 2 3 9
BITMAP
38
E0
ENDCHAR
STARTCHAR mu
ENCODING 181
SWIDTH 42 0
DWIDTH 10 0
BBX 9 10 0 -2
BITMAP
3180
3180
3180
3180
6300
6700
6B00
7300
C000
C000
ENDCHAR
STARTCHAR paragraph
ENCODING 182
SWIDTH 42 0
DWIDTH 10 0
BBX 6 11 2 -1
BITMAP
7C
F4
F4
F4
68
28
28
28
50
50
50
ENDCHAR
STARTCHAR periodcentered
ENCODING 183
SWIDTH 42 0
DWIDTH 10 0
BBX 2 2 4 3
BITMAP
C0
C0
ENDCHAR
STARTCHAR cedilla
ENCODING 184
SWIDTH 42 0
DWIDTH 10 0
BBX 3 2 2 -2
BITMAP
20
C0
ENDCHAR
STARTCHAR onesuperior
ENCODING 185
SWIDTH 42 0
DWIDTH 8 0
BBX 4 6 2 4
BITMAP
30
F0
30
60
60
60
ENDCHAR
STARTCHAR ordmasculine
ENCODING 186
SWIDTH 42 0
DWIDTH 8 0
BBX 6 6 1 4
BITMAP
38
4C
CC
CC
C8
70
ENDCHAR
STARTCHAR guillemotright
ENCODING 187
SWIDTH 42 0
DWIDTH 9 0
BBX 9 5 0 2
BITMAP
2200
3300
1980
6600
8800
ENDCHAR
STARTCHAR onequarter
ENCODING 188
SWIDTH 42 0
DWIDTH 15 0
BBX 12 10 2 0
BITMAP
6300
E200
6600
C400
C8E0
C960
1260
33F0
20C0
60C0
ENDCHAR
STARTCHAR onehalf
ENCODING 189
SWIDTH 42 0
DWIDTH 15 0
BBX 11 10 2 0
BITMAP
6300
E200
6600
C400
C9C0
CAE0
10C0
3300
27C0
67C0
ENDCHAR
STARTCHAR threequarters
ENCODING 190
SWIDTH 42 0
DWIDTH 15 0
BBX 13 10 1 0
BITMAP
7180
1900
7300
3200
3470
E4B0
0930
19F8
1060
3060
ENDCHAR
STARTCHAR questiondown
ENCODING 191
SWIDTH 42 0
DWIDTH 8 0
BBX 6 10 0 -2
BITMAP
0C
0C
00
08
18
70
E0
C0
CC
78
ENDCHAR
STARTCHAR Agrave
ENCODING 192
SWIDTH 42 0
DWIDTH 11 0
BBX 10 13 0 0
BITMAP
0700
01C0
0000
0180
0380
0780
0D80
1980
3180
3F80
6180
C180
C180
ENDCHAR
STARTCHAR Aacute
ENCODING 193
SWIDTH 42 0
DWIDTH 11 0
BBX 10 13 0 0
BITMAP
01C0
0700
0000
0180
0380
0780
0D80
1980
3180
3F80
6180
C180
C180
ENDCHAR
STARTCHAR Acircumflex
ENCODING 194
SWIDTH 42 0
DWIDTH 11 0
BBX 10 13 0 0
BITMAP
0180
02C0
0000
0180
0380
0780
0D80
1980
3180
3F80
6180
C180
C180
ENDCHAR
STARTCHAR Atilde
ENCODING 195
SWIDTH 42 0
DWIDTH 11 0
BBX 10 13 0 0
BITMAP
0340
0580
0000
0180
0380
0780
0D80
1980
3180
3F80
6180
C180
C180
ENDCHAR
STARTCHAR Adieresis
ENCODING 196
SWIDTH 42 0
DWIDTH 11 0
BBX 10 13 0 0
BITMAP
0440
0440
0000
0180
0380
0780
0D80
1980
3180
3F80
6180
C180
C180
ENDCHAR
STARTCHAR Aring
ENCODING 197
SWIDTH 42 0
DWIDTH 11 0
BBX 10 13 0 0
BITMAP
0180
0240
0180
0180
0380
0780
0D80
1980
3180
3F80
6180
C180
C180
ENDCHAR
STARTCHAR AE
ENCODING 198
SWIDTH 42 0
DWIDTH 15 0
BBX 15 10 0 0
BITMAP
01FE
02C0
06C0
0CC0
18FC
3180
3F80
6180
C180
C1FC
ENDCHAR
STARTCHAR Ccedilla
ENCODING 199
SWIDTH 42 0
DWIDTH 11 0
BBX 10 12 1 -2
BITMAP
0F80
30C0
6000
6000
C000
C000
C000
C000
E300
7E00
0800
3000
ENDCHAR
STARTCHAR Egrave
ENCODING 200
SWIDTH 42 0
DWIDTH 9 0
BBX 8 13 1 0
BITMAP
38
0E
00
7F
60
60
60
7E
C0
C0
C0
C0
FE
ENDCHAR
STARTCHAR Eacute
ENCODING 201
SWIDTH 42 0
DWIDTH 9 0
BBX 8 13 1 0
BITMAP
07
1C
00
7F
60
60
60
7E
C0
C0
C0
C0
FE
ENDCHAR
STARTCHAR Ecircumflex
ENCODING 202
SWIDTH 42 0
DWIDTH 9 0
BBX 8 13 1 0
BITMAP
0C
16
00
7F
60
60
60
7E
C0
C0
C0
C0
FE
ENDCHAR
STARTCHAR Edieresis
ENCODING 203
SWIDTH 42 0
DWIDTH 9 0
BBX 8 13 1 0
BITMAP
12
12
00
7F
60
60
60
7E
C0
C0
C0
C0
FE
ENDCHAR
STARTCHAR Igrave
ENCODING 204
SWIDTH 42 0
DWIDTH 5 0
BBX 4 13 1 0
BITMAP
E0
30
00
60
60
60
60
60
C0
C0
C0
C0
C0
ENDCHAR
STARTCHAR Iacute
ENCODING 205
SWIDTH 42 0
DWIDTH 5 0
BBX 4 13 1 0
BITMAP
70
C0
00
60
60
60
60
60
C0
C0
C0
C0
C0
ENDCHAR
STARTCHAR Icircumflex
ENCODING 206
SWIDTH 42 0
DWIDTH 5 0
BBX 4 13 1 0
BITMAP
60
B0
00
60
60
60
60
60
C0
C0
C0
C0
C0
ENDCHAR
STARTCHAR Idieresis
ENCODING 207
SWIDTH 42 0
DWIDTH 5 0
BBX 4 13 1 0
BITMAP
90
90
00
60
60
60
60
60
C0
C0
C0
C0
C0
ENDCHAR
STARTCHAR Eth
ENCODING 208
SWIDTH 42 0
DWIDTH 12 0
BBX 11 10 0 0
BITMAP
3FC0
30E0
3060
3060
FC60
6060
60C0
60C0
6180
7F00
ENDCHAR
STARTCHAR Ntilde
ENCODING 209
SWIDTH 42 0
DWIDTH 11 0
BBX 9 13 1 0
BITMAP
0D00
1600
0000
7080
7080
5880
5880
5880
8D00
8D00
8D00
8700
8700
ENDCHAR
STARTCHAR Ograve
ENCODING 210
SWIDTH 42 0
DWIDTH 12 0
BBX 10 13 1 0
BITMAP
1C00
0700
0000
0F80
31C0
60C0
60C0
C0C0
C0C0
C180
C180
E300
7C00
ENDCHAR
STARTCHAR Oacute
ENCODING 211
SWIDTH 42 0
DWIDTH 12 0
BBX 10 13 1 0
BITMAP
0380
0E00
0000
0F80
31C0
60C0
60C0
C0C0
C0C0
C180
C180
E300
7C00
ENDCHAR
STARTCHAR Ocircumflex
ENCODING 212
SWIDTH 42 0
DWIDTH 12 0
BBX 10 13 1 0
BITMAP
0600
0B00
0000
0F80
31C0
60C0
60C0
C0C0
C0C0
C180
C180
E300
7C00
ENDCHAR
STARTCHAR Otilde
ENCODING 213
SWIDTH 42 0
DWIDTH 12 0
BBX 10 13 1 0
BITMAP
0680
0B00
0000
0F80
31C0
60C0
60C0
C0C0
C0C0
C180
C180
E300
7C00
ENDCHAR
STARTCHAR Odieresis
ENCODING 214
SWIDTH 42 0
DWIDTH 12 0
BBX 10 13 1 0
BITMAP
0900
0900
0000
0F80
31C0
60C0
60C0
C0C0
C0C0
C180
C180
E300
7C00
ENDCHAR
STARTCHAR multiply
ENCODING 215
SWIDTH 42 0
DWIDTH 10 0
BBX 7 7 2 1
BITMAP
22
24
18
10
30
48
88
ENDCHAR
STARTCHAR Oslash
ENCODING 216
SWIDTH 42 0
DWIDTH 12 0
BBX 12 12 0 -1
BITMAP
0010
07E0
18E0
3160
3160
6260
6460
68C0
68C0
7180
7E00
8000
ENDCHAR
STARTCHAR Ugrave
ENCODING 217
SWIDTH 42 0
DWIDTH 11 0
BBX 9 13 1 0
BITMAP
3800
0E00
0000
6180
6180
6180
6180
C180
C300
C300
C300
6600
3C00
ENDCHAR
STARTCHAR Uacute
ENCODING 218
SWIDTH 42 0
DWIDTH 11 0
BBX 9 13 1 0
BITMAP
0700
1C00
0000
6180
6180
6180
6180
C180
C300
C300
C300
6600
3C00
ENDCHAR
STARTCHAR Ucircumflex
ENCODING 219
SWIDTH 42 0
DWIDTH 11 0
BBX 9 13 1 0
BITMAP
0C00
1600
0000
6180
6180
6180
6180
C180
C300
C300
C300
6600
3C00
ENDCHAR
STARTCHAR Udieresis
ENCODING 220
SWIDTH 42 0
DWIDTH 11 0
BBX 9 13 1 0
BITMAP
1200
1200
0000
6180
6180
6180
6180
C180
C300
C300
C300
6600
3C00
ENDCHAR
STARTCHAR Yacute
ENCODING 221
SWIDTH 42 0
DWIDTH 10 0
BBX 8 13 2 0
BITMAP
0E
38
00
C3
C3
C6
C4
C8
D0
60
60
60
60
ENDCHAR
STARTCHAR Thorn
ENCODING 222
SWIDTH 42 0
DWIDTH 9 0
BBX 8 10 1 0
BITMAP
60
60
7E
63
E3
C3
C6
F8
C0
C0
ENDCHAR
STARTCHAR germandbls
ENCODING 223
SWIDTH 42 0
DWIDTH 10 0
BBX 8 12 1 -1
BITMAP
0E
13
33
32
34
62
63
63
63
C2
CC
C0
ENDCHAR
STARTCHAR agrave
ENCODING 224
SWIDTH 42 0
DWIDTH 10 0
BBX 8 11 1 0
BITMAP
38
0E
00
1F
63
63
C3
C6
CE
D6
66
ENDCHAR
STARTCHAR aacute
ENCODING 225
SWIDTH 42 0
DWIDTH 10 0
BBX 8 11 1 0
BITMAP
07
1C
00
1F
63
63
C3
C6
CE
D6
66
ENDCHAR
STARTCHAR acircumflex
ENCODING 226
SWIDTH 42 0
DWIDTH 10 0
BBX 8 11 1 0
BITMAP
0C
16
00
1F
63
63
C3
C6
CE
D6
66
ENDCHAR
STARTCHAR atilde
ENCODING 227
SWIDTH 42 0
DWIDTH 10 0
BBX 8 11 1 0
BITMAP
0D
16
00
1F
63
63
C3
C6
CE
D6
66
ENDCHAR
STARTCHAR adieresis
ENCODING 228
SWIDTH 42 0
DWIDTH 10 0
BBX 8 11 1 0
BITMAP
12
12
00
1F
63
63
C3
C6
CE
D6
66
ENDCHAR
STARTCHAR aring
ENCODING 229
SWIDTH 42 0
DWIDTH 10 0
BBX 8 11 1 0
BITMAP
06
09
06
1F
63
63
C3
C6
CE
D6
66
ENDCHAR
STARTCHAR ae
ENCODING 230
SWIDTH 42 0
DWIDTH 13 0
BBX 11 8 1 0
BITMAP
3DC0
6660
0460
7CC0
CF00
CC00
DC40
6780
ENDCHAR
STARTCHAR ccedilla
ENCODING 231
SWIDTH 42 0
DWIDTH 8 0
BBX 7 10 1 -2
BITMAP
1E
60
60
C0
C0
C0
C4
78
10
60
ENDCHAR
STARTCHAR egrave
ENCODING 232
SWIDTH 42 0
DWIDTH 9 0
BBX 7 11 1 0
BITMAP
70
1C
00
1C
66
46
CC
F0
C0
C4
78
ENDCHAR
STARTCHAR eacute
ENCODING 233
SWIDTH 42 0
DWIDTH 9 0
BBX 7 11 1 0
BITMAP
0E
38
00
1C
66
46
CC
F0
C0
C4
78
ENDCHAR
STARTCHAR ecircumflex
ENCODING 234
SWIDTH 42 0
DWIDTH 9 0
BBX 7 11 1 0
BITMAP
18
2C
00
1C
66
46
CC
F0
C0
C4
78
ENDCHAR
STARTCHAR edieresis
ENCODING 235
SWIDTH 42 0
DWIDTH 9 0
BBX 7 11 1 0
BITMAP
24
24
00
1C
66
46
CC
F0
C0
C4
78
ENDCHAR
STARTCHAR igrave
ENCODING 236
SWIDTH 42 0
DWIDTH 5 0
BBX 4 11 1 0
BITMAP
E0
30
00
60
60
60
60
C0
C0
C0
C0
ENDCHAR
STARTCHAR iacute
ENCODING 237
SWIDTH 42 0
DWIDTH 5 0
BBX 5 11 1 0
BITMAP
38
60
00
60
60
60
60
C0
C0
C0
C0
ENDCHAR
STARTCHAR icircumflex
ENCODING 238
SWIDTH 42 0
DWIDTH 5 0
BBX 4 11 1 0
BITMAP
60
B0
00
60
60
60
60
C0
C0
C0
C0
ENDCHAR
STARTCHAR idieresis
ENCODING 239
SWIDTH 42 0
DWIDTH 5 0
BBX 4 11 1 0
BITMAP
90
90
00
60
60
60
60
C0
C0
C0
C0
ENDCHAR
STARTCHAR eth
ENCODING 240
SWIDTH 42 0
DWIDTH 10 0
BBX 8 11 1 0
BITMAP
18
0F
1E
06
3F
63
C3
C3
C6
C6
78
ENDCHAR
STARTCHAR ntilde
ENCODING 241
SWIDTH 42 0
DWIDTH 10 0
BBX 8 11 1 0
BITMAP
1A
2C
00
6E
73
63
63
C6
C6
C6
C6
ENDCHAR
STARTCHAR ograve
ENCODING 242
SWIDTH 42 0
DWIDTH 10 0
BBX 8 11 1 0
BITMAP
38
0E
00
1E
63
63
C3
C3
C6
C6
78
ENDCHAR
STARTCHAR oacute
ENCODING 243
SWIDTH 42 0
DWIDTH 10 0
BBX 8 11 1 0
BITMAP
0E
38
00
1E
63
63
C3
C3
C6
C6
78
ENDCHAR
STARTCHAR ocircumflex
ENCODING 244
SWIDTH 42 0
DWIDTH 10 0
BBX 8 11 1 0
BITMAP
0C
16
00
1E
63
63
C3
C3
C6
C6
78
ENDCHAR
STARTCHAR otilde
ENCODING 245
SWIDTH 42 0
DWIDTH 10 0
BBX 8 11 1 0
BITMAP
1A
2C
00
1E
63
63
C3
C3
C6
C6
78
ENDCHAR
STARTCHAR odieresis
ENCODING 246
SWIDTH 42 0
DWIDTH 10 0
BBX 8 11 1 0
BITMAP
12
12
00
1E
63
63
C3
C3
C6
C6
78
ENDCHAR
STARTCHAR divide
ENCODING 247
SWIDTH 42 0
DWIDTH 10 0
BBX 8 7 1 1
BITMAP
04
04
00
FF
00
10
10
ENDCHAR
STARTCHAR oslash
ENCODING 248
SWIDTH 42 0
DWIDTH 10 0
BBX 10 10 0 -1
BITMAP
0040
0F40
3180
3380
6580
6980
7300
6300
BC00
8000
ENDCHAR
STARTCHAR ugrave
ENCODING 249
SWIDTH 42 0
DWIDTH 10 0
BBX 8 11 1 0
BITMAP
38
0E
00
63
63
63
63
C6
CE
D6
66
ENDCHAR
STARTCHAR uacute
ENCODING 250
SWIDTH 42 0
DWIDTH 10 0
BBX 8 11 1 0
BITMAP
0E
38
00
63
63
63
63
C6
CE
D6
66
ENDCHAR
STARTCHAR ucircumflex
ENCODING 251
SWIDTH 42 0
DWIDTH 10 0
BBX 8 11 1 0
BITMAP
0C
16
00
63
63
63
63
C6
CE
D6
66
ENDCHAR
STARTCHAR udieresis
ENCODING 252
SWIDTH 42 0
DWIDTH 10 0
BBX 8 11 1 0
BITMAP
22
22
00
63
63
63
63
C6
CE
D6
66
ENDCHAR
STARTCHAR yacute
ENCODING 253
SWIDTH 42 0
DWIDTH 8 0
BBX 9 13 -1 -2
BITMAP
0380
0E00
0000
3180
3180
3180
3100
3200
3400
3800
3000
6000
C000
ENDCHAR
STARTCHAR thorn
ENCODING 254
SWIDTH 42 0
DWIDTH 10 0
BBX 9 13 0 -2
BITMAP
1800
1800
1800
3300
3580
3980
3180
6180
6300
6300
7C00
C000
C000
ENDCHAR
STARTCHAR ydieresis
ENCODING 255
SWIDTH 42 0
DWIDTH 8 0
BBX 9 13 -1 -2
BITMAP
1100
1100
0000
3180
3180
3180
3100
3200
3400
3800
3000
6000
C000
ENDCHAR
STARTCHAR fl
ENCODING -1
SWIDTH 42 0
DWIDTH 10 0
BBX 9 13 1 -2
BITMAP
1F80
3180
3180
FB00
6300
6300
6300
6600
6600
C600
C600
C000
C000
ENDCHAR
STARTCHAR endash
ENCODING -1
SWIDTH 42 0
DWIDTH 8 0
BBX 6 1 1 4
BITMAP
FC
ENDCHAR
STARTCHAR dagger
ENCODING -1
SWIDTH 42 0
DWIDTH 10 0
BBX 7 11 2 -1
BITMAP
18
18
18
FE
30
30
30
60
60
60
60
ENDCHAR
STARTCHAR Zcaron
ENCODING -1
SWIDTH 42 0
DWIDTH 9 0
BBX 9 13 0 0
BITMAP
0B00
0600
0000
3F80
0380
0700
0E00
0C00
1800
3800
7000
E000
FE00
ENDCHAR
STARTCHAR oe
ENCODING -1
SWIDTH 42 0
DWIDTH 14 0
BBX 12 8 1 0
BITMAP
1CE0
6330
6230
C660
C780
C600
C620
7BC0
ENDCHAR
STARTCHAR Ydieresis
ENCODING -1
SWIDTH 42 0
DWIDTH 10 0
BBX 8 13 2 0
BITMAP
24
24
00
C3
C3
C6
C4
C8
D0
60
60
60
60
ENDCHAR
STARTCHAR dotlessi
ENCODING -1
SWIDTH 42 0
DWIDTH 5 0
BBX 3 8 1 0
BITMAP
60
60
60
60
C0
C0
C0
C0
ENDCHAR
STARTCHAR lslash
ENCODING -1
SWIDTH 42 0
DWIDTH 5 0
BBX 6 11 0 0
BITMAP
18
18
18
30
3C
F0
30
60
60
60
60
ENDCHAR
STARTCHAR Lslash
ENCODING -1
SWIDTH 42 0
DWIDTH 9 0
BBX 8 10 0 0
BITMAP
18
18
18
18
1E
F0
30
30
30
3F
ENDCHAR
STARTCHAR daggerdbl
ENCODING -1
SWIDTH 42 0
DWIDTH 10 0
BBX 8 11 1 -1
BITMAP
0C
0C
0C
7F
18
18
18
FE
30
30
30
ENDCHAR
STARTCHAR fi
ENCODING -1
SWIDTH 42 0
DWIDTH 10 0
BBX 9 13 1 -2
BITMAP
1D80
3300
3000
FF00
6300
6300
6300
6600
6600
C600
C600
C000
C000
ENDCHAR
STARTCHAR guilsinglright
ENCODING -1
SWIDTH 42 0
DWIDTH 6 0
BBX 5 5 1 2
BITMAP
20
30
18
60
80
ENDCHAR
STARTCHAR OE
ENCODING -1
SWIDTH 42 0
DWIDTH 16 0
BBX 14 10 1 0
BITMAP
0FFC
3180
6180
6180
C1F8
C300
C300
C300
E300
7FF8
ENDCHAR
STARTCHAR emdash
ENCODING -1
SWIDTH 42 0
DWIDTH 15 0
BBX 13 1 1 4
BITMAP
FFF8
ENDCHAR
STARTCHAR caron
ENCODING -1
SWIDTH 42 0
DWIDTH 10 0
BBX 4 2 4 9
BITMAP
B0
60
ENDCHAR
STARTCHAR ogonek
ENCODING -1
SWIDTH 42 0
DWIDTH 10 0
BBX 3 2 4 -2
BITMAP
80
60
ENDCHAR
STARTCHAR hungarumlaut
ENCODING -1
SWIDTH 42 0
DWIDTH 10 0
BBX 5 2 3 9
BITMAP
D8
90
ENDCHAR
STARTCHAR guilsinglleft
ENCODING -1
SWIDTH 42 0
DWIDTH 6 0
BBX 5 5 0 2
BITMAP
08
30
C0
60
20
ENDCHAR
STARTCHAR dotaccent
ENCODING -1
SWIDTH 42 0
DWIDTH 10 0
BBX 2 2 5 9
BITMAP
C0
C0
ENDCHAR
STARTCHAR breve
ENCODING -1
SWIDTH 42 0
DWIDTH 10 0
BBX 5 2 3 9
BITMAP
88
70
ENDCHAR
STARTCHAR bullet
ENCODING -1
SWIDTH 42 0
DWIDTH 10 0
BBX 4 4 3 2
BITMAP
F0
F0
F0
F0
ENDCHAR
STARTCHAR tilde
ENCODING -1
SWIDTH 42 0
DWIDTH 10 0
BBX 5 2 3 9
BITMAP
68
B0
ENDCHAR
STARTCHAR circumflex
ENCODING -1
SWIDTH 42 0
DWIDTH 10 0
BBX 4 2 4 9
BITMAP
60
B0
ENDCHAR
STARTCHAR quotedblleft
ENCODING -1
SWIDTH 42 0
DWIDTH 8 0
BBX 6 4 1 7
BITMAP
24
48
D8
D8
ENDCHAR
STARTCHAR quotesingle
ENCODING -1
SWIDTH 42 0
DWIDTH 4 0
BBX 3 4 1 7
BITMAP
60
60
C0
C0
ENDCHAR
STARTCHAR scaron
ENCODING -1
SWIDTH 42 0
DWIDTH 8 0
BBX 6 11 1 0
BITMAP
2C
18
00
3C
60
60
70
38
18
18
F0
ENDCHAR
STARTCHAR ring
ENCODING -1
SWIDTH 42 0
DWIDTH 10 0
BBX 4 3 4 8
BITMAP
60
90
60
ENDCHAR
STARTCHAR quotesinglbase
ENCODING -1
SWIDTH 42 0
DWIDTH 4 0
BBX 3 4 0 -2
BITMAP
60
60
40
80
ENDCHAR
STARTCHAR florin
ENCODING -1
SWIDTH 42 0
DWIDTH 10 0
BBX 8 11 2 -1
BITMAP
1E
33
30
30
FC
60
60
60
C0
C0
C0
ENDCHAR
STARTCHAR trademark
ENCODING -1
SWIDTH 42 0
DWIDTH 13 0
BBX 9 4 2 6
BITMAP
ED80
4A80
9500
9500
ENDCHAR
STARTCHAR fraction
ENCODING -1
SWIDTH 42 0
DWIDTH 4 0
BBX 4 10 0 0
BITMAP
30
30
30
60
60
60
60
C0
C0
C0
ENDCHAR
STARTCHAR grave
ENCODING -1
SWIDTH 42 0
DWIDTH 10 0
BBX 5 2 4 9
BITMAP
E0
38
ENDCHAR
STARTCHAR perthousand
ENCODING -1
SWIDTH 42 0
DWIDTH 18 0
BBX 16 10 1 0
BITMAP
30C0
D980
DB00
6200
0400
0800
1186
36DB
66DB
C30C
ENDCHAR
STARTCHAR ellipsis
ENCODING -1
SWIDTH 42 0
DWIDTH 10 0
BBX 6 2 2 0
BITMAP
CC
CC
ENDCHAR
STARTCHAR quotedblright
ENCODING -1
SWIDTH 42 0
DWIDTH 8 0
BBX 6 4 1 7
BITMAP
6C
6C
48
90
ENDCHAR
STARTCHAR Scaron
ENCODING -1
SWIDTH 42 0
DWIDTH 10 0
BBX 8 13 1 0
BITMAP
16
0C
00
3E
63
60
70
38
1C
0E
06
C6
7C
ENDCHAR
STARTCHAR quotedblbase
ENCODING -1
SWIDTH 42 0
DWIDTH 8 0
BBX 6 4 0 -2
BITMAP
6C
6C
48
90
ENDCHAR
STARTCHAR zcaron
ENCODING -1
SWIDTH 42 0
DWIDTH 8 0
BBX 8 11 0 0
BITMAP
16
0C
00
7F
06
0C
18
30
60
C0
FE
ENDCHAR
ENDFONT
