STARTFONT 2.1
COMMENT  (c) Copyright Bigelow & Holmes 1986, 1985. Lucida is a registered
COMMENT  trademark of Bigelow & Holmes. See LEGAL NOTICE file for terms 
COMMENT  of the license. 
COMMENT GRID 0018 0018 0200 0200
FONT -B&H-Lucida-Bold-I-Normal-Sans-18-180-75-75-P-119-ISO8859-1
SIZE 18 72 72
FONTBOUNDINGBOX 27 19 -2 -3
STARTPROPERTIES 19
COMMENT Begin LogicalFontDescription
FONTNAME_REGISTRY ""
FOUNDRY "B&H"
FAMILY_NAME "Lucida"
WEIGHT_NAME "Bold"
SLANT "I"
SETWIDTH_NAME "Normal"
ADD_STYLE_NAME "Sans"
PIXEL_SIZE 18
POINT_SIZE 180
RESOLUTION_X 75
RESOLUTION_Y 75
SPACING "P"
AVERAGE_WIDTH 119
CHARSET_REGISTRY "ISO8859"
CHARSET_ENCODING "1"
COMMENT END LogicalFontDescription
FONT_ASCENT 16
FONT_DESCENT 3
DEFAULT_CHAR 32
COPYRIGHT "Copyright Bigelow & Holmes 1986, 1985."
ENDPROPERTIES
CHARS 228
STARTCHAR space
ENCODING 32
SWIDTH 42 0
DWIDTH 5 0
BBX 1 1 0 0
BITMAP
00
ENDCHAR
STARTCHAR exclam
ENCODING 33
SWIDTH 42 0
DWIDTH 5 0
BBX 5 13 1 0
BITMAP
38
38
38
38
70
70
70
60
60
00
00
E0
E0
ENDCHAR
STARTCHAR quotedbl
ENCODING 34
SWIDTH 42 0
DWIDTH 10 0
BBX 6 4 3 10
BITMAP
CC
CC
CC
88
ENDCHAR
STARTCHAR numbersign
ENCODING 35
SWIDTH 42 0
DWIDTH 13 0
BBX 12 13 1 0
BITMAP
0660
0660
0660
7FF0
7FF0
1980
1980
1980
FFE0
FFE0
6600
6600
6600
ENDCHAR
STARTCHAR dollar
ENCODING 36
SWIDTH 42 0
DWIDTH 13 0
BBX 11 15 2 -1
BITMAP
0100
0FC0
1FE0
3960
3B00
3A00
3E00
1F00
0F80
0B80
1B80
D380
FF00
7E00
1000
ENDCHAR
STARTCHAR percent
ENCODING 37
SWIDTH 42 0
DWIDTH 17 0
BBX 16 13 1 0
BITMAP
3C06
7E0C
EE18
C630
EE60
FCC0
799E
033F
0677
0C63
1877
307E
603C
ENDCHAR
STARTCHAR ampersand
ENCODING 38
SWIDTH 42 0
DWIDTH 15 0
BBX 13 13 2 0
BITMAP
0F80
1FC0
39C0
39C0
3F80
1F00
3E38
7F38
E7B0
E3E0
F3C0
FFF0
7C70
ENDCHAR
STARTCHAR quoteright
ENCODING 39
SWIDTH 42 0
DWIDTH 5 0
BBX 4 4 2 10
BITMAP
70
70
60
C0
ENDCHAR
STARTCHAR parenleft
ENCODING 40
SWIDTH 42 0
DWIDTH 7 0
BBX 7 16 2 -2
BITMAP
0E
1C
38
30
70
70
E0
E0
E0
E0
E0
E0
E0
E0
70
38
ENDCHAR
STARTCHAR parenright
ENCODING 41
SWIDTH 42 0
DWIDTH 7 0
BBX 7 16 0 -2
BITMAP
38
1C
0E
0E
0E
0E
0E
0E
0E
0E
1C
1C
18
38
70
E0
ENDCHAR
STARTCHAR asterisk
ENCODING 42
SWIDTH 42 0
DWIDTH 9 0
BBX 8 7 1 6
BITMAP
18
18
DB
E7
18
EC
EC
ENDCHAR
STARTCHAR plus
ENCODING 43
SWIDTH 42 0
DWIDTH 13 0
BBX 12 12 1 0
BITMAP
0300
0300
0300
0600
0600
FFF0
FFF0
0600
0600
0C00
0C00
0C00
ENDCHAR
STARTCHAR comma
ENCODING 44
SWIDTH 42 0
DWIDTH 5 0
BBX 4 4 0 -2
BITMAP
70
70
60
C0
ENDCHAR
STARTCHAR minus
ENCODING 45
SWIDTH 42 0
DWIDTH 13 0
BBX 11 2 2 5
BITMAP
FFE0
FFE0
ENDCHAR
STARTCHAR period
ENCODING 46
SWIDTH 42 0
DWIDTH 5 0
BBX 3 2 1 0
BITMAP
E0
E0
ENDCHAR
STARTCHAR slash
ENCODING 47
SWIDTH 42 0
DWIDTH 11 0
BBX 11 16 0 -2
BITMAP
0060
00E0
01C0
0180
0380
0700
0600
0E00
0C00
1C00
3800
3000
7000
6000
E000
C000
ENDCHAR
STARTCHAR zero
ENCODING 48
SWIDTH 42 0
DWIDTH 13 0
BBX 11 13 2 0
BITMAP
0780
1FC0
39E0
70E0
70E0
E0E0
E0E0
E0E0
E1C0
E1C0
F380
7F00
3C00
ENDCHAR
STARTCHAR one
ENCODING 49
SWIDTH 42 0
DWIDTH 13 0
BBX 6 13 4 0
BITMAP
1C
FC
FC
1C
1C
38
38
38
38
70
70
70
70
ENDCHAR
STARTCHAR two
ENCODING 50
SWIDTH 42 0
DWIDTH 13 0
BBX 10 13 2 0
BITMAP
1F80
3FC0
31C0
01C0
03C0
0780
0F00
1E00
3800
7000
FF80
FF80
FF80
ENDCHAR
STARTCHAR three
ENCODING 51
SWIDTH 42 0
DWIDTH 13 0
BBX 10 13 2 0
BITMAP
1F80
3FC0
31C0
01C0
0380
1F00
1E00
0700
0380
0380
C780
FF00
7C00
ENDCHAR
STARTCHAR four
ENCODING 52
SWIDTH 42 0
DWIDTH 13 0
BBX 10 13 2 0
BITMAP
01C0
03C0
07C0
0DC0
19C0
3380
6380
FFC0
FFC0
0700
0700
0700
0700
ENDCHAR
STARTCHAR five
ENCODING 53
SWIDTH 42 0
DWIDTH 13 0
BBX 11 13 2 0
BITMAP
1FE0
1FE0
1FE0
3000
3000
3E00
3F00
0780
0380
0380
C780
FF00
7C00
ENDCHAR
STARTCHAR six
ENCODING 54
SWIDTH 42 0
DWIDTH 13 0
BBX 11 13 2 0
BITMAP
07C0
1FE0
3C60
7000
7000
EF00
FF80
F1C0
E1C0
E1C0
E380
7F80
3E00
ENDCHAR
STARTCHAR seven
ENCODING 55
SWIDTH 42 0
DWIDTH 13 0
BBX 10 13 3 0
BITMAP
7FC0
7FC0
7FC0
0180
0300
0600
0C00
1C00
3800
7000
7000
E000
E000
ENDCHAR
STARTCHAR eight
ENCODING 56
SWIDTH 42 0
DWIDTH 13 0
BBX 11 13 2 0
BITMAP
07C0
1FE0
38E0
38E0
3DC0
1F00
0F80
3F80
73C0
E1C0
F1C0
FF80
7E00
ENDCHAR
STARTCHAR nine
ENCODING 57
SWIDTH 42 0
DWIDTH 13 0
BBX 10 13 2 0
BITMAP
1F00
7F80
71C0
E1C0
E1C0
E3C0
7FC0
3DC0
0380
0380
C700
FE00
7800
ENDCHAR
STARTCHAR colon
ENCODING 58
SWIDTH 42 0
DWIDTH 5 0
BBX 5 10 1 0
BITMAP
38
38
00
00
00
00
00
00
E0
E0
ENDCHAR
STARTCHAR semicolon
ENCODING 59
SWIDTH 42 0
DWIDTH 5 0
BBX 6 12 0 -2
BITMAP
1C
1C
00
00
00
00
00
00
70
70
60
C0
ENDCHAR
STARTCHAR less
ENCODING 60
SWIDTH 42 0
DWIDTH 13 0
BBX 11 9 2 2
BITMAP
00E0
03C0
0F00
3C00
F000
F000
3C00
0F00
0380
ENDCHAR
STARTCHAR equal
ENCODING 61
SWIDTH 42 0
DWIDTH 13 0
BBX 12 6 1 3
BITMAP
7FF0
7FF0
0000
0000
FFE0
FFE0
ENDCHAR
STARTCHAR greater
ENCODING 62
SWIDTH 42 0
DWIDTH 13 0
BBX 11 9 1 2
BITMAP
3800
1E00
0780
01E0
01E0
0780
1E00
7800
E000
ENDCHAR
STARTCHAR question
ENCODING 63
SWIDTH 42 0
DWIDTH 10 0
BBX 8 13 2 0
BITMAP
7E
FF
C7
07
0E
1C
38
70
60
00
00
E0
E0
ENDCHAR
STARTCHAR at
ENCODING 64
SWIDTH 42 0
DWIDTH 16 0
BBX 16 13 1 0
BITMAP
07F0
1FFE
3806
71F3
67F3
C673
CE63
CEE6
CFFC
C678
6000
7FC0
0FC0
ENDCHAR
STARTCHAR A
ENCODING 65
SWIDTH 42 0
DWIDTH 14 0
BBX 12 13 1 0
BITMAP
01C0
03C0
03C0
06E0
0CE0
0CE0
18E0
18E0
3FF0
7FF0
6070
E070
E070
ENDCHAR
STARTCHAR B
ENCODING 66
SWIDTH 42 0
DWIDTH 13 0
BBX 11 13 2 0
BITMAP
3FC0
3FE0
38E0
38E0
71C0
7F80
7F00
7380
E1C0
E1C0
E3C0
FF80
FE00
ENDCHAR
STARTCHAR C
ENCODING 67
SWIDTH 42 0
DWIDTH 14 0
BBX 13 13 2 0
BITMAP
07E0
1FF8
3C38
7000
7000
E000
E000
E000
E000
E000
7060
7FE0
1F80
ENDCHAR
STARTCHAR D
ENCODING 68
SWIDTH 42 0
DWIDTH 15 0
BBX 13 13 2 0
BITMAP
3FC0
3FF0
3870
3838
7038
7038
7038
7038
E070
E070
E1E0
FFC0
FF00
ENDCHAR
STARTCHAR E
ENCODING 69
SWIDTH 42 0
DWIDTH 12 0
BBX 10 13 2 0
BITMAP
3FC0
3FC0
3800
3800
7000
7F00
7F00
7000
E000
E000
E000
FF00
FF00
ENDCHAR
STARTCHAR F
ENCODING 70
SWIDTH 42 0
DWIDTH 12 0
BBX 11 13 2 0
BITMAP
3FE0
3FE0
3800
3800
7000
7F80
7F80
7000
7000
E000
E000
E000
E000
ENDCHAR
STARTCHAR G
ENCODING 71
SWIDTH 42 0
DWIDTH 14 0
BBX 13 13 2 0
BITMAP
07E0
1FF8
3C38
7000
7000
E000
E000
E070
E070
E070
70E0
7FE0
1FE0
ENDCHAR
STARTCHAR H
ENCODING 72
SWIDTH 42 0
DWIDTH 15 0
BBX 13 13 2 0
BITMAP
3838
3838
3838
3838
7070
7FF0
7FF0
7070
E0E0
E0E0
E0E0
E0E0
E0E0
ENDCHAR
STARTCHAR I
ENCODING 73
SWIDTH 42 0
DWIDTH 7 0
BBX 5 13 2 0
BITMAP
38
38
38
38
70
70
70
70
E0
E0
E0
E0
E0
ENDCHAR
STARTCHAR J
ENCODING 74
SWIDTH 42 0
DWIDTH 9 0
BBX 10 15 -1 -2
BITMAP
01C0
01C0
01C0
01C0
0380
0380
0380
0380
0380
0700
0700
0700
CE00
FE00
7800
ENDCHAR
STARTCHAR K
ENCODING 75
SWIDTH 42 0
DWIDTH 14 0
BBX 12 13 2 0
BITMAP
3870
38E0
39C0
3980
7300
7600
7C00
7E00
EF00
E780
E3C0
E1E0
E0E0
ENDCHAR
STARTCHAR L
ENCODING 76
SWIDTH 42 0
DWIDTH 11 0
BBX 9 13 2 0
BITMAP
3800
3800
3800
3800
7000
7000
7000
7000
E000
E000
E000
FF80
FF80
ENDCHAR
STARTCHAR M
ENCODING 77
SWIDTH 42 0
DWIDTH 18 0
BBX 16 13 2 0
BITMAP
3E0F
3E1F
3E1F
3737
3766
676E
67CE
678E
678E
C71C
C71C
C01C
C01C
ENDCHAR
STARTCHAR N
ENCODING 78
SWIDTH 42 0
DWIDTH 15 0
BBX 13 13 2 0
BITMAP
3818
3C18
3C18
3E18
3E18
6730
6730
63B0
63F0
C1E0
C1E0
C0E0
C0E0
ENDCHAR
STARTCHAR O
ENCODING 79
SWIDTH 42 0
DWIDTH 16 0
BBX 14 13 2 0
BITMAP
07E0
1FF8
3C38
701C
701C
E01C
E01C
E01C
E038
E038
70F0
7FE0
1F80
ENDCHAR
STARTCHAR P
ENCODING 80
SWIDTH 42 0
DWIDTH 13 0
BBX 11 13 2 0
BITMAP
3FC0
3FE0
38E0
38E0
70E0
71C0
7F80
7E00
E000
E000
E000
E000
E000
ENDCHAR
STARTCHAR Q
ENCODING 81
SWIDTH 42 0
DWIDTH 15 0
BBX 14 16 1 -3
BITMAP
07E0
1FF8
3C38
701C
701C
E01C
E01C
E01C
E038
E038
70F0
7FE0
1F80
01E0
00FC
0038
ENDCHAR
STARTCHAR R
ENCODING 82
SWIDTH 42 0
DWIDTH 13 0
BBX 11 13 2 0
BITMAP
3FC0
3FE0
38E0
38E0
71C0
7F80
7E00
7700
E700
E380
E380
E1C0
E1C0
ENDCHAR
STARTCHAR S
ENCODING 83
SWIDTH 42 0
DWIDTH 12 0
BBX 11 13 1 0
BITMAP
07C0
1FE0
3C60
3800
3C00
1E00
0F00
0780
0380
0380
C780
FF00
7C00
ENDCHAR
STARTCHAR T
ENCODING 84
SWIDTH 42 0
DWIDTH 14 0
BBX 13 13 2 0
BITMAP
FFF8
FFF8
0700
0700
0E00
0E00
0E00
0E00
1C00
1C00
1C00
1C00
1C00
ENDCHAR
STARTCHAR U
ENCODING 85
SWIDTH 42 0
DWIDTH 14 0
BBX 13 13 2 0
BITMAP
3818
3818
3818
3818
7030
7030
7030
7060
E060
E0E0
F1C0
7F80
3E00
ENDCHAR
STARTCHAR V
ENCODING 86
SWIDTH 42 0
DWIDTH 14 0
BBX 11 13 4 0
BITMAP
E0E0
E0E0
E0C0
E1C0
E180
E380
7300
7700
7600
7600
7C00
3800
3800
ENDCHAR
STARTCHAR W
ENCODING 87
SWIDTH 42 0
DWIDTH 18 0
BBX 16 13 3 0
BITMAP
E1C7
E1C7
E3C7
E3C6
E7CE
E7CC
EDD8
E9D8
F9F0
F1E0
F1E0
E1C0
E1C0
ENDCHAR
STARTCHAR X
ENCODING 88
SWIDTH 42 0
DWIDTH 13 0
BBX 13 13 1 0
BITMAP
1C38
1C38
1C70
0E60
0EC0
0F80
0700
0F00
1B80
3380
71C0
E1C0
E1C0
ENDCHAR
STARTCHAR Y
ENCODING 89
SWIDTH 42 0
DWIDTH 12 0
BBX 11 13 3 0
BITMAP
E0E0
E0E0
E1C0
F380
7300
7600
3C00
3800
3800
7000
7000
7000
7000
ENDCHAR
STARTCHAR Z
ENCODING 90
SWIDTH 42 0
DWIDTH 13 0
BBX 12 13 1 0
BITMAP
3FF0
3FF0
00F0
01E0
03C0
0780
0F00
1E00
3C00
7800
F000
FFC0
FFC0
ENDCHAR
STARTCHAR bracketleft
ENCODING 91
SWIDTH 42 0
DWIDTH 7 0
BBX 8 16 1 -2
BITMAP
1F
1F
1C
1C
38
38
38
38
70
70
70
70
E0
E0
F8
F8
ENDCHAR
STARTCHAR backslash
ENCODING 92
SWIDTH 42 0
DWIDTH 10 0
BBX 9 16 1 -2
BITMAP
E000
E000
7000
7000
3800
3800
1800
1C00
1C00
0E00
0E00
0600
0700
0700
0380
0380
ENDCHAR
STARTCHAR bracketright
ENCODING 93
SWIDTH 42 0
DWIDTH 7 0
BBX 8 16 0 -2
BITMAP
1F
1F
07
07
0E
0E
0E
0E
1C
1C
1C
1C
38
38
F8
F8
ENDCHAR
STARTCHAR asciicircum
ENCODING 94
SWIDTH 42 0
DWIDTH 13 0
BBX 9 10 2 2
BITMAP
0180
0380
0780
0D80
1980
3180
6180
6180
C180
C180
ENDCHAR
STARTCHAR underscore
ENCODING 95
SWIDTH 42 0
DWIDTH 14 0
BBX 12 2 1 -2
BITMAP
FFF0
FFF0
ENDCHAR
STARTCHAR quoteleft
ENCODING 96
SWIDTH 42 0
DWIDTH 5 0
BBX 4 4 3 10
BITMAP
30
60
E0
E0
ENDCHAR
STARTCHAR a
ENCODING 97
SWIDTH 42 0
DWIDTH 13 0
BBX 12 10 1 0
BITMAP
07F0
1FF0
3870
70E0
70E0
E1E0
E3C0
E7C0
FDC0
79C0
ENDCHAR
STARTCHAR b
ENCODING 98
SWIDTH 42 0
DWIDTH 13 0
BBX 12 14 1 0
BITMAP
1C00
1C00
1C00
1C00
39E0
3BF0
3E70
7C70
7870
70E0
70E0
E1C0
FF80
FE00
ENDCHAR
STARTCHAR c
ENCODING 99
SWIDTH 42 0
DWIDTH 11 0
BBX 10 10 1 0
BITMAP
0780
1FC0
38C0
7000
7000
E000
E000
E180
FF80
7E00
ENDCHAR
STARTCHAR d
ENCODING 100
SWIDTH 42 0
DWIDTH 13 0
BBX 13 14 1 0
BITMAP
0038
0038
0038
0038
07F0
1FF0
3870
70E0
70E0
E1E0
E3C0
E7C0
FDC0
79C0
ENDCHAR
STARTCHAR e
ENCODING 101
SWIDTH 42 0
DWIDTH 11 0
BBX 10 10 1 0
BITMAP
0780
1FC0
39C0
71C0
7F80
FE00
E000
E180
FF80
7E00
ENDCHAR
STARTCHAR f
ENCODING 102
SWIDTH 42 0
DWIDTH 10 0
BBX 12 17 1 -3
BITMAP
03E0
07F0
0E30
0E00
3FC0
3FC0
1C00
1C00
3800
3800
3800
7000
7000
7000
E000
E000
E000
ENDCHAR
STARTCHAR g
ENCODING 103
SWIDTH 42 0
DWIDTH 13 0
BBX 13 13 0 -3
BITMAP
03F8
0FF8
1C38
3870
3870
70F0
71F0
7F60
3CE0
00E0
E1C0
FFC0
3F00
ENDCHAR
STARTCHAR h
ENCODING 104
SWIDTH 42 0
DWIDTH 13 0
BBX 12 14 1 0
BITMAP
1C00
1C00
1C00
1C00
39E0
3BF0
3E70
7C70
78E0
70E0
70E0
E1C0
E1C0
E1C0
ENDCHAR
STARTCHAR i
ENCODING 105
SWIDTH 42 0
DWIDTH 6 0
BBX 7 14 1 0
BITMAP
0E
1C
00
00
38
38
38
70
70
70
70
E0
E0
E0
ENDCHAR
STARTCHAR j
ENCODING 106
SWIDTH 42 0
DWIDTH 7 0
BBX 11 17 -2 -3
BITMAP
00E0
01C0
0000
0000
0380
0380
0380
0700
0700
0700
0700
0E00
0E00
0E00
DC00
FC00
7000
ENDCHAR
STARTCHAR k
ENCODING 107
SWIDTH 42 0
DWIDTH 12 0
BBX 11 14 1 0
BITMAP
1C00
1C00
1C00
1C00
38E0
38E0
39C0
7300
7E00
7E00
7700
E780
E3C0
E1C0
ENDCHAR
STARTCHAR l
ENCODING 108
SWIDTH 42 0
DWIDTH 6 0
BBX 6 14 1 0
BITMAP
1C
1C
1C
1C
38
38
38
70
70
70
70
E0
E0
E0
ENDCHAR
STARTCHAR m
ENCODING 109
SWIDTH 42 0
DWIDTH 18 0
BBX 17 10 1 0
BITMAP
39C700
3BEF80
3EFB80
7CF380
79E700
71C700
71C700
E38E00
E38E00
E38E00
ENDCHAR
STARTCHAR n
ENCODING 110
SWIDTH 42 0
DWIDTH 13 0
BBX 12 10 1 0
BITMAP
39E0
3BF0
3E70
3C70
78E0
70E0
70E0
E1C0
E1C0
E1C0
ENDCHAR
STARTCHAR o
ENCODING 111
SWIDTH 42 0
DWIDTH 12 0
BBX 11 10 1 0
BITMAP
07C0
1FE0
38E0
70E0
70E0
E1C0
E1C0
E380
FF00
7C00
ENDCHAR
STARTCHAR p
ENCODING 112
SWIDTH 42 0
DWIDTH 13 0
BBX 13 13 0 -3
BITMAP
1CF0
1DF8
1F38
1E38
3C38
3870
3870
70E0
7FC0
7F00
E000
E000
E000
ENDCHAR
STARTCHAR q
ENCODING 113
SWIDTH 42 0
DWIDTH 13 0
BBX 12 13 1 -3
BITMAP
07F0
1FF0
3870
70E0
70E0
E1E0
E3E0
E6C0
FDC0
79C0
0380
0380
0380
ENDCHAR
STARTCHAR r
ENCODING 114
SWIDTH 42 0
DWIDTH 10 0
BBX 9 10 1 0
BITMAP
3980
3B80
3F80
7C00
7800
7000
7000
E000
E000
E000
ENDCHAR
STARTCHAR s
ENCODING 115
SWIDTH 42 0
DWIDTH 11 0
BBX 10 10 1 0
BITMAP
1F80
3FC0
70C0
7800
3E00
1F00
0780
C380
FF00
7E00
ENDCHAR
STARTCHAR t
ENCODING 116
SWIDTH 42 0
DWIDTH 8 0
BBX 7 12 2 0
BITMAP
18
38
FE
FE
70
70
70
E0
E0
E0
F8
78
ENDCHAR
STARTCHAR u
ENCODING 117
SWIDTH 42 0
DWIDTH 13 0
BBX 12 10 1 0
BITMAP
3870
3870
3870
70E0
70E0
71E0
E3C0
E7C0
FDC0
79C0
ENDCHAR
STARTCHAR v
ENCODING 118
SWIDTH 42 0
DWIDTH 12 0
BBX 10 10 3 0
BITMAP
E1C0
E1C0
E380
E300
E700
E600
EC00
F800
F000
E000
ENDCHAR
STARTCHAR w
ENCODING 119
SWIDTH 42 0
DWIDTH 16 0
BBX 15 10 2 0
BITMAP
E00E
E38E
E38E
E79C
E798
EFB0
FBE0
F3C0
E380
C300
ENDCHAR
STARTCHAR x
ENCODING 120
SWIDTH 42 0
DWIDTH 11 0
BBX 11 10 0 0
BITMAP
1CE0
1CE0
1CC0
0F80
0F00
1F00
3700
6380
E380
E380
ENDCHAR
STARTCHAR y
ENCODING 121
SWIDTH 42 0
DWIDTH 12 0
BBX 13 13 0 -3
BITMAP
1C38
1C38
1C70
1C60
1CE0
1CC0
1D80
1F00
1E00
1C00
3800
F000
E000
ENDCHAR
STARTCHAR z
ENCODING 122
SWIDTH 42 0
DWIDTH 12 0
BBX 11 10 1 0
BITMAP
7FE0
7FE0
03C0
0780
0F00
1E00
3C00
7800
FFC0
FFC0
ENDCHAR
STARTCHAR braceleft
ENCODING 123
SWIDTH 42 0
DWIDTH 7 0
BBX 8 16 1 -2
BITMAP
07
0F
1C
1C
1C
1C
18
F0
E0
30
70
70
E0
E0
F0
70
ENDCHAR
STARTCHAR bar
ENCODING 124
SWIDTH 42 0
DWIDTH 7 0
BBX 5 16 2 -2
BITMAP
38
38
38
38
30
70
70
70
70
70
70
60
E0
E0
E0
E0
ENDCHAR
STARTCHAR braceright
ENCODING 125
SWIDTH 42 0
DWIDTH 7 0
BBX 8 16 0 -2
BITMAP
0E
0F
07
07
0E
0E
0C
07
0F
18
38
38
38
38
F0
E0
ENDCHAR
STARTCHAR asciitilde
ENCODING 126
SWIDTH 42 0
DWIDTH 13 0
BBX 10 3 2 5
BITMAP
78C0
FFC0
C780
ENDCHAR
STARTCHAR exclamdown
ENCODING 161
SWIDTH 42 0
DWIDTH 6 0
BBX 5 13 1 -3
BITMAP
38
38
00
30
30
70
70
70
70
E0
E0
E0
E0
ENDCHAR
STARTCHAR cent
ENCODING 162
SWIDTH 42 0
DWIDTH 13 0
BBX 9 13 3 -1
BITMAP
0200
0200
0F00
3F80
7180
6000
E000
E000
E300
FF00
7C00
1000
1000
ENDCHAR
STARTCHAR sterling
ENCODING 163
SWIDTH 42 0
DWIDTH 13 0
BBX 11 13 2 0
BITMAP
03C0
0FE0
1C60
1C00
3800
FF00
FF00
3800
3800
7000
7000
FFC0
FFC0
ENDCHAR
STARTCHAR currency
ENCODING 164
SWIDTH 42 0
DWIDTH 13 0
BBX 14 12 1 0
BITMAP
300C
1818
0FE0
1FF0
1C70
3870
3870
38E0
3FE0
1FC0
6060
C030
ENDCHAR
STARTCHAR yen
ENCODING 165
SWIDTH 42 0
DWIDTH 13 0
BBX 11 13 2 0
BITMAP
70E0
70E0
70C0
38C0
3980
3B00
1E00
FF80
1C00
FF80
1C00
3800
3800
ENDCHAR
STARTCHAR brokenbar
ENCODING 166
SWIDTH 42 0
DWIDTH 5 0
BBX 5 16 1 -2
BITMAP
38
38
38
38
30
30
00
00
00
00
60
60
E0
E0
E0
E0
ENDCHAR
STARTCHAR section
ENCODING 167
SWIDTH 42 0
DWIDTH 13 0
BBX 10 15 2 -2
BITMAP
0780
1FC0
38C0
3800
3C00
6E00
6700
7380
3980
1D80
0F00
0700
C700
FE00
7800
ENDCHAR
STARTCHAR dieresis
ENCODING 168
SWIDTH 42 0
DWIDTH 12 0
BBX 6 2 4 11
BITMAP
CC
CC
ENDCHAR
STARTCHAR copyright
ENCODING 169
SWIDTH 42 0
DWIDTH 16 0
BBX 14 13 2 0
BITMAP
0FC0
3FF0
7038
6398
C6CC
CC0C
CC0C
CC0C
CE8C
6718
7038
3FF0
0FC0
ENDCHAR
STARTCHAR ordfeminine
ENCODING 170
SWIDTH 42 0
DWIDTH 10 0
BBX 9 7 1 6
BITMAP
1F80
7F80
7380
E700
EF00
F700
E700
ENDCHAR
STARTCHAR guillemotleft
ENCODING 171
SWIDTH 42 0
DWIDTH 12 0
BBX 11 8 1 2
BITMAP
0840
1CE0
39C0
7380
E700
7380
39C0
1080
ENDCHAR
STARTCHAR logicalnot
ENCODING 172
SWIDTH 42 0
DWIDTH 13 0
BBX 11 6 1 2
BITMAP
FFE0
FFE0
0060
0060
0060
0060
ENDCHAR
STARTCHAR hyphen
ENCODING 173
SWIDTH 42 0
DWIDTH 6 0
BBX 5 2 1 4
BITMAP
F8
F8
ENDCHAR
STARTCHAR registered
ENCODING 174
SWIDTH 42 0
DWIDTH 13 0
BBX 10 10 2 3
BITMAP
1E00
7F80
6180
DEC0
DAC0
DCC0
DAC0
6180
7F80
1E00
ENDCHAR
STARTCHAR macron
ENCODING 175
SWIDTH 42 0
DWIDTH 12 0
BBX 4 2 6 11
BITMAP
F0
F0
ENDCHAR
STARTCHAR degree
ENCODING 176
SWIDTH 42 0
DWIDTH 5 0
BBX 5 3 1 10
BITMAP
70
D8
70
ENDCHAR
STARTCHAR plusminus
ENCODING 177
SWIDTH 42 0
DWIDTH 13 0
BBX 11 12 1 0
BITMAP
0300
0300
0300
0600
7FE0
7FE0
0600
0C00
0C00
0000
FFE0
FFE0
ENDCHAR
STARTCHAR twosuperior
ENCODING 178
SWIDTH 42 0
DWIDTH 10 0
BBX 8 8 2 5
BITMAP
7E
7F
07
1F
7E
F0
FE
FE
ENDCHAR
STARTCHAR threesuperior
ENCODING 179
SWIDTH 42 0
DWIDTH 10 0
BBX 8 8 2 5
BITMAP
7E
7F
07
3C
3E
0E
FE
F8
ENDCHAR
STARTCHAR acute
ENCODING 180
SWIDTH 42 0
DWIDTH 12 0
BBX 5 2 6 11
BITMAP
78
E0
ENDCHAR
STARTCHAR mu
ENCODING 181
SWIDTH 42 0
DWIDTH 13 0
BBX 13 13 0 -3
BITMAP
1C38
1C38
1C38
3870
3870
38F0
71E0
73E0
7EE0
7CE0
E000
E000
E000
ENDCHAR
STARTCHAR paragraph
ENCODING 182
SWIDTH 42 0
DWIDTH 13 0
BBX 9 15 3 -2
BITMAP
3F80
7C80
FD80
FD80
F900
F900
7B00
1B00
1200
1200
3600
3600
2400
2400
2400
ENDCHAR
STARTCHAR periodcentered
ENCODING 183
SWIDTH 42 0
DWIDTH 13 0
BBX 3 3 6 4
BITMAP
E0
E0
E0
ENDCHAR
STARTCHAR cedilla
ENCODING 184
SWIDTH 42 0
DWIDTH 12 0
BBX 5 3 2 -3
BITMAP
70
38
F0
ENDCHAR
STARTCHAR onesuperior
ENCODING 185
SWIDTH 42 0
DWIDTH 10 0
BBX 5 8 3 5
BITMAP
38
F8
F8
38
38
70
70
70
ENDCHAR
STARTCHAR ordmasculine
ENCODING 186
SWIDTH 42 0
DWIDTH 10 0
BBX 9 7 1 6
BITMAP
1F00
7F80
7380
E380
E700
FF00
7C00
ENDCHAR
STARTCHAR guillemotright
ENCODING 187
SWIDTH 42 0
DWIDTH 12 0
BBX 11 8 1 2
BITMAP
2100
7380
39C0
1CE0
39C0
7380
E700
4200
ENDCHAR
STARTCHAR onequarter
ENCODING 188
SWIDTH 42 0
DWIDTH 20 0
BBX 18 13 1 0
BITMAP
380700
F80E00
381C00
383800
707000
70E000
71C780
038B80
071380
0E3FC0
1C3FC0
380700
700700
ENDCHAR
STARTCHAR onehalf
ENCODING 189
SWIDTH 42 0
DWIDTH 20 0
BBX 18 13 2 0
BITMAP
701C00
F03800
707000
70E000
E1C000
E38000
E30F80
063FC0
0E33C0
1C0780
381C00
707F80
E07F80
ENDCHAR
STARTCHAR threequarters
ENCODING 190
SWIDTH 42 0
DWIDTH 21 0
BBX 19 13 1 0
BITMAP
3E0380
7F0700
0E0E00
3C1C00
0E3800
FE7000
7CE3C0
01C5C0
0389C0
071FE0
0E1FE0
1C0380
380380
ENDCHAR
STARTCHAR questiondown
ENCODING 191
SWIDTH 42 0
DWIDTH 10 0
BBX 8 13 1 -3
BITMAP
07
07
00
00
06
0E
1C
38
70
E0
E3
FF
7E
ENDCHAR
STARTCHAR Agrave
ENCODING 192
SWIDTH 42 0
DWIDTH 14 0
BBX 12 16 1 0
BITMAP
0780
01C0
0000
01C0
03C0
03C0
06E0
0CE0
0CE0
18E0
18E0
3FF0
7FF0
6070
E070
E070
ENDCHAR
STARTCHAR Aacute
ENCODING 193
SWIDTH 42 0
DWIDTH 14 0
BBX 12 16 1 0
BITMAP
01E0
0380
0000
01C0
03C0
03C0
06E0
0CE0
0CE0
18E0
18E0
3FF0
7FF0
6070
E070
E070
ENDCHAR
STARTCHAR Acircumflex
ENCODING 194
SWIDTH 42 0
DWIDTH 14 0
BBX 12 16 1 0
BITMAP
01C0
0360
0000
01C0
03C0
03C0
06E0
0CE0
0CE0
18E0
18E0
3FF0
7FF0
6070
E070
E070
ENDCHAR
STARTCHAR Atilde
ENCODING 195
SWIDTH 42 0
DWIDTH 14 0
BBX 12 16 1 0
BITMAP
03A0
05C0
0000
01C0
03C0
03C0
06E0
0CE0
0CE0
18E0
18E0
3FF0
7FF0
6070
E070
E070
ENDCHAR
STARTCHAR Adieresis
ENCODING 196
SWIDTH 42 0
DWIDTH 14 0
BBX 12 16 1 0
BITMAP
0660
0660
0000
01C0
03C0
03C0
06E0
0CE0
0CE0
18E0
18E0
3FF0
7FF0
6070
E070
E070
ENDCHAR
STARTCHAR Aring
ENCODING 197
SWIDTH 42 0
DWIDTH 14 0
BBX 12 16 1 0
BITMAP
01C0
0360
01C0
01C0
03C0
03C0
06E0
0CE0
0CE0
18E0
18E0
3FF0
7FF0
6070
E070
E070
ENDCHAR
STARTCHAR AE
ENCODING 198
SWIDTH 42 0
DWIDTH 18 0
BBX 17 13 1 0
BITMAP
00FF80
01FF80
037000
067000
0CE000
1CFE00
18FE00
30E000
7FC000
7FC000
E1C000
E1FE00
E1FE00
ENDCHAR
STARTCHAR Ccedilla
ENCODING 199
SWIDTH 42 0
DWIDTH 14 0
BBX 13 16 2 -3
BITMAP
07E0
1FF8
3C38
7000
7000
E000
E000
E000
E000
E000
7060
7FE0
1F80
1C00
0E00
3C00
ENDCHAR
STARTCHAR Egrave
ENCODING 200
SWIDTH 42 0
DWIDTH 12 0
BBX 10 16 2 0
BITMAP
0F00
0380
0000
3FC0
3FC0
3800
3800
7000
7F00
7F00
7000
E000
E000
E000
FF00
FF00
ENDCHAR
STARTCHAR Eacute
ENCODING 201
SWIDTH 42 0
DWIDTH 12 0
BBX 10 16 2 0
BITMAP
0780
0E00
0000
3FC0
3FC0
3800
3800
7000
7F00
7F00
7000
E000
E000
E000
FF00
FF00
ENDCHAR
STARTCHAR Ecircumflex
ENCODING 202
SWIDTH 42 0
DWIDTH 12 0
BBX 10 16 2 0
BITMAP
0700
0D80
0000
3FC0
3FC0
3800
3800
7000
7F00
7F00
7000
E000
E000
E000
FF00
FF00
ENDCHAR
STARTCHAR Edieresis
ENCODING 203
SWIDTH 42 0
DWIDTH 12 0
BBX 10 16 2 0
BITMAP
1980
1980
0000
3FC0
3FC0
3800
3800
7000
7F00
7F00
7000
E000
E000
E000
FF00
FF00
ENDCHAR
STARTCHAR Igrave
ENCODING 204
SWIDTH 42 0
DWIDTH 7 0
BBX 5 16 2 0
BITMAP
F0
38
00
38
38
38
38
70
70
70
70
E0
E0
E0
E0
E0
ENDCHAR
STARTCHAR Iacute
ENCODING 205
SWIDTH 42 0
DWIDTH 7 0
BBX 7 16 2 0
BITMAP
1E
38
00
38
38
38
38
70
70
70
70
E0
E0
E0
E0
E0
ENDCHAR
STARTCHAR Icircumflex
ENCODING 206
SWIDTH 42 0
DWIDTH 7 0
BBX 6 16 2 0
BITMAP
38
6C
00
38
38
38
38
70
70
70
70
E0
E0
E0
E0
E0
ENDCHAR
STARTCHAR Idieresis
ENCODING 207
SWIDTH 42 0
DWIDTH 7 0
BBX 6 16 2 0
BITMAP
CC
CC
00
38
38
38
38
70
70
70
70
E0
E0
E0
E0
E0
ENDCHAR
STARTCHAR Eth
ENCODING 208
SWIDTH 42 0
DWIDTH 15 0
BBX 14 13 1 0
BITMAP
1FE0
1FF8
1C38
1C1C
381C
FF9C
FF9C
381C
7038
7038
70F0
7FE0
7F80
ENDCHAR
STARTCHAR Ntilde
ENCODING 209
SWIDTH 42 0
DWIDTH 15 0
BBX 13 16 2 0
BITMAP
03A0
05C0
0000
3818
3C18
3C18
3E18
3E18
6730
6730
63B0
63F0
C1E0
C1E0
C0E0
C0E0
ENDCHAR
STARTCHAR Ograve
ENCODING 210
SWIDTH 42 0
DWIDTH 16 0
BBX 14 16 2 0
BITMAP
0780
01C0
0000
07E0
1FF8
3C38
701C
701C
E01C
E01C
E01C
E038
E038
70F0
7FE0
1F80
ENDCHAR
STARTCHAR Oacute
ENCODING 211
SWIDTH 42 0
DWIDTH 16 0
BBX 14 16 2 0
BITMAP
01E0
0380
0000
07E0
1FF8
3C38
701C
701C
E01C
E01C
E01C
E038
E038
70F0
7FE0
1F80
ENDCHAR
STARTCHAR Ocircumflex
ENCODING 212
SWIDTH 42 0
DWIDTH 16 0
BBX 14 16 2 0
BITMAP
01C0
0360
0000
07E0
1FF8
3C38
701C
701C
E01C
E01C
E01C
E038
E038
70F0
7FE0
1F80
ENDCHAR
STARTCHAR Otilde
ENCODING 213
SWIDTH 42 0
DWIDTH 16 0
BBX 14 16 2 0
BITMAP
03A0
05C0
0000
07E0
1FF8
3C38
701C
701C
E01C
E01C
E01C
E038
E038
70F0
7FE0
1F80
ENDCHAR
STARTCHAR Odieresis
ENCODING 214
SWIDTH 42 0
DWIDTH 16 0
BBX 14 16 2 0
BITMAP
0660
0660
0000
07E0
1FF8
3C38
701C
701C
E01C
E01C
E01C
E038
E038
70F0
7FE0
1F80
ENDCHAR
STARTCHAR multiply
ENCODING 215
SWIDTH 42 0
DWIDTH 13 0
BBX 10 10 2 1
BITMAP
30C0
30C0
1980
1F00
0E00
1E00
3700
6300
C180
C180
ENDCHAR
STARTCHAR Oslash
ENCODING 216
SWIDTH 42 0
DWIDTH 16 0
BBX 14 13 2 0
BITMAP
07EC
1FFC
3C38
707C
70DC
E19C
E31C
E61C
EC38
F838
70F0
FFE0
DF80
ENDCHAR
STARTCHAR Ugrave
ENCODING 217
SWIDTH 42 0
DWIDTH 14 0
BBX 13 16 2 0
BITMAP
0780
01C0
0000
3818
3818
3818
3818
7030
7030
7030
7060
E060
E0E0
F1C0
7F80
3E00
ENDCHAR
STARTCHAR Uacute
ENCODING 218
SWIDTH 42 0
DWIDTH 14 0
BBX 13 16 2 0
BITMAP
01E0
0380
0000
3818
3818
3818
3818
7030
7030
7030
7060
E060
E0E0
F1C0
7F80
3E00
ENDCHAR
STARTCHAR Ucircumflex
ENCODING 219
SWIDTH 42 0
DWIDTH 14 0
BBX 13 16 2 0
BITMAP
01C0
0360
0000
3818
3818
3818
3818
7030
7030
7030
7060
E060
E0E0
F1C0
7F80
3E00
ENDCHAR
STARTCHAR Udieresis
ENCODING 220
SWIDTH 42 0
DWIDTH 14 0
BBX 13 16 2 0
BITMAP
0660
0660
0000
3818
3818
3818
3818
7030
7030
7030
7060
E060
E0E0
F1C0
7F80
3E00
ENDCHAR
STARTCHAR Yacute
ENCODING 221
SWIDTH 42 0
DWIDTH 12 0
BBX 11 16 3 0
BITMAP
0780
0E00
0000
E0E0
E0E0
E1C0
F380
7300
7600
3C00
3800
3800
7000
7000
7000
7000
ENDCHAR
STARTCHAR Thorn
ENCODING 222
SWIDTH 42 0
DWIDTH 13 0
BBX 11 13 2 0
BITMAP
3800
3800
3800
3FC0
7FE0
70E0
70E0
71E0
FFC0
FF00
E000
E000
E000
ENDCHAR
STARTCHAR germandbls
ENCODING 223
SWIDTH 42 0
DWIDTH 13 0
BBX 13 17 0 -3
BITMAP
01F0
07F8
0738
0E38
0E30
1C60
1DC0
1DE0
38F0
3870
3870
7070
73E0
73C0
E000
E000
E000
ENDCHAR
STARTCHAR agrave
ENCODING 224
SWIDTH 42 0
DWIDTH 13 0
BBX 12 13 1 0
BITMAP
03C0
00E0
0000
07F0
1FF0
3870
70E0
70E0
E1E0
E3C0
E7C0
FDC0
79C0
ENDCHAR
STARTCHAR aacute
ENCODING 225
SWIDTH 42 0
DWIDTH 13 0
BBX 12 13 1 0
BITMAP
01E0
0380
0000
07F0
1FF0
3870
70E0
70E0
E1E0
E3C0
E7C0
FDC0
79C0
ENDCHAR
STARTCHAR acircumflex
ENCODING 226
SWIDTH 42 0
DWIDTH 13 0
BBX 12 13 1 0
BITMAP
0380
06C0
0000
07F0
1FF0
3870
70E0
70E0
E1E0
E3C0
E7C0
FDC0
79C0
ENDCHAR
STARTCHAR atilde
ENCODING 227
SWIDTH 42 0
DWIDTH 13 0
BBX 12 13 1 0
BITMAP
03A0
05C0
0000
07F0
1FF0
3870
70E0
70E0
E1E0
E3C0
E7C0
FDC0
79C0
ENDCHAR
STARTCHAR adieresis
ENCODING 228
SWIDTH 42 0
DWIDTH 13 0
BBX 12 13 1 0
BITMAP
0660
0660
0000
07F0
1FF0
3870
70E0
70E0
E1E0
E3C0
E7C0
FDC0
79C0
ENDCHAR
STARTCHAR aring
ENCODING 229
SWIDTH 42 0
DWIDTH 13 0
BBX 12 14 1 0
BITMAP
01C0
0360
01C0
0000
07F0
1FF0
3870
70E0
70E0
E1E0
E3C0
E7C0
FDC0
79C0
ENDCHAR
STARTCHAR ae
ENCODING 230
SWIDTH 42 0
DWIDTH 18 0
BBX 17 10 1 0
BITMAP
07DF00
1FFF80
386380
70E380
71FF00
E3FC00
E7C000
EDC300
F9FF00
70FE00
ENDCHAR
STARTCHAR ccedilla
ENCODING 231
SWIDTH 42 0
DWIDTH 11 0
BBX 10 13 1 -3
BITMAP
0780
1FC0
38C0
7000
7000
E000
E000
E180
FF80
7E00
3800
1C00
7800
ENDCHAR
STARTCHAR egrave
ENCODING 232
SWIDTH 42 0
DWIDTH 11 0
BBX 10 13 1 0
BITMAP
0F00
0380
0000
0780
1FC0
39C0
71C0
7F80
FE00
E000
E180
FF80
7E00
ENDCHAR
STARTCHAR eacute
ENCODING 233
SWIDTH 42 0
DWIDTH 11 0
BBX 10 13 1 0
BITMAP
03C0
0700
0000
0780
1FC0
39C0
71C0
7F80
FE00
E000
E180
FF80
7E00
ENDCHAR
STARTCHAR ecircumflex
ENCODING 234
SWIDTH 42 0
DWIDTH 11 0
BBX 10 13 1 0
BITMAP
0700
0D80
0000
0780
1FC0
39C0
71C0
7F80
FE00
E000
E180
FF80
7E00
ENDCHAR
STARTCHAR edieresis
ENCODING 235
SWIDTH 42 0
DWIDTH 11 0
BBX 10 13 1 0
BITMAP
1980
1980
0000
0780
1FC0
39C0
71C0
7F80
FE00
E000
E180
FF80
7E00
ENDCHAR
STARTCHAR igrave
ENCODING 236
SWIDTH 42 0
DWIDTH 6 0
BBX 5 13 1 0
BITMAP
F0
38
00
38
38
38
70
70
70
70
E0
E0
E0
ENDCHAR
STARTCHAR iacute
ENCODING 237
SWIDTH 42 0
DWIDTH 6 0
BBX 7 13 1 0
BITMAP
1E
38
00
38
38
38
70
70
70
70
E0
E0
E0
ENDCHAR
STARTCHAR icircumflex
ENCODING 238
SWIDTH 42 0
DWIDTH 6 0
BBX 6 13 1 0
BITMAP
38
6C
00
38
38
38
70
70
70
70
E0
E0
E0
ENDCHAR
STARTCHAR idieresis
ENCODING 239
SWIDTH 42 0
DWIDTH 6 0
BBX 6 13 1 0
BITMAP
CC
CC
00
38
38
38
70
70
70
70
E0
E0
E0
ENDCHAR
STARTCHAR eth
ENCODING 240
SWIDTH 42 0
DWIDTH 12 0
BBX 12 14 1 0
BITMAP
0700
07F0
01C0
07E0
00E0
0FE0
3FE0
70E0
70E0
E1C0
E1C0
E380
FF00
7C00
ENDCHAR
STARTCHAR ntilde
ENCODING 241
SWIDTH 42 0
DWIDTH 13 0
BBX 12 13 1 0
BITMAP
03A0
05C0
0000
39E0
3BF0
3E70
3C70
78E0
70E0
70E0
E1C0
E1C0
E1C0
ENDCHAR
STARTCHAR ograve
ENCODING 242
SWIDTH 42 0
DWIDTH 12 0
BBX 11 13 1 0
BITMAP
0F00
0380
0000
07C0
1FE0
38E0
70E0
70E0
E1C0
E1C0
E380
FF00
7C00
ENDCHAR
STARTCHAR oacute
ENCODING 243
SWIDTH 42 0
DWIDTH 12 0
BBX 11 13 1 0
BITMAP
03C0
0700
0000
07C0
1FE0
38E0
70E0
70E0
E1C0
E1C0
E380
FF00
7C00
ENDCHAR
STARTCHAR ocircumflex
ENCODING 244
SWIDTH 42 0
DWIDTH 12 0
BBX 11 13 1 0
BITMAP
0380
06C0
0000
07C0
1FE0
38E0
70E0
70E0
E1C0
E1C0
E380
FF00
7C00
ENDCHAR
STARTCHAR otilde
ENCODING 245
SWIDTH 42 0
DWIDTH 12 0
BBX 11 13 1 0
BITMAP
0740
0B80
0000
07C0
1FE0
38E0
70E0
70E0
E1C0
E1C0
E380
FF00
7C00
ENDCHAR
STARTCHAR odieresis
ENCODING 246
SWIDTH 42 0
DWIDTH 12 0
BBX 11 13 1 0
BITMAP
0CC0
0CC0
0000
07C0
1FE0
38E0
70E0
70E0
E1C0
E1C0
E380
FF00
7C00
ENDCHAR
STARTCHAR divide
ENCODING 247
SWIDTH 42 0
DWIDTH 13 0
BBX 10 12 2 0
BITMAP
0600
0600
0600
0000
0000
FFC0
FFC0
0000
0000
1800
1800
1800
ENDCHAR
STARTCHAR oslash
ENCODING 248
SWIDTH 42 0
DWIDTH 12 0
BBX 13 12 0 -1
BITMAP
0018
03F8
0FF0
1C70
38F0
3B70
76E0
78E0
71C0
7F80
FE00
C000
ENDCHAR
STARTCHAR ugrave
ENCODING 249
SWIDTH 42 0
DWIDTH 13 0
BBX 12 13 1 0
BITMAP
0780
01C0
0000
3870
3870
3870
70E0
70E0
71E0
E3C0
E7C0
FDC0
79C0
ENDCHAR
STARTCHAR uacute
ENCODING 250
SWIDTH 42 0
DWIDTH 13 0
BBX 12 13 1 0
BITMAP
01E0
0380
0000
3870
3870
3870
70E0
70E0
71E0
E3C0
E7C0
FDC0
79C0
ENDCHAR
STARTCHAR ucircumflex
ENCODING 251
SWIDTH 42 0
DWIDTH 13 0
BBX 12 13 1 0
BITMAP
0380
06C0
0000
3870
3870
3870
70E0
70E0
71E0
E3C0
E7C0
FDC0
79C0
ENDCHAR
STARTCHAR udieresis
ENCODING 252
SWIDTH 42 0
DWIDTH 13 0
BBX 12 13 1 0
BITMAP
0CC0
0CC0
0000
3870
3870
3870
70E0
70E0
71E0
E3C0
E7C0
FDC0
79C0
ENDCHAR
STARTCHAR yacute
ENCODING 253
SWIDTH 42 0
DWIDTH 12 0
BBX 13 16 0 -3
BITMAP
00F0
01C0
0000
1C38
1C38
1C70
1C60
1CE0
1CC0
1D80
1F00
1E00
1C00
3800
F000
E000
ENDCHAR
STARTCHAR thorn
ENCODING 254
SWIDTH 42 0
DWIDTH 13 0
BBX 13 16 0 -3
BITMAP
1C00
1C00
1C00
1CF0
19F8
3B38
3E38
3C38
3870
7870
70E0
7FC0
7F00
E000
E000
E000
ENDCHAR
STARTCHAR ydieresis
ENCODING 255
SWIDTH 42 0
DWIDTH 12 0
BBX 13 16 0 -3
BITMAP
0660
0660
0000
1C38
1C38
1C70
1C60
1CE0
1CC0
1D80
1F00
1E00
1C00
3800
F000
E000
ENDCHAR
STARTCHAR fl
ENCODING -1
SWIDTH 42 0
DWIDTH 13 0
BBX 14 17 0 -3
BITMAP
03FC
07FC
0E1C
0E1C
3FB8
3FB8
1C38
1C70
3870
3870
3870
70E0
70E0
70E0
E000
E000
E000
ENDCHAR
STARTCHAR endash
ENCODING -1
SWIDTH 42 0
DWIDTH 10 0
BBX 9 2 1 4
BITMAP
FF80
FF80
ENDCHAR
STARTCHAR dagger
ENCODING -1
SWIDTH 42 0
DWIDTH 13 0
BBX 10 15 2 -2
BITMAP
0E00
0E00
0E00
0E00
FFC0
FFC0
1C00
1C00
3800
3800
3800
7800
7000
7000
7000
ENDCHAR
STARTCHAR Zcaron
ENCODING -1
SWIDTH 42 0
DWIDTH 13 0
BBX 12 16 1 0
BITMAP
06C0
0380
0000
3FF0
3FF0
00F0
01E0
03C0
0780
0F00
1E00
3C00
7800
F000
FFC0
FFC0
ENDCHAR
STARTCHAR oe
ENCODING -1
SWIDTH 42 0
DWIDTH 18 0
BBX 17 10 1 0
BITMAP
079F00
1FFF80
38E380
70E380
70FF00
E1FC00
E1C000
E3C300
FFFF00
7CFE00
ENDCHAR
STARTCHAR Ydieresis
ENCODING -1
SWIDTH 42 0
DWIDTH 12 0
BBX 11 16 3 0
BITMAP
1980
1980
0000
E0E0
E0E0
E1C0
F380
7300
7600
3C00
3800
3800
7000
7000
7000
7000
ENDCHAR
STARTCHAR dotlessi
ENCODING -1
SWIDTH 42 0
DWIDTH 6 0
BBX 5 10 1 0
BITMAP
38
38
38
70
70
70
70
E0
E0
E0
ENDCHAR
STARTCHAR lslash
ENCODING -1
SWIDTH 42 0
DWIDTH 7 0
BBX 8 14 0 0
BITMAP
0E
0E
0E
0E
1C
1F
FF
F8
38
38
38
70
70
70
ENDCHAR
STARTCHAR Lslash
ENCODING -1
SWIDTH 42 0
DWIDTH 12 0
BBX 11 13 1 0
BITMAP
0E00
0E00
0E00
0E00
1D80
1F80
FC00
D800
3800
3800
3800
3FE0
3FE0
ENDCHAR
STARTCHAR daggerdbl
ENCODING -1
SWIDTH 42 0
DWIDTH 13 0
BBX 11 15 2 -2
BITMAP
0700
0700
0700
0E00
7FE0
7FE0
0E00
1C00
1C00
FFC0
FFC0
1C00
3800
3800
3800
ENDCHAR
STARTCHAR fi
ENCODING -1
SWIDTH 42 0
DWIDTH 13 0
BBX 13 17 0 -3
BITMAP
03E0
07F8
0E38
0E00
3FF8
3FF8
1C38
1C70
3870
3870
3870
70E0
70E0
70E0
E000
E000
E000
ENDCHAR
STARTCHAR guilsinglright
ENCODING -1
SWIDTH 42 0
DWIDTH 7 0
BBX 6 8 1 2
BITMAP
20
70
38
1C
38
70
E0
40
ENDCHAR
STARTCHAR OE
ENCODING -1
SWIDTH 42 0
DWIDTH 20 0
BBX 18 13 2 0
BITMAP
07FFC0
1FFFC0
3C3800
703800
707000
E07F00
E07F00
E07000
E0E000
E0E000
70E000
7FFF00
1FFF00
ENDCHAR
STARTCHAR emdash
ENCODING -1
SWIDTH 42 0
DWIDTH 19 0
BBX 18 2 1 4
BITMAP
FFFFC0
FFFFC0
ENDCHAR
STARTCHAR caron
ENCODING -1
SWIDTH 42 0
DWIDTH 12 0
BBX 5 2 5 11
BITMAP
D8
70
ENDCHAR
STARTCHAR ogonek
ENCODING -1
SWIDTH 42 0
DWIDTH 12 0
BBX 5 3 2 -3
BITMAP
70
E0
78
ENDCHAR
STARTCHAR hungarumlaut
ENCODING -1
SWIDTH 42 0
DWIDTH 12 0
BBX 5 3 6 11
BITMAP
48
D8
90
ENDCHAR
STARTCHAR guilsinglleft
ENCODING -1
SWIDTH 42 0
DWIDTH 7 0
BBX 6 8 1 2
BITMAP
08
1C
38
70
E0
70
38
10
ENDCHAR
STARTCHAR dotaccent
ENCODING -1
SWIDTH 42 0
DWIDTH 12 0
BBX 3 2 7 11
BITMAP
E0
E0
ENDCHAR
STARTCHAR breve
ENCODING -1
SWIDTH 42 0
DWIDTH 12 0
BBX 5 3 5 11
BITMAP
88
F8
70
ENDCHAR
STARTCHAR bullet
ENCODING -1
SWIDTH 42 0
DWIDTH 13 0
BBX 6 6 4 2
BITMAP
FC
FC
FC
FC
FC
FC
ENDCHAR
STARTCHAR tilde
ENCODING -1
SWIDTH 42 0
DWIDTH 12 0
BBX 6 2 5 11
BITMAP
74
B8
ENDCHAR
STARTCHAR circumflex
ENCODING -1
SWIDTH 42 0
DWIDTH 12 0
BBX 5 2 5 11
BITMAP
70
D8
ENDCHAR
STARTCHAR quotedblleft
ENCODING -1
SWIDTH 42 0
DWIDTH 10 0
BBX 8 4 3 10
BITMAP
33
66
EE
EE
ENDCHAR
STARTCHAR quotesingle
ENCODING -1
SWIDTH 42 0
DWIDTH 5 0
BBX 2 4 3 10
BITMAP
C0
C0
C0
80
ENDCHAR
STARTCHAR scaron
ENCODING -1
SWIDTH 42 0
DWIDTH 11 0
BBX 10 13 1 0
BITMAP
1B00
0E00
0000
1F80
3FC0
70C0
7800
3E00
1F00
0780
C380
FF00
7E00
ENDCHAR
STARTCHAR ring
ENCODING -1
SWIDTH 42 0
DWIDTH 12 0
BBX 5 3 6 11
BITMAP
70
D8
70
ENDCHAR
STARTCHAR quotesinglbase
ENCODING -1
SWIDTH 42 0
DWIDTH 5 0
BBX 4 4 0 -2
BITMAP
70
70
60
C0
ENDCHAR
STARTCHAR florin
ENCODING -1
SWIDTH 42 0
DWIDTH 13 0
BBX 12 15 2 -2
BITMAP
01E0
07F0
0E30
0E00
1C00
FFC0
FFC0
3800
3800
7000
7000
7000
E000
E000
E000
ENDCHAR
STARTCHAR trademark
ENCODING -1
SWIDTH 42 0
DWIDTH 17 0
BBX 15 6 2 7
BITMAP
FDC6
FDCE
31FE
6376
636C
630C
ENDCHAR
STARTCHAR fraction
ENCODING -1
SWIDTH 42 0
DWIDTH 6 0
BBX 10 13 -1 0
BITMAP
00C0
01C0
0180
0380
0700
0600
0C00
1C00
3800
3000
7000
E000
C000
ENDCHAR
STARTCHAR grave
ENCODING -1
SWIDTH 42 0
DWIDTH 12 0
BBX 5 2 5 11
BITMAP
F0
38
ENDCHAR
STARTCHAR perthousand
ENCODING -1
SWIDTH 42 0
DWIDTH 25 0
BBX 24 13 1 0
BITMAP
3C0600
7E0C00
EE1800
C63000
EE6000
FCC000
799E1E
033F3F
067777
0C6363
187777
307F7E
603C3C
ENDCHAR
STARTCHAR ellipsis
ENCODING -1
SWIDTH 42 0
DWIDTH 12 0
BBX 8 2 3 0
BITMAP
C3
C3
ENDCHAR
STARTCHAR quotedblright
ENCODING -1
SWIDTH 42 0
DWIDTH 10 0
BBX 8 4 2 10
BITMAP
77
77
66
CC
ENDCHAR
STARTCHAR Scaron
ENCODING -1
SWIDTH 42 0
DWIDTH 12 0
BBX 11 16 1 0
BITMAP
06C0
0380
0000
07C0
1FE0
3C60
3800
3C00
1E00
0F00
0780
0380
0380
C780
FF00
7C00
ENDCHAR
STARTCHAR quotedblbase
ENCODING -1
SWIDTH 42 0
DWIDTH 10 0
BBX 8 4 1 -2
BITMAP
77
77
66
CC
ENDCHAR
STARTCHAR zcaron
ENCODING -1
SWIDTH 42 0
DWIDTH 12 0
BBX 11 13 1 0
BITMAP
0D80
0700
0000
7FE0
7FE0
03C0
0780
0F00
1E00
3C00
7800
FFC0
FFC0
ENDCHAR
ENDFONT
