STARTFONT 2.1
COMMENT  (c) Copyright Bigelow & Holmes 1986, 1985. Lucida is a registered
COMMENT  trademark of Bigelow & Holmes. See LEGAL NOTICE file for terms 
COMMENT  of the license. 
COMMENT GRID 0012 0012 0200 0200
FONT -B&H-Lucida-Medium-I-Normal-Sans-12-120-75-75-P-71-ISO8859-1
SIZE 12 72 72
FONTBOUNDINGBOX 15 13 -2 -2
STARTPROPERTIES 19
COMMENT Begin LogicalFontDescription
FONTNAME_REGISTRY ""
FOUNDRY "B&H"
FAMILY_NAME "Lucida"
WEIGHT_NAME "Medium"
SLANT "I"
SETWIDTH_NAME "Normal"
ADD_STYLE_NAME "Sans"
PIXEL_SIZE 12
POINT_SIZE 120
RESOLUTION_X 75
RESOLUTION_Y 75
SPACING "P"
AVERAGE_WIDTH 71
CHARSET_REGISTRY "ISO8859"
CHARSET_ENCODING "1"
COMMENT END LogicalFontDescription
FONT_ASCENT 11
FONT_DESCENT 2
DEFAULT_CHAR 32
COPYRIGHT "Copyright Bigelow & Holmes 1986, 1985."
ENDPROPERTIES
CHARS 228
STARTCHAR space
ENCODING 32
SWIDTH 42 0
DWIDTH 4 0
BBX 1 1 0 0
BITMAP
00
ENDCHAR
STARTCHAR exclam
ENCODING 33
SWIDTH 42 0
DWIDTH 3 0
BBX 3 9 0 0
BITMAP
20
20
20
40
40
40
00
80
80
ENDCHAR
STARTCHAR quotedbl
ENCODING 34
SWIDTH 42 0
DWIDTH 5 0
BBX 3 3 1 7
BITMAP
A0
A0
A0
ENDCHAR
STARTCHAR numbersign
ENCODING 35
SWIDTH 42 0
DWIDTH 8 0
BBX 8 9 0 0
BITMAP
12
12
7F
24
24
24
FE
48
48
ENDCHAR
STARTCHAR dollar
ENCODING 36
SWIDTH 42 0
DWIDTH 8 0
BBX 6 11 1 -1
BITMAP
10
38
54
50
50
30
28
28
A8
70
20
ENDCHAR
STARTCHAR percent
ENCODING 37
SWIDTH 42 0
DWIDTH 9 0
BBX 8 9 1 0
BITMAP
61
92
94
68
18
16
29
49
86
ENDCHAR
STARTCHAR ampersand
ENCODING 38
SWIDTH 42 0
DWIDTH 9 0
BBX 7 9 1 0
BITMAP
18
24
24
28
70
92
8A
8C
72
ENDCHAR
STARTCHAR quoteright
ENCODING 39
SWIDTH 42 0
DWIDTH 3 0
BBX 2 3 1 7
BITMAP
40
40
80
ENDCHAR
STARTCHAR parenleft
ENCODING 40
SWIDTH 42 0
DWIDTH 4 0
BBX 4 11 1 -1
BITMAP
10
20
40
40
80
80
80
80
80
80
40
ENDCHAR
STARTCHAR parenright
ENCODING 41
SWIDTH 42 0
DWIDTH 4 0
BBX 4 11 -1 -1
BITMAP
20
10
10
10
10
10
10
20
20
40
80
ENDCHAR
STARTCHAR asterisk
ENCODING 42
SWIDTH 42 0
DWIDTH 6 0
BBX 6 5 0 4
BITMAP
10
54
30
A8
20
ENDCHAR
STARTCHAR plus
ENCODING 43
SWIDTH 42 0
DWIDTH 8 0
BBX 6 7 1 1
BITMAP
10
10
10
FC
20
20
20
ENDCHAR
STARTCHAR comma
ENCODING 44
SWIDTH 42 0
DWIDTH 3 0
BBX 2 3 0 -1
BITMAP
40
40
80
ENDCHAR
STARTCHAR minus
ENCODING 45
SWIDTH 42 0
DWIDTH 8 0
BBX 6 1 1 4
BITMAP
FC
ENDCHAR
STARTCHAR period
ENCODING 46
SWIDTH 42 0
DWIDTH 3 0
BBX 1 2 1 0
BITMAP
80
80
ENDCHAR
STARTCHAR slash
ENCODING 47
SWIDTH 42 0
DWIDTH 6 0
BBX 7 11 0 -1
BITMAP
02
02
04
08
08
10
20
20
40
80
80
ENDCHAR
STARTCHAR zero
ENCODING 48
SWIDTH 42 0
DWIDTH 8 0
BBX 6 9 1 0
BITMAP
38
44
44
44
84
88
88
88
70
ENDCHAR
STARTCHAR one
ENCODING 49
SWIDTH 42 0
DWIDTH 8 0
BBX 3 9 3 0
BITMAP
20
E0
20
20
60
40
40
40
40
ENDCHAR
STARTCHAR two
ENCODING 50
SWIDTH 42 0
DWIDTH 8 0
BBX 6 9 1 0
BITMAP
38
44
04
04
08
30
40
80
F8
ENDCHAR
STARTCHAR three
ENCODING 51
SWIDTH 42 0
DWIDTH 8 0
BBX 6 9 1 0
BITMAP
38
44
04
08
70
08
08
88
70
ENDCHAR
STARTCHAR four
ENCODING 52
SWIDTH 42 0
DWIDTH 8 0
BBX 6 9 1 0
BITMAP
18
28
28
48
88
FC
10
10
10
ENDCHAR
STARTCHAR five
ENCODING 53
SWIDTH 42 0
DWIDTH 8 0
BBX 6 9 1 0
BITMAP
3C
20
40
40
70
08
08
90
60
ENDCHAR
STARTCHAR six
ENCODING 54
SWIDTH 42 0
DWIDTH 8 0
BBX 6 9 1 0
BITMAP
18
24
40
40
70
88
88
88
70
ENDCHAR
STARTCHAR seven
ENCODING 55
SWIDTH 42 0
DWIDTH 8 0
BBX 6 9 1 0
BITMAP
7C
04
08
10
20
40
40
80
80
ENDCHAR
STARTCHAR eight
ENCODING 56
SWIDTH 42 0
DWIDTH 8 0
BBX 6 9 1 0
BITMAP
38
44
44
28
50
88
88
90
60
ENDCHAR
STARTCHAR nine
ENCODING 57
SWIDTH 42 0
DWIDTH 8 0
BBX 6 9 1 0
BITMAP
38
44
44
44
38
08
08
90
60
ENDCHAR
STARTCHAR colon
ENCODING 58
SWIDTH 42 0
DWIDTH 3 0
BBX 2 7 1 0
BITMAP
40
40
00
00
00
80
80
ENDCHAR
STARTCHAR semicolon
ENCODING 59
SWIDTH 42 0
DWIDTH 3 0
BBX 3 8 0 -1
BITMAP
20
20
00
00
00
40
40
80
ENDCHAR
STARTCHAR less
ENCODING 60
SWIDTH 42 0
DWIDTH 8 0
BBX 7 7 0 0
BITMAP
06
18
60
80
40
30
0C
ENDCHAR
STARTCHAR equal
ENCODING 61
SWIDTH 42 0
DWIDTH 8 0
BBX 7 3 1 3
BITMAP
7E
00
FC
ENDCHAR
STARTCHAR greater
ENCODING 62
SWIDTH 42 0
DWIDTH 8 0
BBX 7 7 1 0
BITMAP
60
18
04
02
0C
30
C0
ENDCHAR
STARTCHAR question
ENCODING 63
SWIDTH 42 0
DWIDTH 6 0
BBX 5 9 1 0
BITMAP
30
48
08
30
40
40
00
80
80
ENDCHAR
STARTCHAR at
ENCODING 64
SWIDTH 42 0
DWIDTH 11 0
BBX 8 9 2 0
BITMAP
1E
21
47
89
92
92
8D
40
3C
ENDCHAR
STARTCHAR A
ENCODING 65
SWIDTH 42 0
DWIDTH 8 0
BBX 6 9 1 0
BITMAP
04
0C
14
24
44
7C
84
84
84
ENDCHAR
STARTCHAR B
ENCODING 66
SWIDTH 42 0
DWIDTH 7 0
BBX 6 9 1 0
BITMAP
78
44
44
48
F8
84
84
88
F0
ENDCHAR
STARTCHAR C
ENCODING 67
SWIDTH 42 0
DWIDTH 8 0
BBX 7 9 1 0
BITMAP
0C
32
40
40
80
80
80
C4
78
ENDCHAR
STARTCHAR D
ENCODING 68
SWIDTH 42 0
DWIDTH 9 0
BBX 7 9 1 0
BITMAP
7C
46
42
42
C2
84
84
88
F0
ENDCHAR
STARTCHAR E
ENCODING 69
SWIDTH 42 0
DWIDTH 7 0
BBX 6 9 1 0
BITMAP
7C
40
40
40
F0
80
80
80
F8
ENDCHAR
STARTCHAR F
ENCODING 70
SWIDTH 42 0
DWIDTH 6 0
BBX 6 9 1 0
BITMAP
7C
40
40
40
F0
80
80
80
80
ENDCHAR
STARTCHAR G
ENCODING 71
SWIDTH 42 0
DWIDTH 9 0
BBX 7 9 1 0
BITMAP
0C
32
40
40
80
84
84
C4
7C
ENDCHAR
STARTCHAR H
ENCODING 72
SWIDTH 42 0
DWIDTH 9 0
BBX 7 9 1 0
BITMAP
42
42
42
42
FE
84
84
84
84
ENDCHAR
STARTCHAR I
ENCODING 73
SWIDTH 42 0
DWIDTH 4 0
BBX 2 9 1 0
BITMAP
40
40
40
40
C0
80
80
80
80
ENDCHAR
STARTCHAR J
ENCODING 74
SWIDTH 42 0
DWIDTH 5 0
BBX 4 11 0 -2
BITMAP
10
10
10
10
30
20
20
20
20
60
C0
ENDCHAR
STARTCHAR K
ENCODING 75
SWIDTH 42 0
DWIDTH 8 0
BBX 7 9 1 0
BITMAP
42
44
48
50
E0
90
88
8C
86
ENDCHAR
STARTCHAR L
ENCODING 76
SWIDTH 42 0
DWIDTH 7 0
BBX 5 9 1 0
BITMAP
40
40
40
40
C0
80
80
80
F8
ENDCHAR
STARTCHAR M
ENCODING 77
SWIDTH 42 0
DWIDTH 11 0
BBX 9 9 1 0
BITMAP
7380
5280
5280
5480
5480
8900
8900
8100
8100
ENDCHAR
STARTCHAR N
ENCODING 78
SWIDTH 42 0
DWIDTH 9 0
BBX 7 9 1 0
BITMAP
62
62
52
52
54
94
8C
8C
84
ENDCHAR
STARTCHAR O
ENCODING 79
SWIDTH 42 0
DWIDTH 10 0
BBX 8 9 1 0
BITMAP
0E
33
41
41
81
82
82
CC
70
ENDCHAR
STARTCHAR P
ENCODING 80
SWIDTH 42 0
DWIDTH 7 0
BBX 6 9 1 0
BITMAP
78
44
44
44
88
F0
80
80
80
ENDCHAR
STARTCHAR Q
ENCODING 81
SWIDTH 42 0
DWIDTH 10 0
BBX 8 11 1 -2
BITMAP
0E
33
41
41
81
82
82
CC
70
0C
03
ENDCHAR
STARTCHAR R
ENCODING 82
SWIDTH 42 0
DWIDTH 8 0
BBX 6 9 1 0
BITMAP
78
44
44
48
F0
90
90
88
8C
ENDCHAR
STARTCHAR S
ENCODING 83
SWIDTH 42 0
DWIDTH 7 0
BBX 6 9 1 0
BITMAP
38
44
40
60
30
18
08
88
70
ENDCHAR
STARTCHAR T
ENCODING 84
SWIDTH 42 0
DWIDTH 8 0
BBX 7 9 1 0
BITMAP
FE
10
10
10
30
20
20
20
20
ENDCHAR
STARTCHAR U
ENCODING 85
SWIDTH 42 0
DWIDTH 9 0
BBX 7 9 1 0
BITMAP
42
42
42
42
C4
84
84
C8
70
ENDCHAR
STARTCHAR V
ENCODING 86
SWIDTH 42 0
DWIDTH 8 0
BBX 6 9 2 0
BITMAP
84
84
84
88
88
90
A0
C0
80
ENDCHAR
STARTCHAR W
ENCODING 87
SWIDTH 42 0
DWIDTH 11 0
BBX 9 9 2 0
BITMAP
8080
8880
8880
9900
9900
AA00
AA00
CC00
8800
ENDCHAR
STARTCHAR X
ENCODING 88
SWIDTH 42 0
DWIDTH 8 0
BBX 8 9 0 0
BITMAP
61
21
12
14
18
28
48
84
86
ENDCHAR
STARTCHAR Y
ENCODING 89
SWIDTH 42 0
DWIDTH 7 0
BBX 6 9 1 0
BITMAP
84
84
88
88
90
60
40
40
40
ENDCHAR
STARTCHAR Z
ENCODING 90
SWIDTH 42 0
DWIDTH 7 0
BBX 8 9 0 0
BITMAP
3F
02
04
08
10
20
40
80
FC
ENDCHAR
STARTCHAR bracketleft
ENCODING 91
SWIDTH 42 0
DWIDTH 4 0
BBX 5 11 0 -1
BITMAP
38
20
20
20
40
40
40
40
80
80
E0
ENDCHAR
STARTCHAR backslash
ENCODING 92
SWIDTH 42 0
DWIDTH 6 0
BBX 4 11 1 -1
BITMAP
80
80
80
40
40
20
20
20
10
10
10
ENDCHAR
STARTCHAR bracketright
ENCODING 93
SWIDTH 42 0
DWIDTH 4 0
BBX 5 11 -1 -1
BITMAP
38
08
08
10
10
10
10
20
20
20
E0
ENDCHAR
STARTCHAR asciicircum
ENCODING 94
SWIDTH 42 0
DWIDTH 8 0
BBX 5 6 2 2
BITMAP
08
18
28
48
88
88
ENDCHAR
STARTCHAR underscore
ENCODING 95
SWIDTH 42 0
DWIDTH 8 0
BBX 6 1 1 -1
BITMAP
FC
ENDCHAR
STARTCHAR quoteleft
ENCODING 96
SWIDTH 42 0
DWIDTH 3 0
BBX 2 3 1 7
BITMAP
40
80
80
ENDCHAR
STARTCHAR a
ENCODING 97
SWIDTH 42 0
DWIDTH 8 0
BBX 6 7 1 0
BITMAP
3C
44
44
84
88
98
68
ENDCHAR
STARTCHAR b
ENCODING 98
SWIDTH 42 0
DWIDTH 8 0
BBX 6 10 1 0
BITMAP
20
20
20
58
64
44
84
88
88
F0
ENDCHAR
STARTCHAR c
ENCODING 99
SWIDTH 42 0
DWIDTH 6 0
BBX 5 7 1 0
BITMAP
30
48
80
80
80
80
70
ENDCHAR
STARTCHAR d
ENCODING 100
SWIDTH 42 0
DWIDTH 8 0
BBX 7 10 1 0
BITMAP
02
02
02
3C
44
44
84
88
98
68
ENDCHAR
STARTCHAR e
ENCODING 101
SWIDTH 42 0
DWIDTH 6 0
BBX 5 7 1 0
BITMAP
30
48
88
F0
80
80
70
ENDCHAR
STARTCHAR f
ENCODING 102
SWIDTH 42 0
DWIDTH 5 0
BBX 6 12 0 -2
BITMAP
0C
10
10
7C
20
20
20
40
40
40
80
80
ENDCHAR
STARTCHAR g
ENCODING 103
SWIDTH 42 0
DWIDTH 8 0
BBX 6 9 1 -2
BITMAP
3C
44
44
88
98
68
08
10
E0
ENDCHAR
STARTCHAR h
ENCODING 104
SWIDTH 42 0
DWIDTH 8 0
BBX 6 10 1 0
BITMAP
20
20
20
5C
64
44
44
88
88
88
ENDCHAR
STARTCHAR i
ENCODING 105
SWIDTH 42 0
DWIDTH 4 0
BBX 3 10 1 0
BITMAP
20
20
00
40
40
40
40
80
80
80
ENDCHAR
STARTCHAR j
ENCODING 106
SWIDTH 42 0
DWIDTH 4 0
BBX 5 12 -1 -2
BITMAP
08
08
00
10
10
10
10
10
20
20
20
C0
ENDCHAR
STARTCHAR k
ENCODING 107
SWIDTH 42 0
DWIDTH 7 0
BBX 6 10 1 0
BITMAP
20
20
20
44
48
50
60
90
88
84
ENDCHAR
STARTCHAR l
ENCODING 108
SWIDTH 42 0
DWIDTH 4 0
BBX 3 10 1 0
BITMAP
20
20
20
40
40
40
40
80
80
80
ENDCHAR
STARTCHAR m
ENCODING 109
SWIDTH 42 0
DWIDTH 12 0
BBX 10 7 1 0
BITMAP
5DC0
6640
4440
4440
8880
8880
8880
ENDCHAR
STARTCHAR n
ENCODING 110
SWIDTH 42 0
DWIDTH 8 0
BBX 6 7 1 0
BITMAP
5C
64
44
44
88
88
88
ENDCHAR
STARTCHAR o
ENCODING 111
SWIDTH 42 0
DWIDTH 7 0
BBX 5 7 1 0
BITMAP
30
48
88
88
88
90
60
ENDCHAR
STARTCHAR p
ENCODING 112
SWIDTH 42 0
DWIDTH 8 0
BBX 7 9 0 -2
BITMAP
2C
32
22
42
44
44
78
80
80
ENDCHAR
STARTCHAR q
ENCODING 113
SWIDTH 42 0
DWIDTH 8 0
BBX 6 9 1 -2
BITMAP
3C
44
44
84
88
98
68
10
10
ENDCHAR
STARTCHAR r
ENCODING 114
SWIDTH 42 0
DWIDTH 6 0
BBX 5 7 1 0
BITMAP
58
60
40
C0
80
80
80
ENDCHAR
STARTCHAR s
ENCODING 115
SWIDTH 42 0
DWIDTH 6 0
BBX 6 7 0 0
BITMAP
38
44
60
30
18
88
70
ENDCHAR
STARTCHAR t
ENCODING 116
SWIDTH 42 0
DWIDTH 5 0
BBX 4 9 1 0
BITMAP
20
20
F0
40
40
80
80
80
E0
ENDCHAR
STARTCHAR u
ENCODING 117
SWIDTH 42 0
DWIDTH 8 0
BBX 6 7 1 0
BITMAP
44
44
44
88
88
98
68
ENDCHAR
STARTCHAR v
ENCODING 118
SWIDTH 42 0
DWIDTH 6 0
BBX 5 7 1 0
BITMAP
88
88
88
90
A0
C0
80
ENDCHAR
STARTCHAR w
ENCODING 119
SWIDTH 42 0
DWIDTH 9 0
BBX 8 7 1 0
BITMAP
81
91
91
92
AA
CC
88
ENDCHAR
STARTCHAR x
ENCODING 120
SWIDTH 42 0
DWIDTH 7 0
BBX 6 7 1 0
BITMAP
44
44
28
30
50
88
88
ENDCHAR
STARTCHAR y
ENCODING 121
SWIDTH 42 0
DWIDTH 6 0
BBX 7 9 -1 -2
BITMAP
22
22
22
24
28
30
20
40
80
ENDCHAR
STARTCHAR z
ENCODING 122
SWIDTH 42 0
DWIDTH 7 0
BBX 6 7 1 0
BITMAP
7C
08
10
30
20
40
F8
ENDCHAR
STARTCHAR braceleft
ENCODING 123
SWIDTH 42 0
DWIDTH 4 0
BBX 4 11 0 -1
BITMAP
10
20
40
40
20
C0
20
40
80
80
40
ENDCHAR
STARTCHAR bar
ENCODING 124
SWIDTH 42 0
DWIDTH 3 0
BBX 3 11 0 -1
BITMAP
20
20
20
20
40
40
40
80
80
80
80
ENDCHAR
STARTCHAR braceright
ENCODING 125
SWIDTH 42 0
DWIDTH 4 0
BBX 4 11 0 -1
BITMAP
20
10
10
20
40
30
40
20
20
40
80
ENDCHAR
STARTCHAR asciitilde
ENCODING 126
SWIDTH 42 0
DWIDTH 8 0
BBX 7 2 1 3
BITMAP
72
9C
ENDCHAR
STARTCHAR exclamdown
ENCODING 161
SWIDTH 42 0
DWIDTH 3 0
BBX 3 9 0 -2
BITMAP
20
20
00
40
40
40
80
80
80
ENDCHAR
STARTCHAR cent
ENCODING 162
SWIDTH 42 0
DWIDTH 8 0
BBX 6 9 1 0
BITMAP
10
38
54
90
90
A0
A0
78
20
ENDCHAR
STARTCHAR sterling
ENCODING 163
SWIDTH 42 0
DWIDTH 8 0
BBX 6 9 1 0
BITMAP
18
24
20
20
F0
40
40
40
F8
ENDCHAR
STARTCHAR currency
ENCODING 164
SWIDTH 42 0
DWIDTH 8 0
BBX 7 7 1 1
BITMAP
82
7C
44
44
44
7C
82
ENDCHAR
STARTCHAR yen
ENCODING 165
SWIDTH 42 0
DWIDTH 8 0
BBX 7 9 1 0
BITMAP
42
42
44
48
FC
20
F8
20
20
ENDCHAR
STARTCHAR brokenbar
ENCODING 166
SWIDTH 42 0
DWIDTH 3 0
BBX 3 11 0 -1
BITMAP
20
20
20
20
00
00
00
80
80
80
80
ENDCHAR
STARTCHAR section
ENCODING 167
SWIDTH 42 0
DWIDTH 8 0
BBX 6 10 1 -1
BITMAP
18
24
20
50
48
48
28
10
90
60
ENDCHAR
STARTCHAR dieresis
ENCODING 168
SWIDTH 42 0
DWIDTH 7 0
BBX 4 1 3 8
BITMAP
90
ENDCHAR
STARTCHAR copyright
ENCODING 169
SWIDTH 42 0
DWIDTH 11 0
BBX 9 9 1 0
BITMAP
1C00
6300
4D00
9080
9080
9080
4D00
6300
1C00
ENDCHAR
STARTCHAR ordfeminine
ENCODING 170
SWIDTH 42 0
DWIDTH 5 0
BBX 4 5 1 4
BITMAP
30
50
90
B0
D0
ENDCHAR
STARTCHAR guillemotleft
ENCODING 171
SWIDTH 42 0
DWIDTH 7 0
BBX 7 5 0 1
BITMAP
12
6C
90
48
24
ENDCHAR
STARTCHAR logicalnot
ENCODING 172
SWIDTH 42 0
DWIDTH 8 0
BBX 6 3 1 2
BITMAP
FC
04
04
ENDCHAR
STARTCHAR hyphen
ENCODING 173
SWIDTH 42 0
DWIDTH 4 0
BBX 3 1 1 4
BITMAP
E0
ENDCHAR
STARTCHAR registered
ENCODING 174
SWIDTH 42 0
DWIDTH 8 0
BBX 7 7 1 2
BITMAP
38
44
BA
B2
AA
44
38
ENDCHAR
STARTCHAR macron
ENCODING 175
SWIDTH 42 0
DWIDTH 7 0
BBX 3 1 3 8
BITMAP
E0
ENDCHAR
STARTCHAR degree
ENCODING 176
SWIDTH 42 0
DWIDTH 4 0
BBX 4 3 0 6
BITMAP
60
90
60
ENDCHAR
STARTCHAR plusminus
ENCODING 177
SWIDTH 42 0
DWIDTH 8 0
BBX 7 7 1 1
BITMAP
08
08
7E
10
10
00
FC
ENDCHAR
STARTCHAR twosuperior
ENCODING 178
SWIDTH 42 0
DWIDTH 5 0
BBX 5 5 1 4
BITMAP
70
08
30
40
F0
ENDCHAR
STARTCHAR threesuperior
ENCODING 179
SWIDTH 42 0
DWIDTH 5 0
BBX 5 5 1 4
BITMAP
70
08
30
10
E0
ENDCHAR
STARTCHAR acute
ENCODING 180
SWIDTH 42 0
DWIDTH 7 0
BBX 2 2 3 8
BITMAP
40
80
ENDCHAR
STARTCHAR mu
ENCODING 181
SWIDTH 42 0
DWIDTH 8 0
BBX 7 9 0 -2
BITMAP
22
22
22
44
44
4C
B4
80
80
ENDCHAR
STARTCHAR paragraph
ENCODING 182
SWIDTH 42 0
DWIDTH 8 0
BBX 6 10 1 -1
BITMAP
7C
F4
F4
68
28
28
28
50
50
50
ENDCHAR
STARTCHAR periodcentered
ENCODING 183
SWIDTH 42 0
DWIDTH 8 0
BBX 2 2 3 3
BITMAP
C0
C0
ENDCHAR
STARTCHAR cedilla
ENCODING 184
SWIDTH 42 0
DWIDTH 7 0
BBX 3 2 1 -2
BITMAP
20
C0
ENDCHAR
STARTCHAR onesuperior
ENCODING 185
SWIDTH 42 0
DWIDTH 5 0
BBX 3 5 1 4
BITMAP
20
E0
20
40
40
ENDCHAR
STARTCHAR ordmasculine
ENCODING 186
SWIDTH 42 0
DWIDTH 5 0
BBX 4 5 1 4
BITMAP
60
90
90
90
60
ENDCHAR
STARTCHAR guillemotright
ENCODING 187
SWIDTH 42 0
DWIDTH 7 0
BBX 7 5 0 1
BITMAP
48
24
12
6C
90
ENDCHAR
STARTCHAR onequarter
ENCODING 188
SWIDTH 42 0
DWIDTH 11 0
BBX 10 9 1 0
BITMAP
C200
4200
4400
8800
9980
1280
2480
47C0
4100
ENDCHAR
STARTCHAR onehalf
ENCODING 189
SWIDTH 42 0
DWIDTH 11 0
BBX 10 9 1 0
BITMAP
C200
4400
4400
8800
9380
1040
2180
4200
4780
ENDCHAR
STARTCHAR threequarters
ENCODING 190
SWIDTH 42 0
DWIDTH 11 0
BBX 11 9 0 0
BITMAP
6100
1100
6200
1400
ECC0
0940
1240
23E0
2080
ENDCHAR
STARTCHAR questiondown
ENCODING 191
SWIDTH 42 0
DWIDTH 6 0
BBX 5 9 0 -2
BITMAP
08
08
00
10
10
60
80
90
60
ENDCHAR
STARTCHAR Agrave
ENCODING 192
SWIDTH 42 0
DWIDTH 8 0
BBX 6 11 1 0
BITMAP
08
04
00
0C
14
24
44
7C
84
84
84
ENDCHAR
STARTCHAR Aacute
ENCODING 193
SWIDTH 42 0
DWIDTH 8 0
BBX 6 11 1 0
BITMAP
04
08
00
0C
14
24
44
7C
84
84
84
ENDCHAR
STARTCHAR Acircumflex
ENCODING 194
SWIDTH 42 0
DWIDTH 8 0
BBX 6 11 1 0
BITMAP
08
14
00
0C
14
24
44
7C
84
84
84
ENDCHAR
STARTCHAR Atilde
ENCODING 195
SWIDTH 42 0
DWIDTH 8 0
BBX 7 11 1 0
BITMAP
1A
2C
00
0C
14
24
44
7C
84
84
84
ENDCHAR
STARTCHAR Adieresis
ENCODING 196
SWIDTH 42 0
DWIDTH 8 0
BBX 7 10 1 0
BITMAP
12
00
0C
14
24
44
7C
84
84
84
ENDCHAR
STARTCHAR Aring
ENCODING 197
SWIDTH 42 0
DWIDTH 8 0
BBX 6 11 1 0
BITMAP
08
14
08
0C
14
24
44
7C
84
84
84
ENDCHAR
STARTCHAR AE
ENCODING 198
SWIDTH 42 0
DWIDTH 11 0
BBX 10 9 1 0
BITMAP
07C0
0C00
1400
2400
4780
7800
8800
8800
8F80
ENDCHAR
STARTCHAR Ccedilla
ENCODING 199
SWIDTH 42 0
DWIDTH 8 0
BBX 7 11 1 -2
BITMAP
0C
32
40
40
80
80
80
C4
78
20
C0
ENDCHAR
STARTCHAR Egrave
ENCODING 200
SWIDTH 42 0
DWIDTH 7 0
BBX 6 11 1 0
BITMAP
10
08
00
7C
40
40
F0
80
80
80
F8
ENDCHAR
STARTCHAR Eacute
ENCODING 201
SWIDTH 42 0
DWIDTH 7 0
BBX 6 11 1 0
BITMAP
08
10
00
7C
40
40
F0
80
80
80
F8
ENDCHAR
STARTCHAR Ecircumflex
ENCODING 202
SWIDTH 42 0
DWIDTH 7 0
BBX 6 11 1 0
BITMAP
10
28
00
7C
40
40
F0
80
80
80
F8
ENDCHAR
STARTCHAR Edieresis
ENCODING 203
SWIDTH 42 0
DWIDTH 7 0
BBX 6 10 1 0
BITMAP
24
00
7C
40
40
F0
80
80
80
F8
ENDCHAR
STARTCHAR Igrave
ENCODING 204
SWIDTH 42 0
DWIDTH 4 0
BBX 2 11 1 0
BITMAP
80
40
00
40
40
40
C0
80
80
80
80
ENDCHAR
STARTCHAR Iacute
ENCODING 205
SWIDTH 42 0
DWIDTH 4 0
BBX 3 11 1 0
BITMAP
20
40
00
40
40
40
C0
80
80
80
80
ENDCHAR
STARTCHAR Icircumflex
ENCODING 206
SWIDTH 42 0
DWIDTH 4 0
BBX 3 11 1 0
BITMAP
40
A0
00
40
40
40
C0
80
80
80
80
ENDCHAR
STARTCHAR Idieresis
ENCODING 207
SWIDTH 42 0
DWIDTH 4 0
BBX 3 10 1 0
BITMAP
A0
00
40
40
40
C0
80
80
80
80
ENDCHAR
STARTCHAR Eth
ENCODING 208
SWIDTH 42 0
DWIDTH 9 0
BBX 8 9 0 0
BITMAP
3E
23
21
21
F9
42
42
44
78
ENDCHAR
STARTCHAR Ntilde
ENCODING 209
SWIDTH 42 0
DWIDTH 9 0
BBX 7 11 1 0
BITMAP
1A
2C
00
62
62
52
54
94
8C
8C
84
ENDCHAR
STARTCHAR Ograve
ENCODING 210
SWIDTH 42 0
DWIDTH 10 0
BBX 8 11 1 0
BITMAP
08
04
00
0E
33
41
41
82
82
CC
70
ENDCHAR
STARTCHAR Oacute
ENCODING 211
SWIDTH 42 0
DWIDTH 10 0
BBX 8 11 1 0
BITMAP
02
04
00
0E
33
41
41
82
82
CC
70
ENDCHAR
STARTCHAR Ocircumflex
ENCODING 212
SWIDTH 42 0
DWIDTH 10 0
BBX 8 11 1 0
BITMAP
04
0A
00
0E
33
41
41
82
82
CC
70
ENDCHAR
STARTCHAR Otilde
ENCODING 213
SWIDTH 42 0
DWIDTH 10 0
BBX 8 11 1 0
BITMAP
0D
16
00
0E
33
41
41
82
82
CC
70
ENDCHAR
STARTCHAR Odieresis
ENCODING 214
SWIDTH 42 0
DWIDTH 10 0
BBX 8 10 1 0
BITMAP
12
00
0E
33
41
41
82
82
CC
70
ENDCHAR
STARTCHAR multiply
ENCODING 215
SWIDTH 42 0
DWIDTH 8 0
BBX 5 5 2 2
BITMAP
48
50
20
50
90
ENDCHAR
STARTCHAR Oslash
ENCODING 216
SWIDTH 42 0
DWIDTH 10 0
BBX 10 11 0 -1
BITMAP
0040
0740
1980
2280
2480
4080
4900
5100
6600
B800
8000
ENDCHAR
STARTCHAR Ugrave
ENCODING 217
SWIDTH 42 0
DWIDTH 9 0
BBX 7 11 1 0
BITMAP
10
08
00
42
42
42
C4
84
84
C8
70
ENDCHAR
STARTCHAR Uacute
ENCODING 218
SWIDTH 42 0
DWIDTH 9 0
BBX 7 11 1 0
BITMAP
04
08
00
42
42
42
C4
84
84
C8
70
ENDCHAR
STARTCHAR Ucircumflex
ENCODING 219
SWIDTH 42 0
DWIDTH 9 0
BBX 7 11 1 0
BITMAP
08
14
00
42
42
42
C4
84
84
C8
70
ENDCHAR
STARTCHAR Udieresis
ENCODING 220
SWIDTH 42 0
DWIDTH 9 0
BBX 7 10 1 0
BITMAP
24
00
42
42
42
C4
84
84
C8
70
ENDCHAR
STARTCHAR Yacute
ENCODING 221
SWIDTH 42 0
DWIDTH 7 0
BBX 6 11 1 0
BITMAP
10
20
00
84
88
88
90
60
40
40
40
ENDCHAR
STARTCHAR Thorn
ENCODING 222
SWIDTH 42 0
DWIDTH 7 0
BBX 6 9 1 0
BITMAP
40
40
78
44
84
88
F0
80
80
ENDCHAR
STARTCHAR germandbls
ENCODING 223
SWIDTH 42 0
DWIDTH 8 0
BBX 6 11 1 -1
BITMAP
18
24
24
48
50
48
44
84
84
98
80
ENDCHAR
STARTCHAR agrave
ENCODING 224
SWIDTH 42 0
DWIDTH 8 0
BBX 6 10 1 0
BITMAP
20
10
00
3C
44
44
84
88
98
68
ENDCHAR
STARTCHAR aacute
ENCODING 225
SWIDTH 42 0
DWIDTH 8 0
BBX 6 10 1 0
BITMAP
08
10
00
3C
44
44
84
88
98
68
ENDCHAR
STARTCHAR acircumflex
ENCODING 226
SWIDTH 42 0
DWIDTH 8 0
BBX 6 10 1 0
BITMAP
08
14
00
3C
44
44
84
88
98
68
ENDCHAR
STARTCHAR atilde
ENCODING 227
SWIDTH 42 0
DWIDTH 8 0
BBX 6 10 1 0
BITMAP
34
58
00
3C
44
44
84
88
98
68
ENDCHAR
STARTCHAR adieresis
ENCODING 228
SWIDTH 42 0
DWIDTH 8 0
BBX 6 9 1 0
BITMAP
24
00
3C
44
44
84
88
98
68
ENDCHAR
STARTCHAR aring
ENCODING 229
SWIDTH 42 0
DWIDTH 8 0
BBX 6 10 1 0
BITMAP
08
14
08
3C
44
44
84
88
98
68
ENDCHAR
STARTCHAR ae
ENCODING 230
SWIDTH 42 0
DWIDTH 11 0
BBX 9 7 1 0
BITMAP
3300
4C80
0880
7F00
8800
9800
6700
ENDCHAR
STARTCHAR ccedilla
ENCODING 231
SWIDTH 42 0
DWIDTH 6 0
BBX 5 9 1 -2
BITMAP
30
48
80
80
80
80
70
20
C0
ENDCHAR
STARTCHAR egrave
ENCODING 232
SWIDTH 42 0
DWIDTH 6 0
BBX 5 10 1 0
BITMAP
20
10
00
30
48
88
F0
80
80
70
ENDCHAR
STARTCHAR eacute
ENCODING 233
SWIDTH 42 0
DWIDTH 6 0
BBX 5 10 1 0
BITMAP
10
20
00
30
48
88
F0
80
80
70
ENDCHAR
STARTCHAR ecircumflex
ENCODING 234
SWIDTH 42 0
DWIDTH 6 0
BBX 5 10 1 0
BITMAP
20
50
00
30
48
88
F0
80
80
70
ENDCHAR
STARTCHAR edieresis
ENCODING 235
SWIDTH 42 0
DWIDTH 6 0
BBX 5 9 1 0
BITMAP
48
00
30
48
88
F0
80
80
70
ENDCHAR
STARTCHAR igrave
ENCODING 236
SWIDTH 42 0
DWIDTH 4 0
BBX 2 10 1 0
BITMAP
80
40
00
40
40
40
40
80
80
80
ENDCHAR
STARTCHAR iacute
ENCODING 237
SWIDTH 42 0
DWIDTH 4 0
BBX 3 10 1 0
BITMAP
20
40
00
40
40
40
40
80
80
80
ENDCHAR
STARTCHAR icircumflex
ENCODING 238
SWIDTH 42 0
DWIDTH 4 0
BBX 3 10 1 0
BITMAP
40
A0
00
40
40
40
40
80
80
80
ENDCHAR
STARTCHAR idieresis
ENCODING 239
SWIDTH 42 0
DWIDTH 4 0
BBX 3 9 1 0
BITMAP
A0
00
40
40
40
40
80
80
80
ENDCHAR
STARTCHAR eth
ENCODING 240
SWIDTH 42 0
DWIDTH 7 0
BBX 6 10 1 0
BITMAP
10
3C
08
38
48
88
88
88
90
60
ENDCHAR
STARTCHAR ntilde
ENCODING 241
SWIDTH 42 0
DWIDTH 8 0
BBX 6 10 1 0
BITMAP
34
58
00
5C
64
44
44
88
88
88
ENDCHAR
STARTCHAR ograve
ENCODING 242
SWIDTH 42 0
DWIDTH 7 0
BBX 5 10 1 0
BITMAP
20
10
00
30
48
88
88
88
90
60
ENDCHAR
STARTCHAR oacute
ENCODING 243
SWIDTH 42 0
DWIDTH 7 0
BBX 5 10 1 0
BITMAP
10
20
00
30
48
88
88
88
90
60
ENDCHAR
STARTCHAR ocircumflex
ENCODING 244
SWIDTH 42 0
DWIDTH 7 0
BBX 5 10 1 0
BITMAP
20
50
00
30
48
88
88
88
90
60
ENDCHAR
STARTCHAR otilde
ENCODING 245
SWIDTH 42 0
DWIDTH 7 0
BBX 6 10 1 0
BITMAP
34
58
00
30
48
88
88
88
90
60
ENDCHAR
STARTCHAR odieresis
ENCODING 246
SWIDTH 42 0
DWIDTH 7 0
BBX 5 9 1 0
BITMAP
48
00
30
48
88
88
88
90
60
ENDCHAR
STARTCHAR divide
ENCODING 247
SWIDTH 42 0
DWIDTH 8 0
BBX 6 7 1 1
BITMAP
10
10
00
FC
00
20
20
ENDCHAR
STARTCHAR oslash
ENCODING 248
SWIDTH 42 0
DWIDTH 7 0
BBX 7 7 0 0
BITMAP
1A
24
4C
54
64
48
B0
ENDCHAR
STARTCHAR ugrave
ENCODING 249
SWIDTH 42 0
DWIDTH 8 0
BBX 6 10 1 0
BITMAP
10
08
00
44
44
44
88
88
98
68
ENDCHAR
STARTCHAR uacute
ENCODING 250
SWIDTH 42 0
DWIDTH 8 0
BBX 6 10 1 0
BITMAP
08
10
00
44
44
44
88
88
98
68
ENDCHAR
STARTCHAR ucircumflex
ENCODING 251
SWIDTH 42 0
DWIDTH 8 0
BBX 6 10 1 0
BITMAP
10
28
00
44
44
44
88
88
98
68
ENDCHAR
STARTCHAR udieresis
ENCODING 252
SWIDTH 42 0
DWIDTH 8 0
BBX 6 9 1 0
BITMAP
24
00
44
44
44
88
88
98
68
ENDCHAR
STARTCHAR yacute
ENCODING 253
SWIDTH 42 0
DWIDTH 6 0
BBX 7 12 -1 -2
BITMAP
04
08
00
22
22
22
24
28
30
20
40
80
ENDCHAR
STARTCHAR thorn
ENCODING 254
SWIDTH 42 0
DWIDTH 8 0
BBX 7 11 0 -2
BITMAP
20
20
2C
32
42
42
44
44
78
80
80
ENDCHAR
STARTCHAR ydieresis
ENCODING 255
SWIDTH 42 0
DWIDTH 6 0
BBX 7 11 -1 -2
BITMAP
12
00
22
22
22
24
28
30
20
40
80
ENDCHAR
STARTCHAR fl
ENCODING -1
SWIDTH 42 0
DWIDTH 8 0
BBX 8 12 0 -2
BITMAP
0F
11
11
7A
22
22
22
44
44
44
80
80
ENDCHAR
STARTCHAR endash
ENCODING -1
SWIDTH 42 0
DWIDTH 6 0
BBX 5 1 1 4
BITMAP
F8
ENDCHAR
STARTCHAR dagger
ENCODING -1
SWIDTH 42 0
DWIDTH 8 0
BBX 6 10 1 -1
BITMAP
10
10
10
FC
20
20
20
40
40
40
ENDCHAR
STARTCHAR Zcaron
ENCODING -1
SWIDTH 42 0
DWIDTH 7 0
BBX 8 11 0 0
BITMAP
14
08
00
3F
02
04
08
10
20
40
FC
ENDCHAR
STARTCHAR oe
ENCODING -1
SWIDTH 42 0
DWIDTH 11 0
BBX 9 7 1 0
BITMAP
3300
4C80
8880
8F00
8800
9800
6700
ENDCHAR
STARTCHAR Ydieresis
ENCODING -1
SWIDTH 42 0
DWIDTH 7 0
BBX 6 10 1 0
BITMAP
48
00
84
88
88
90
60
40
40
40
ENDCHAR
STARTCHAR dotlessi
ENCODING -1
SWIDTH 42 0
DWIDTH 4 0
BBX 2 7 1 0
BITMAP
40
40
40
40
80
80
80
ENDCHAR
STARTCHAR lslash
ENCODING -1
SWIDTH 42 0
DWIDTH 5 0
BBX 5 10 0 0
BITMAP
10
10
10
20
38
E0
20
40
40
40
ENDCHAR
STARTCHAR Lslash
ENCODING -1
SWIDTH 42 0
DWIDTH 7 0
BBX 7 9 0 0
BITMAP
10
10
10
1C
F0
20
20
20
3E
ENDCHAR
STARTCHAR daggerdbl
ENCODING -1
SWIDTH 42 0
DWIDTH 8 0
BBX 7 10 1 -1
BITMAP
08
08
08
7E
10
10
FC
20
20
20
ENDCHAR
STARTCHAR fi
ENCODING -1
SWIDTH 42 0
DWIDTH 8 0
BBX 8 12 0 -2
BITMAP
0D
11
10
7E
22
22
26
44
44
44
80
80
ENDCHAR
STARTCHAR guilsinglright
ENCODING -1
SWIDTH 42 0
DWIDTH 4 0
BBX 4 5 0 1
BITMAP
40
20
10
60
80
ENDCHAR
STARTCHAR OE
ENCODING -1
SWIDTH 42 0
DWIDTH 12 0
BBX 11 9 1 0
BITMAP
0FE0
3200
4200
4200
87C0
8400
8400
C400
7FC0
ENDCHAR
STARTCHAR emdash
ENCODING -1
SWIDTH 42 0
DWIDTH 13 0
BBX 12 1 1 4
BITMAP
FFF0
ENDCHAR
STARTCHAR caron
ENCODING -1
SWIDTH 42 0
DWIDTH 7 0
BBX 3 2 3 8
BITMAP
A0
40
ENDCHAR
STARTCHAR ogonek
ENCODING -1
SWIDTH 42 0
DWIDTH 7 0
BBX 3 2 2 -2
BITMAP
80
60
ENDCHAR
STARTCHAR hungarumlaut
ENCODING -1
SWIDTH 42 0
DWIDTH 7 0
BBX 5 2 2 8
BITMAP
48
90
ENDCHAR
STARTCHAR guilsinglleft
ENCODING -1
SWIDTH 42 0
DWIDTH 4 0
BBX 4 5 0 1
BITMAP
10
60
80
40
20
ENDCHAR
STARTCHAR dotaccent
ENCODING -1
SWIDTH 42 0
DWIDTH 7 0
BBX 1 2 4 8
BITMAP
80
80
ENDCHAR
STARTCHAR breve
ENCODING -1
SWIDTH 42 0
DWIDTH 7 0
BBX 4 2 2 8
BITMAP
90
60
ENDCHAR
STARTCHAR bullet
ENCODING -1
SWIDTH 42 0
DWIDTH 8 0
BBX 3 3 3 3
BITMAP
E0
E0
E0
ENDCHAR
STARTCHAR tilde
ENCODING -1
SWIDTH 42 0
DWIDTH 7 0
BBX 5 2 2 8
BITMAP
68
B0
ENDCHAR
STARTCHAR circumflex
ENCODING -1
SWIDTH 42 0
DWIDTH 7 0
BBX 3 2 3 8
BITMAP
40
A0
ENDCHAR
STARTCHAR quotedblleft
ENCODING -1
SWIDTH 42 0
DWIDTH 5 0
BBX 4 3 1 7
BITMAP
50
A0
A0
ENDCHAR
STARTCHAR quotesingle
ENCODING -1
SWIDTH 42 0
DWIDTH 3 0
BBX 1 3 1 7
BITMAP
80
80
80
ENDCHAR
STARTCHAR scaron
ENCODING -1
SWIDTH 42 0
DWIDTH 6 0
BBX 6 10 0 0
BITMAP
28
10
00
38
44
60
30
18
88
70
ENDCHAR
STARTCHAR ring
ENCODING -1
SWIDTH 42 0
DWIDTH 7 0
BBX 3 3 3 7
BITMAP
40
A0
40
ENDCHAR
STARTCHAR quotesinglbase
ENCODING -1
SWIDTH 42 0
DWIDTH 3 0
BBX 2 3 0 -1
BITMAP
40
40
80
ENDCHAR
STARTCHAR florin
ENCODING -1
SWIDTH 42 0
DWIDTH 8 0
BBX 6 10 1 -1
BITMAP
18
24
20
20
F8
40
40
40
80
80
ENDCHAR
STARTCHAR trademark
ENCODING -1
SWIDTH 42 0
DWIDTH 10 0
BBX 8 4 1 5
BITMAP
FB
55
55
51
ENDCHAR
STARTCHAR fraction
ENCODING -1
SWIDTH 42 0
DWIDTH 3 0
BBX 7 9 -2 0
BITMAP
02
04
08
08
10
20
20
40
80
ENDCHAR
STARTCHAR grave
ENCODING -1
SWIDTH 42 0
DWIDTH 7 0
BBX 2 2 3 8
BITMAP
80
40
ENDCHAR
STARTCHAR perthousand
ENCODING -1
SWIDTH 42 0
DWIDTH 13 0
BBX 13 9 0 0
BITMAP
6100
9200
9400
6400
0800
1330
14C8
24C8
4330
ENDCHAR
STARTCHAR ellipsis
ENCODING -1
SWIDTH 42 0
DWIDTH 8 0
BBX 5 2 2 0
BITMAP
88
88
ENDCHAR
STARTCHAR quotedblright
ENCODING -1
SWIDTH 42 0
DWIDTH 5 0
BBX 4 3 1 7
BITMAP
50
50
A0
ENDCHAR
STARTCHAR Scaron
ENCODING -1
SWIDTH 42 0
DWIDTH 7 0
BBX 6 11 1 0
BITMAP
28
10
00
38
44
40
30
18
08
88
70
ENDCHAR
STARTCHAR quotedblbase
ENCODING -1
SWIDTH 42 0
DWIDTH 4 0
BBX 4 3 0 -1
BITMAP
50
50
A0
ENDCHAR
STARTCHAR zcaron
ENCODING -1
SWIDTH 42 0
DWIDTH 7 0
BBX 6 10 1 0
BITMAP
28
10
00
7C
08
10
30
20
40
F8
ENDCHAR
ENDFONT
