%!PS-Adobe-3.0
%%BoundingBox: 18 18 558 720
%%Creator: Mozilla PostScript module (rv:1.0.1/2002100313)
%%DocumentData: Clean8Bit
%%DocumentPaperSizes: Letter
%%Orientation: Portrait
%%Pages: (atend)
%%PageOrder: Ascend
%%EndComments
% MozillaCharsetName: iso-8859-1

%%BeginProlog
[ /.notdef /.notdef /.notdef /.notdef /.notdef /.notdef
 /.notdef /.notdef /.notdef /.notdef /.notdef /.notdef
 /.notdef /.notdef /.notdef /.notdef /.notdef /.notdef
 /.notdef /.notdef /.notdef /.notdef /.notdef /.notdef
 /.notdef /.notdef /.notdef /.notdef /.notdef /.notdef
 /.notdef /.notdef /space /exclam /quotedbl /numbersign
 /dollar /percent /ampersand /quoteright /parenleft /parenright
 /asterisk /plus /comma /hyphen /period /slash
 /zero /one /two /three /four /five
 /six /seven /eight /nine /colon /semicolon
 /less /equal /greater /question /at /A
 /B /C /D /E /F /G
 /H /I /J /K /L /M
 /N /O /P /Q /R /S
 /T /U /V /W /X /Y
 /Z /bracketleft /backslash /bracketright /asciicircum /underscore
 /quoteleft /a /b /c /d /e
 /f /g /h /i /j /k
 /l /m /n /o /p /q
 /r /s /t /u /v /w
 /x /y /z /braceleft /bar /braceright
 /asciitilde /.notdef /.notdef /.notdef /.notdef /.notdef
 /.notdef /.notdef /.notdef /.notdef /.notdef /.notdef
 /.notdef /.notdef /.notdef /.notdef /.notdef /.notdef
 /.notdef /.notdef /.notdef /.notdef /.notdef /.notdef
 /.notdef /.notdef /.notdef /.notdef /.notdef /.notdef
 /.notdef /.notdef /.notdef /.notdef /space /exclamdown
 /cent /sterling /currency /yen /brokenbar /section
 /dieresis /copyright /ordfeminine /guillemotleft /logicalnot /hyphen
 /registered /macron /degree /plusminus /twosuperior /threesuperior
 /acute /mu /paragraph /periodcentered /cedilla /onesuperior
 /ordmasculine /guillemotright /onequarter /onehalf /threequarters /questiondown
 /Agrave /Aacute /Acircumflex /Atilde /Adieresis /Aring
 /AE /Ccedilla /Egrave /Eacute /Ecircumflex /Edieresis
 /Igrave /Iacute /Icircumflex /Idieresis /Eth /Ntilde
 /Ograve /Oacute /Ocircumflex /Otilde /Odieresis /multiply
 /Oslash /Ugrave /Uacute /Ucircumflex /Udieresis /Yacute
 /Thorn /germandbls /agrave /aacute /acircumflex /atilde
 /adieresis /aring /ae /ccedilla /egrave /eacute
 /ecircumflex /edieresis /igrave /iacute /icircumflex /idieresis
 /eth /ntilde /ograve /oacute /ocircumflex /otilde
 /odieresis /divide /oslash /ugrave /uacute /ucircumflex
 /udieresis /yacute /thorn /ydieresis] /isolatin1encoding exch def
/F0
    /Times-Roman findfont
    dup length dict begin
	{1 index /FID ne {def} {pop pop} ifelse} forall
	/Encoding isolatin1encoding def
    currentdict end
definefont pop
/f0 { /csize exch def /F0 findfont csize scalefont setfont } bind def
/F1
    /Times-Bold findfont
    dup length dict begin
	{1 index /FID ne {def} {pop pop} ifelse} forall
	/Encoding isolatin1encoding def
    currentdict end
definefont pop
/f1 { /csize exch def /F1 findfont csize scalefont setfont } bind def
/F2
    /Times-BoldItalic findfont
    dup length dict begin
	{1 index /FID ne {def} {pop pop} ifelse} forall
	/Encoding isolatin1encoding def
    currentdict end
definefont pop
/f2 { /csize exch def /F2 findfont csize scalefont setfont } bind def
/F3
    /Times-Italic findfont
    dup length dict begin
	{1 index /FID ne {def} {pop pop} ifelse} forall
	/Encoding isolatin1encoding def
    currentdict end
definefont pop
/f3 { /csize exch def /F3 findfont csize scalefont setfont } bind def
/F4
    /Helvetica findfont
    dup length dict begin
	{1 index /FID ne {def} {pop pop} ifelse} forall
	/Encoding isolatin1encoding def
    currentdict end
definefont pop
/f4 { /csize exch def /F4 findfont csize scalefont setfont } bind def
/F5
    /Helvetica-Bold findfont
    dup length dict begin
	{1 index /FID ne {def} {pop pop} ifelse} forall
	/Encoding isolatin1encoding def
    currentdict end
definefont pop
/f5 { /csize exch def /F5 findfont csize scalefont setfont } bind def
/F6
    /Helvetica-BoldOblique findfont
    dup length dict begin
	{1 index /FID ne {def} {pop pop} ifelse} forall
	/Encoding isolatin1encoding def
    currentdict end
definefont pop
/f6 { /csize exch def /F6 findfont csize scalefont setfont } bind def
/F7
    /Helvetica_Oblique findfont
    dup length dict begin
	{1 index /FID ne {def} {pop pop} ifelse} forall
	/Encoding isolatin1encoding def
    currentdict end
definefont pop
/f7 { /csize exch def /F7 findfont csize scalefont setfont } bind def
/F8
    /Courier findfont
    dup length dict begin
	{1 index /FID ne {def} {pop pop} ifelse} forall
	/Encoding isolatin1encoding def
    currentdict end
definefont pop
/f8 { /csize exch def /F8 findfont csize scalefont setfont } bind def
/F9
    /Courier-Bold findfont
    dup length dict begin
	{1 index /FID ne {def} {pop pop} ifelse} forall
	/Encoding isolatin1encoding def
    currentdict end
definefont pop
/f9 { /csize exch def /F9 findfont csize scalefont setfont } bind def
/F10
    /Courier-BoldOblique findfont
    dup length dict begin
	{1 index /FID ne {def} {pop pop} ifelse} forall
	/Encoding isolatin1encoding def
    currentdict end
definefont pop
/f10 { /csize exch def /F10 findfont csize scalefont setfont } bind def
/F11
    /Courier-Oblique findfont
    dup length dict begin
	{1 index /FID ne {def} {pop pop} ifelse} forall
	/Encoding isolatin1encoding def
    currentdict end
definefont pop
/f11 { /csize exch def /F11 findfont csize scalefont setfont } bind def
/F12
    /Symbol findfont
    dup length dict begin
	{1 index /FID ne {def} {pop pop} ifelse} forall
	/Encoding isolatin1encoding def
    currentdict end
definefont pop
/f12 { /csize exch def /F12 findfont csize scalefont setfont } bind def
/rhc {
    {
        currentfile read {
	    dup 97 ge
		{ 87 sub true exit }
		{ dup 48 ge { 48 sub true exit } { pop } ifelse }
	    ifelse
	} {
	    false
	    exit
	} ifelse
    } loop
} bind def

/cvgray { % xtra_char npix cvgray - (string npix long)
    dup string
    0
    {
	rhc { cvr 4.784 mul } { exit } ifelse
	rhc { cvr 9.392 mul } { exit } ifelse
	rhc { cvr 1.824 mul } { exit } ifelse
	add add cvi 3 copy put pop
	1 add
	dup 3 index ge { exit } if
    } loop
    pop
    3 -1 roll 0 ne { rhc { pop } if } if
    exch pop
} bind def

/smartimage12rgb { % w h b [matrix] smartimage12rgb -
    /colorimage where {
	pop
	{ currentfile rowdata readhexstring pop }
	false 3
	colorimage
    } {
	exch pop 8 exch
	3 index 12 mul 8 mod 0 ne { 1 } { 0 } ifelse
	4 index
	6 2 roll
	{ 2 copy cvgray }
	image
	pop pop
    } ifelse
} def
/cshow { dup stringwidth pop 2 div neg 0 rmoveto show } bind def
/rshow { dup stringwidth pop neg 0 rmoveto show } bind def
/BeginEPSF {
  /b4_Inc_state save def
  /dict_count countdictstack def
  /op_count count 1 sub def
  userdict begin
  /showpage {} def
  0 setgray 0 setlinecap 1 setlinewidth 0 setlinejoin
  10 setmiterlimit [] 0 setdash newpath
  /languagelevel where
  { pop languagelevel 1 ne
    { false setstrokeadjust false setoverprint } if
  } if
} bind def
/EndEPSF {
  count op_count sub {pop} repeat
  countdictstack dict_count sub {end} repeat
  b4_Inc_state restore
} bind def

/UniDict    <<
16#0020    /space
16#0021    /exclam
16#0022    /quotedbl
16#0023    /numbersign
16#0024    /dollar
16#0025    /percent
16#0026    /ampersand
16#0027    /quotesingle
16#0028    /parenleft
16#0029    /parenright
16#002A    /asterisk
16#002B    /plus
16#002C    /comma
16#002D    /hyphen
16#002E    /period
16#002F    /slash
16#0030    /zero
16#0031    /one
16#0032    /two
16#0033    /three
16#0034    /four
16#0035    /five
16#0036    /six
16#0037    /seven
16#0038    /eight
16#0039    /nine
16#003A    /colon
16#003B    /semicolon
16#003C    /less
16#003D    /equal
16#003E    /greater
16#003F    /question
16#0040    /at
16#0041    /A
16#0042    /B
16#0043    /C
16#0044    /D
16#0045    /E
16#0046    /F
16#0047    /G
16#0048    /H
16#0049    /I
16#004A    /J
16#004B    /K
16#004C    /L
16#004D    /M
16#004E    /N
16#004F    /O
16#0050    /P
16#0051    /Q
16#0052    /R
16#0053    /S
16#0054    /T
16#0055    /U
16#0056    /V
16#0057    /W
16#0058    /X
16#0059    /Y
16#005A    /Z
16#005B    /bracketleft
16#005C    /backslash
16#005D    /bracketright
16#005E    /asciicircum
16#005F    /underscore
16#0060    /grave
16#0061    /a
16#0062    /b
16#0063    /c
16#0064    /d
16#0065    /e
16#0066    /f
16#0067    /g
16#0068    /h
16#0069    /i
16#006A    /j
16#006B    /k
16#006C    /l
16#006D    /m
16#006E    /n
16#006F    /o
16#0070    /p
16#0071    /q
16#0072    /r
16#0073    /s
16#0074    /t
16#0075    /u
16#0076    /v
16#0077    /w
16#0078    /x
16#0079    /y
16#007A    /z
16#007B    /braceleft
16#007C    /bar
16#007D    /braceright
16#007E    /asciitilde
16#00A0    /space
16#00A1    /exclamdown
16#00A2    /cent
16#00A3    /sterling
16#00A4    /currency
16#00A5    /yen
16#00A6    /brokenbar
16#00A7    /section
16#00A8    /dieresis
16#00A9    /copyright
16#00AA    /ordfeminine
16#00AB    /guillemotleft
16#00AC    /logicalnot
16#00AD    /hyphen
16#00AE    /registered
16#00AF    /macron
16#00B0    /degree
16#00B1    /plusminus
16#00B2    /twosuperior
16#00B3    /threesuperior
16#00B4    /acute
16#00B5    /mu
16#00B6    /paragraph
16#00B7    /periodcentered
16#00B8    /cedilla
16#00B9    /onesuperior
16#00BA    /ordmasculine
16#00BB    /guillemotright
16#00BC    /onequarter
16#00BD    /onehalf
16#00BE    /threequarters
16#00BF    /questiondown
16#00C0    /Agrave
16#00C1    /Aacute
16#00C2    /Acircumflex
16#00C3    /Atilde
16#00C4    /Adieresis
16#00C5    /Aring
16#00C6    /AE
16#00C7    /Ccedilla
16#00C8    /Egrave
16#00C9    /Eacute
16#00CA    /Ecircumflex
16#00CB    /Edieresis
16#00CC    /Igrave
16#00CD    /Iacute
16#00CE    /Icircumflex
16#00CF    /Idieresis
16#00D0    /Eth
16#00D1    /Ntilde
16#00D2    /Ograve
16#00D3    /Oacute
16#00D4    /Ocircumflex
16#00D5    /Otilde
16#00D6    /Odieresis
16#00D7    /multiply
16#00D8    /Oslash
16#00D9    /Ugrave
16#00DA    /Uacute
16#00DB    /Ucircumflex
16#00DC    /Udieresis
16#00DD    /Yacute
16#00DE    /Thorn
16#00DF    /germandbls
16#00E0    /agrave
16#00E1    /aacute
16#00E2    /acircumflex
16#00E3    /atilde
16#00E4    /adieresis
16#00E5    /aring
16#00E6    /ae
16#00E7    /ccedilla
16#00E8    /egrave
16#00E9    /eacute
16#00EA    /ecircumflex
16#00EB    /edieresis
16#00EC    /igrave
16#00ED    /iacute
16#00EE    /icircumflex
16#00EF    /idieresis
16#00F0    /eth
16#00F1    /ntilde
16#00F2    /ograve
16#00F3    /oacute
16#00F4    /ocircumflex
16#00F5    /otilde
16#00F6    /odieresis
16#00F7    /divide
16#00F8    /oslash
16#00F9    /ugrave
16#00FA    /uacute
16#00FB    /ucircumflex
16#00FC    /udieresis
16#00FD    /yacute
16#00FE    /thorn
16#00FF    /ydieresis
16#0100    /Amacron
16#0101    /amacron
16#0102    /Abreve
16#0103    /abreve
16#0104    /Aogonek
16#0105    /aogonek
16#0106    /Cacute
16#0107    /cacute
16#0108    /Ccircumflex
16#0109    /ccircumflex
16#010A    /Cdotaccent
16#010B    /cdotaccent
16#010C    /Ccaron
16#010D    /ccaron
16#010E    /Dcaron
16#010F    /dcaron
16#0110    /Dcroat
16#0111    /dcroat
16#0112    /Emacron
16#0113    /emacron
16#0114    /Ebreve
16#0115    /ebreve
16#0116    /Edotaccent
16#0117    /edotaccent
16#0118    /Eogonek
16#0119    /eogonek
16#011A    /Ecaron
16#011B    /ecaron
16#011C    /Gcircumflex
16#011D    /gcircumflex
16#011E    /Gbreve
16#011F    /gbreve
16#0120    /Gdotaccent
16#0121    /gdotaccent
16#0122    /Gcommaaccent
16#0123    /gcommaaccent
16#0124    /Hcircumflex
16#0125    /hcircumflex
16#0126    /Hbar
16#0127    /hbar
16#0128    /Itilde
16#0129    /itilde
16#012A    /Imacron
16#012B    /imacron
16#012C    /Ibreve
16#012D    /ibreve
16#012E    /Iogonek
16#012F    /iogonek
16#0130    /Idotaccent
16#0131    /dotlessi
16#0132    /IJ
16#0133    /ij
16#0134    /Jcircumflex
16#0135    /jcircumflex
16#0136    /Kcommaaccent
16#0137    /kcommaaccent
16#0138    /kgreenlandic
16#0139    /Lacute
16#013A    /lacute
16#013B    /Lcommaaccent
16#013C    /lcommaaccent
16#013D    /Lcaron
16#013E    /lcaron
16#013F    /Ldot
16#0140    /ldot
16#0141    /Lslash
16#0142    /lslash
16#0143    /Nacute
16#0144    /nacute
16#0145    /Ncommaaccent
16#0146    /ncommaaccent
16#0147    /Ncaron
16#0148    /ncaron
16#0149    /napostrophe
16#014A    /Eng
16#014B    /eng
16#014C    /Omacron
16#014D    /omacron
16#014E    /Obreve
16#014F    /obreve
16#0150    /Ohungarumlaut
16#0151    /ohungarumlaut
16#0152    /OE
16#0153    /oe
16#0154    /Racute
16#0155    /racute
16#0156    /Rcommaaccent
16#0157    /rcommaaccent
16#0158    /Rcaron
16#0159    /rcaron
16#015A    /Sacute
16#015B    /sacute
16#015C    /Scircumflex
16#015D    /scircumflex
16#015E    /Scedilla
16#015F    /scedilla
16#0160    /Scaron
16#0161    /scaron
16#0162    /Tcommaaccent
16#0163    /tcommaaccent
16#0164    /Tcaron
16#0165    /tcaron
16#0166    /Tbar
16#0167    /tbar
16#0168    /Utilde
16#0169    /utilde
16#016A    /Umacron
16#016B    /umacron
16#016C    /Ubreve
16#016D    /ubreve
16#016E    /Uring
16#016F    /uring
16#0170    /Uhungarumlaut
16#0171    /uhungarumlaut
16#0172    /Uogonek
16#0173    /uogonek
16#0174    /Wcircumflex
16#0175    /wcircumflex
16#0176    /Ycircumflex
16#0177    /ycircumflex
16#0178    /Ydieresis
16#0179    /Zacute
16#017A    /zacute
16#017B    /Zdotaccent
16#017C    /zdotaccent
16#017D    /Zcaron
16#017E    /zcaron
16#017F    /longs
16#0192    /florin
16#01A0    /Ohorn
16#01A1    /ohorn
16#01AF    /Uhorn
16#01B0    /uhorn
16#01E6    /Gcaron
16#01E7    /gcaron
16#01FA    /Aringacute
16#01FB    /aringacute
16#01FC    /AEacute
16#01FD    /aeacute
16#01FE    /Oslashacute
16#01FF    /oslashacute
16#0218    /Scommaaccent
16#0219    /scommaaccent
16#021A    /Tcommaaccent
16#021B    /tcommaaccent
16#02BC    /afii57929
16#02BD    /afii64937
16#02C6    /circumflex
16#02C7    /caron
16#02C9    /macron
16#02D8    /breve
16#02D9    /dotaccent
16#02DA    /ring
16#02DB    /ogonek
16#02DC    /tilde
16#02DD    /hungarumlaut
16#0300    /gravecomb
16#0301    /acutecomb
16#0303    /tildecomb
16#0309    /hookabovecomb
16#0323    /dotbelowcomb
16#0384    /tonos
16#0385    /dieresistonos
16#0386    /Alphatonos
16#0387    /anoteleia
16#0388    /Epsilontonos
16#0389    /Etatonos
16#038A    /Iotatonos
16#038C    /Omicrontonos
16#038E    /Upsilontonos
16#038F    /Omegatonos
16#0390    /iotadieresistonos
16#0391    /Alpha
16#0392    /Beta
16#0393    /Gamma
16#0394    /Delta
16#0395    /Epsilon
16#0396    /Zeta
16#0397    /Eta
16#0398    /Theta
16#0399    /Iota
16#039A    /Kappa
16#039B    /Lambda
16#039C    /Mu
16#039D    /Nu
16#039E    /Xi
16#039F    /Omicron
16#03A0    /Pi
16#03A1    /Rho
16#03A3    /Sigma
16#03A4    /Tau
16#03A5    /Upsilon
16#03A6    /Phi
16#03A7    /Chi
16#03A8    /Psi
16#03A9    /Omega
16#03AA    /Iotadieresis
16#03AB    /Upsilondieresis
16#03AC    /alphatonos
16#03AD    /epsilontonos
16#03AE    /etatonos
16#03AF    /iotatonos
16#03B0    /upsilondieresistonos
16#03B1    /alpha
16#03B2    /beta
16#03B3    /gamma
16#03B4    /delta
16#03B5    /epsilon
16#03B6    /zeta
16#03B7    /eta
16#03B8    /theta
16#03B9    /iota
16#03BA    /kappa
16#03BB    /lambda
16#03BC    /mu
16#03BD    /nu
16#03BE    /xi
16#03BF    /omicron
16#03C0    /pi
16#03C1    /rho
16#03C2    /sigma1
16#03C3    /sigma
16#03C4    /tau
16#03C5    /upsilon
16#03C6    /phi
16#03C7    /chi
16#03C8    /psi
16#03C9    /omega
16#03CA    /iotadieresis
16#03CB    /upsilondieresis
16#03CC    /omicrontonos
16#03CD    /upsilontonos
16#03CE    /omegatonos
16#03D1    /theta1
16#03D2    /Upsilon1
16#03D5    /phi1
16#03D6    /omega1
16#0401    /afii10023
16#0402    /afii10051
16#0403    /afii10052
16#0404    /afii10053
16#0405    /afii10054
16#0406    /afii10055
16#0407    /afii10056
16#0408    /afii10057
16#0409    /afii10058
16#040A    /afii10059
16#040B    /afii10060
16#040C    /afii10061
16#040E    /afii10062
16#040F    /afii10145
16#0410    /afii10017
16#0411    /afii10018
16#0412    /afii10019
16#0413    /afii10020
16#0414    /afii10021
16#0415    /afii10022
16#0416    /afii10024
16#0417    /afii10025
16#0418    /afii10026
16#0419    /afii10027
16#041A    /afii10028
16#041B    /afii10029
16#041C    /afii10030
16#041D    /afii10031
16#041E    /afii10032
16#041F    /afii10033
16#0420    /afii10034
16#0421    /afii10035
16#0422    /afii10036
16#0423    /afii10037
16#0424    /afii10038
16#0425    /afii10039
16#0426    /afii10040
16#0427    /afii10041
16#0428    /afii10042
16#0429    /afii10043
16#042A    /afii10044
16#042B    /afii10045
16#042C    /afii10046
16#042D    /afii10047
16#042E    /afii10048
16#042F    /afii10049
16#0430    /afii10065
16#0431    /afii10066
16#0432    /afii10067
16#0433    /afii10068
16#0434    /afii10069
16#0435    /afii10070
16#0436    /afii10072
16#0437    /afii10073
16#0438    /afii10074
16#0439    /afii10075
16#043A    /afii10076
16#043B    /afii10077
16#043C    /afii10078
16#043D    /afii10079
16#043E    /afii10080
16#043F    /afii10081
16#0440    /afii10082
16#0441    /afii10083
16#0442    /afii10084
16#0443    /afii10085
16#0444    /afii10086
16#0445    /afii10087
16#0446    /afii10088
16#0447    /afii10089
16#0448    /afii10090
16#0449    /afii10091
16#044A    /afii10092
16#044B    /afii10093
16#044C    /afii10094
16#044D    /afii10095
16#044E    /afii10096
16#044F    /afii10097
16#0451    /afii10071
16#0452    /afii10099
16#0453    /afii10100
16#0454    /afii10101
16#0455    /afii10102
16#0456    /afii10103
16#0457    /afii10104
16#0458    /afii10105
16#0459    /afii10106
16#045A    /afii10107
16#045B    /afii10108
16#045C    /afii10109
16#045E    /afii10110
16#045F    /afii10193
16#0462    /afii10146
16#0463    /afii10194
16#0472    /afii10147
16#0473    /afii10195
16#0474    /afii10148
16#0475    /afii10196
16#0490    /afii10050
16#0491    /afii10098
16#04D9    /afii10846
16#05B0    /afii57799
16#05B1    /afii57801
16#05B2    /afii57800
16#05B3    /afii57802
16#05B4    /afii57793
16#05B5    /afii57794
16#05B6    /afii57795
16#05B7    /afii57798
16#05B8    /afii57797
16#05B9    /afii57806
16#05BB    /afii57796
16#05BC    /afii57807
16#05BD    /afii57839
16#05BE    /afii57645
16#05BF    /afii57841
16#05C0    /afii57842
16#05C1    /afii57804
16#05C2    /afii57803
16#05C3    /afii57658
16#05D0    /afii57664
16#05D1    /afii57665
16#05D2    /afii57666
16#05D3    /afii57667
16#05D4    /afii57668
16#05D5    /afii57669
16#05D6    /afii57670
16#05D7    /afii57671
16#05D8    /afii57672
16#05D9    /afii57673
16#05DA    /afii57674
16#05DB    /afii57675
16#05DC    /afii57676
16#05DD    /afii57677
16#05DE    /afii57678
16#05DF    /afii57679
16#05E0    /afii57680
16#05E1    /afii57681
16#05E2    /afii57682
16#05E3    /afii57683
16#05E4    /afii57684
16#05E5    /afii57685
16#05E6    /afii57686
16#05E7    /afii57687
16#05E8    /afii57688
16#05E9    /afii57689
16#05EA    /afii57690
16#05F0    /afii57716
16#05F1    /afii57717
16#05F2    /afii57718
16#060C    /afii57388
16#061B    /afii57403
16#061F    /afii57407
16#0621    /afii57409
16#0622    /afii57410
16#0623    /afii57411
16#0624    /afii57412
16#0625    /afii57413
16#0626    /afii57414
16#0627    /afii57415
16#0628    /afii57416
16#0629    /afii57417
16#062A    /afii57418
16#062B    /afii57419
16#062C    /afii57420
16#062D    /afii57421
16#062E    /afii57422
16#062F    /afii57423
16#0630    /afii57424
16#0631    /afii57425
16#0632    /afii57426
16#0633    /afii57427
16#0634    /afii57428
16#0635    /afii57429
16#0636    /afii57430
16#0637    /afii57431
16#0638    /afii57432
16#0639    /afii57433
16#063A    /afii57434
16#0640    /afii57440
16#0641    /afii57441
16#0642    /afii57442
16#0643    /afii57443
16#0644    /afii57444
16#0645    /afii57445
16#0646    /afii57446
16#0647    /afii57470
16#0648    /afii57448
16#0649    /afii57449
16#064A    /afii57450
16#064B    /afii57451
16#064C    /afii57452
16#064D    /afii57453
16#064E    /afii57454
16#064F    /afii57455
16#0650    /afii57456
16#0651    /afii57457
16#0652    /afii57458
16#0660    /afii57392
16#0661    /afii57393
16#0662    /afii57394
16#0663    /afii57395
16#0664    /afii57396
16#0665    /afii57397
16#0666    /afii57398
16#0667    /afii57399
16#0668    /afii57400
16#0669    /afii57401
16#066A    /afii57381
16#066D    /afii63167
16#0679    /afii57511
16#067E    /afii57506
16#0686    /afii57507
16#0688    /afii57512
16#0691    /afii57513
16#0698    /afii57508
16#06A4    /afii57505
16#06AF    /afii57509
16#06BA    /afii57514
16#06D2    /afii57519
16#06D5    /afii57534
16#1E80    /Wgrave
16#1E81    /wgrave
16#1E82    /Wacute
16#1E83    /wacute
16#1E84    /Wdieresis
16#1E85    /wdieresis
16#1EF2    /Ygrave
16#1EF3    /ygrave
16#200C    /afii61664
16#200D    /afii301
16#200E    /afii299
16#200F    /afii300
16#2012    /figuredash
16#2013    /endash
16#2014    /emdash
16#2015    /afii00208
16#2017    /underscoredbl
16#2018    /quoteleft
16#2019    /quoteright
16#201A    /quotesinglbase
16#201B    /quotereversed
16#201C    /quotedblleft
16#201D    /quotedblright
16#201E    /quotedblbase
16#2020    /dagger
16#2021    /daggerdbl
16#2022    /bullet
16#2024    /onedotenleader
16#2025    /twodotenleader
16#2026    /ellipsis
16#202C    /afii61573
16#202D    /afii61574
16#202E    /afii61575
16#2030    /perthousand
16#2032    /minute
16#2033    /second
16#2039    /guilsinglleft
16#203A    /guilsinglright
16#203C    /exclamdbl
16#2044    /fraction
16#2070    /zerosuperior
16#2074    /foursuperior
16#2075    /fivesuperior
16#2076    /sixsuperior
16#2077    /sevensuperior
16#2078    /eightsuperior
16#2079    /ninesuperior
16#207D    /parenleftsuperior
16#207E    /parenrightsuperior
16#207F    /nsuperior
16#2080    /zeroinferior
16#2081    /oneinferior
16#2082    /twoinferior
16#2083    /threeinferior
16#2084    /fourinferior
16#2085    /fiveinferior
16#2086    /sixinferior
16#2087    /seveninferior
16#2088    /eightinferior
16#2089    /nineinferior
16#208D    /parenleftinferior
16#208E    /parenrightinferior
16#20A1    /colonmonetary
16#20A3    /franc
16#20A4    /lira
16#20A7    /peseta
16#20AA    /afii57636
16#20AB    /dong
16#20AC    /Euro
16#2105    /afii61248
16#2111    /Ifraktur
16#2113    /afii61289
16#2116    /afii61352
16#2118    /weierstrass
16#211C    /Rfraktur
16#211E    /prescription
16#2122    /trademark
16#2126    /Omega
16#212E    /estimated
16#2135    /aleph
16#2153    /onethird
16#2154    /twothirds
16#215B    /oneeighth
16#215C    /threeeighths
16#215D    /fiveeighths
16#215E    /seveneighths
16#2190    /arrowleft
16#2191    /arrowup
16#2192    /arrowright
16#2193    /arrowdown
16#2194    /arrowboth
16#2195    /arrowupdn
16#21A8    /arrowupdnbse
16#21B5    /carriagereturn
16#21D0    /arrowdblleft
16#21D1    /arrowdblup
16#21D2    /arrowdblright
16#21D3    /arrowdbldown
16#21D4    /arrowdblboth
16#2200    /universal
16#2202    /partialdiff
16#2203    /existential
16#2205    /emptyset
16#2206    /Delta
16#2207    /gradient
16#2208    /element
16#2209    /notelement
16#220B    /suchthat
16#220F    /product
16#2211    /summation
16#2212    /minus
16#2215    /fraction
16#2217    /asteriskmath
16#2219    /periodcentered
16#221A    /radical
16#221D    /proportional
16#221E    /infinity
16#221F    /orthogonal
16#2220    /angle
16#2227    /logicaland
16#2228    /logicalor
16#2229    /intersection
16#222A    /union
16#222B    /integral
16#2234    /therefore
16#223C    /similar
16#2245    /congruent
16#2248    /approxequal
16#2260    /notequal
16#2261    /equivalence
16#2264    /lessequal
16#2265    /greaterequal
16#2282    /propersubset
16#2283    /propersuperset
16#2284    /notsubset
16#2286    /reflexsubset
16#2287    /reflexsuperset
16#2295    /circleplus
16#2297    /circlemultiply
16#22A5    /perpendicular
16#22C5    /dotmath
16#2302    /house
16#2310    /revlogicalnot
16#2320    /integraltp
16#2321    /integralbt
16#2329    /angleleft
16#232A    /angleright
16#2500    /SF100000
16#2502    /SF110000
16#250C    /SF010000
16#2510    /SF030000
16#2514    /SF020000
16#2518    /SF040000
16#251C    /SF080000
16#2524    /SF090000
16#252C    /SF060000
16#2534    /SF070000
16#253C    /SF050000
16#2550    /SF430000
16#2551    /SF240000
16#2552    /SF510000
16#2553    /SF520000
16#2554    /SF390000
16#2555    /SF220000
16#2556    /SF210000
16#2557    /SF250000
16#2558    /SF500000
16#2559    /SF490000
16#255A    /SF380000
16#255B    /SF280000
16#255C    /SF270000
16#255D    /SF260000
16#255E    /SF360000
16#255F    /SF370000
16#2560    /SF420000
16#2561    /SF190000
16#2562    /SF200000
16#2563    /SF230000
16#2564    /SF470000
16#2565    /SF480000
16#2566    /SF410000
16#2567    /SF450000
16#2568    /SF460000
16#2569    /SF400000
16#256A    /SF540000
16#256B    /SF530000
16#256C    /SF440000
16#2580    /upblock
16#2584    /dnblock
16#2588    /block
16#258C    /lfblock
16#2590    /rtblock
16#2591    /ltshade
16#2592    /shade
16#2593    /dkshade
16#25A0    /filledbox
16#25A1    /H22073
16#25AA    /H18543
16#25AB    /H18551
16#25AC    /filledrect
16#25B2    /triagup
16#25BA    /triagrt
16#25BC    /triagdn
16#25C4    /triaglf
16#25CA    /lozenge
16#25CB    /circle
16#25CF    /H18533
16#25D8    /invbullet
16#25D9    /invcircle
16#25E6    /openbullet
16#263A    /smileface
16#263B    /invsmileface
16#263C    /sun
16#2640    /female
16#2642    /male
16#2660    /spade
16#2663    /club
16#2665    /heart
16#2666    /diamond
16#266A    /musicalnote
16#266B    /musicalnotedbl
16#F6BE    /dotlessj
16#F6BF    /LL
16#F6C0    /ll
16#F6C1    /Scedilla
16#F6C2    /scedilla
16#F6C3    /commaaccent
16#F6C4    /afii10063
16#F6C5    /afii10064
16#F6C6    /afii10192
16#F6C7    /afii10831
16#F6C8    /afii10832
16#F6C9    /Acute
16#F6CA    /Caron
16#F6CB    /Dieresis
16#F6CC    /DieresisAcute
16#F6CD    /DieresisGrave
16#F6CE    /Grave
16#F6CF    /Hungarumlaut
16#F6D0    /Macron
16#F6D1    /cyrBreve
16#F6D2    /cyrFlex
16#F6D3    /dblGrave
16#F6D4    /cyrbreve
16#F6D5    /cyrflex
16#F6D6    /dblgrave
16#F6D7    /dieresisacute
16#F6D8    /dieresisgrave
16#F6D9    /copyrightserif
16#F6DA    /registerserif
16#F6DB    /trademarkserif
16#F6DC    /onefitted
16#F6DD    /rupiah
16#F6DE    /threequartersemdash
16#F6DF    /centinferior
16#F6E0    /centsuperior
16#F6E1    /commainferior
16#F6E2    /commasuperior
16#F6E3    /dollarinferior
16#F6E4    /dollarsuperior
16#F6E5    /hypheninferior
16#F6E6    /hyphensuperior
16#F6E7    /periodinferior
16#F6E8    /periodsuperior
16#F6E9    /asuperior
16#F6EA    /bsuperior
16#F6EB    /dsuperior
16#F6EC    /esuperior
16#F6ED    /isuperior
16#F6EE    /lsuperior
16#F6EF    /msuperior
16#F6F0    /osuperior
16#F6F1    /rsuperior
16#F6F2    /ssuperior
16#F6F3    /tsuperior
16#F6F4    /Brevesmall
16#F6F5    /Caronsmall
16#F6F6    /Circumflexsmall
16#F6F7    /Dotaccentsmall
16#F6F8    /Hungarumlautsmall
16#F6F9    /Lslashsmall
16#F6FA    /OEsmall
16#F6FB    /Ogoneksmall
16#F6FC    /Ringsmall
16#F6FD    /Scaronsmall
16#F6FE    /Tildesmall
16#F6FF    /Zcaronsmall
16#F721    /exclamsmall
16#F724    /dollaroldstyle
16#F726    /ampersandsmall
16#F730    /zerooldstyle
16#F731    /oneoldstyle
16#F732    /twooldstyle
16#F733    /threeoldstyle
16#F734    /fouroldstyle
16#F735    /fiveoldstyle
16#F736    /sixoldstyle
16#F737    /sevenoldstyle
16#F738    /eightoldstyle
16#F739    /nineoldstyle
16#F73F    /questionsmall
16#F760    /Gravesmall
16#F761    /Asmall
16#F762    /Bsmall
16#F763    /Csmall
16#F764    /Dsmall
16#F765    /Esmall
16#F766    /Fsmall
16#F767    /Gsmall
16#F768    /Hsmall
16#F769    /Ismall
16#F76A    /Jsmall
16#F76B    /Ksmall
16#F76C    /Lsmall
16#F76D    /Msmall
16#F76E    /Nsmall
16#F76F    /Osmall
16#F770    /Psmall
16#F771    /Qsmall
16#F772    /Rsmall
16#F773    /Ssmall
16#F774    /Tsmall
16#F775    /Usmall
16#F776    /Vsmall
16#F777    /Wsmall
16#F778    /Xsmall
16#F779    /Ysmall
16#F77A    /Zsmall
16#F7A1    /exclamdownsmall
16#F7A2    /centoldstyle
16#F7A8    /Dieresissmall
16#F7AF    /Macronsmall
16#F7B4    /Acutesmall
16#F7B8    /Cedillasmall
16#F7BF    /questiondownsmall
16#F7E0    /Agravesmall
16#F7E1    /Aacutesmall
16#F7E2    /Acircumflexsmall
16#F7E3    /Atildesmall
16#F7E4    /Adieresissmall
16#F7E5    /Aringsmall
16#F7E6    /AEsmall
16#F7E7    /Ccedillasmall
16#F7E8    /Egravesmall
16#F7E9    /Eacutesmall
16#F7EA    /Ecircumflexsmall
16#F7EB    /Edieresissmall
16#F7EC    /Igravesmall
16#F7ED    /Iacutesmall
16#F7EE    /Icircumflexsmall
16#F7EF    /Idieresissmall
16#F7F0    /Ethsmall
16#F7F1    /Ntildesmall
16#F7F2    /Ogravesmall
16#F7F3    /Oacutesmall
16#F7F4    /Ocircumflexsmall
16#F7F5    /Otildesmall
16#F7F6    /Odieresissmall
16#F7F8    /Oslashsmall
16#F7F9    /Ugravesmall
16#F7FA    /Uacutesmall
16#F7FB    /Ucircumflexsmall
16#F7FC    /Udieresissmall
16#F7FD    /Yacutesmall
16#F7FE    /Thornsmall
16#F7FF    /Ydieresissmall
16#F8E5    /radicalex
16#F8E6    /arrowvertex
16#F8E7    /arrowhorizex
16#F8E8    /registersans
16#F8E9    /copyrightsans
16#F8EA    /trademarksans
16#F8EB    /parenlefttp
16#F8EC    /parenleftex
16#F8ED    /parenleftbt
16#F8EE    /bracketlefttp
16#F8EF    /bracketleftex
16#F8F0    /bracketleftbt
16#F8F1    /bracelefttp
16#F8F2    /braceleftmid
16#F8F3    /braceleftbt
16#F8F4    /braceex
16#F8F5    /integralex
16#F8F6    /parenrighttp
16#F8F7    /parenrightex
16#F8F8    /parenrightbt
16#F8F9    /bracketrighttp
16#F8FA    /bracketrightex
16#F8FB    /bracketrightbt
16#F8FC    /bracerighttp
16#F8FD    /bracerightmid
16#F8FE    /bracerightbt
16#FB00    /ff
16#FB01    /fi
16#FB02    /fl
16#FB03    /ffi
16#FB04    /ffl
16#FB1F    /afii57705
16#FB2A    /afii57694
16#FB2B    /afii57695
16#FB35    /afii57723
16#FB4B    /afii57700
>>    def
10 dict dup begin
  /FontType 3 def
  /FontMatrix [.001 0 0 .001 0 0 ] def
  /FontBBox [0 0 100 100] def
  /Encoding 256 array def
  0 1 255 {Encoding exch /.notdef put} for
  Encoding 97 /openbox put
  /CharProcs 2 dict def
  CharProcs begin
    /.notdef { } def
    /openbox
      { newpath
          90 30 moveto  90 670 lineto
          730 670 lineto  730 30 lineto
        closepath
        60 setlinewidth
        stroke } def
  end
  /BuildChar
    { 1000 0 0
	0 750 750
        setcachedevice
	exch begin
        Encoding exch get
        CharProcs exch get
	end
	exec
    } def
end
/NoglyphFont exch definefont pop

/mbshow {                       % num
    8 array                     % num array
    -1                          % num array counter
    {
        dup 7 ge { exit } if
        1 add                   % num array counter
        2 index 16#100 mod      % num array counter mod
        3 copy put pop          % num array counter
        2 index 16#100 idiv     % num array counter num
        dup 0 le
        {
            pop exit
        } if
        4 -1 roll pop
        3 1 roll
    } loop                      % num array counter
    3 -1 roll pop               % array counter
    dup 1 add string            % array counter string
    0 1 3 index
    {                           % array counter string index
        2 index 1 index sub     % array counter string index sid
        4 index 3 2 roll get    % array counter string sid byte
        2 index 3 1 roll put    % array counter string
    } for
    show pop pop
} def
/draw_undefined_char
{
  /NoglyphFont findfont csize scalefont setfont (a) show
} bind def

/real_unicodeshow
{
  /ccode exch def
  /Unicodedict where {
    pop
    Unicodedict ccode known {
      /cwidth {currentfont /ScaleMatrix get 0 get} def 
      /cheight cwidth def 
      gsave
      currentpoint translate
      cwidth 1056 div cheight 1056 div scale
      2 -2 translate
      ccode Unicodedict exch get
      cvx exec
      grestore
      currentpoint exch cwidth add exch moveto
      true
    } {
      false
    } ifelse
  } {
    false
  } ifelse
} bind def

/real_unicodeshow_native
{
  /ccode exch def
  /NativeFont where {
    pop
    NativeFont findfont /FontName get /Courier eq {
      false
    } {
      NativeFont findfont csize scalefont setfont
      /Unicode2NativeDict where {
        pop
        Unicode2NativeDict ccode known {
          Unicode2NativeDict ccode get show
          true
        } {
          false
        } ifelse
      } {
	  false
      } ifelse
    } ifelse
  } {
    false
  } ifelse
} bind def

/real_glyph_unicodeshow
{
  /ccode exch def
      /UniDict where {
        pop
        UniDict ccode known {
          UniDict ccode get glyphshow
          true
        } {
          false
        } ifelse
      } {
	  false
      } ifelse
} bind def
/real_unicodeshow_cid
{
  /ccode exch def
  /UCS2Font where {
    pop
    UCS2Font findfont /FontName get /Courier eq {
      false
    } {
      UCS2Font findfont csize scalefont setfont
      ccode mbshow
      true
    } ifelse
  } {
    false
  } ifelse
} bind def

/unicodeshow 
{
  /cfont currentfont def
  /str exch def
  /i 0 def
  str length /ls exch def
  {
    i 1 add ls ge {exit} if
    str i get /c1 exch def
    str i 1 add get /c2 exch def
    /c c2 256 mul c1 add def
    c2 1 ge 
    {
      c unicodeshow1
      {
        % do nothing
      } {
        c real_unicodeshow_cid	% try CID 
        {
          % do nothing
        } {
          c unicodeshow2
          {
            % do nothing
          } {
            draw_undefined_char
          } ifelse
        } ifelse
      } ifelse
    } {
      % ascii
      cfont setfont
      str i 1 getinterval show
    } ifelse
    /i i 2 add def
  } loop
}  bind def

/u2nadd {Unicode2NativeDict 3 1 roll put} bind def

/Unicode2NativeDictdef 0 dict def
/default_ls {
  /Unicode2NativeDict Unicode2NativeDictdef def
  /UCS2Font   /Courier def
  /NativeFont /Courier def
  /unicodeshow1 { real_glyph_unicodeshow } bind def
  /unicodeshow2 { real_unicodeshow_native } bind def
} bind def

/Unicode2NativeDictko 0 dict def
/ko_ls {
  /NativeFont /Baekmuk-Gulim-KSC-EUC-H def
  /UCS2Font /Courier def
  /Unicode2NativeDict Unicode2NativeDictko def
  /unicodeshow1 { real_unicodeshow } bind def
  /unicodeshow2 { real_unicodeshow_native } bind def
} bind def
/Unicode2NativeDictzh-CN 0 dict def
/zh-CN_ls {
  /NativeFont /MSungGBK-Light-GBK2K-H def
  /UCS2Font /Courier def
  /Unicode2NativeDict Unicode2NativeDictzh-CN def
  /unicodeshow1 { real_unicodeshow } bind def
  /unicodeshow2 { real_unicodeshow_native } bind def
} bind def
/Unicode2NativeDictja 0 dict def
/ja_ls {
  /NativeFont /Ryumin-Light-EUC-H def
  /UCS2Font /Courier def
  /Unicode2NativeDict Unicode2NativeDictja def
  /unicodeshow1 { real_unicodeshow } bind def
  /unicodeshow2 { real_unicodeshow_native } bind def
} bind def
/Unicode2NativeDictzh-TW 0 dict def
/zh-TW_ls {
  /NativeFont /ShanHeiSun-Light-B5-H def
  /UCS2Font /Courier def
  /Unicode2NativeDict Unicode2NativeDictzh-TW def
  /unicodeshow1 { real_unicodeshow } bind def
  /unicodeshow2 { real_unicodeshow_native } bind def
} bind def
%%EndProlog
%%Page: 1 1
%%BeginPageSetup
/pagelevel save def
18 0 translate
0 18 translate
%%EndPageSetup
newpath 0 18 moveto 576 0 rlineto 0 756 rlineto -576 0 rlineto  closepath clip newpath
 initclip 
 newpath 
0 755.9 moveto
576 0 rlineto 0 -756 rlineto -576 0 rlineto  closepath 
 clip 
 gsave 
 gsave 
1.00 1.00 1.00 setrgbcolor
 grestore 
 gsave 
1.00 1.00 1.00 setrgbcolor
 grestore 
 gsave 
1.00 1.00 1.00 setrgbcolor
0.00 0.00 0.00 setrgbcolor
 gsave 
0.00 0.00 0.00 setrgbcolor
 initclip 
 newpath 
0 755.9 moveto
576 0 rlineto 0 -756 rlineto -576 0 rlineto  closepath 
 clip 
default_ls
10 f0
3 745.9 moveto
(\124\000\150\000\145\000\040\000\146\000\157\000\154\000\154\000\157\000\167\000\151\000\156\000\147\000\040\000\155\000\145\000\163\000\163\000\141\000\147\000\145\000\040\000\150\000\141\000\163\000\040\000\156\000\157\000\167\000\040\000\142\000\145\000\145\000\156\000\040\000\163\000\145\000\156\000\164\000\040\000\164\000\157\000\040\000\164\000\150\000\145\000\040\000\111\000\156\000\146\000\162\000\141\000\162\000\145\000\144\000\040\000\115\000\165\000\154\000\164\000\151\000\154\000\141\000\171\000\145\000\056\000\056\000\056\000) unicodeshow
 grestore 
 gsave 
0.00 0.00 0.00 setrgbcolor
 initclip 
 newpath 
0 755.9 moveto
576 0 rlineto 0 -756 rlineto -576 0 rlineto  closepath 
 clip 
default_ls
10 f0
398 745.9 moveto
(\150\000\164\000\164\000\160\000\072\000\057\000\057\000\167\000\167\000\167\000\056\000\143\000\171\000\142\000\145\000\162\000\056\000\162\000\144\000\147\000\056\000\141\000\143\000\056\000\165\000\153\000\057\000\143\000\147\000\151\000\055\000\142\000\151\000\156\000\057\000\146\000\155\000\141\000\151\000\154\000\056\000\160\000\154\000) unicodeshow
 grestore 
 gsave 
0.00 0.00 0.00 setrgbcolor
 initclip 
 newpath 
0 755.9 moveto
576 0 rlineto 0 -756 rlineto -576 0 rlineto  closepath 
 clip 
default_ls
10 f0
3 5.9 moveto
(\061\000\040\000\157\000\146\000\040\000\061\000) unicodeshow
 grestore 
 gsave 
0.00 0.00 0.00 setrgbcolor
 initclip 
 newpath 
0 755.9 moveto
576 0 rlineto 0 -756 rlineto -576 0 rlineto  closepath 
 clip 
default_ls
10 f0
484 5.9 moveto
(\060\000\066\000\057\000\061\000\070\000\057\000\062\000\060\000\060\000\063\000\040\000\061\000\061\000\072\000\064\000\070\000\040\000\101\000\115\000) unicodeshow
 grestore 
 grestore 
 grestore 
 gsave 
 gsave 
 initclip 
 newpath 
36 719.9 moveto
504 0 rlineto 0 -684 rlineto -504 0 rlineto  closepath 
 clip 
 grestore 
 gsave 
 initclip 
 newpath 
36 719.9 moveto
504 0 rlineto 0 -684 rlineto -504 0 rlineto  closepath 
 clip 
 grestore 
 gsave 
 initclip 
 newpath 
36 719.9 moveto
504 0 rlineto 0 -684 rlineto -504 0 rlineto  closepath 
 clip 
0.00 0.00 0.00 setrgbcolor
default_ls
18 f5
43 694.9 moveto
(The following message has now been sent to the Infrared ) show
0.00 0.00 0.00 setrgbcolor
default_ls
18 f5
191 676.9 moveto
(Multilayer Laboratory :) show
0.00 0.00 0.00 setrgbcolor
default_ls
10 f4
36 652.9 moveto
(Below is what you submitted to irfilters@cyber.rdg.ac.uk on Wednesday, June 18, 2003 at 16:20:46) show
0.77 0.77 0.77 setrgbcolor
gsave 0.1 setlinewidth
 100 631.9 moveto 476 631.9 lineto
 stroke 
grestore
0.29 0.29 0.29 setrgbcolor
gsave 0.1 setlinewidth
 100 633.9 moveto 100 631.9 lineto
 stroke 
grestore
0.29 0.29 0.29 setrgbcolor
gsave 0.1 setlinewidth
 100 633.9 moveto 476 633.9 lineto
 stroke 
grestore
0.77 0.77 0.77 setrgbcolor
gsave 0.1 setlinewidth
 476 633.9 moveto 476 631.9 lineto
 stroke 
grestore
0.00 0.00 0.00 setrgbcolor
default_ls
10 f5
36 607.9 moveto
(address:) show
0.00 0.00 0.00 setrgbcolor
default_ls
10 f4
78 607.9 moveto
(\040\000\104\000\145\000\160\000\164\000\056\000\040\000\157\000\146\000\040\000\101\000\163\000\164\000\162\000\157\000\156\000\157\000\155\000\171\000\040\000\062\000\061\000\061\000\040\000\102\000\162\000\171\000\141\000\156\000\164\000\040\000\123\000\160\000\141\000\143\000\145\000\040\000\123\000\143\000\151\000\145\000\156\000\143\000\145\000\163\000\040\000\102\000\154\000\144\000\147\000\056\000\040\000\125\000\156\000\151\000\166\000\145\000\162\000\163\000\151\000\164\000\171\000\040\000\157\000\146\000\040\000\106\000\154\000\157\000\162\000\151\000\144\000\141\000\040\000\107\000\141\000\151\000\156\000\145\000\163\000\166\000\151\000\154\000\154\000\145\000\054\000\040\000\106\000\114\000\040\000\063\000\062\000\066\000\061\000\061\000\040\000\125\000\123\000\101\000) unicodeshow
0.00 0.00 0.00 setrgbcolor
default_ls
10 f5
36 587.9 moveto
(tel:) show
0.00 0.00 0.00 setrgbcolor
default_ls
10 f4
51 587.9 moveto
( 352-392-2052, ext. 244) show
0.00 0.00 0.00 setrgbcolor
default_ls
10 f5
36 567.9 moveto
(fax:) show
0.00 0.00 0.00 setrgbcolor
default_ls
10 f4
54 567.9 moveto
( 352-392-5089) show
0.00 0.00 0.00 setrgbcolor
default_ls
10 f5
36 547.9 moveto
(website:) show
0.00 0.00 0.00 setrgbcolor
default_ls
10 f4
76 547.9 moveto
( www.astro.ufl.edu/~raines) show
0.00 0.00 0.00 setrgbcolor
default_ls
10 f5
36 527.9 moveto
(general-description:) show
0.00 0.00 0.00 setrgbcolor
default_ls
10 f4
132 527.9 moveto
(\040\000\127\000\145\000\040\000\156\000\145\000\145\000\144\000\040\000\161\000\165\000\157\000\164\000\145\000\163\000\040\000\146\000\157\000\162\000\040\000\141\000\040\000\163\000\145\000\164\000\040\000\157\000\146\000\040\000\167\000\151\000\144\000\145\000\040\000\142\000\141\000\156\000\144\000\160\000\141\000\163\000\163\000\040\000\146\000\151\000\154\000\164\000\145\000\162\000\163\000\040\000\146\000\157\000\162\000\040\000\163\000\160\000\145\000\143\000\164\000\162\000\157\000\163\000\143\000\157\000\160\000\171\000\056\000\040\000\124\000\150\000\145\000\171\000\040\000\141\000\162\000\145\000\040\000\146\000\157\000\162\000\040\000\141\000\040\000\116\000\145\000\141\000\162\000\055\000\111\000\122\000) unicodeshow
0.00 0.00 0.00 setrgbcolor
default_ls
10 f4
36 517.9 moveto
(multi-object spectrometer and imager \(FLAMINGOS-2\) that we are building at UF for Gemini Observatory.) show
0.00 0.00 0.00 setrgbcolor
default_ls
10 f5
36 497.9 moveto
(filter-type:) show
0.00 0.00 0.00 setrgbcolor
default_ls
10 f4
85 497.9 moveto
(\040\000\112\000\110\000\055\000\142\000\141\000\156\000\144\000\160\000\141\000\163\000\163\000\040\000\146\000\151\000\154\000\164\000\145\000\162\000\054\000\040\000\161\000\164\000\171\000\040\000\064\000\040\000\110\000\113\000\055\000\142\000\141\000\156\000\144\000\160\000\141\000\163\000\163\000\040\000\146\000\151\000\154\000\164\000\145\000\162\000\054\000\040\000\161\000\164\000\171\000\040\000\064\000) unicodeshow
0.00 0.00 0.00 setrgbcolor
default_ls
10 f5
36 477.9 moveto
(components:) show
0.00 0.00 0.00 setrgbcolor
default_ls
10 f4
99 477.9 moveto
(\040\000\103\000\154\000\145\000\141\000\162\000\040\000\141\000\160\000\145\000\162\000\164\000\165\000\162\000\145\000\040\000\075\000\040\000\061\000\061\000\060\000\040\000\155\000\155\000\040\000\124\000\157\000\164\000\141\000\154\000\040\000\141\000\160\000\145\000\162\000\164\000\165\000\162\000\145\000\040\000\075\000\040\000\061\000\061\000\067\000\040\000\155\000\155\000\040\000\124\000\150\000\151\000\143\000\153\000\156\000\145\000\163\000\163\000\040\000\141\000\162\000\157\000\165\000\156\000\144\000\040\000\065\000\056\000\062\000\040\000\155\000\155\000\040\000\050\000\053\000\057\000\055\000\060\000\056\000\065\000\040\000\155\000\155\000\040\000\160\000\162\000\157\000\142\000\141\000\142\000\154\000\171\000) unicodeshow
0.00 0.00 0.00 setrgbcolor
default_ls
10 f4
36 467.9 moveto
(\157\000\153\000\051\000\040\000\106\000\154\000\141\000\164\000\156\000\145\000\163\000\163\000\072\000\040\000\154\000\141\000\155\000\142\000\144\000\141\000\137\000\110\000\145\000\116\000\145\000\057\000\064\000\040\000\160\000\145\000\141\000\153\000\040\000\164\000\157\000\040\000\166\000\141\000\154\000\154\000\145\000\171\000\040\000\157\000\166\000\145\000\162\000\040\000\061\000\061\000\060\000\040\000\155\000\155\000\040\000\143\000\154\000\145\000\141\000\162\000\040\000\141\000\160\000\145\000\162\000\164\000\165\000\162\000\145\000) unicodeshow
0.00 0.00 0.00 setrgbcolor
default_ls
10 f5
36 447.9 moveto
(spectral-requirements:) show
0.00 0.00 0.00 setrgbcolor
default_ls
10 f4
144 447.9 moveto
(\040\000\112\000\110\000\055\000\146\000\151\000\154\000\164\000\145\000\162\000\072\000\040\000\065\000\060\000\045\000\040\000\143\000\165\000\164\000\157\000\156\000\040\000\075\000\040\000\060\000\056\000\071\000\040\000\155\000\151\000\143\000\162\000\157\000\156\000\040\000\065\000\060\000\045\000\040\000\143\000\165\000\164\000\157\000\146\000\146\000\040\000\075\000\040\000\061\000\056\000\070\000\040\000\155\000\151\000\143\000\162\000\157\000\156\000\040\000\110\000\113\000\055\000\146\000\151\000\154\000\164\000\145\000\162\000\072\000\040\000\065\000\060\000\045\000\040\000\143\000\165\000\164\000\157\000\156\000\040\000\075\000\040\000\061\000\056\000\062\000\065\000) unicodeshow
0.00 0.00 0.00 setrgbcolor
default_ls
10 f4
36 437.9 moveto
(\155\000\151\000\143\000\162\000\157\000\156\000\040\000\065\000\060\000\045\000\040\000\143\000\165\000\164\000\157\000\146\000\146\000\040\000\075\000\040\000\062\000\056\000\065\000\040\000\155\000\151\000\143\000\162\000\157\000\156\000\040\000\106\000\157\000\162\000\040\000\141\000\154\000\154\000\040\000\146\000\151\000\154\000\164\000\145\000\162\000\163\000\054\000\040\000\142\000\154\000\157\000\143\000\153\000\151\000\156\000\147\000\040\000\157\000\165\000\164\000\040\000\157\000\146\000\040\000\160\000\141\000\163\000\163\000\040\000\142\000\141\000\156\000\144\000\163\000\040\000\167\000\151\000\164\000\150\000\151\000\156\000\040\000\164\000\150\000\145\000\040\000\162\000\141\000\156\000\147\000\145\000\040\000\157\000\146\000\040\000\060\000\056\000\070\000\065\000\040\000\055\000\040\000\062\000\056\000\070\000\040\000\155\000\151\000\143\000\162\000\157\000\156\000\163\000) unicodeshow
0.00 0.00 0.00 setrgbcolor
default_ls
10 f4
36 427.9 moveto
(\050\000\167\000\145\000\047\000\162\000\145\000\040\000\165\000\163\000\151\000\156\000\147\000\040\000\141\000\040\000\110\000\101\000\127\000\101\000\111\000\111\000\055\000\111\000\111\000\040\000\110\000\147\000\103\000\144\000\124\000\145\000\040\000\141\000\162\000\162\000\141\000\171\000\051\000\056\000\040\000\124\000\162\000\141\000\156\000\163\000\155\000\151\000\163\000\163\000\151\000\157\000\156\000\040\000\076\000\040\000\071\000\060\000\045\000\040\000\146\000\157\000\162\000\040\000\141\000\154\000\154\000\040\000\146\000\151\000\154\000\164\000\145\000\162\000\163\000\040\000\151\000\156\000\040\000\142\000\141\000\156\000\144\000\056\000) unicodeshow
0.00 0.00 0.00 setrgbcolor
default_ls
10 f5
36 407.9 moveto
(other-requirements:) show
0.00 0.00 0.00 setrgbcolor
default_ls
10 f4
131 407.9 moveto
(\040\000\103\000\157\000\163\000\155\000\145\000\164\000\151\000\143\000\163\000\072\000\040\000\143\000\141\000\156\000\040\000\171\000\157\000\165\000\040\000\160\000\162\000\157\000\166\000\151\000\144\000\145\000\040\000\161\000\165\000\157\000\164\000\145\000\163\000\040\000\146\000\157\000\162\000\040\000\066\000\060\000\057\000\064\000\060\000\040\000\141\000\156\000\144\000\040\000\070\000\060\000\057\000\065\000\060\000\040\000\163\000\143\000\162\000\141\000\164\000\143\000\150\000\040\000\144\000\151\000\147\000\077\000\040\000\120\000\151\000\156\000\150\000\157\000\154\000\145\000\163\000\072\000\040\000\142\000\145\000\163\000\164\000\040\000\145\000\146\000\146\000\157\000\162\000\164\000) unicodeshow
0.00 0.00 0.00 setrgbcolor
default_ls
10 f4
36 397.9 moveto
(\157\000\166\000\145\000\162\000\040\000\143\000\154\000\145\000\141\000\162\000\040\000\141\000\160\000\145\000\162\000\164\000\165\000\162\000\145\000\056\000\040\000\101\000\154\000\154\000\040\000\146\000\151\000\154\000\164\000\145\000\162\000\163\000\040\000\146\000\157\000\162\000\040\000\165\000\163\000\145\000\040\000\141\000\164\000\040\000\116\000\157\000\162\000\155\000\141\000\154\000\040\000\151\000\156\000\143\000\151\000\144\000\145\000\156\000\143\000\145\000\040\000\141\000\164\000\040\000\114\000\116\000\137\000\062\000\040\000\164\000\145\000\155\000\160\000\145\000\162\000\141\000\164\000\165\000\162\000\145\000\056\000) unicodeshow
0.00 0.00 0.00 setrgbcolor
default_ls
10 f5
36 377.9 moveto
(comments:) show
0.00 0.00 0.00 setrgbcolor
default_ls
10 f4
89 377.9 moveto
(\040\000\103\000\157\000\165\000\154\000\144\000\040\000\171\000\157\000\165\000\040\000\160\000\162\000\157\000\166\000\151\000\144\000\145\000\040\000\141\000\040\000\161\000\165\000\157\000\164\000\145\000\040\000\167\000\151\000\164\000\150\000\151\000\156\000\040\000\164\000\150\000\145\000\040\000\156\000\145\000\170\000\164\000\040\000\163\000\145\000\166\000\145\000\162\000\141\000\154\000\040\000\167\000\145\000\145\000\153\000\163\000\077\000\040\000\124\000\150\000\141\000\156\000\153\000\163\000\041\000) unicodeshow
0.77 0.77 0.77 setrgbcolor
gsave 0.1 setlinewidth
 100 356.9 moveto 476 356.9 lineto
 stroke 
grestore
0.29 0.29 0.29 setrgbcolor
gsave 0.1 setlinewidth
 100 358.9 moveto 100 356.9 lineto
 stroke 
grestore
0.29 0.29 0.29 setrgbcolor
gsave 0.1 setlinewidth
 100 358.9 moveto 476 358.9 lineto
 stroke 
grestore
0.77 0.77 0.77 setrgbcolor
gsave 0.1 setlinewidth
 476 358.9 moveto 476 356.9 lineto
 stroke 
grestore
0.00 0.00 0.75 setrgbcolor
default_ls
10 f4
68 333.9 moveto
(Infrared Multilayer Laboratory Home Page) show
gsave
/rowdata 15 string def
57 333.9 translate
5 5 scale
5 5 8 [5 0 0 5 0 0]
 { currentfile rowdata readhexstring pop }
 false 3 colorimage
ee5d1eee5d1eee5d1eee5d1eee5d1eee5d1eee5d1eee5d1eee5d1eee5d1eee5d1eee5d1e
ee5d1eee5d1eee5d1eee5d1eee5d1eee5d1eee5d1eee5d1eee5d1eee5d1eee5d1eee5d1e
ee5d1e
grestore
0.77 0.77 0.77 setrgbcolor
gsave 0.1 setlinewidth
 100 314.9 moveto 476 314.9 lineto
 stroke 
grestore
0.29 0.29 0.29 setrgbcolor
gsave 0.1 setlinewidth
 100 316.9 moveto 100 314.9 lineto
 stroke 
grestore
0.29 0.29 0.29 setrgbcolor
gsave 0.1 setlinewidth
 100 316.9 moveto 476 316.9 lineto
 stroke 
grestore
0.77 0.77 0.77 setrgbcolor
gsave 0.1 setlinewidth
 476 316.9 moveto 476 314.9 lineto
 stroke 
grestore
0.00 0.00 0.75 setrgbcolor
default_ls
10 f4
194 291.9 moveto
(FormMail) show
0.00 0.00 0.00 setrgbcolor
default_ls
10 f4
236 291.9 moveto
(\040\000\126\000\061\000\056\000\071\000\040\000\251\000\040\000\061\000\071\000\071\000\065\000\040\000\055\000\040\000\062\000\060\000\060\000\061\000\040\000\115\000\141\000\164\000\164\000\040\000\127\000\162\000\151\000\147\000\150\000\164\000) unicodeshow
0.00 0.00 0.00 setrgbcolor
default_ls
10 f4
191 281.9 moveto
(A Free Product of ) show
0.00 0.00 0.75 setrgbcolor
default_ls
10 f4
272 281.9 moveto
(Matt's Script Archive, Inc.) show
 grestore 
 grestore 
pagelevel restore
showpage
%%Trailer
%%Pages: 1
%%EOF
