%!PS-Adobe-3.0
%%BoundingBox: (atend)
%%Pages: (atend)
%%PageOrder: (atend)
%%DocumentFonts: (atend)
%%Creator: Frame 4.0
%%DocumentData: Clean7Bit
%%EndComments
%%BeginProlog
%
% Frame ps_prolog 5.0, for use with Frame 5.0 products
% This ps_prolog file is Copyright (c) 1986-1995 Frame Technology
% Corporation.  All rights reserved.  This ps_prolog file may be
% freely copied and distributed in conjunction with documents created
% using FrameMaker, FrameMaker/SGML and FrameViewer as long as this 
% copyright notice is preserved.
%
% FrameMaker users specify the proper paper size for each print job in the
% "Print" dialog's "Printer Paper Size" "Width" and "Height~ fields.  If the
% printer that the PS file is sent to does not support the requested paper
% size, or if there is no paper tray of the proper size currently installed, 
% then the job will not be printed.  The following flag, if set to true, will
% cause the job to print on the default paper in such cases.
/FMAllowPaperSizeMismatch            false def
%
% Frame products normally print colors as their true color on a color printer
% or as shades of gray, based on luminance, on a black-and white printer. The
% following flag, if set to true, forces all non-white colors to print as pure
% black. This has no effect on bitmap images.
/FMPrintAllColorsAsBlack             false def
%
% Frame products can either set their own line screens or use a printer's 
% default settings. Three flags below control this separately for no 
% separations, spot separations and process separations. If a flag
% is true, then the default printer settings will not be changed. If it is
% false, Frame products will use their own settings from a table based on
% the printer's resolution.
/FMUseDefaultNoSeparationScreen      true  def
/FMUseDefaultSpotSeparationScreen    true  def
/FMUseDefaultProcessSeparationScreen false def
%
% For any given PostScript printer resolution, Frame products have two sets of 
% screen angles and frequencies for printing process separations, which are 
% recomended by Adobe. The following variable chooses the higher frequencies
% when set to true or the lower frequencies when set to false. This is only
% effective if the appropriate FMUseDefault...SeparationScreen flag is false.
/FMUseHighFrequencyScreens true def
%
% The following is a set of predefined optimal frequencies and angles for various
% common dpi settings. This is taken from "Advances in Color Separation Using
% PostScript Software Technology," from Adobe Systems (3/13/89 P.N. LPS 0043)
% and corrolated with information which is in various PPD (4.0) files.
%
% The "dpiranges" figure is the minimum dots per inch device resolution which
% can support this setting. The "low" and "high" values are controlled by the
% setting of the FMUseHighFrequencyScreens flag above. The "TDot" flags control
% the use of the "Yellow Triple Dot" feature whereby the frequency id divided by
% three, but the dot function is "trippled" giving a block of 3x3 dots per cell.
%
% PatFreq is a compromise pattern frequency for ps Level 2 printers which is close
% to the ideal WYSIWYG pattern frequency of 9 repetitions/inch but does not beat
% (too badly) against the screen frequencies of any separations for that DPI.
/dpiranges   [  2540    2400    1693     1270    1200     635      600      0      ] def
/CMLowFreqs  [ 100.402  94.8683 89.2289 100.402  94.8683  66.9349  63.2456 47.4342 ] def
/YLowFreqs   [  95.25   90.0    84.65    95.25   90.0     70.5556  66.6667 50.0    ] def
/KLowFreqs   [  89.8026 84.8528 79.8088  89.8026 84.8528  74.8355  70.7107 53.033  ] def
/CLowAngles  [  71.5651 71.5651 71.5651 71.5651  71.5651  71.5651  71.5651 71.5651 ] def
/MLowAngles  [  18.4349 18.4349 18.4349 18.4349  18.4349  18.4349  18.4349 18.4349 ] def
/YLowTDot    [  true    true    false    true    true     false    false   false   ] def
/CMHighFreqs [ 133.87  126.491 133.843  108.503 102.523  100.402   94.8683 63.2456 ] def
/YHighFreqs  [ 127.0   120.0   126.975  115.455 109.091   95.25    90.0    60.0    ] def
/KHighFreqs  [ 119.737 113.137 119.713  128.289 121.218   89.8026  84.8528 63.6395 ] def
/CHighAngles [  71.5651 71.5651 71.5651  70.0169 70.0169  71.5651  71.5651 71.5651 ] def
/MHighAngles [  18.4349 18.4349 18.4349  19.9831 19.9831  18.4349  18.4349 18.4349 ] def
/YHighTDot   [  false   false   true     false   false    true     true    false   ] def
/PatFreq     [	10.5833 10.0     9.4055  10.5833 10.0	  10.5833  10.0	   9.375   ] def
%
% PostScript Level 2 printers contain an "Accurate Screens" feature which can
% improve process separation rendering at the expense of compute time. This 
% flag is ignored by PostScript Level 1 printers.
/FMUseAcccurateScreens true def
%
% The following PostScript procedure defines the spot function that Frame
% products will use for process separations. You may un-comment-out one of
% the alternative functions below, or use your own.
%
% Dot function
/FMSpotFunction {abs exch abs 2 copy add 1 gt 
		{1 sub dup mul exch 1 sub dup mul add 1 sub }
		{dup mul exch dup mul add 1 exch sub }ifelse } def
%
% Line function
% /FMSpotFunction { pop } def
%
% Elipse function
% /FMSpotFunction { dup 5 mul 8 div mul exch dup mul exch add 
%		sqrt 1 exch sub } def
%
%
/FMversion (5.0) def 
/fMLevel1 /languagelevel where {pop languagelevel} {1} ifelse 2 lt def
/FMPColor
	fMLevel1 {
		false
		/colorimage where {pop pop true} if
	} {
		true
	} ifelse
def
/FrameDict 400 dict def 
systemdict /errordict known not {/errordict 10 dict def
		errordict /rangecheck {stop} put} if
% The readline in PS 23.0 doesn't recognize cr's as nl's on AppleTalk
FrameDict /tmprangecheck errordict /rangecheck get put 
errordict /rangecheck {FrameDict /bug true put} put 
FrameDict /bug false put 
mark 
% Some PS machines read past the CR, so keep the following 3 lines together!
currentfile 5 string readline
00
0000000000
cleartomark 
errordict /rangecheck FrameDict /tmprangecheck get put 
FrameDict /bug get { 
	/readline {
		/gstring exch def
		/gfile exch def
		/gindex 0 def
		{
			gfile read pop 
			dup 10 eq {exit} if 
			dup 13 eq {exit} if 
			gstring exch gindex exch put 
			/gindex gindex 1 add def 
		} loop
		pop 
		gstring 0 gindex getinterval true 
		} bind def
	} if
/FMshowpage /showpage load def
/FMquit /quit load def
/FMFAILURE { 
	dup = flush 
	FMshowpage 
	/Helvetica findfont 12 scalefont setfont
	72 200 moveto show
	72 220 moveto show
	FMshowpage 
	FMquit 
	} def 
/FMVERSION {
	FMversion ne {
		(Frame product version does not match ps_prolog!  Check installation;)
		(also check ~/fminit and ./fminit for old versions) FMFAILURE
		} if
	} def 
/FMBADEPSF { 
	(Adobe's PostScript Language Reference Manual, 2nd Edition, section H.2.4)
	(says your EPS file is not valid, as it calls X              )
	dup dup (X) search pop exch pop exch pop length 
	5 -1 roll 
	putinterval 
	FMFAILURE
	} def
/fmConcatProcs
	{
	/proc2 exch cvlit def/proc1 exch cvlit def/newproc proc1 length proc2 length add array def
	newproc 0 proc1 putinterval newproc proc1 length proc2 putinterval newproc cvx
}def
FrameDict begin [
	/ALDsave
	/FMdicttop
	/FMoptop
	/FMpointsize
	/FMsaveobject
	/b
	/bitmapsave
	/blut
	/bpside
	/bs
	/bstring
	/bwidth
	/c
	/cf
	/cs
	/cynu
	/depth
	/edown
	/fh
	/fillvals
	/fw
	/fx
	/fy
	/g
	/gfile
	/gindex
	/grnt
	/gryt
	/gstring
	/height
	/hh
	/i
	/im
	/indx
	/is
	/k
	/kk
	/landscape
	/lb
	/len
	/llx
	/lly
	/m
	/magu
	/manualfeed
	/n
	/offbits
	/onbits
	/organgle
	/orgbangle
	/orgbfreq
	/orgbproc
	/orgbxfer
	/orgfreq
	/orggangle
	/orggfreq
	/orggproc
	/orggxfer
	/orgmatrix
	/orgproc
	/orgrangle
	/orgrfreq
	/orgrproc
	/orgrxfer
	/orgxfer
	/pagesave
	/paperheight
	/papersizedict
	/paperwidth
	/pos
	/pwid
	/r
	/rad
	/redt
	/sl
	/str
	/tran
	/u
	/urx
	/ury
	/val
	/width
	/width
	/ws
	/ww
	/x
	/x1
	/x2
	/xindex
	/xpoint
	/xscale
	/xx
	/y
	/y1
	/y2
	/yelu
	/yindex
	/ypoint
	/yscale
	/yy
] { 0 def } forall
/FmBD {bind def} bind def
systemdict /pdfmark known {
	/fMAcrobat true def
	
	/FmPD /pdfmark load def
	
	
	/FmPT /show load def
	
	
	currentdistillerparams /CoreDistVersion get 2000 ge {
	
		
		/FmPD2 /pdfmark load def
		
		
		
		
		
		/FmPA { mark exch /Dest exch 5 3 roll 
				/View [ /XYZ null 6 -2 roll FmDC exch pop null] /DEST FmPD 
		}FmBD
	} {
		
		/FmPD2 /cleartomark load def
		/FmPA {pop pop pop}FmBD
	} ifelse
} {
	
	/fMAcrobat false def
	/FmPD /cleartomark load def
	/FmPD2 /cleartomark load def
	/FmPT /pop load def
	/FmPA {pop pop pop}FmBD
} ifelse
/FmDC {
	transform fMDefaultMatrix itransform cvi exch cvi exch
}FmBD
/FmBx {
	dup 3 index lt {3 1 roll exch} if 
	1 index 4 index lt {4 -1 roll 3 1 roll exch 4 1 roll} if
}FmBD
/FMnone 0 def
/FMcyan 1 def
/FMmagenta 2 def
/FMyellow 3 def
/FMblack 4 def
/FMcustom 5 def
/fMNegative false def 
/FrameSepIs FMnone def 
/FrameSepBlack 0 def
/FrameSepYellow 0 def
/FrameSepMagenta 0 def
/FrameSepCyan 0 def
/FrameSepRed 1 def
/FrameSepGreen 1 def
/FrameSepBlue 1 def
/FrameCurGray 1 def
/FrameCurPat null def
/FrameCurColors [ 0 0 0 1 0 0 0 ] def 
/FrameColorEpsilon .001 def	
/eqepsilon {		
	sub dup 0 lt {neg} if
	FrameColorEpsilon le
} bind def
/FrameCmpColorsCMYK { 
	2 copy 0 get exch 0 get eqepsilon {
		2 copy 1 get exch 1 get eqepsilon {
			2 copy 2 get exch 2 get eqepsilon {
				3 get exch 3 get eqepsilon
			} {pop pop false} ifelse
		}{pop pop false} ifelse
	} {pop pop false} ifelse
} bind def
/FrameCmpColorsRGB { 
	2 copy 4 get exch 0 get eqepsilon {
		2 copy 5 get exch 1 get eqepsilon {
			6 get exch 2 get eqepsilon
		}{pop pop false} ifelse
	} {pop pop false} ifelse
} bind def
/RGBtoCMYK { 
	1 exch sub 
	3 1 roll 
	1 exch sub 
	3 1 roll 
	1 exch sub 
	3 1 roll 
	3 copy 
	2 copy 
	le { pop } { exch pop } ifelse 
	2 copy 
	le { pop } { exch pop } ifelse 
	dup dup dup 
	6 1 roll 
	4 1 roll 
	7 1 roll 
	sub 
	6 1 roll 
	sub 
	5 1 roll 
	sub 
	4 1 roll 
} bind def
/CMYKtoRGB { 
	dup dup 4 -1 roll add 						  
	5 1 roll 3 -1 roll add 						  
	4 1 roll add 								  
	1 exch sub dup 0 lt {pop 0} if 3 1 roll 	  
	1 exch sub dup 0 lt {pop 0} if exch 	      
	1 exch sub dup 0 lt {pop 0} if exch	  		  
} bind def
/FrameSepInit {
	1.0 RealSetgray
} bind def
/FrameSetSepColor { 
	/FrameSepBlue exch def
	/FrameSepGreen exch def
	/FrameSepRed exch def
	/FrameSepBlack exch def
	/FrameSepYellow exch def
	/FrameSepMagenta exch def
	/FrameSepCyan exch def
	/FrameSepIs FMcustom def
	setCurrentScreen	
} bind def
/FrameSetCyan {
	/FrameSepBlue 1.0 def
	/FrameSepGreen 1.0 def
	/FrameSepRed 0.0 def
	/FrameSepBlack 0.0 def
	/FrameSepYellow 0.0 def
	/FrameSepMagenta 0.0 def
	/FrameSepCyan 1.0 def
	/FrameSepIs FMcyan def
	setCurrentScreen	
} bind def
 
/FrameSetMagenta {
	/FrameSepBlue 1.0 def
	/FrameSepGreen 0.0 def
	/FrameSepRed 1.0 def
	/FrameSepBlack 0.0 def
	/FrameSepYellow 0.0 def
	/FrameSepMagenta 1.0 def
	/FrameSepCyan 0.0 def
	/FrameSepIs FMmagenta def
	setCurrentScreen
} bind def
 
/FrameSetYellow {
	/FrameSepBlue 0.0 def
	/FrameSepGreen 1.0 def
	/FrameSepRed 1.0 def
	/FrameSepBlack 0.0 def
	/FrameSepYellow 1.0 def
	/FrameSepMagenta 0.0 def
	/FrameSepCyan 0.0 def
	/FrameSepIs FMyellow def
	setCurrentScreen
} bind def
 
/FrameSetBlack {
	/FrameSepBlue 0.0 def
	/FrameSepGreen 0.0 def
	/FrameSepRed 0.0 def
	/FrameSepBlack 1.0 def
	/FrameSepYellow 0.0 def
	/FrameSepMagenta 0.0 def
	/FrameSepCyan 0.0 def
	/FrameSepIs FMblack def
	setCurrentScreen
} bind def
 
/FrameNoSep { 
	/FrameSepIs FMnone def
	setCurrentScreen
} bind def
/FrameSetSepColors { 
	FrameDict begin
	[ exch 1 add 1 roll ]
	/FrameSepColors  
	exch def end
	} bind def
/FrameColorInSepListCMYK { 
	FrameSepColors {  
       		exch dup 3 -1 roll 
       		FrameCmpColorsCMYK 
       		{ pop true exit } if
    	} forall 
	dup true ne {pop false} if
	} bind def
/FrameColorInSepListRGB { 
	FrameSepColors {  
       		exch dup 3 -1 roll 
       		FrameCmpColorsRGB 
       		{ pop true exit } if
    	} forall 
	dup true ne {pop false} if
	} bind def
/RealSetgray /setgray load def
/RealSetrgbcolor /setrgbcolor load def
/RealSethsbcolor /sethsbcolor load def
end 
/setgray { 
	FrameDict begin
	FrameSepIs FMnone eq
		{ RealSetgray } 
		{ 
		FrameSepIs FMblack eq 
			{ RealSetgray } 
			{ FrameSepIs FMcustom eq 
			  FrameSepRed 0 eq and
			  FrameSepGreen 0 eq and
			  FrameSepBlue 0 eq and {
			  	RealSetgray
			  } {
				1 RealSetgray pop 
			  } ifelse
			} ifelse
		} ifelse
	end
} bind def
/setrgbcolor { 
	FrameDict begin
	FrameSepIs FMnone eq
	{  RealSetrgbcolor }
	{
		3 copy [ 4 1 roll ] 
		FrameColorInSepListRGB
		{
				FrameSepBlue eq exch 
			 	FrameSepGreen eq and exch 
			 	FrameSepRed eq and
			 	{ 0 } { 1 } ifelse
		}
		{
			FMPColor {
				RealSetrgbcolor
				currentcmykcolor
			} {
				RGBtoCMYK
			} ifelse
			FrameSepIs FMblack eq
			{1.0 exch sub 4 1 roll pop pop pop} {
			FrameSepIs FMyellow eq
			{pop 1.0 exch sub 3 1 roll pop pop} {
			FrameSepIs FMmagenta eq
			{pop pop 1.0 exch sub exch pop } {
			FrameSepIs FMcyan eq
			{pop pop pop 1.0 exch sub } 
			{pop pop pop pop 1} ifelse } ifelse } ifelse } ifelse 
		} ifelse
		RealSetgray
	} 
	ifelse
	end
} bind def
/sethsbcolor {
	FrameDict begin
	FrameSepIs FMnone eq 
	{ RealSethsbcolor } 
	{
		RealSethsbcolor 
		currentrgbcolor  
		setrgbcolor 
	} 
	ifelse
	end
} bind def
FrameDict begin
/setcmykcolor where {
	pop /RealSetcmykcolor /setcmykcolor load def
} {
	/RealSetcmykcolor {
		4 1 roll
		3 { 3 index add 0 max 1 min 1 exch sub 3 1 roll} repeat 
		RealSetrgbcolor pop
	} bind def
} ifelse
userdict /setcmykcolor { 
		FrameDict begin
		FrameSepIs FMnone eq
		{ RealSetcmykcolor } 
		{
			4 copy [ 5 1 roll ]
			FrameColorInSepListCMYK
			{
				FrameSepBlack eq exch 
				FrameSepYellow eq and exch 
				FrameSepMagenta eq and exch 
				FrameSepCyan eq and 
				{ 0 } { 1 } ifelse
			}
			{
				FrameSepIs FMblack eq
				{1.0 exch sub 4 1 roll pop pop pop} {
				FrameSepIs FMyellow eq
				{pop 1.0 exch sub 3 1 roll pop pop} {
				FrameSepIs FMmagenta eq
				{pop pop 1.0 exch sub exch pop } {
				FrameSepIs FMcyan eq
				{pop pop pop 1.0 exch sub } 
				{pop pop pop pop 1} ifelse } ifelse } ifelse } ifelse 
			} ifelse
			RealSetgray
		}
		ifelse
		end
	} bind put
fMLevel1 { 
	
	
	
	/patScreenDict 7 dict dup begin
		<0f1e3c78f0e1c387> [ 45  { pop } {exch pop} 		.5   2 sqrt] FmBD
		<0f87c3e1f0783c1e> [ 135 { pop } {exch pop}			.5   2 sqrt] FmBD
		<cccccccccccccccc> [ 0   { pop } dup				.5   2	   ] FmBD
		<ffff0000ffff0000> [ 90  { pop } dup				.5   2	   ] FmBD
		<8142241818244281> [ 45  { 2 copy lt {exch} if pop}	dup .75  2 sqrt] FmBD
		<03060c183060c081> [ 45  { pop } {exch pop}			.875 2 sqrt] FmBD
		<8040201008040201> [ 135 { pop } {exch pop}			.875 2 sqrt] FmBD
	end def
} { 
	
	/patProcDict 5 dict dup begin
		<0f1e3c78f0e1c387> { 3 setlinewidth -1 -1 moveto 9 9 lineto stroke 
											4 -4 moveto 12 4 lineto stroke
											-4 4 moveto 4 12 lineto stroke} bind def
		<0f87c3e1f0783c1e> { 3 setlinewidth -1 9 moveto 9 -1 lineto stroke 
											-4 4 moveto 4 -4 lineto stroke
											4 12 moveto 12 4 lineto stroke} bind def
		<8142241818244281> { 1 setlinewidth -1 9 moveto 9 -1 lineto stroke
											-1 -1 moveto 9 9 lineto stroke } bind def
		<03060c183060c081> { 1 setlinewidth -1 -1 moveto 9 9 lineto stroke 
											4 -4 moveto 12 4 lineto stroke
											-4 4 moveto 4 12 lineto stroke} bind def
		<8040201008040201> { 1 setlinewidth -1 9 moveto 9 -1 lineto stroke 
											-4 4 moveto 4 -4 lineto stroke
											4 12 moveto 12 4 lineto stroke} bind def
	end def
	/patDict 15 dict dup begin
		/PatternType 1 def		
		/PaintType 2 def		
		/TilingType 3 def		
		/BBox [ 0 0 8 8 ] def 	
		/XStep 8 def			
		/YStep 8 def			
		/PaintProc {
			begin
			patProcDict bstring known {
				patProcDict bstring get exec
			} {
				8 8 true [1 0 0 -1 0 8] bstring imagemask
			} ifelse
			end
		} bind def
	end def
} ifelse
/combineColor {
    FrameSepIs FMnone eq
	{
		graymode fMLevel1 or not {
			
			[/Pattern [/DeviceCMYK]] setcolorspace
			FrameCurColors 0 4 getinterval aload pop FrameCurPat setcolor
		} {
			FrameCurColors 3 get 1.0 ge {
				FrameCurGray RealSetgray
			} {
				fMAcrobat not FMPColor graymode and and {
					0 1 3 { 
						FrameCurColors exch get
						1 FrameCurGray sub mul
					} for
					RealSetcmykcolor
				} {
					4 1 6 {
						FrameCurColors exch get
						graymode {
							1 exch sub 1 FrameCurGray sub mul 1 exch sub
						} {
							1.0 lt {FrameCurGray} {1} ifelse
						} ifelse
					} for
					RealSetrgbcolor
				} ifelse
			} ifelse
		} ifelse
	} { 
		FrameCurColors 0 4 getinterval aload
		FrameColorInSepListCMYK {
			FrameSepBlack eq exch 
			FrameSepYellow eq and exch 
			FrameSepMagenta eq and exch 
			FrameSepCyan eq and
			FrameSepIs FMcustom eq and
			{ FrameCurGray } { 1 } ifelse
		} {
			FrameSepIs FMblack eq
			{FrameCurGray 1.0 exch sub mul 1.0 exch sub 4 1 roll pop pop pop} {
			FrameSepIs FMyellow eq
			{pop FrameCurGray 1.0 exch sub mul 1.0 exch sub 3 1 roll pop pop} {
			FrameSepIs FMmagenta eq
			{pop pop FrameCurGray 1.0 exch sub mul 1.0 exch sub exch pop } {
			FrameSepIs FMcyan eq
			{pop pop pop FrameCurGray 1.0 exch sub mul 1.0 exch sub } 
			{pop pop pop pop 1} ifelse } ifelse } ifelse } ifelse 
		} ifelse
		graymode fMLevel1 or not {
			
			[/Pattern [/DeviceGray]] setcolorspace
			FrameCurPat setcolor
		} { 
			graymode not fMLevel1 and {
				
				dup 1 lt {pop FrameCurGray} if
			} if
			RealSetgray
		} ifelse
	} ifelse
} bind def
/savematrix {
	orgmatrix currentmatrix pop
	} bind def
/restorematrix {
	orgmatrix setmatrix
	} bind def
/fMDefaultMatrix matrix defaultmatrix def
/fMatrix2 matrix def
/dpi    72 0 fMDefaultMatrix dtransform
    dup mul exch   dup mul add   sqrt def
	
/freq dpi dup 72 div round dup 0 eq {pop 1} if 8 mul div def
/sangle 1 0 fMDefaultMatrix dtransform exch atan def
	sangle fMatrix2 rotate 
	fMDefaultMatrix fMatrix2 concatmatrix 
	dup 0 get /sflipx exch def
	    3 get /sflipy exch def
/screenIndex {
	0 1 dpiranges length 1 sub { dup dpiranges exch get 1 sub dpi le {exit} {pop} ifelse } for
} bind def
/getCyanScreen {
	FMUseHighFrequencyScreens { CHighAngles CMHighFreqs} {CLowAngles CMLowFreqs} ifelse
		screenIndex dup 3 1 roll get 3 1 roll get /FMSpotFunction load
} bind def
/getMagentaScreen {
	FMUseHighFrequencyScreens { MHighAngles CMHighFreqs } {MLowAngles CMLowFreqs} ifelse
		screenIndex dup 3 1 roll get 3 1 roll get /FMSpotFunction load
} bind def
/getYellowScreen {
	FMUseHighFrequencyScreens { YHighTDot YHighFreqs} { YLowTDot YLowFreqs } ifelse
		screenIndex dup 3 1 roll get 3 1 roll get { 3 div
			{2 { 1 add 2 div 3 mul dup floor sub 2 mul 1 sub exch} repeat
			FMSpotFunction } } {/FMSpotFunction load } ifelse
			0.0 exch
} bind def
/getBlackScreen  {
	FMUseHighFrequencyScreens { KHighFreqs } { KLowFreqs } ifelse
		screenIndex get 45.0 /FMSpotFunction load 
} bind def
/getSpotScreen {
	getBlackScreen
} bind def
/getCompositeScreen {
	getBlackScreen
} bind def
/FMSetScreen 
	fMLevel1 { /setscreen load 
	}{ {
		8 dict begin
		/HalftoneType 1 def
		/SpotFunction exch def
		/Angle exch def
		/Frequency exch def
		/AccurateScreens FMUseAcccurateScreens def
		currentdict end sethalftone
	} bind } ifelse
def
/setDefaultScreen {
	FMPColor {
		orgrxfer cvx orggxfer cvx orgbxfer cvx orgxfer cvx setcolortransfer
	}
	{
		orgxfer cvx settransfer
	} ifelse
	orgfreq organgle orgproc cvx setscreen
} bind def
/setCurrentScreen {
	FrameSepIs FMnone eq {
		FMUseDefaultNoSeparationScreen {
			setDefaultScreen
		} {
			getCompositeScreen FMSetScreen
		} ifelse
	} {
		FrameSepIs FMcustom eq {
			FMUseDefaultSpotSeparationScreen {
				setDefaultScreen
			} {
				getSpotScreen FMSetScreen
			} ifelse
		} {
			FMUseDefaultProcessSeparationScreen {
				setDefaultScreen
			} {
				FrameSepIs FMcyan eq {
					getCyanScreen FMSetScreen
				} {
					FrameSepIs FMmagenta eq {
						getMagentaScreen FMSetScreen
					} {
						FrameSepIs FMyellow eq {
							getYellowScreen FMSetScreen
						} {
							getBlackScreen FMSetScreen
						} ifelse
					} ifelse
				} ifelse
			} ifelse
		} ifelse
	} ifelse 
} bind def
end
	
/FMDOCUMENT { 
	array /FMfonts exch def 
	/#copies exch def
	FrameDict begin
	0 ne /manualfeed exch def
	/paperheight exch def
	/paperwidth exch def
	0 ne /fMNegative exch def 
	0 ne /edown exch def 
	/yscale exch def
	/xscale exch def
	fMLevel1 {
		manualfeed {setmanualfeed} if
		/FMdicttop countdictstack 1 add def 
		/FMoptop count def 
		setpapername 
		manualfeed {true} {papersize} ifelse 
		{manualpapersize} {false} ifelse 
		{desperatepapersize} {false} ifelse 
		{papersizefailure} if
		count -1 FMoptop {pop pop} for
		countdictstack -1 FMdicttop {pop end} for 
		}
		{2 dict
		 dup /PageSize [paperwidth paperheight] put
		 manualfeed {dup /ManualFeed manualfeed put} if
		 {setpagedevice} stopped {papersizefailure} if
		}
	ifelse 
	
	FMPColor {
		currentcolorscreen
			cvlit /orgproc exch def
				  /organgle exch def 
				  /orgfreq exch def
			cvlit /orgbproc exch def
				  /orgbangle exch def 
				  /orgbfreq exch def
			cvlit /orggproc exch def
				  /orggangle exch def 
				  /orggfreq exch def
			cvlit /orgrproc exch def
				  /orgrangle exch def 
				  /orgrfreq exch def
			currentcolortransfer 
			fMNegative {
				1 1 4 { 
					pop { 1 exch sub } fmConcatProcs 4 1 roll
				} for
				4 copy
				setcolortransfer
			} if
			cvlit /orgxfer exch def
			cvlit /orgbxfer exch def
			cvlit /orggxfer exch def
			cvlit /orgrxfer exch def
	} {
		currentscreen 
			cvlit /orgproc exch def
				  /organgle exch def 
				  /orgfreq exch def
				  
		currenttransfer 
		fMNegative {
			{ 1 exch sub } fmConcatProcs
			dup settransfer
		} if 
		cvlit /orgxfer exch def
	} ifelse
	end 
} def 
/FMBEGINPAGE { 
	FrameDict begin 
	/pagesave save def
	3.86 setmiterlimit
	/landscape exch 0 ne def
	landscape { 
		90 rotate 0 exch dup /pwid exch def neg translate pop 
	}{
		pop /pwid exch def
	} ifelse
	edown { [-1 0 0 1 pwid 0] concat } if
	0 0 moveto paperwidth 0 lineto paperwidth paperheight lineto 
	0 paperheight lineto 0 0 lineto 1 setgray fill
	xscale yscale scale
	/orgmatrix matrix def
	gsave 
} def 
/FMENDPAGE {
	grestore 
	pagesave restore
	end 
	showpage
	} def 
/FMFONTDEFINE { 
	FrameDict begin
	findfont 
	ReEncode 
	1 index exch 
	definefont 
	FMfonts 3 1 roll 
	put
	end 
	} def 
/FMFILLS {
	FrameDict begin dup
	array /fillvals exch def
	dict /patCache exch def
	end 
	} def 
/FMFILL {
	FrameDict begin
	 fillvals 3 1 roll put
	end 
	} def 
/FMNORMALIZEGRAPHICS { 
	newpath
	1 setlinewidth
	0 setlinecap
	0 0 0 sethsbcolor
	0 setgray 
	} bind def
/FMBEGINEPSF { 
	end 
	/FMEPSF save def 
	/showpage {} def 
% See Adobe's "PostScript Language Reference Manual, 2nd Edition", page 714.
% "...the following operators MUST NOT be used in an EPS file:" (emphasis ours)
	/banddevice {(banddevice) FMBADEPSF} def
	/clear {(clear) FMBADEPSF} def
	/cleardictstack {(cleardictstack) FMBADEPSF} def 
	/copypage {(copypage) FMBADEPSF} def
	/erasepage {(erasepage) FMBADEPSF} def
	/exitserver {(exitserver) FMBADEPSF} def
	/framedevice {(framedevice) FMBADEPSF} def
	/grestoreall {(grestoreall) FMBADEPSF} def
	/initclip {(initclip) FMBADEPSF} def
	/initgraphics {(initgraphics) FMBADEPSF} def
	/quit {(quit) FMBADEPSF} def
	/renderbands {(renderbands) FMBADEPSF} def
	/setglobal {(setglobal) FMBADEPSF} def
	/setpagedevice {(setpagedevice) FMBADEPSF} def
	/setshared {(setshared) FMBADEPSF} def
	/startjob {(startjob) FMBADEPSF} def
	/lettertray {(lettertray) FMBADEPSF} def
	/letter {(letter) FMBADEPSF} def
	/lettersmall {(lettersmall) FMBADEPSF} def
	/11x17tray {(11x17tray) FMBADEPSF} def
	/11x17 {(11x17) FMBADEPSF} def
	/ledgertray {(ledgertray) FMBADEPSF} def
	/ledger {(ledger) FMBADEPSF} def
	/legaltray {(legaltray) FMBADEPSF} def
	/legal {(legal) FMBADEPSF} def
	/statementtray {(statementtray) FMBADEPSF} def
	/statement {(statement) FMBADEPSF} def
	/executivetray {(executivetray) FMBADEPSF} def
	/executive {(executive) FMBADEPSF} def
	/a3tray {(a3tray) FMBADEPSF} def
	/a3 {(a3) FMBADEPSF} def
	/a4tray {(a4tray) FMBADEPSF} def
	/a4 {(a4) FMBADEPSF} def
	/a4small {(a4small) FMBADEPSF} def
	/b4tray {(b4tray) FMBADEPSF} def
	/b4 {(b4) FMBADEPSF} def
	/b5tray {(b5tray) FMBADEPSF} def
	/b5 {(b5) FMBADEPSF} def
	FMNORMALIZEGRAPHICS 
	[/fy /fx /fh /fw /ury /urx /lly /llx] {exch def} forall 
	fx fw 2 div add fy fh 2 div add  translate
	rotate
	fw 2 div neg fh 2 div neg translate
	fw urx llx sub div fh ury lly sub div scale 
	llx neg lly neg translate 
	/FMdicttop countdictstack 1 add def 
	/FMoptop count def 
	} bind def
/FMENDEPSF {
	count -1 FMoptop {pop pop} for 
	countdictstack -1 FMdicttop {pop end} for 
	FMEPSF restore
	FrameDict begin 
	} bind def
FrameDict begin 
/setmanualfeed {
%%BeginFeature *ManualFeed True
	 statusdict /manualfeed true put
%%EndFeature
	} bind def
/max {2 copy lt {exch} if pop} bind def
/min {2 copy gt {exch} if pop} bind def
/inch {72 mul} def
/pagedimen { 
	paperheight sub abs 16 lt exch 
	paperwidth sub abs 16 lt and
	{/papername exch def} {pop} ifelse
	} bind def
/setpapername { 
	/papersizedict 14 dict def 
	papersizedict begin
	/papername /unknown def 
		/Letter 8.5 inch 11.0 inch pagedimen
		/LetterSmall 7.68 inch 10.16 inch pagedimen
		/Tabloid 11.0 inch 17.0 inch pagedimen
		/Ledger 17.0 inch 11.0 inch pagedimen
		/Legal 8.5 inch 14.0 inch pagedimen
		/Statement 5.5 inch 8.5 inch pagedimen
		/Executive 7.5 inch 10.0 inch pagedimen
		/A3 11.69 inch 16.5 inch pagedimen
		/A4 8.26 inch 11.69 inch pagedimen
		/A4Small 7.47 inch 10.85 inch pagedimen
		/B4 10.125 inch 14.33 inch pagedimen
		/B5 7.16 inch 10.125 inch pagedimen
	end
	} bind def
/papersize {
	papersizedict begin
		/Letter {lettertray letter} def
		/LetterSmall {lettertray lettersmall} def
		/Tabloid {11x17tray 11x17} def
		/Ledger {ledgertray ledger} def
		/Legal {legaltray legal} def
		/Statement {statementtray statement} def
		/Executive {executivetray executive} def
		/A3 {a3tray a3} def
		/A4 {a4tray a4} def
		/A4Small {a4tray a4small} def
		/B4 {b4tray b4} def
		/B5 {b5tray b5} def
		/unknown {unknown} def
	papersizedict dup papername known {papername} {/unknown} ifelse get
	end
	statusdict begin stopped end 
	} bind def
/manualpapersize {
	papersizedict begin
		/Letter {letter} def
		/LetterSmall {lettersmall} def
		/Tabloid {11x17} def
		/Ledger {ledger} def
		/Legal {legal} def
		/Statement {statement} def
		/Executive {executive} def
		/A3 {a3} def
		/A4 {a4} def
		/A4Small {a4small} def
		/B4 {b4} def
		/B5 {b5} def
		/unknown {unknown} def
	papersizedict dup papername known {papername} {/unknown} ifelse get
	end
	stopped 
	} bind def
/desperatepapersize {
	statusdict /setpageparams known
		{
		paperwidth paperheight 0 1 
		statusdict begin
		{setpageparams} stopped 
		end
		} {true} ifelse 
	} bind def
/papersizefailure {
	FMAllowPaperSizeMismatch not
		{
(The requested paper size is not available in any currently-installed tray)
(Edit the PS file to "FMAllowPaperSizeMismatch true" to use default tray)
		 FMFAILURE } if
	} def
/DiacriticEncoding [
/.notdef /.notdef /.notdef /.notdef /.notdef /.notdef /.notdef
/.notdef /.notdef /.notdef /.notdef /.notdef /.notdef /.notdef
/.notdef /.notdef /.notdef /.notdef /.notdef /.notdef /.notdef
/.notdef /.notdef /.notdef /.notdef /.notdef /.notdef /.notdef
/.notdef /.notdef /.notdef /.notdef /space /exclam /quotedbl
/numbersign /dollar /percent /ampersand /quotesingle /parenleft
/parenright /asterisk /plus /comma /hyphen /period /slash /zero /one
/two /three /four /five /six /seven /eight /nine /colon /semicolon
/less /equal /greater /question /at /A /B /C /D /E /F /G /H /I /J /K
/L /M /N /O /P /Q /R /S /T /U /V /W /X /Y /Z /bracketleft /backslash
/bracketright /asciicircum /underscore /grave /a /b /c /d /e /f /g /h
/i /j /k /l /m /n /o /p /q /r /s /t /u /v /w /x /y /z /braceleft /bar
/braceright /asciitilde /.notdef /Adieresis /Aring /Ccedilla /Eacute
/Ntilde /Odieresis /Udieresis /aacute /agrave /acircumflex /adieresis
/atilde /aring /ccedilla /eacute /egrave /ecircumflex /edieresis
/iacute /igrave /icircumflex /idieresis /ntilde /oacute /ograve
/ocircumflex /odieresis /otilde /uacute /ugrave /ucircumflex
/udieresis /dagger /.notdef /cent /sterling /section /bullet
/paragraph /germandbls /registered /copyright /trademark /acute
/dieresis /.notdef /AE /Oslash /.notdef /.notdef /.notdef /.notdef
/yen /.notdef /.notdef /.notdef /.notdef /.notdef /.notdef
/ordfeminine /ordmasculine /.notdef /ae /oslash /questiondown
/exclamdown /logicalnot /.notdef /florin /.notdef /.notdef
/guillemotleft /guillemotright /ellipsis /.notdef /Agrave /Atilde
/Otilde /OE /oe /endash /emdash /quotedblleft /quotedblright
/quoteleft /quoteright /.notdef /.notdef /ydieresis /Ydieresis
/fraction /currency /guilsinglleft /guilsinglright /fi /fl /daggerdbl
/periodcentered /quotesinglbase /quotedblbase /perthousand
/Acircumflex /Ecircumflex /Aacute /Edieresis /Egrave /Iacute
/Icircumflex /Idieresis /Igrave /Oacute /Ocircumflex /.notdef /Ograve
/Uacute /Ucircumflex /Ugrave /dotlessi /circumflex /tilde /macron
/breve /dotaccent /ring /cedilla /hungarumlaut /ogonek /caron
] def
/ReEncode { 
	dup 
	length 
	dict begin 
	{
	1 index /FID ne 
		{def} 
		{pop pop} ifelse 
	} forall 
	0 eq {/Encoding DiacriticEncoding def} if 
	currentdict 
	end 
	} bind def
FMPColor 
	
	{
	/BEGINBITMAPCOLOR { 
		BITMAPCOLOR} def
	/BEGINBITMAPCOLORc { 
		BITMAPCOLORc} def
	/BEGINBITMAPTRUECOLOR { 
		BITMAPTRUECOLOR } def
	/BEGINBITMAPTRUECOLORc { 
		BITMAPTRUECOLORc } def
	/BEGINBITMAPCMYK { 
		BITMAPCMYK } def
	/BEGINBITMAPCMYKc { 
		BITMAPCMYKc } def
	}
	
	{
	/BEGINBITMAPCOLOR { 
		BITMAPGRAY} def
	/BEGINBITMAPCOLORc { 
		BITMAPGRAYc} def
	/BEGINBITMAPTRUECOLOR { 
		BITMAPTRUEGRAY } def
	/BEGINBITMAPTRUECOLORc { 
		BITMAPTRUEGRAYc } def
	/BEGINBITMAPCMYK { 
		BITMAPCMYKGRAY } def
	/BEGINBITMAPCMYKc { 
		BITMAPCMYKGRAYc } def
	}
ifelse
/K { 
	FMPrintAllColorsAsBlack {
		dup 1 eq 2 index 1 eq and 3 index 1 eq and not
			{7 {pop} repeat 0 0 0 1 0 0 0} if
	} if 
	FrameCurColors astore 
	pop combineColor
} bind def
/graymode true def
fMLevel1 {
	/fmGetFlip {
		fMatrix2 exch get mul 0 lt { -1 } { 1 } ifelse
	} FmBD
} if
/setPatternMode {
	fMLevel1 {
		2 index patScreenDict exch known {
			pop pop
			patScreenDict exch get aload pop 
			freq 								
			mul									
			5 2 roll							
			fMatrix2 currentmatrix 1 get 0 ne {
				3 -1 roll 90 add 3 1 roll 		
				sflipx 1 fmGetFlip sflipy 2 fmGetFlip neg mul
			} {  								
				sflipx 0 fmGetFlip sflipy 3 fmGetFlip mul 
			} ifelse
			0 lt {exch pop} {pop} ifelse 		
			fMNegative { 
				{neg} fmConcatProcs 			
			} if
			bind
			
			
			
			systemdict /setscreen get exec		
			/FrameCurGray exch def
		} {
			/bwidth  exch def
			/bpside  exch def
			/bstring exch def
			/onbits 0 def  /offbits 0 def
			freq sangle landscape {90 add} if 
				{/ypoint exch def
				 /xpoint exch def
				 /xindex xpoint 1 add 2 div bpside mul cvi def
				 /yindex ypoint 1 add 2 div bpside mul cvi def
				 bstring yindex bwidth mul xindex 8 idiv add get
				 1 7 xindex 8 mod sub bitshift and 0 ne fMNegative {not} if
				 {/onbits  onbits  1 add def 1}
				 {/offbits offbits 1 add def 0}
				 ifelse
				}
				setscreen
			offbits offbits onbits add div fMNegative {1.0 exch sub} if
			/FrameCurGray exch def
		} ifelse
	} { 
		pop pop
		dup patCache exch known {
			patCache exch get
		} { 
			dup
			patDict /bstring 3 -1 roll put
			patDict 
			9 PatFreq screenIndex get div dup matrix scale
			makepattern
			dup 
			patCache 4 -1 roll 3 -1 roll put
		} ifelse
		/FrameCurGray 0 def
		/FrameCurPat exch def
	} ifelse
	/graymode false def
	combineColor
} bind def
/setGrayScaleMode {
	graymode not {
		/graymode true def
		fMLevel1 {
			setCurrentScreen
		} if
	} if
	/FrameCurGray exch def
	combineColor
} bind def
/normalize {
	transform round exch round exch itransform
	} bind def
/dnormalize {
	dtransform round exch round exch idtransform
	} bind def
/lnormalize { 
	0 dtransform exch cvi 2 idiv 2 mul 1 add exch idtransform pop
	} bind def
/H { 
	lnormalize setlinewidth
	} bind def
/Z {
	setlinecap
	} bind def
	
/PFill {
	graymode fMLevel1 or not {
		gsave 1 setgray eofill grestore
	} if
} bind def
/PStroke {
	graymode fMLevel1 or not {
		gsave 1 setgray stroke grestore
	} if
	stroke
} bind def
/X { 
	fillvals exch get
	dup type /stringtype eq
	{8 1 setPatternMode} 
	{setGrayScaleMode}
	ifelse
	} bind def
/V { 
	PFill gsave eofill grestore
	} bind def
/Vclip {
	clip
	} bind def
/Vstrk {
	currentlinewidth exch setlinewidth PStroke setlinewidth
	} bind def
/N { 
	PStroke
	} bind def
/Nclip {
	strokepath clip newpath
	} bind def
/Nstrk {
	currentlinewidth exch setlinewidth PStroke setlinewidth
	} bind def
/M {newpath moveto} bind def
/E {lineto} bind def
/D {curveto} bind def
/O {closepath} bind def
/L { 
 	/n exch def
	newpath
	normalize
	moveto 
	2 1 n {pop normalize lineto} for
	} bind def
/Y { 
	L 
	closepath
	} bind def
/R { 
	/y2 exch def
	/x2 exch def
	/y1 exch def
	/x1 exch def
	x1 y1
	x2 y1
	x2 y2
	x1 y2
	4 Y 
	} bind def
/rarc 
	{rad 
	 arcto
	} bind def
/RR { 
	/rad exch def
	normalize
	/y2 exch def
	/x2 exch def
	normalize
	/y1 exch def
	/x1 exch def
	mark
	newpath
	{
	x1 y1 rad add moveto
	x1 y2 x2 y2 rarc
	x2 y2 x2 y1 rarc
	x2 y1 x1 y1 rarc
	x1 y1 x1 y2 rarc
	closepath
	} stopped {x1 y1 x2 y2 R} if 
	cleartomark
	} bind def
/RRR { 
	/rad exch def
	normalize /y4 exch def /x4 exch def
	normalize /y3 exch def /x3 exch def
	normalize /y2 exch def /x2 exch def
	normalize /y1 exch def /x1 exch def
	newpath
	normalize moveto 
	mark
	{
	x2 y2 x3 y3 rarc
	x3 y3 x4 y4 rarc
	x4 y4 x1 y1 rarc
	x1 y1 x2 y2 rarc
	closepath
	} stopped
	 {x1 y1 x2 y2 x3 y3 x4 y4 newpath moveto lineto lineto lineto closepath} if
	cleartomark
	} bind def
/C { 
	grestore
	gsave
	R 
	clip
	setCurrentScreen
} bind def
/CP { 
	grestore
	gsave
	Y 
	clip
	setCurrentScreen
} bind def
/F { 
	FMfonts exch get
	FMpointsize scalefont
	setfont
	} bind def
/Q { 
	/FMpointsize exch def
	F 
	} bind def
/T { 
	moveto show
	} bind def
/RF { 
	rotate
	0 ne {-1 1 scale} if
	} bind def
/TF { 
	gsave
	moveto 
	RF
	show
	grestore
	} bind def
/P { 
	moveto
	0 32 3 2 roll widthshow
	} bind def
/PF { 
	gsave
	moveto 
	RF
	0 32 3 2 roll widthshow
	grestore
	} bind def
/S { 
	moveto
	0 exch ashow
	} bind def
/SF { 
	gsave
	moveto
	RF
	0 exch ashow
	grestore
	} bind def
/B { 
	moveto
	0 32 4 2 roll 0 exch awidthshow
	} bind def
/BF { 
	gsave
	moveto
	RF
	0 32 4 2 roll 0 exch awidthshow
	grestore
	} bind def
/G { 
	gsave
	newpath
	normalize translate 0.0 0.0 moveto 
	dnormalize scale 
	0.0 0.0 1.0 5 3 roll arc 
	closepath 
	PFill fill
	grestore
	} bind def
/Gstrk {
	savematrix
    newpath
    2 index 2 div add exch 3 index 2 div sub exch 
    normalize 2 index 2 div sub exch 3 index 2 div add exch 
    translate
    scale 
    0.0 0.0 1.0 5 3 roll arc 
    restorematrix
    currentlinewidth exch setlinewidth PStroke setlinewidth
    } bind def
/Gclip { 
	newpath
	savematrix
	normalize translate 0.0 0.0 moveto 
	dnormalize scale 
	0.0 0.0 1.0 5 3 roll arc 
	closepath 
	clip newpath
	restorematrix
	} bind def
/GG { 
	gsave
	newpath
	normalize translate 0.0 0.0 moveto 
	rotate 
	dnormalize scale 
	0.0 0.0 1.0 5 3 roll arc 
	closepath
	PFill
	fill
	grestore
	} bind def
/GGclip { 
	savematrix
	newpath
    normalize translate 0.0 0.0 moveto 
    rotate 
    dnormalize scale 
    0.0 0.0 1.0 5 3 roll arc 
    closepath
	clip newpath
	restorematrix
	} bind def
/GGstrk { 
	savematrix
    newpath
    normalize translate 0.0 0.0 moveto 
    rotate 
    dnormalize scale 
    0.0 0.0 1.0 5 3 roll arc 
    closepath 
	restorematrix
    currentlinewidth exch setlinewidth PStroke setlinewidth
	} bind def
/A { 
	gsave
	savematrix
	newpath
	2 index 2 div add exch 3 index 2 div sub exch 
	normalize 2 index 2 div sub exch 3 index 2 div add exch 
	translate 
	scale 
	0.0 0.0 1.0 5 3 roll arc 
	restorematrix
	PStroke
	grestore
	} bind def
/Aclip {
	newpath
	savematrix
	normalize translate 0.0 0.0 moveto 
	dnormalize scale 
	0.0 0.0 1.0 5 3 roll arc 
	closepath 
	strokepath clip newpath
	restorematrix
} bind def
/Astrk {
	Gstrk
} bind def
/AA { 
	gsave
	savematrix
	newpath
	
	3 index 2 div add exch 4 index 2 div sub exch 
	
	normalize 3 index 2 div sub exch 4 index 2 div add exch
	translate 
	rotate 
	scale 
	0.0 0.0 1.0 5 3 roll arc 
	restorematrix
	PStroke
	grestore
	} bind def
/AAclip {
	savematrix
	newpath
    normalize translate 0.0 0.0 moveto 
    rotate 
    dnormalize scale 
    0.0 0.0 1.0 5 3 roll arc 
    closepath
	strokepath clip newpath
	restorematrix
} bind def
/AAstrk {
	GGstrk
} bind def
/BEGINPRINTCODE { 
	/FMdicttop countdictstack 1 add def 
	/FMoptop count 7 sub def 
	/FMsaveobject save def
	userdict begin 
	/showpage {} def 
	FMNORMALIZEGRAPHICS 
	3 index neg 3 index neg translate
	} bind def
/ENDPRINTCODE {
	count -1 FMoptop {pop pop} for 
	countdictstack -1 FMdicttop {pop end} for 
	FMsaveobject restore 
	} bind def
/gn { 
	0 
	{	46 mul 
		cf read pop 
		32 sub 
		dup 46 lt {exit} if 
		46 sub add 
		} loop
	add 
	} bind def
/cfs { 
	/str sl string def 
	0 1 sl 1 sub {str exch val put} for 
	str def 
	} bind def
/ic [ 
	0 0 0 0 0 0 0 0 0 0 0 0 0 0 0 0223
	0 0 0 0 0 0 0 0 0 0 0 0 0 0 0 0223
	0
	{0 hx} {1 hx} {2 hx} {3 hx} {4 hx} {5 hx} {6 hx} {7 hx} {8 hx} {9 hx}
	{10 hx} {11 hx} {12 hx} {13 hx} {14 hx} {15 hx} {16 hx} {17 hx} {18 hx}
	{19 hx} {gn hx} {0} {1} {2} {3} {4} {5} {6} {7} {8} {9} {10} {11} {12}
	{13} {14} {15} {16} {17} {18} {19} {gn} {0 wh} {1 wh} {2 wh} {3 wh}
	{4 wh} {5 wh} {6 wh} {7 wh} {8 wh} {9 wh} {10 wh} {11 wh} {12 wh}
	{13 wh} {14 wh} {gn wh} {0 bl} {1 bl} {2 bl} {3 bl} {4 bl} {5 bl} {6 bl}
	{7 bl} {8 bl} {9 bl} {10 bl} {11 bl} {12 bl} {13 bl} {14 bl} {gn bl}
	{0 fl} {1 fl} {2 fl} {3 fl} {4 fl} {5 fl} {6 fl} {7 fl} {8 fl} {9 fl}
	{10 fl} {11 fl} {12 fl} {13 fl} {14 fl} {gn fl}
	] def
/ms { 
	/sl exch def 
	/val 255 def 
	/ws cfs 
	/im cfs 
	/val 0 def 
	/bs cfs 
	/cs cfs 
	} bind def
400 ms 
/ip { 
	is 
	0 
	cf cs readline pop 
	{	ic exch get exec 
		add 
		} forall 
	pop 
	
	} bind def
/rip { 
	   
	  
	  bis ris copy pop 
      is
      0
      cf cs readline pop 
      {       ic exch get exec 
              add 
              } forall 
	  pop pop 
	  ris gis copy pop 
	  dup is exch 
	  
      cf cs readline pop 
      {       ic exch get exec 
              add 
              } forall 
	  pop pop
	  gis bis copy pop 
	  dup add is exch 
	  
      cf cs readline pop 
      {       ic exch get exec 
              add 
              } forall 
      pop 
      
      } bind def
/rip4 { 
	   
	  
	  kis cis copy pop 
      is
      0
      cf cs readline pop 
      {       ic exch get exec 
              add 
              } forall 
	  pop pop 
	  cis mis copy pop 
	  dup is exch 
	  
      cf cs readline pop 
      {       ic exch get exec 
              add 
              } forall 
	  pop pop
	  mis yis copy pop 
	  dup dup add is exch 
	  
      cf cs readline pop 
      {       ic exch get exec 
              add 
              } forall 
	  pop pop
	  yis kis copy pop 
	  3 mul is exch 
	  
      cf cs readline pop 
      {       ic exch get exec 
              add 
              } forall 
      pop 
      
      } bind def
/wh { 
	/len exch def 
	/pos exch def 
	ws 0 len getinterval im pos len getinterval copy pop
	pos len 
	} bind def
/bl { 
	/len exch def 
	/pos exch def 
	bs 0 len getinterval im pos len getinterval copy pop
	pos len 
	} bind def
/s1 1 string def
/fl { 
	/len exch def 
	/pos exch def 
	/val cf s1 readhexstring pop 0 get def
	pos 1 pos len add 1 sub {im exch val put} for
	pos len 
	} bind def
/hx { 
	3 copy getinterval 
	cf exch readhexstring pop pop 
	} bind def
/wbytes { 
      dup dup
      8 gt { pop 8 idiv mul }
      { 8 eq {pop} {1 eq {7 add 8 idiv} {3 add 4 idiv} ifelse} ifelse } ifelse
	} bind def
/BEGINBITMAPBWc { 
	1 {} COMMONBITMAPc
	} bind def
/BEGINBITMAPGRAYc { 
	8 {} COMMONBITMAPc
	} bind def
/BEGINBITMAP2BITc { 
	2 {} COMMONBITMAPc
	} bind def
/COMMONBITMAPc { 
		 
	/cvtProc exch def
	/depth exch def
	gsave
	
	3 index 2 div add exch	
	4 index 2 div add exch	
	translate		
	rotate			
	1 index 2 div neg	
	1 index 2 div neg	
	translate		
	scale			
	/height exch def /width exch def
	/lb width depth wbytes def 
	sl lb lt {lb ms} if 
	/bitmapsave save def 
	cvtProc                
	/is im 0 lb getinterval def 
	ws 0 lb getinterval is copy pop 
	/cf currentfile def 
	width height depth [width 0 0 height neg 0 height] 
	{ip} image 
	bitmapsave restore 
	grestore
	} bind def
/BEGINBITMAPBW { 
	1 {} COMMONBITMAP
	} bind def
/BEGINBITMAPGRAY { 
	8 {} COMMONBITMAP
	} bind def
/BEGINBITMAP2BIT { 
	2 {} COMMONBITMAP
	} bind def
/COMMONBITMAP { 
	/cvtProc exch def
	/depth exch def
	gsave
	
	3 index 2 div add exch	
	4 index 2 div add exch	
	translate		
	rotate			
	1 index 2 div neg	
	1 index 2 div neg	
	translate		
	scale			
	/height exch def /width exch def
	/bitmapsave save def 
	cvtProc              
	/is width depth wbytes string def
	/cf currentfile def 
	width height depth [width 0 0 height neg 0 height] 
	{cf is readhexstring pop} image
	bitmapsave restore 
	grestore
	} bind def
/ngrayt 256 array def
/nredt 256 array def
/nbluet 256 array def
/ngreent 256 array def
fMLevel1 {
/colorsetup {
	currentcolortransfer
	/gryt exch def
	/blut exch def
	/grnt exch def
	/redt exch def
	0 1 255 {
		/indx exch def
		/cynu 1 red indx get 255 div sub def
		/magu 1 green indx get 255 div sub def
		/yelu 1 blue indx get 255 div sub def
		/kk cynu magu min yelu min def
		/u kk currentundercolorremoval exec def
%		/u 0 def
		nredt indx 1 0 cynu u sub max sub redt exec put
		ngreent indx 1 0 magu u sub max sub grnt exec put
		nbluet indx 1 0 yelu u sub max sub blut exec put
		ngrayt indx 1 kk currentblackgeneration exec sub gryt exec put
	} for
	{255 mul cvi nredt exch get}
	{255 mul cvi ngreent exch get}
	{255 mul cvi nbluet exch get}
	{255 mul cvi ngrayt exch get}
	setcolortransfer
	{pop 0} setundercolorremoval
	{} setblackgeneration
	} bind def
}
{
/colorSetup2 {
	[ /Indexed /DeviceRGB 255 
		{dup red exch get 255 div 
		 exch dup green exch get 255 div 
		 exch blue exch get 255 div}
	] setcolorspace
} bind def
} ifelse
/fakecolorsetup {
	/tran 256 string def
	0 1 255 {/indx exch def 
		tran indx
		red indx get 77 mul
		green indx get 151 mul
		blue indx get 28 mul
		add add 256 idiv put} for
	currenttransfer
	{255 mul cvi tran exch get 255.0 div}
	exch fmConcatProcs settransfer
} bind def
/BITMAPCOLOR { 
	/depth 8 def
	gsave
	
	3 index 2 div add exch	
	4 index 2 div add exch	
	translate		
	rotate			
	1 index 2 div neg	
	1 index 2 div neg	
	translate		
	scale			
	/height exch def /width exch def
	/bitmapsave save def
	fMLevel1 {	
		colorsetup
		/is width depth wbytes string def
		/cf currentfile def 
		width height depth [width 0 0 height neg 0 height] 
		{cf is readhexstring pop} {is} {is} true 3 colorimage 
	} {
		colorSetup2
		/is width depth wbytes string def
		/cf currentfile def 
		7 dict dup begin
			/ImageType 1 def
			/Width width def
			/Height height def
			/ImageMatrix [width 0 0 height neg 0 height] def
			/DataSource {cf is readhexstring pop} bind def
			/BitsPerComponent depth def
			/Decode [0 255] def
		end image	
	} ifelse
	bitmapsave restore 
	grestore
	} bind def
/BITMAPCOLORc { 
	/depth 8 def
	gsave
	
	3 index 2 div add exch	
	4 index 2 div add exch	
	translate		
	rotate			
	1 index 2 div neg	
	1 index 2 div neg	
	translate		
	scale			
	/height exch def /width exch def
	/lb width depth wbytes def 
	sl lb lt {lb ms} if 
	/bitmapsave save def 
	fMLevel1 {	
		colorsetup
		/is im 0 lb getinterval def 
		ws 0 lb getinterval is copy pop 
		/cf currentfile def 
		width height depth [width 0 0 height neg 0 height] 
		{ip} {is} {is} true 3 colorimage
	} {
		colorSetup2
		/is im 0 lb getinterval def 
		ws 0 lb getinterval is copy pop 
		/cf currentfile def 
		7 dict dup begin
			/ImageType 1 def
			/Width width def
			/Height height def
			/ImageMatrix [width 0 0 height neg 0 height] def
			/DataSource {ip} bind def
			/BitsPerComponent depth def
			/Decode [0 255] def
		end image	
	} ifelse
	bitmapsave restore 
	grestore
	} bind def
/BITMAPTRUECOLORc { 
	/depth 24 def
        gsave
 	
	3 index 2 div add exch	
	4 index 2 div add exch	
	translate		
	rotate			
	1 index 2 div neg	
	1 index 2 div neg	
	translate		
	scale			
	/height exch def /width exch def
	/lb width depth wbytes def 
	sl lb lt {lb ms} if 
	/bitmapsave save def 
        
	/is im 0 lb getinterval def	
	/ris im 0 width getinterval def	
	/gis im width width getinterval def	
	/bis im width 2 mul width getinterval def 
        
	ws 0 lb getinterval is copy pop 
	/cf currentfile def 
	width height 8 [width 0 0 height neg 0 height] 
	{width rip pop ris} {gis} {bis} true 3 colorimage
	bitmapsave restore 
	grestore
	} bind def
/BITMAPCMYKc { 
	/depth 32 def
        gsave
 	
	3 index 2 div add exch	
	4 index 2 div add exch	
	translate		
	rotate			
	1 index 2 div neg	
	1 index 2 div neg	
	translate		
	scale			
	/height exch def /width exch def
	/lb width depth wbytes def 
	sl lb lt {lb ms} if 
	/bitmapsave save def 
        
	/is im 0 lb getinterval def	
	/cis im 0 width getinterval def	
	/mis im width width getinterval def	
	/yis im width 2 mul width getinterval def 
	/kis im width 3 mul width getinterval def 
        
	ws 0 lb getinterval is copy pop 
	/cf currentfile def 
	width height 8 [width 0 0 height neg 0 height] 
	{width rip4 pop cis} {mis} {yis} {kis} true 4 colorimage
	bitmapsave restore 
	grestore
	} bind def
/BITMAPTRUECOLOR { 
        gsave
		
		3 index 2 div add exch	
		4 index 2 div add exch	
		translate		
		rotate			
		1 index 2 div neg	
		1 index 2 div neg	
		translate		
		scale			
		/height exch def /width exch def
        /bitmapsave save def 
        /is width string def
        /gis width string def
        /bis width string def
        /cf currentfile def 
        width height 8 [width 0 0 height neg 0 height] 
        { cf is readhexstring pop } 
        { cf gis readhexstring pop } 
        { cf bis readhexstring pop } 
        true 3 colorimage 
        bitmapsave restore 
        grestore
        } bind def
/BITMAPCMYK { 
        gsave
		
		3 index 2 div add exch	
		4 index 2 div add exch	
		translate		
		rotate			
		1 index 2 div neg	
		1 index 2 div neg	
		translate		
		scale			
		/height exch def /width exch def
        /bitmapsave save def 
        /is width string def
        /mis width string def
        /yis width string def
        /kis width string def
        /cf currentfile def 
        width height 8 [width 0 0 height neg 0 height] 
        { cf is readhexstring pop } 
        { cf mis readhexstring pop } 
        { cf yis readhexstring pop } 
        { cf kis readhexstring pop } 
        true 4 colorimage 
        bitmapsave restore 
        grestore
        } bind def
/BITMAPTRUEGRAYc { 
	/depth 24 def
        gsave
	
	3 index 2 div add exch	
	4 index 2 div add exch	
	translate		
	rotate			
	1 index 2 div neg	
	1 index 2 div neg	
	translate		
	scale			
	/height exch def /width exch def
	/lb width depth wbytes def 
	sl lb lt {lb ms} if 
        /bitmapsave save def 
        
	/is im 0 lb getinterval def	
	/ris im 0 width getinterval def	
	/gis im width width getinterval def	
	/bis im width 2 mul width getinterval def 
        ws 0 lb getinterval is copy pop 
        /cf currentfile def 
        width height 8 [width 0 0 height neg 0 height] 
        {width rip pop ris gis bis width gray} image
        bitmapsave restore 
        grestore
        } bind def
/BITMAPCMYKGRAYc { 
	/depth 32 def
        gsave
	
	3 index 2 div add exch	
	4 index 2 div add exch	
	translate		
	rotate			
	1 index 2 div neg	
	1 index 2 div neg	
	translate		
	scale			
	/height exch def /width exch def
	/lb width depth wbytes def 
	sl lb lt {lb ms} if 
        /bitmapsave save def 
        
	/is im 0 lb getinterval def	
	/cis im 0 width getinterval def	
	/mis im width width getinterval def	
	/yis im width 2 mul width getinterval def 
	/kis im width 3 mul width getinterval def 
        ws 0 lb getinterval is copy pop 
        /cf currentfile def 
        width height 8 [width 0 0 height neg 0 height] 
        {width rip pop cis mis yis kis width cgray} image
        bitmapsave restore 
        grestore
        } bind def
/cgray { 
        /ww exch def
        /k exch def
        /y exch def
        /m exch def
        /c exch def
        0 1 ww 1 sub { /i exch def c i get m i get y i get k i get CMYKtoRGB
				.144 mul 3 1 roll .587 mul 3 1 roll .299 mul add add
				c i 3 -1 roll floor cvi put } for
        c
 		} bind def
/gray { 
        /ww exch def
        /b exch def
        /g exch def
        /r exch def
        0 1 ww 1 sub { /i exch def r i get .299 mul g i get .587 mul
			b i get .114 mul add add r i 3 -1 roll floor cvi put } for
        r
        } bind def
/BITMAPTRUEGRAY { 
        gsave
		
		3 index 2 div add exch	
		4 index 2 div add exch	
		translate		
		rotate			
		1 index 2 div neg	
		1 index 2 div neg	
		translate		
		scale			
		/height exch def /width exch def
        /bitmapsave save def 
        /is width string def
        /gis width string def
        /bis width string def
        /cf currentfile def 
        width height 8 [width 0 0 height neg 0 height] 
        { cf is readhexstring pop 
          cf gis readhexstring pop 
          cf bis readhexstring pop width gray}  image
        bitmapsave restore 
        grestore
        } bind def
/BITMAPCMYKGRAY { 
        gsave
		
		3 index 2 div add exch	
		4 index 2 div add exch	
		translate		
		rotate			
		1 index 2 div neg	
		1 index 2 div neg	
		translate		
		scale			
		/height exch def /width exch def
        /bitmapsave save def 
        /is width string def
        /yis width string def
        /mis width string def
        /kis width string def
        /cf currentfile def 
        width height 8 [width 0 0 height neg 0 height] 
        { cf is readhexstring pop 
          cf mis readhexstring pop 
          cf yis readhexstring pop 
          cf kis readhexstring pop width cgray}  image
        bitmapsave restore 
        grestore
        } bind def
/BITMAPGRAY { 
	8 {fakecolorsetup} COMMONBITMAP
	} bind def
/BITMAPGRAYc { 
	8 {fakecolorsetup} COMMONBITMAPc
	} bind def
/ENDBITMAP {
	} bind def
end 
	/ALDmatrix matrix def ALDmatrix currentmatrix pop
/StartALD {
	/ALDsave save def
	 savematrix
	 ALDmatrix setmatrix
	} bind def
/InALD {
	 restorematrix
	} bind def
/DoneALD {
	 ALDsave restore
	} bind def
/I { setdash } bind def
/J { [] 0 setdash } bind def
%%EndProlog
%%BeginSetup
(5.0) FMVERSION
1 1 0 0 612 792 0 1 5 FMDOCUMENT
0 0 /Times-Bold FMFONTDEFINE
1 0 /Times-Roman FMFONTDEFINE
2 0 /Times-Italic FMFONTDEFINE
32 FMFILLS
0 0 FMFILL
1 0.1 FMFILL
2 0.3 FMFILL
3 0.5 FMFILL
4 0.7 FMFILL
5 0.9 FMFILL
6 0.97 FMFILL
7 1 FMFILL
8 <0f1e3c78f0e1c387> FMFILL
9 <0f87c3e1f0783c1e> FMFILL
10 <cccccccccccccccc> FMFILL
11 <ffff0000ffff0000> FMFILL
12 <8142241818244281> FMFILL
13 <03060c183060c081> FMFILL
14 <8040201008040201> FMFILL
16 1 FMFILL
17 0.9 FMFILL
18 0.7 FMFILL
19 0.5 FMFILL
20 0.3 FMFILL
21 0.1 FMFILL
22 0.03 FMFILL
23 0 FMFILL
24 <f0e1c3870f1e3c78> FMFILL
25 <f0783c1e0f87c3e1> FMFILL
26 <3333333333333333> FMFILL
27 <0000ffff0000ffff> FMFILL
28 <7ebddbe7e7dbbd7e> FMFILL
29 <fcf9f3e7cf9f3f7e> FMFILL
30 <7fbfdfeff7fbfdfe> FMFILL
%%EndSetup
%%Page: "1" 1
%%BeginPaperSize: Letter
%%EndPaperSize
612 792 0 FMBEGINPAGE
[0 0 0 1 0 0 0]
[ 0 1 1 0 1 0 0]
[ 1 0 1 0 0 1 0]
[ 1 1 0 0 0 0 1]
[ 1 0 0 0 0 1 1]
[ 0 1 0 0 1 0 1]
[ 0 0 1 0 1 1 0]
 7 FrameSetSepColors
FrameNoSep
0 0 0 1 0 0 0 K
J
0 0 0 1 0 0 0 K
0 0 0 1 0 0 0 K
0 0 0 1 0 0 0 K
0 0 0 1 0 0 0 K
0 0 0 1 0 0 0 K
0 0 0 1 0 0 0 K
0 0 0 1 0 0 0 K
246.1 701.6 153.43 701.6 2 L
0 X
0 0 0 1 0 0 0 K
V
1.2 H
0 Z
N
0 24 Q
(fpp - A F) 153.43 704 T
342.14 701.6 245.5 701.6 2 L
V
N
(ortran pr) 245.5 704 T
384.36 701.6 341.71 701.6 2 L
V
N
(e-pr) 341.71 704 T
458.57 701.6 383.93 701.6 2 L
V
N
(ocessor) 383.93 704 T
1 18 Q
(1.) 72 665 T
(Introduction) 90 665 T
1 12 Q
(Frequently F) 72 625 T
(ortran programmers need to maintain more than one v) 133.49 625 T
(ersion of a code, or to run the) 392.59 625 T
(code in v) 72 611 T
(arious en) 115.69 611 T
(vironments. The easiest solution for the programmer is to k) 158.87 611 T
(eep a single source) 443.39 611 T
-0.31 (\336le that has all the code v) 72 597 P
-0.31 (ariations interlea) 192.46 597 P
-0.31 (v) 272.23 597 P
-0.31 (ed within it so that an) 278.05 597 P
-0.31 (y v) 379.96 597 P
-0.31 (ersion can be easily e) 394.46 597 P
-0.31 (xtracted.) 495.66 597 P
(This w) 72 583 T
(ay) 104.88 583 T
(, modi\336cations that apply to all v) 115.43 583 T
(ersions need only be made once.) 273.59 583 T
-0.05 (Source code preprocessors ha) 72 555 P
-0.05 (v) 213.88 555 P
-0.05 (e long been used to pro) 219.7 555 P
-0.05 (vide these capabilities. The) 330.9 555 P
-0.05 (y allo) 461.2 555 P
-0.05 (w the user) 487.84 555 P
(to insert directi) 72 541 T
(v) 144.36 541 T
(e statements within the source code that ef) 150.18 541 T
(fect the output of the preprocessor) 353.51 541 T
(.) 517.14 541 T
(T) 72 527 T
(ypically) 78.37 527 T
(, these special directi) 116.26 527 T
(v) 216.6 527 T
(es may appear as comment lines to a compiler) 222.42 527 T
(. In general, source) 443.05 527 T
(code preprocessors permit the user to de\336ne special v) 72 513 T
(ariables and logical constructs that condi-) 328.31 513 T
(tionally control which source lines in the \336le are passed on to the compiler and which lines are) 72 499 T
-0.2 (skipped o) 72 485 P
-0.2 (v) 117.96 485 P
-0.2 (er) 123.78 485 P
-0.2 (. In addition, the preprocessor's source line editing capabilities allo) 132.44 485 P
-0.2 (w the user to spec-) 450.81 485 P
(ify ho) 72 471 T
(w the source code should be changed according to the v) 100.03 471 T
(alue of de\336ned string v) 367.67 471 T
(ariables.) 478.02 471 T
(Historically) 72 443 T
(, the source code preprocessor found in standard C compilers, cpp, has been used to) 127.88 443 T
(pro) 72 429 T
(vide F) 87.82 429 T
(ortran programmers with these capabilities. Ho) 117.97 429 T
(we) 343.63 429 T
(v) 357.32 429 T
(er) 363.14 429 T
(, cpp is too closely tied into the C) 371.99 429 T
-0.1 (language syntax and source line format to be used without careful scrutin) 72 415 P
-0.1 (y) 422.36 415 P
-0.1 (. The proposed F) 427.58 415 P
-0.1 (ortran) 508.44 415 P
(PreProcessor) 72 401 T
(, fpp, w) 134.17 401 T
(ould pro) 170.71 401 T
(vide F) 210.86 401 T
(ortran-speci\336c source code capabilities that C programmers) 241.02 401 T
(ha) 72 387 T
(v) 83.09 387 T
(e come to e) 88.91 387 T
(xpect in UNIX en) 143.71 387 T
(vironments.) 228.88 387 T
(Some of fpp's capabilities could, potentially) 72 359 T
(, be reapplied in other tools. An implementation of) 282.04 359 T
(fpp w) 72 345 T
(ould ha) 99.54 345 T
(v) 134.96 345 T
(e to parse and analyze F) 140.78 345 T
(ortran source, e) 256.24 345 T
(v) 330.24 345 T
(aluate F) 335.94 345 T
(ortran e) 374.09 345 T
(xpressions and generate) 410.89 345 T
(F) 72 331 T
(ortran output. These are the b) 78.49 331 T
(uilding blocks that other tools w) 219.55 331 T
(ould need to pro) 374.44 331 T
(vide an enriched) 452.58 331 T
(en) 72 317 T
(vironment for F) 82.85 317 T
(ortran program de) 158.66 317 T
(v) 245 317 T
(elopment.) 250.82 317 T
(The follo) 72 289 T
(wing section speci\336es the capabilities of fpp in more detail.) 116.03 289 T
1 18 Q
(2.) 72 257 T
(Detailed Speci\336cations) 90 257 T
187.47 214.27 72 214.27 2 L
V
0.7 H
N
1 14 Q
(PreProcessor Source) 72 215.67 T
1 12 Q
-0.13 (fpp's input source is standard F) 72 183 P
-0.13 (ortran with interspersed preprocessor statements. All preprocessor) 220.32 183 P
(statements be) 72 169 T
(gin with a special character) 136.81 169 T
(, #. It may only appear at the \336rst character position in a) 267.62 169 T
(line. The # should be immediately follo) 72 155 T
(wed by the te) 261.36 155 T
(xt of the preprocessor command.) 325.5 155 T
(Preprocessor directi) 72 127 T
(v) 167.34 127 T
(es may appear inside F) 173.16 127 T
(ortran comments. The preprocessor will also modify) 282.96 127 T
(the te) 72 113 T
(xt inside a F) 98.15 113 T
(ortran comment.) 156.97 113 T
(The preprocessor will operate on both \336x) 72 85 T
(ed and free form source. Fix) 269.78 85 T
(ed form source \336les w) 405.56 85 T
(ould) 512.09 85 T
0 0 0 1 0 0 0 K
FMENDPAGE
%%EndPage: "1" 1
%%Page: "2" 2
612 792 0 FMBEGINPAGE
[0 0 0 1 0 0 0]
[ 0 1 1 0 1 0 0]
[ 1 0 1 0 0 1 0]
[ 1 1 0 0 0 0 1]
[ 1 0 0 0 0 1 1]
[ 0 1 0 0 1 0 1]
[ 0 0 1 0 1 1 0]
 7 FrameSetSepColors
FrameNoSep
0 0 0 1 0 0 0 K
0 0 0 1 0 0 0 K
0 0 0 1 0 0 0 K
0 0 0 1 0 0 0 K
0 0 0 1 0 0 0 K
0 0 0 1 0 0 0 K
0 0 0 1 0 0 0 K
1 12 Q
0 X
0 0 0 1 0 0 0 K
(ha) 72 712 T
(v) 83.09 712 T
(e the e) 88.91 712 T
(xtension .F while free form source \336les w) 120.05 712 T
(ould ha) 319.9 712 T
(v) 355.32 712 T
(e the e) 361.14 712 T
(xtension .F90. Note that the) 392.28 712 T
(\336x) 72 698 T
(ed form \336le name con) 84.49 698 T
(v) 189.32 698 T
(ention applies to both FOR) 195.14 698 T
(TRAN 77 and F) 324.43 698 T
(ortran 90. Files with such) 401.92 698 T
(e) 72 684 T
(xtensions will be preprocessed \336rst before the appropriate compiler is in) 77.15 684 T
(v) 423.28 684 T
(ok) 429.04 684 T
(ed.) 440.92 684 T
-0.12 (If the e) 72 656 P
-0.12 (xpansion of a macro or string replacement causes the column width of a line to e) 105.56 656 P
-0.12 (xceed col-) 490.48 656 P
(umn 72 \050for \336x) 72 642 T
(ed form\051 or column 132 \050for free form\051, the preprocessor will generate the appro-) 144.82 642 T
(priate continuation lines.) 72 628 T
158.7 597.27 72 597.27 2 L
V
0.7 H
0 Z
N
1 14 Q
(PreProcessor V) 72 598.67 T
200.69 597.27 157.15 597.27 2 L
V
N
(ariables) 157.15 598.67 T
1 12 Q
(Preprocessor v) 72 566 T
(ariables are de\336ned by directi) 142.68 566 T
(v) 284.34 566 T
(es to ha) 290.16 566 T
(v) 326.58 566 T
(e a string v) 332.4 566 T
(alue. fpp will replace occur-) 385.09 566 T
(rences of the v) 72 552 T
(ariable within the source code with its v) 142.01 552 T
(alue where) 333.35 552 T
(v) 385.36 552 T
(er appropriate. V) 391.18 552 T
(ariables also) 471.48 552 T
(appear on conditional directi) 72 538 T
(v) 209.34 538 T
(es and control the selection of source code lines passed to output.) 215.16 538 T
(        #de\336ne name    string) 72 510 T
-0.23 (de\336nes the v) 72 482 P
-0.23 (alue of the v) 131.91 482 P
-0.23 (ariable "name" to be "string", with the result that e) 190.58 482 P
-0.23 (v) 430.47 482 P
-0.23 (ery occurrence of the) 436.29 482 P
(tok) 72 468 T
(en "name" [outside of IMPLICIT statement bounds, te) 87.22 468 T
(xt in FORMA) 348.13 468 T
(T statements &) 414.14 468 T
(string literals] is literally replaced by "string".) 72 454 T
(Note: In case of IMPLICIT statement bounds and te) 72 426 T
(xt in FORMA) 321.78 426 T
(T statements, macros are not) 387.79 426 T
(e) 72 412 T
(xpanded only in case of con\337ict with v) 77.15 412 T
(alid literals in that conte) 263.16 412 T
(xt.) 378.97 412 T
("Macro"-lik) 72 384 T
(e, inline replacements with ar) 129.66 384 T
(guments are also permitted:) 271.08 384 T
(        #de\336ne name \050ar) 72 356 T
(g1 [,ar) 176.42 356 T
(g2]...\051 string-with-ar) 207.53 356 T
(gs-inserted) 305.29 356 T
(Examples:) 72 328 T
(        #de\336ne SOLARIS_2       .TR) 72 300 T
(UE.) 235.19 300 T
(        #de\336ne CONVER) 72 272 T
(T\050T) 182.94 272 T
(O_F) 201.38 272 T
(ARENHEIT\051 \050\050T) 221.83 272 T
(O_F) 303.92 272 T
(ARENHEIT*9\051/5\051+32) 324.37 272 T
(Preprocessor v) 72 244 T
(ariables are enabled from the point of de\336nition upto the end of the compilation) 142.68 244 T
(unit. \050i.e. global scoping across the \336le\051) 72 230 T
(Preprocessor v) 72 202 T
(ariables can be e) 142.68 202 T
(xplicitly unde\336ned using) 222.13 202 T
(        #undef name) 72 174 T
132.68 143.27 72 143.27 2 L
V
N
1 14 Q
(Comments) 72 144.67 T
1 12 Q
(C style comments enclosed within /* and */ is accepted by the F) 72 115 T
(ortran preprocessor) 379.8 115 T
(.) 472.1 115 T
0 0 0 1 0 0 0 K
FMENDPAGE
%%EndPage: "2" 2
%%Page: "3" 3
612 792 0 FMBEGINPAGE
[0 0 0 1 0 0 0]
[ 0 1 1 0 1 0 0]
[ 1 0 1 0 0 1 0]
[ 1 1 0 0 0 0 1]
[ 1 0 0 0 0 1 1]
[ 0 1 0 0 1 0 1]
[ 0 0 1 0 1 1 0]
 7 FrameSetSepColors
FrameNoSep
0 0 0 1 0 0 0 K
0 0 0 1 0 0 0 K
0 0 0 1 0 0 0 K
0 0 0 1 0 0 0 K
0 0 0 1 0 0 0 K
0 0 0 1 0 0 0 K
0 0 0 1 0 0 0 K
269.16 709.27 72 709.27 2 L
0 X
0 0 0 1 0 0 0 K
V
0.7 H
0 Z
N
1 14 Q
(Conditional Source Code Selection) 72 710.67 T
1 12 Q
(This is modeled on the cpp conditional code construct.) 72 681 T
(        #if condition1) 72 653 T
(                block1) 72 639 T
(        [#elif condition2) 72 625 T
(                block2 ]) 72 611 T
(          ...) 72 597 T
(        [#else) 72 583 T
(                blockn ]) 72 569 T
(        #endif) 72 555 T
(        or) 72 527 T
(        #ifdef name) 72 499 T
(                block) 72 485 T
(        #endif) 72 471 T
(        #ifndef name) 72 443 T
(                block) 72 429 T
(        #endif) 72 415 T
( The conditions are fpp e) 72 387 T
(xpressions in) 191.46 387 T
(v) 253.98 387 T
(olving preprocessor v) 259.74 387 T
(ariables \050speci\336ed by #de\336ne state-) 363.42 387 T
-0.23 (ments\051. Note that the conditions may be speci\336ed within parentheses. These fpp e) 72 373 P
-0.23 (xpressions are a) 461.04 373 P
-0.37 (superset of cpp e) 72 359 P
-0.37 (xpressions in that the) 151.67 359 P
-0.37 (y can e) 252.04 359 P
-0.37 (v) 284.97 359 P
-0.37 (aluate F) 290.67 359 P
-0.37 (ortran logical literals. So, .TR) 328.45 359 P
-0.37 (UE. is v) 469.46 359 P
-0.37 (alid in) 507.41 359 P
(an fpp e) 72 345 T
(xpression. The preprocessor e) 110.47 345 T
(v) 253.46 345 T
(aluates these conditions to get a true or f) 259.16 345 T
(alse result. The) 453.01 345 T
(e) 72 331 T
(xpressions may not e) 77.15 331 T
(v) 177.84 331 T
(aluate \337oating point v) 183.54 331 T
(alues or include intrinsic functions.) 288.24 331 T
(    Example:) 72 303 T
(        #de\336ne SOLARIS_2       .TR) 72 289 T
(UE.) 235.19 289 T
(        #if \050SOLARIS_2\051) 72 275 T
(            CALL solaris_2 \050X,Y) 72 261 T
(,Z\051) 211.44 261 T
(        #else) 72 247 T
(            CALL solaris_1 \050X,Y) 72 233 T
(,Z\051) 211.44 233 T
(        #endif) 72 219 T
156.39 188.27 72 188.27 2 L
V
N
1 14 Q
(Including Files) 72 189.67 T
1 12 Q
(Sometimes, it is con) 72 160 T
(v) 168.86 160 T
(enient to collect preprocessor v) 174.68 160 T
(ariables in a \336le. This is possible with) 324.35 160 T
(        #include \336lename) 72 132 T
(Nesting of #include is permitted. #include statement may not appear in a continued line \050i.e. the) 72 104 T
(\336rst statement in an included \336le may not be a continuation line\051) 72 90 T
0 0 0 1 0 0 0 K
FMENDPAGE
%%EndPage: "3" 3
%%Page: "4" 4
612 792 0 FMBEGINPAGE
[0 0 0 1 0 0 0]
[ 0 1 1 0 1 0 0]
[ 1 0 1 0 0 1 0]
[ 1 1 0 0 0 0 1]
[ 1 0 0 0 0 1 1]
[ 0 1 0 0 1 0 1]
[ 0 0 1 0 1 1 0]
 7 FrameSetSepColors
FrameNoSep
0 0 0 1 0 0 0 K
0 0 0 1 0 0 0 K
0 0 0 1 0 0 0 K
0 0 0 1 0 0 0 K
0 0 0 1 0 0 0 K
0 0 0 1 0 0 0 K
0 0 0 1 0 0 0 K
253.2 709.27 72 709.27 2 L
0 X
0 0 0 1 0 0 0 K
V
0.7 H
0 Z
N
1 14 Q
(Preprocessor Intrinsic Functions) 72 710.67 T
1 12 Q
(de\336ned\050name\051 pro) 72 678 T
(vides the de\336nition status of a name. It returns TR) 160.13 678 T
(UE or F) 400.3 678 T
(ALSE depending on) 438.07 678 T
(whether the name is de\336ned or not. This is, typically) 72 664 T
(, used in a #if statement:) 323.53 664 T
(        #if de\336ned\050BIG_MODEL\051) 72 636 T
199.57 605.27 72 605.27 2 L
V
N
1 14 Q
(Command line options) 72 606.67 T
1 12 Q
(fpp is typically in) 72 577 T
(v) 155.86 577 T
(ok) 161.62 577 T
(ed from the F) 173.5 577 T
(ortran compiler dri) 238.31 577 T
(v) 328.66 577 T
(er) 334.48 577 T
(. It can also be in) 343.14 577 T
(v) 424.64 577 T
(ok) 430.4 577 T
(ed stand alone. The) 442.28 577 T
(follo) 72 563 T
(wing are some of the options that fpp accepts:) 94.37 563 T
(    -Dname) 72 535 T
(De\336ne name as 1. This is the same as if a) 162 535 T
2 F
(#de\336ne name 1) 363.3 535 T
1 F
( line appeared in the) 435.95 535 T
(source \336le that fpp is processing.) 162 521 T
(    -Dname=def) 72 493 T
(This is the same as if a) 162 493 T
2 F
(#de\336ne name    def) 274.32 493 T
1 F
(line appeared in the source \336le that) 367.63 493 T
(fpp is processing.) 162 479 T
(    -Idirectory) 72 451 T
(Insert 'directory' into the search path for #include \336les with names not) 162 451 T
(be) 162 437 T
(ginning with '/'. 'directory' is inserted ahead of the standard list of 'include') 173.15 437 T
(directories. So, #include \336les with names enclosed in double-quotes \050"\051 are) 162 423 T
(searched \336rst in the directory of the \336le with the #include line, then in) 162 409 T
(directories named with the -I options, and lastly) 162 395 T
(, in the directories from the) 390.53 395 T
(standard list.) 162 381 T
(    -Uname) 72 353 T
(Remo) 162 353 T
(v) 190.49 353 T
(e an) 196.31 353 T
(y initial de\336nition of 'name', where 'name'  is prede\336ned by the) 215.78 353 T
(preprocessor) 162 339 T
(.) 222.65 339 T
(    -Ydirectory) 72 311 T
(Use 'directory' in place of the standard list of directories when searching for) 162 311 T
(#include \336les.) 162 297 T
0 0 0 1 0 0 0 K
FMENDPAGE
%%EndPage: "4" 4
%%Trailer
%%BoundingBox: 0 0 612 792
%%PageOrder: Ascend
%%Pages: 4
%%DocumentFonts: Times-Bold
%%+ Times-Roman
%%+ Times-Italic
%%EOF
