%!PS-Adobe-1.0
%%Title: /tmp/xfig-export020215
%%Creator: fig2dev
%%CreationDate: Thu Jul  2 14:24:00 1992
%%For: klin@pcs7 (Peter Klingebiel, #0)
%%Pages: 0
%%BoundingBox: 0 0 391 270
%%EndComments
/$F2psDict 32 dict def
$F2psDict begin
	$F2psDict /mtrx matrix put

	end
	/$F2psBegin {$F2psDict begin /$F2psEnteredState save def} def
	/$F2psEnd {$F2psEnteredState restore end} def
	%%EndProlog

$F2psBegin
1 setlinecap 1 setlinejoin
-27 27 translate
0.000000 270.000000 translate 0.900 -0.900 scale
2.000 setlinewidth
% Polyline
newpath 464 329 moveto 29 329 lineto 29 29 lineto 464 29 lineto closepath gsave  0.750 setgray fill grestore  stroke
0.000 setlinewidth
% Polyline
newpath 164 314 moveto 44 314 lineto 44 44 lineto 164 44 lineto closepath gsave  0.900 setgray fill grestore % Polyline
newpath 449 314 moveto 314 314 lineto 314 44 lineto 449 44 lineto closepath gsave  0.900 setgray fill grestore % Polyline
newpath 314 314 moveto 164 314 lineto 164 44 lineto 314 44 lineto closepath gsave  0.950 setgray fill grestore 2.000 setlinewidth
% Polyline
newpath 104 168 moveto 104 183 lineto  stroke
% Polyline
newpath 104 197 moveto 104 216 lineto  stroke
% Polyline
newpath 104 227 moveto 104 261 lineto  stroke
% Polyline
newpath 105 104 moveto 179 104 lineto  stroke
% Polyline
newpath 104 270 moveto 104 299 lineto  stroke
% Polyline
newpath 194 106 moveto 194 270 lineto  stroke
% Polyline
newpath 194 270 moveto 209 270 lineto  stroke
% Polyline
newpath 195 239 moveto 209 239 lineto  stroke
% Polyline
newpath 195 194 moveto 209 194 lineto  stroke
% Polyline
newpath 195 119 moveto 210 119 lineto  stroke
% Polyline
newpath 224 123 moveto 224 180 lineto  stroke
% Polyline
newpath 224 179 moveto 239 179 lineto  stroke
% Polyline
newpath 225 164 moveto 240 164 lineto  stroke
% Polyline
newpath 225 134 moveto 239 134 lineto  stroke
% Polyline
newpath 225 149 moveto 239 149 lineto  stroke
% Polyline
newpath 224 200 moveto 224 224 lineto  stroke
% Polyline
newpath 224 224 moveto 239 224 lineto  stroke
% Polyline
newpath 224 209 moveto 239 209 lineto  stroke
% Polyline
newpath 224 243 moveto 224 254 lineto  stroke
% Polyline
newpath 224 254 moveto 239 254 lineto  stroke
% Polyline
newpath 104 285 moveto 180 285 lineto  stroke
1.000 setlinewidth
	[1 3.000000] 0 setdash
% Polyline
newpath 164 44 moveto 164 314 lineto  stroke
	[] 0 setdash
2.000 setlinewidth
% Polyline
newpath 104 92 moveto 104 126 lineto  stroke
% Polyline
newpath 104 61 moveto 104 80 lineto  stroke
% Polyline
newpath 104 137 moveto 104 155 lineto  stroke
/Helvetica-Bold findfont 12.000 scalefont setfont
182 59 moveto
1 -1 scale
(AtPlotter Classes) gsave  0.000 rotate show grestore 1 -1 scale
/Helvetica findfont 10.000 scalefont setfont
349 118 moveto
1 -1 scale
(AtFontFamily) gsave  0.000 rotate show grestore 1 -1 scale
/Helvetica-Bold findfont 12.000 scalefont setfont
59 59 moveto
1 -1 scale
(Intrinsic Classes) gsave  0.000 rotate show grestore 1 -1 scale
/Helvetica findfont 10.000 scalefont setfont
91 89 moveto
1 -1 scale
(Object) gsave  0.000 rotate show grestore 1 -1 scale
/Helvetica findfont 10.000 scalefont setfont
84 134 moveto
1 -1 scale
(\(unnamed\)) gsave  0.000 rotate show grestore 1 -1 scale
/Helvetica findfont 10.000 scalefont setfont
88 164 moveto
1 -1 scale
(RectObj) gsave  0.000 rotate show grestore 1 -1 scale
/Helvetica findfont 10.000 scalefont setfont
95 194 moveto
1 -1 scale
(Core) gsave  0.000 rotate show grestore 1 -1 scale
/Helvetica findfont 10.000 scalefont setfont
85 224 moveto
1 -1 scale
(Composite) gsave  0.000 rotate show grestore 1 -1 scale
/Helvetica findfont 10.000 scalefont setfont
82 269 moveto
1 -1 scale
(Constraint) gsave  0.000 rotate show grestore 1 -1 scale
/Helvetica findfont 10.000 scalefont setfont
181 286 moveto
1 -1 scale
(AtPlotter) gsave  0.000 rotate show grestore 1 -1 scale
/Helvetica findfont 10.000 scalefont setfont
181 105 moveto
1 -1 scale
(AtPlot) gsave  0.000 rotate show grestore 1 -1 scale
/Helvetica findfont 10.000 scalefont setfont
212 271 moveto
1 -1 scale
(AtTextPlot) gsave  0.000 rotate show grestore 1 -1 scale
/Helvetica findfont 10.000 scalefont setfont
211 120 moveto
1 -1 scale
(AtAxisCore) gsave  0.000 rotate show grestore 1 -1 scale
/Helvetica findfont 10.000 scalefont setfont
211 195 moveto
1 -1 scale
(AtSPlot) gsave  0.000 rotate show grestore 1 -1 scale
/Helvetica findfont 10.000 scalefont setfont
211 241 moveto
1 -1 scale
(AtXYPlot) gsave  0.000 rotate show grestore 1 -1 scale
/Helvetica findfont 10.000 scalefont setfont
241 255 moveto
1 -1 scale
(AtXYLinePlot) gsave  0.000 rotate show grestore 1 -1 scale
/Helvetica findfont 10.000 scalefont setfont
241 225 moveto
1 -1 scale
(AtBarPlot) gsave  0.000 rotate show grestore 1 -1 scale
/Helvetica findfont 10.000 scalefont setfont
241 211 moveto
1 -1 scale
(AtLinePlot) gsave  0.000 rotate show grestore 1 -1 scale
/Helvetica findfont 10.000 scalefont setfont
241 180 moveto
1 -1 scale
(AtFrameAxis) gsave  0.000 rotate show grestore 1 -1 scale
/Helvetica findfont 10.000 scalefont setfont
242 165 moveto
1 -1 scale
(AtLabelAxis) gsave  0.000 rotate show grestore 1 -1 scale
/Helvetica findfont 10.000 scalefont setfont
242 151 moveto
1 -1 scale
(AtXYAxis) gsave  0.000 rotate show grestore 1 -1 scale
/Helvetica findfont 10.000 scalefont setfont
241 136 moveto
1 -1 scale
(AtAxis) gsave  0.000 rotate show grestore 1 -1 scale
/Helvetica-Bold findfont 12.000 scalefont setfont
330 59 moveto
1 -1 scale
(Support Modules) gsave  0.000 rotate show grestore 1 -1 scale
/Helvetica findfont 10.000 scalefont setfont
361 148 moveto
1 -1 scale
(AtText) gsave  0.000 rotate show grestore 1 -1 scale
/Helvetica findfont 10.000 scalefont setfont
359 209 moveto
1 -1 scale
(AtScale) gsave  0.000 rotate show grestore 1 -1 scale
/Helvetica findfont 10.000 scalefont setfont
353 179 moveto
1 -1 scale
(AtShading) gsave  0.000 rotate show grestore 1 -1 scale
$F2psEnd
