%!PS-Adobe-1.0
%%Title: /tmp/xfig-export020208
%%Creator: fig2dev
%%CreationDate: Thu Jul  2 14:21:23 1992
%%For: klin@pcs7 (Peter Klingebiel, #0)
%%Pages: 0
%%BoundingBox: 0 0 370 278
%%EndComments
/$F2psDict 32 dict def
$F2psDict begin
	$F2psDict /mtrx matrix put

	end
	/$F2psBegin {$F2psDict begin /$F2psEnteredState save def} def
	/$F2psEnd {$F2psEnteredState restore end} def
	%%EndProlog

$F2psBegin
1 setlinecap 1 setlinejoin
-51 37 translate
0.000000 278.000000 translate 0.900 -0.900 scale
2.000 setlinewidth
% Polyline
newpath 467 349 moveto 56 349 lineto 56 41 lineto 467 41 lineto closepath gsave  0.750 setgray fill grestore  stroke
1.000 setlinewidth
% Polyline
newpath 70 284 moveto 108 284 lineto 108 144 lineto 70 144 lineto closepath gsave  0.950 setgray fill grestore  stroke
% Polyline
newpath 325 284 moveto 121 284 lineto 121 144 lineto 325 144 lineto closepath gsave  0.950 setgray fill grestore  stroke
% Polyline
newpath 453 80 moveto 70 80 lineto 70 55 lineto 453 55 lineto closepath gsave  0.950 setgray fill grestore  stroke
% Polyline
newpath 325 335 moveto 121 335 lineto 121 297 lineto 325 297 lineto closepath gsave  0.950 setgray fill grestore  stroke
% Polyline
newpath 325 131 moveto 121 131 lineto 121 93 lineto 325 93 lineto closepath gsave  0.950 setgray fill grestore  stroke
% Polyline
newpath 376 284 moveto 338 284 lineto 338 144 lineto 376 144 lineto closepath gsave  0.950 setgray fill grestore  stroke
% Polyline
newpath 453 335 moveto 390 335 lineto 390 93 lineto 453 93 lineto closepath gsave  0.950 setgray fill grestore  stroke
/Helvetica findfont 10.000 scalefont setfont
194 215 moveto
1 -1 scale
(Plotting Area) gsave  0.000 rotate show grestore 1 -1 scale
/Helvetica findfont 10.000 scalefont setfont
402 214 moveto
1 -1 scale
(Legend) gsave  0.000 rotate show grestore 1 -1 scale
/Helvetica findfont 10.000 scalefont setfont
80 220 moveto
1 -1 scale
(Axis) gsave  0.000 rotate show grestore 1 -1 scale
/Helvetica findfont 10.000 scalefont setfont
85 211 moveto
1 -1 scale
(Y) gsave  0.000 rotate show grestore 1 -1 scale
/Helvetica findfont 10.000 scalefont setfont
204 319 moveto
1 -1 scale
(X Axis) gsave  0.000 rotate show grestore 1 -1 scale
/Helvetica findfont 10.000 scalefont setfont
203 115 moveto
1 -1 scale
(X2 Axis) gsave  0.000 rotate show grestore 1 -1 scale
/Helvetica findfont 10.000 scalefont setfont
346 221 moveto
1 -1 scale
(Axis) gsave  0.000 rotate show grestore 1 -1 scale
/Helvetica findfont 10.000 scalefont setfont
349 211 moveto
1 -1 scale
(Y2) gsave  0.000 rotate show grestore 1 -1 scale
/Helvetica findfont 10.000 scalefont setfont
246 71 moveto
1 -1 scale
(Title) gsave  0.000 rotate show grestore 1 -1 scale
$F2psEnd
