%!PS-Adobe-2.0
%%Title: Sample Plot
%%Creator: the Athena Tools plotter widget
%%CreationDate: Fri Jul  3 12:36:21 1992
%%For: klin
%%BoundingBox: 50 50 480 240
%%Pages: 1
%%EndComments
/F   { findfont exch scalefont setfont } bind def
/S   {moveto show } bind def
/L   { lineto } bind def
/M   { moveto } bind def
/RM  { rmoveto } bind def
/RL  { rlineto } bind def
/CP  { closepath } bind def
/ST  { stroke } bind def
/GS  { gsave } bind def
/GR  { grestore } bind def
/SG  { setgray } bind def
/CIR { 4 0 360 arc ST } bind def
/SQR { M 4 4 RM -8 0 RL 0 -8 RL 8 0 RL CP ST } bind def
/TRI { M 0 3.46 RM 4 -8 RL -8 0 RL CP ST } bind def
/CRO { M 0 4 RM 0 -8 RL 4 4 RM -8 0 RL ST } bind def
/STA { M 0 4 RM 0 -8 RL 4 4 RM -8 0 RL
       1.17 2.83 RM 5.66 -5.66 RL 0 5.66 RM -5.66 -5.66 RL ST } bind def
/DIA { M 0 5.66 RM 5.66 -5.66 RL -5.66 -5.66 RL -5.66 5.66 RL CP ST } bind def
/DOT { 1 0 360 arc fill } bind def
%%EndProlog
%% BeginObject: AtPlotter
GS
50 50 M 50 240 L 480 240 L 480 50 L CP clip newpath
%%BeginObject: AtPlotter legend
GS
GS 10 /Helvetica F (Legend) 421 164 S GR
GS [ 1 ] 0 setdash 0.5 setlinewidth
395 152 M 16 0 rlineto ST GR
GS 10 /Helvetica F (sinus-points) 417 149 S GR
GS [ 3 2 1 2] 0 setdash 0.5 setlinewidth
395 140 M 16 0 rlineto ST GR
GS 10 /Helvetica F (cosinus-points) 417 137 S GR
GS [ ] 0 setdash 0.5 setlinewidth
395 128 M 16 0 rlineto ST GR
GS 10 /Helvetica F (polygon) 417 125 S GR
GR
%%EndObject AtPlotter legend
%% BeginObject: AtAxisCore
GS 0.75 setlinewidth [ ] 0 setdash
89 88 M 389 88 L
89 240 M 389 240 L
89 83 M 89 88 L
239 83 M 239 88 L
389 83 M 389 88 L
134 86 M 134 88 L
160 86 M 160 88 L
179 86 M 179 88 L
193 86 M 193 88 L
205 86 M 205 88 L
215 86 M 215 88 L
224 86 M 224 88 L
232 86 M 232 88 L
284 86 M 284 88 L
310 86 M 310 88 L
329 86 M 329 88 L
343 86 M 343 88 L
355 86 M 355 88 L
365 86 M 365 88 L
374 86 M 374 88 L
382 86 M 382 88 L
ST GR
GS 0.3 setlinewidth [ ] 0 setdash
89 88 M 89 240 L
239 88 M 239 240 L
389 88 M 389 240 L
ST GR
GS 0.15 setlinewidth [ 1 ] 0 setdash
134 88 M 134 240 L
160 88 M 160 240 L
179 88 M 179 240 L
193 88 M 193 240 L
205 88 M 205 240 L
215 88 M 215 240 L
224 88 M 224 240 L
232 88 M 232 240 L
284 88 M 284 240 L
310 88 M 310 240 L
329 88 M 329 240 L
343 88 M 343 240 L
355 88 M 355 240 L
365 88 M 365 240 L
374 88 M 374 240 L
382 88 M 382 240 L
ST GR
GS 8 /Helvetica F (0.1) 89 71 S GR
GS 8 /Helvetica F (1) 237 71 S GR
GS 8 /Helvetica F (10) 381 71 S GR
GS 10 /Helvetica F (Time) 228 58 S GR

%% EndObject AtAxisCore
%% BeginObject: AtAxisCore
GS 0.75 setlinewidth [ ] 0 setdash
89 88 M 89 240 L
389 88 M 389 240 L
89 164 M 389 164 L
84 88 M 89 88 L
84 126 M 89 126 L
84 164 M 89 164 L
84 202 M 89 202 L
84 240 M 89 240 L
87 88 M 89 88 L
87 92 M 89 92 L
87 97 M 89 97 L
87 102 M 89 102 L
87 107 M 89 107 L
87 111 M 89 111 L
87 116 M 89 116 L
87 121 M 89 121 L
87 126 M 89 126 L
87 130 M 89 130 L
87 135 M 89 135 L
87 140 M 89 140 L
87 145 M 89 145 L
87 149 M 89 149 L
87 154 M 89 154 L
87 159 M 89 159 L
87 164 M 89 164 L
87 168 M 89 168 L
87 173 M 89 173 L
87 178 M 89 178 L
87 183 M 89 183 L
87 187 M 89 187 L
87 192 M 89 192 L
87 197 M 89 197 L
87 202 M 89 202 L
87 206 M 89 206 L
87 211 M 89 211 L
87 216 M 89 216 L
87 221 M 89 221 L
87 225 M 89 225 L
87 230 M 89 230 L
87 235 M 89 235 L
87 240 M 89 240 L
ST GR
GS 0.3 setlinewidth [ ] 0 setdash
89 88 M 389 88 L
89 126 M 389 126 L
89 164 M 389 164 L
89 202 M 389 202 L
89 240 M 389 240 L
ST GR
GS 0.15 setlinewidth [ 1 ] 0 setdash
89 92 M 389 92 L
89 97 M 389 97 L
89 102 M 389 102 L
89 107 M 389 107 L
89 111 M 389 111 L
89 116 M 389 116 L
89 121 M 389 121 L
89 130 M 389 130 L
89 135 M 389 135 L
89 140 M 389 140 L
89 145 M 389 145 L
89 149 M 389 149 L
89 154 M 389 154 L
89 159 M 389 159 L
89 168 M 389 168 L
89 173 M 389 173 L
89 178 M 389 178 L
89 183 M 389 183 L
89 187 M 389 187 L
89 192 M 389 192 L
89 197 M 389 197 L
89 206 M 389 206 L
89 211 M 389 211 L
89 216 M 389 216 L
89 221 M 389 221 L
89 225 M 389 225 L
89 230 M 389 230 L
89 235 M 389 235 L
ST GR
GS 8 /Helvetica F (-4) 71 88 S GR
GS 8 /Helvetica F (-2) 71 123 S GR
GS 8 /Helvetica F (0) 71 161 S GR
GS 8 /Helvetica F (2) 71 199 S GR
GS 8 /Helvetica F (4) 71 235 S GR
GS 90 rotate 10 /Helvetica F (Amplitude) 142 -63 S GR

%% EndObject AtAxisCore
%BeginObject: AtXYLinePlot
GS
89 88 M 89 240 L 389 240 L 389 88 L CP clip newpath
[ 1 ] 0 setdash 0.5 setlinewidth
103 172 M 179 189 L
213 205 L
235 218 L
252 226 L
265 230 L
276 229 L
285 223 L
293 212 L
301 198 L
307 181 L
313 163 L
319 145 L
324 128 L
328 114 L
333 104 L
337 98 L
341 97 L
344 101 L
348 110 L
351 123 L
354 139 L
357 156 L
360 175 L
ST
GR
% EndObject
%BeginObject: AtXYLinePlot
GS
89 88 M 89 240 L 389 240 L 389 88 L CP clip newpath
[ 3 2 1 2] 0 setdash 0.5 setlinewidth
103 214 M 179 210 L
213 203 L
235 193 L
252 181 L
265 167 L
276 153 L
285 140 L
293 129 L
301 120 L
307 115 L
313 113 L
319 115 L
324 120 L
328 129 L
333 141 L
337 154 L
341 168 L
344 181 L
348 194 L
351 204 L
354 211 L
357 214 L
360 214 L
ST
GR
% EndObject
%BeginObject: AtXYLinePlot
GS
89 88 M 89 240 L 389 240 L 389 88 L CP clip newpath
[ ] 0 setdash 0.5 setlinewidth
239 183 M 343 240 L
374 221 L
355 126 L
310 107 L
239 183 L
ST
GR
% EndObject
GR
%%EndObject AtPlotter
showpage
