%!PS-Adobe-2.0
%%Title: Widget Profits
%%Creator: the Athena Tools plotter widget
%%CreationDate: Fri Jul  3 12:53:33 1992
%%For: klin
%%BoundingBox: 0 0 400 250
%%Pages: 1
%%EndComments
/F   { findfont exch scalefont setfont } bind def
/S   {moveto show } bind def
/L   { lineto } bind def
/M   { moveto } bind def
/RM  { rmoveto } bind def
/RL  { rlineto } bind def
/CP  { closepath } bind def
/ST  { stroke } bind def
/GS  { gsave } bind def
/GR  { grestore } bind def
/SG  { setgray } bind def
/CIR { 4 0 360 arc ST } bind def
/SQR { M 4 4 RM -8 0 RL 0 -8 RL 8 0 RL CP ST } bind def
/TRI { M 0 3.46 RM 4 -8 RL -8 0 RL CP ST } bind def
/CRO { M 0 4 RM 0 -8 RL 4 4 RM -8 0 RL ST } bind def
/STA { M 0 4 RM 0 -8 RL 4 4 RM -8 0 RL
       1.17 2.83 RM 5.66 -5.66 RL 0 5.66 RM -5.66 -5.66 RL ST } bind def
/DIA { M 0 5.66 RM 5.66 -5.66 RL -5.66 -5.66 RL -5.66 5.66 RL CP ST } bind def
/DOT { 1 0 360 arc fill } bind def
%%EndProlog
%% BeginObject: AtPlotter
GS
0 0 M 0 250 L 400 250 L 400 0 L CP clip newpath
GS 14 /Helvetica F (Widget Sales & Profits) 106 240 S GR
%%BeginObject: AtPlotter legend
GS
GS 10 /Helvetica F (Legend) 357 136 S GR
GS  348 131 M 16 0 RL 0 -9 RL -16 0 RL CP  0.7 SG  fill GR
GS 10 /Helvetica F (Volume) 367 124 S GR
GS 2 setlinewidth 348 115 M 16 0 rlineto ST GR
GS 10 /Helvetica F (Profit) 367 112 S GR
GR
%%EndObject AtPlotter legend
%% BeginObject: AtAxisCore
GS 0.75 setlinewidth [ ] 0 setdash
52 38 M 300 38 L
52 234 M 300 234 L
52 38 M 52 234 L
52 33 M 52 38 L
93 33 M 93 38 L
134 33 M 134 38 L
176 33 M 176 38 L
217 33 M 217 38 L
258 33 M 258 38 L
300 33 M 300 38 L
52 36 M 52 38 L
60 36 M 60 38 L
68 36 M 68 38 L
76 36 M 76 38 L
85 36 M 85 38 L
93 36 M 93 38 L
101 36 M 101 38 L
109 36 M 109 38 L
118 36 M 118 38 L
126 36 M 126 38 L
134 36 M 134 38 L
142 36 M 142 38 L
151 36 M 151 38 L
159 36 M 159 38 L
167 36 M 167 38 L
176 36 M 176 38 L
184 36 M 184 38 L
192 36 M 192 38 L
200 36 M 200 38 L
209 36 M 209 38 L
217 36 M 217 38 L
225 36 M 225 38 L
233 36 M 233 38 L
242 36 M 242 38 L
250 36 M 250 38 L
258 36 M 258 38 L
266 36 M 266 38 L
275 36 M 275 38 L
283 36 M 283 38 L
291 36 M 291 38 L
300 36 M 300 38 L
ST GR
GS 0.3 setlinewidth [ ] 0 setdash
52 38 M 52 234 L
93 38 M 93 234 L
134 38 M 134 234 L
176 38 M 176 234 L
217 38 M 217 234 L
258 38 M 258 234 L
300 38 M 300 234 L
ST GR
GS 8 /Helvetica F (0) 52 21 S GR
GS 8 /Helvetica F (10) 89 21 S GR
GS 8 /Helvetica F (20) 130 21 S GR
GS 8 /Helvetica F (30) 172 21 S GR
GS 8 /Helvetica F (40) 213 21 S GR
GS 8 /Helvetica F (50) 254 21 S GR
GS 8 /Helvetica F (60) 292 21 S GR
GS 10 /Helvetica F (Week Number) 145 8 S GR

%% EndObject AtAxisCore
%% BeginObject: AtAxisCore
GS 0.75 setlinewidth [ ] 0 setdash
52 38 M 52 234 L
300 38 M 300 234 L
52 38 M 300 38 L
47 38 M 52 38 L
47 77 M 52 77 L
47 116 M 52 116 L
47 155 M 52 155 L
47 194 M 52 194 L
47 234 M 52 234 L
50 38 M 52 38 L
50 42 M 52 42 L
50 47 M 52 47 L
50 52 M 52 52 L
50 57 M 52 57 L
50 62 M 52 62 L
50 67 M 52 67 L
50 72 M 52 72 L
50 77 M 52 77 L
50 82 M 52 82 L
50 87 M 52 87 L
50 91 M 52 91 L
50 96 M 52 96 L
50 101 M 52 101 L
50 106 M 52 106 L
50 111 M 52 111 L
50 116 M 52 116 L
50 121 M 52 121 L
50 126 M 52 126 L
50 131 M 52 131 L
50 136 M 52 136 L
50 140 M 52 140 L
50 145 M 52 145 L
50 150 M 52 150 L
50 155 M 52 155 L
50 160 M 52 160 L
50 165 M 52 165 L
50 170 M 52 170 L
50 175 M 52 175 L
50 180 M 52 180 L
50 185 M 52 185 L
50 189 M 52 189 L
50 194 M 52 194 L
50 199 M 52 199 L
50 204 M 52 204 L
50 209 M 52 209 L
50 214 M 52 214 L
50 219 M 52 219 L
50 224 M 52 224 L
50 229 M 52 229 L
50 234 M 52 234 L
ST GR
GS 0.3 setlinewidth [ ] 0 setdash
52 38 M 300 38 L
52 77 M 300 77 L
52 116 M 300 116 L
52 155 M 300 155 L
52 194 M 300 194 L
52 234 M 300 234 L
ST GR
GS 8 /Helvetica F (0.0) 21 38 S GR
GS 8 /Helvetica F (20.0) 21 74 S GR
GS 8 /Helvetica F (40.0) 21 113 S GR
GS 8 /Helvetica F (60.0) 21 152 S GR
GS 8 /Helvetica F (80.0) 21 191 S GR
GS 8 /Helvetica F (100.0) 21 229 S GR
GS 90 rotate 10 /Helvetica F (Profit \($1,000's\)) 101 -13 S GR

%% EndObject AtAxisCore
%% BeginObject: AtAxisCore
GS 0.75 setlinewidth [ ] 0 setdash
300 38 M 300 234 L
52 38 M 52 234 L
300 38 M 52 38 L
300 38 M 305 38 L
300 77 M 305 77 L
300 116 M 305 116 L
300 155 M 305 155 L
300 194 M 305 194 L
300 234 M 305 234 L
300 38 M 302 38 L
300 45 M 302 45 L
300 53 M 302 53 L
300 61 M 302 61 L
300 69 M 302 69 L
300 77 M 302 77 L
300 85 M 302 85 L
300 92 M 302 92 L
300 100 M 302 100 L
300 108 M 302 108 L
300 116 M 302 116 L
300 124 M 302 124 L
300 132 M 302 132 L
300 139 M 302 139 L
300 147 M 302 147 L
300 155 M 302 155 L
300 163 M 302 163 L
300 171 M 302 171 L
300 179 M 302 179 L
300 186 M 302 186 L
300 194 M 302 194 L
300 202 M 302 202 L
300 210 M 302 210 L
300 218 M 302 218 L
300 226 M 302 226 L
300 234 M 302 234 L
ST GR
GS 8 /Helvetica F ( 0.0) 311 38 S GR
GS 8 /Helvetica F ( 1.0) 311 74 S GR
GS 8 /Helvetica F ( 2.0) 311 113 S GR
GS 8 /Helvetica F ( 3.0) 311 152 S GR
GS 8 /Helvetica F ( 4.0) 311 191 S GR
GS 8 /Helvetica F ( 5.0) 311 229 S GR
GS 90 rotate 10 /Helvetica F (Volume Shipped \(1,000s\)) 80 -337 S GR

%% EndObject AtAxisCore
%BeginObject: BarPlot
GS
56 38 M 56 224 L 60 224 L 60 38 L CP  0.7 SG  fill
60 38 M 60 189 L 64 189 L 64 38 L CP  0.7 SG  fill
64 38 M 64 137 L 68 137 L 68 38 L CP  0.7 SG  fill
68 38 M 68 136 L 72 136 L 72 38 L CP  0.7 SG  fill
72 38 M 72 102 L 76 102 L 76 38 L CP  0.7 SG  fill
76 38 M 76 192 L 80 192 L 80 38 L CP  0.7 SG  fill
80 38 M 80 185 L 85 185 L 85 38 L CP  0.7 SG  fill
85 38 M 85 121 L 89 121 L 89 38 L CP  0.7 SG  fill
89 38 M 89 89 L 93 89 L 93 38 L CP  0.7 SG  fill
93 38 M 93 131 L 97 131 L 97 38 L CP  0.7 SG  fill
97 38 M 97 120 L 101 120 L 101 38 L CP  0.7 SG  fill
101 38 M 101 225 L 105 225 L 105 38 L CP  0.7 SG  fill
105 38 M 105 223 L 109 223 L 109 38 L CP  0.7 SG  fill
109 38 M 109 208 L 114 208 L 114 38 L CP  0.7 SG  fill
114 38 M 114 142 L 118 142 L 118 38 L CP  0.7 SG  fill
118 38 M 118 166 L 122 166 L 122 38 L CP  0.7 SG  fill
122 38 M 122 224 L 126 224 L 126 38 L CP  0.7 SG  fill
126 38 M 126 142 L 130 142 L 130 38 L CP  0.7 SG  fill
130 38 M 130 133 L 134 133 L 134 38 L CP  0.7 SG  fill
134 38 M 134 144 L 138 144 L 138 38 L CP  0.7 SG  fill
138 38 M 138 133 L 142 133 L 142 38 L CP  0.7 SG  fill
142 38 M 142 134 L 147 134 L 147 38 L CP  0.7 SG  fill
147 38 M 147 130 L 151 130 L 151 38 L CP  0.7 SG  fill
151 38 M 151 200 L 155 200 L 155 38 L CP  0.7 SG  fill
155 38 M 155 149 L 159 149 L 159 38 L CP  0.7 SG  fill
159 38 M 159 224 L 163 224 L 163 38 L CP  0.7 SG  fill
163 38 M 163 175 L 167 175 L 167 38 L CP  0.7 SG  fill
167 38 M 167 213 L 171 213 L 171 38 L CP  0.7 SG  fill
171 38 M 171 153 L 176 153 L 176 38 L CP  0.7 SG  fill
176 38 M 176 131 L 180 131 L 180 38 L CP  0.7 SG  fill
180 38 M 180 148 L 184 148 L 184 38 L CP  0.7 SG  fill
184 38 M 184 224 L 188 224 L 188 38 L CP  0.7 SG  fill
188 38 M 188 185 L 192 185 L 192 38 L CP  0.7 SG  fill
192 38 M 192 216 L 196 216 L 196 38 L CP  0.7 SG  fill
196 38 M 196 88 L 200 88 L 200 38 L CP  0.7 SG  fill
200 38 M 200 112 L 204 112 L 204 38 L CP  0.7 SG  fill
204 38 M 204 124 L 209 124 L 209 38 L CP  0.7 SG  fill
209 38 M 209 198 L 213 198 L 213 38 L CP  0.7 SG  fill
213 38 M 213 196 L 217 196 L 217 38 L CP  0.7 SG  fill
217 38 M 217 77 L 221 77 L 221 38 L CP  0.7 SG  fill
221 38 M 221 170 L 225 170 L 225 38 L CP  0.7 SG  fill
225 38 M 225 117 L 229 117 L 229 38 L CP  0.7 SG  fill
229 38 M 229 191 L 233 191 L 233 38 L CP  0.7 SG  fill
233 38 M 233 161 L 238 161 L 238 38 L CP  0.7 SG  fill
238 38 M 238 204 L 242 204 L 242 38 L CP  0.7 SG  fill
242 38 M 242 174 L 246 174 L 246 38 L CP  0.7 SG  fill
246 38 M 246 114 L 250 114 L 250 38 L CP  0.7 SG  fill
250 38 M 250 82 L 254 82 L 254 38 L CP  0.7 SG  fill
254 38 M 254 105 L 258 105 L 258 38 L CP  0.7 SG  fill
258 38 M 258 88 L 262 88 L 262 38 L CP  0.7 SG  fill
262 38 M 262 164 L 266 164 L 266 38 L CP  0.7 SG  fill
266 38 M 266 200 L 271 200 L 271 38 L CP  0.7 SG  fill
GR
% EndObject
%BeginObject: AtLinePlot
GS
2 setlinewidth 56 129 M 60 61 L
64 120 L
68 80 L
72 45 L
76 57 L
80 150 L
85 70 L
89 60 L
93 90 L
97 55 L
101 93 L
105 120 L
109 115 L
114 88 L
118 104 L
122 88 L
126 85 L
130 80 L
134 104 L
138 79 L
142 118 L
147 95 L
151 126 L
155 114 L
159 196 L
163 59 L
167 164 L
171 120 L
176 99 L
180 133 L
184 86 L
188 107 L
192 82 L
196 78 L
200 82 L
204 78 L
209 85 L
213 73 L
217 64 L
221 107 L
225 86 L
229 67 L
233 101 L
238 127 L
242 113 L
246 79 L
250 59 L
254 58 L
258 83 L
262 100 L
266 104 L
ST
GR
% EndObject
GR
%%EndObject AtPlotter
showpage
