%!PS-Adobe-2.0
%%Title: Sample Plot
%%Creator: the Athena Tools plotter widget
%%CreationDate: Mon Jul  6 15:14:43 1992
%%For: klin
%%BoundingBox: 50 50 480 320
%%Pages: 1
%%EndComments
/F   { findfont exch scalefont setfont } bind def
/S   {moveto show } bind def
/L   { lineto } bind def
/M   { moveto } bind def
/RM  { rmoveto } bind def
/RL  { rlineto } bind def
/CP  { closepath } bind def
/ST  { stroke } bind def
/GS  { gsave } bind def
/GR  { grestore } bind def
/SG  { setgray } bind def
/RECT { M -2 -2 RM 0 4 RL 4 0 RL 0 -4 RL -4 0 RL} bind def
/PLUS { M -2 0 RM 4 0 RL -2 -2 RM 0 4 RL } bind def
/XMRK { M -2 -2 RM 4 4 RL 0 -4 RM -4 4 RL } bind def
/STAR { M -2 -2 RM 4 4 RL 0 -4 RM -4 -4 RL 2 0 RM 0 -4 RL -2 2 RM 4 0 RL } bind def
/DIAM { M -2 -0 RM 2 2 RL 2 -2 RL -2 -2 RL -2 2 RL } bind def
/TRI1 { M -2 -2 RM 4 0 RL -2 4 RL -2 -4 RL } bind def
/TRI2 { M -2 2 RM 4 0 RL -2 -4 RL -2 4 RL } bind def
/TRI3 { M 2 2 RM 0 -4 RL -4 2 RL 4 2 RL } bind def
/TRI4 { M -2 2 RM 0 -4 RL 4 2 RL -4 -2 RL } bind def
%%EndProlog
%% BeginObject: AtPlotter
GS
50 50 M 50 320 L 480 320 L 480 50 L CP clip newpath
GS 14 /Helvetica F (Plotter Widget Demo) 184 310 S GR
%% BeginObject: AtPlotter legend
GS
GS 10 /Helvetica F (Legend) 430 204 S GR
GS [ ] 0 setdash 2 setlinewidth
414 192 M 16 0 RL
ST
GR
GS 10 /Helvetica F (test-data1) 436 189 S GR
GS [ ] 0 setdash 0.5 setlinewidth
422 180 TRI1
ST
[ 2 ] 0 setdash 0.5 setlinewidth
414 180 M 16 0 RL
ST
GR
GS 10 /Helvetica F (test-data2) 436 177 S GR
GS [ ] 0 setdash 0.5 setlinewidth
414 168 M 16 0 RL
ST
GR
GS 10 /Helvetica F (test-data3) 436 165 S GR
GR
%% EndObject AtPlotter legend
%% BeginObject: AtAxisCore
GS 0.75 setlinewidth [ ] 0 setdash
89 88 M 408 88 L
89 301 M 408 301 L
89 83 M 89 88 L
248 83 M 248 88 L
408 83 M 408 88 L
137 86 M 137 88 L
165 86 M 165 88 L
185 86 M 185 88 L
200 86 M 200 88 L
213 86 M 213 88 L
223 86 M 223 88 L
233 86 M 233 88 L
241 86 M 241 88 L
296 86 M 296 88 L
324 86 M 324 88 L
344 86 M 344 88 L
359 86 M 359 88 L
372 86 M 372 88 L
383 86 M 383 88 L
392 86 M 392 88 L
400 86 M 400 88 L
ST GR
GS 0.3 setlinewidth [ ] 0 setdash
89 88 M 89 301 L
248 88 M 248 301 L
408 88 M 408 301 L
ST GR
GS 0.15 setlinewidth [ 1 ] 0 setdash
137 88 M 137 301 L
165 88 M 165 301 L
185 88 M 185 301 L
200 88 M 200 301 L
213 88 M 213 301 L
223 88 M 223 301 L
233 88 M 233 301 L
241 88 M 241 301 L
296 88 M 296 301 L
324 88 M 324 301 L
344 88 M 344 301 L
359 88 M 359 301 L
372 88 M 372 301 L
383 88 M 383 301 L
392 88 M 392 301 L
400 88 M 400 301 L
ST GR
GS 8 /Helvetica F (0.1) 89 71 S GR
GS 8 /Helvetica F (1) 246 71 S GR
GS 8 /Helvetica F (10) 400 71 S GR
GS 10 /Helvetica F (Time) 237 58 S GR

%% EndObject AtAxisCore
%% BeginObject: AtAxisCore
GS 0.75 setlinewidth [ ] 0 setdash
89 88 M 89 301 L
408 88 M 408 301 L
89 194 M 408 194 L
84 88 M 89 88 L
84 123 M 89 123 L
84 159 M 89 159 L
84 194 M 89 194 L
84 230 M 89 230 L
84 265 M 89 265 L
84 301 M 89 301 L
87 88 M 89 88 L
87 92 M 89 92 L
87 96 M 89 96 L
87 101 M 89 101 L
87 105 M 89 105 L
87 110 M 89 110 L
87 114 M 89 114 L
87 119 M 89 119 L
87 123 M 89 123 L
87 127 M 89 127 L
87 132 M 89 132 L
87 136 M 89 136 L
87 141 M 89 141 L
87 145 M 89 145 L
87 150 M 89 150 L
87 154 M 89 154 L
87 159 M 89 159 L
87 163 M 89 163 L
87 167 M 89 167 L
87 172 M 89 172 L
87 176 M 89 176 L
87 181 M 89 181 L
87 185 M 89 185 L
87 190 M 89 190 L
87 194 M 89 194 L
87 198 M 89 198 L
87 203 M 89 203 L
87 207 M 89 207 L
87 212 M 89 212 L
87 216 M 89 216 L
87 221 M 89 221 L
87 225 M 89 225 L
87 230 M 89 230 L
87 234 M 89 234 L
87 238 M 89 238 L
87 243 M 89 243 L
87 247 M 89 247 L
87 252 M 89 252 L
87 256 M 89 256 L
87 261 M 89 261 L
87 265 M 89 265 L
87 269 M 89 269 L
87 274 M 89 274 L
87 278 M 89 278 L
87 283 M 89 283 L
87 287 M 89 287 L
87 292 M 89 292 L
87 296 M 89 296 L
87 301 M 89 301 L
ST GR
GS 0.3 setlinewidth [ ] 0 setdash
89 88 M 408 88 L
89 123 M 408 123 L
89 159 M 408 159 L
89 194 M 408 194 L
89 230 M 408 230 L
89 265 M 408 265 L
89 301 M 408 301 L
ST GR
GS 0.15 setlinewidth [ 1 ] 0 setdash
89 92 M 408 92 L
89 96 M 408 96 L
89 101 M 408 101 L
89 105 M 408 105 L
89 110 M 408 110 L
89 114 M 408 114 L
89 119 M 408 119 L
89 127 M 408 127 L
89 132 M 408 132 L
89 136 M 408 136 L
89 141 M 408 141 L
89 145 M 408 145 L
89 150 M 408 150 L
89 154 M 408 154 L
89 163 M 408 163 L
89 167 M 408 167 L
89 172 M 408 172 L
89 176 M 408 176 L
89 181 M 408 181 L
89 185 M 408 185 L
89 190 M 408 190 L
89 198 M 408 198 L
89 203 M 408 203 L
89 207 M 408 207 L
89 212 M 408 212 L
89 216 M 408 216 L
89 221 M 408 221 L
89 225 M 408 225 L
89 234 M 408 234 L
89 238 M 408 238 L
89 243 M 408 243 L
89 247 M 408 247 L
89 252 M 408 252 L
89 256 M 408 256 L
89 261 M 408 261 L
89 269 M 408 269 L
89 274 M 408 274 L
89 278 M 408 278 L
89 283 M 408 283 L
89 287 M 408 287 L
89 292 M 408 292 L
89 296 M 408 296 L
ST GR
GS 8 /Helvetica F (-6) 71 88 S GR
GS 8 /Helvetica F (-4) 71 120 S GR
GS 8 /Helvetica F (-2) 71 156 S GR
GS 8 /Helvetica F (0) 71 191 S GR
GS 8 /Helvetica F (2) 71 227 S GR
GS 8 /Helvetica F (4) 71 262 S GR
GS 8 /Helvetica F (6) 71 296 S GR
GS 90 rotate 10 /Helvetica F (Amplitude) 172 -63 S GR

%% EndObject AtAxisCore
%% BeginObject: AtXYLinePlot
GS
89 88 M 89 301 L 408 301 L 408 88 L CP clip newpath
[ ] 0 setdash 2 setlinewidth
-708 194 M -708 194 L
-708 194 L
-708 194 L
-708 194 L
-708 194 L
57 194 L
104 194 L
132 194 L
152 194 L
168 194 L
180 195 L
191 195 L
200 195 L
208 195 L
216 195 L
222 196 L
228 196 L
234 196 L
239 196 L
244 196 L
248 196 L
253 196 L
256 196 L
260 196 L
264 196 L
267 196 L
270 195 L
273 195 L
276 195 L
279 194 L
282 193 L
285 193 L
287 192 L
290 191 L
292 189 L
294 188 L
296 187 L
298 185 L
301 184 L
303 182 L
305 180 L
306 179 L
308 177 L
310 175 L
312 173 L
314 171 L
315 169 L
317 167 L
318 165 L
320 162 L
321 160 L
ST
321 160 M 323 158 L
324 157 L
326 155 L
327 153 L
329 151 L
330 150 L
331 149 L
333 148 L
334 147 L
335 146 L
336 146 L
338 146 L
339 146 L
340 146 L
341 147 L
342 148 L
343 149 L
344 151 L
345 153 L
346 156 L
348 158 L
349 162 L
350 165 L
351 169 L
352 173 L
353 178 L
353 183 L
354 188 L
355 194 L
356 200 L
357 206 L
358 212 L
359 219 L
360 226 L
361 233 L
362 241 L
362 248 L
363 256 L
364 263 L
365 271 L
366 279 L
366 286 L
367 294 L
368 301 L
369 308 L
369 315 L
370 322 L
371 328 L
ST
GR
%% EndObject
%% BeginObject: AtXYLinePlot
GS
89 88 M 89 301 L 408 301 L 408 88 L CP clip newpath
[ ] 0 setdash 0.5 setlinewidth
-708 198 TRI1
-708 201 TRI1
-708 204 TRI1
-708 207 TRI1
-708 210 TRI1
-708 212 TRI1
-708 214 TRI1
-708 217 TRI1
-708 219 TRI1
-708 220 TRI1
-708 222 TRI1
-708 223 TRI1
-708 224 TRI1
-708 225 TRI1
-708 226 TRI1
-708 226 TRI1
-708 226 TRI1
-708 226 TRI1
-708 226 TRI1
-708 226 TRI1
-708 225 TRI1
-708 225 TRI1
-708 224 TRI1
-708 223 TRI1
-708 222 TRI1
-708 221 TRI1
ST
-708 219 TRI1
-708 218 TRI1
-708 217 TRI1
-708 215 TRI1
-708 214 TRI1
-708 212 TRI1
-708 211 TRI1
-708 209 TRI1
-708 208 TRI1
-708 206 TRI1
-708 205 TRI1
-708 203 TRI1
-708 202 TRI1
-708 201 TRI1
-708 199 TRI1
-708 198 TRI1
-708 197 TRI1
-708 196 TRI1
-708 196 TRI1
-708 195 TRI1
-708 195 TRI1
-708 194 TRI1
-708 194 TRI1
-708 194 TRI1
57 194 TRI1
104 194 TRI1
ST
132 195 TRI1
152 195 TRI1
168 196 TRI1
180 196 TRI1
191 197 TRI1
200 198 TRI1
208 199 TRI1
216 201 TRI1
222 202 TRI1
228 203 TRI1
234 205 TRI1
239 206 TRI1
244 208 TRI1
248 209 TRI1
253 211 TRI1
256 212 TRI1
260 214 TRI1
264 215 TRI1
267 217 TRI1
270 218 TRI1
273 219 TRI1
276 221 TRI1
279 222 TRI1
282 223 TRI1
285 224 TRI1
287 225 TRI1
ST
290 225 TRI1
292 226 TRI1
294 226 TRI1
296 226 TRI1
298 226 TRI1
301 226 TRI1
303 226 TRI1
305 225 TRI1
306 224 TRI1
308 223 TRI1
310 222 TRI1
312 220 TRI1
314 219 TRI1
315 217 TRI1
317 214 TRI1
318 212 TRI1
320 210 TRI1
321 207 TRI1
323 204 TRI1
324 201 TRI1
326 198 TRI1
327 194 TRI1
329 191 TRI1
330 187 TRI1
331 183 TRI1
333 179 TRI1
ST
334 175 TRI1
335 171 TRI1
336 167 TRI1
338 163 TRI1
339 159 TRI1
340 155 TRI1
341 151 TRI1
342 147 TRI1
343 143 TRI1
344 139 TRI1
345 135 TRI1
346 132 TRI1
348 129 TRI1
349 125 TRI1
350 123 TRI1
351 120 TRI1
352 117 TRI1
353 115 TRI1
353 113 TRI1
354 112 TRI1
355 110 TRI1
356 109 TRI1
357 109 TRI1
358 109 TRI1
359 109 TRI1
360 109 TRI1
ST
361 110 TRI1
362 111 TRI1
362 113 TRI1
363 115 TRI1
364 117 TRI1
365 120 TRI1
366 123 TRI1
366 127 TRI1
367 131 TRI1
368 135 TRI1
369 139 TRI1
369 144 TRI1
370 150 TRI1
371 155 TRI1
372 161 TRI1
372 167 TRI1
373 173 TRI1
374 180 TRI1
375 187 TRI1
ST
[ 2 ] 0 setdash 0.5 setlinewidth
-708 194 M -708 198 L
-708 201 L
-708 204 L
-708 207 L
-708 210 L
-708 212 L
-708 214 L
-708 217 L
-708 219 L
-708 220 L
-708 222 L
-708 223 L
-708 224 L
-708 225 L
-708 226 L
-708 226 L
-708 226 L
-708 226 L
-708 226 L
-708 226 L
-708 225 L
-708 225 L
-708 224 L
-708 223 L
-708 222 L
-708 221 L
-708 219 L
-708 218 L
-708 217 L
-708 215 L
-708 214 L
-708 212 L
-708 211 L
-708 209 L
-708 208 L
-708 206 L
-708 205 L
-708 203 L
-708 202 L
-708 201 L
-708 199 L
-708 198 L
-708 197 L
-708 196 L
-708 196 L
-708 195 L
-708 195 L
-708 194 L
-708 194 L
-708 194 L
57 194 L
ST
57 194 M 104 194 L
132 195 L
152 195 L
168 196 L
180 196 L
191 197 L
200 198 L
208 199 L
216 201 L
222 202 L
228 203 L
234 205 L
239 206 L
244 208 L
248 209 L
253 211 L
256 212 L
260 214 L
264 215 L
267 217 L
270 218 L
273 219 L
276 221 L
279 222 L
282 223 L
285 224 L
287 225 L
290 225 L
292 226 L
294 226 L
296 226 L
298 226 L
301 226 L
303 226 L
305 225 L
306 224 L
308 223 L
310 222 L
312 220 L
314 219 L
315 217 L
317 214 L
318 212 L
320 210 L
321 207 L
323 204 L
324 201 L
326 198 L
327 194 L
329 191 L
330 187 L
ST
330 187 M 331 183 L
333 179 L
334 175 L
335 171 L
336 167 L
338 163 L
339 159 L
340 155 L
341 151 L
342 147 L
343 143 L
344 139 L
345 135 L
346 132 L
348 129 L
349 125 L
350 123 L
351 120 L
352 117 L
353 115 L
353 113 L
354 112 L
355 110 L
356 109 L
357 109 L
358 109 L
359 109 L
360 109 L
361 110 L
362 111 L
362 113 L
363 115 L
364 117 L
365 120 L
366 123 L
366 127 L
367 131 L
368 135 L
369 139 L
369 144 L
370 150 L
371 155 L
372 161 L
372 167 L
373 173 L
374 180 L
375 187 L
ST
GR
%% EndObject
%% BeginObject: AtXYLinePlot
GS
89 88 M 89 301 L 408 301 L 408 88 L CP clip newpath
[ ] 0 setdash 0.5 setlinewidth
263 231 M 265 226 L 265 194 L 265 226 M
267 221 L 267 194 L 267 221 M
269 216 L 269 194 L 269 216 M
272 211 L 272 194 L 272 211 M
274 206 L 274 194 L 274 206 M
276 202 L 276 194 L 276 202 M
278 197 L 278 194 L 278 197 M
280 193 L 280 194 L 280 193 M
281 189 L 281 194 L 281 189 M
283 186 L 283 194 L 283 186 M
285 182 L 285 194 L 285 182 M
287 179 L 287 194 L 287 179 M
288 176 L 288 194 L 288 176 M
290 174 L 290 194 L 290 174 M
292 171 L 292 194 L 292 171 M
293 169 L 293 194 L 293 169 M
295 167 L 295 194 L 295 167 M
296 166 L 296 194 L 296 166 M
298 164 L 298 194 L 298 164 M
299 163 L 299 194 L 299 163 M
301 163 L 301 194 L 301 163 M
302 162 L 302 194 L 302 162 M
303 162 L 303 194 L 303 162 M
305 162 L 305 194 L 305 162 M
306 162 L 306 194 L 306 162 M
307 163 L 307 194 L 307 163 M
309 163 L 309 194 L 309 163 M
310 164 L 310 194 L 310 164 M
311 165 L 311 194 L 311 165 M
312 167 L 312 194 L 312 167 M
313 168 L 313 194 L 313 168 M
315 169 L 315 194 L 315 169 M
316 171 L 316 194 L 316 171 M
317 173 L 317 194 L 317 173 M
318 175 L 318 194 L 318 175 M
319 177 L 319 194 L 319 177 M
320 179 L 320 194 L 320 179 M
321 181 L 321 194 L 321 181 M
322 183 L 322 194 L 322 183 M
323 185 L 323 194 L 323 185 M
324 187 L 324 194 L 324 187 M
325 189 L 325 194 L 325 189 M
326 191 L 326 194 L 326 191 M
327 193 L 327 194 L 327 193 M
328 195 L 328 194 L 328 195 M
329 197 L 329 194 L 329 197 M
330 199 L 330 194 L 330 199 M
331 201 L 331 194 L 331 201 M
332 203 L 332 194 L 332 203 M
333 204 L 333 194 L 333 204 M
333 206 L 333 194 L 333 206 M
ST
333 206 M 334 207 L 334 194 L 334 207 M
335 208 L 335 194 L 335 208 M
336 209 L 336 194 L 336 209 M
337 210 L 337 194 L 337 210 M
338 211 L 338 194 L 338 211 M
338 212 L 338 194 L 338 212 M
339 212 L 339 194 L 339 212 M
340 213 L 340 194 L 340 213 M
341 213 L 341 194 L 341 213 M
342 213 L 342 194 L 342 213 M
342 213 L 342 194 L 342 213 M
343 213 L 343 194 L 343 213 M
344 212 L 344 194 L 344 212 M
345 212 L 345 194 L 345 212 M
345 211 L 345 194 L 345 211 M
346 211 L 346 194 L 346 211 M
347 210 L 347 194 L 347 210 M
348 209 L 348 194 L 348 209 M
348 208 L 348 194 L 348 208 M
349 207 L 349 194 L 349 207 M
350 206 L 350 194 L 350 206 M
350 204 L 350 194 L 350 204 M
351 203 L 351 194 L 351 203 M
352 202 L 352 194 L 352 202 M
352 200 L 352 194 L 352 200 M
353 199 L 353 194 L 353 199 M
354 198 L 354 194 L 354 198 M
354 196 L 354 194 L 354 196 M
355 195 L 355 194 L 355 195 M
356 194 L 356 194 L 356 194 M
356 192 L 356 194 L 356 192 M
357 191 L 357 194 L 357 191 M
357 190 L 357 194 L 357 190 M
358 189 L 358 194 L 358 189 M
359 187 L 359 194 L 359 187 M
359 186 L 359 194 L 359 186 M
360 185 L 360 194 L 360 185 M
360 184 L 360 194 L 360 184 M
361 184 L 361 194 L 361 184 M
362 183 L 362 194 L 362 183 M
362 182 L 362 194 L 362 182 M
363 182 L 363 194 L 363 182 M
363 181 L 363 194 L 363 181 M
364 181 L 364 194 L 364 181 M
364 181 L 364 194 L 364 181 M
365 181 L 365 194 L 365 181 M
366 181 L 366 194 L 366 181 M
366 181 L 366 194 L 366 181 M
367 181 L 367 194 L 367 181 M
367 181 L 367 194 L 367 181 M
368 181 L 368 194 L 368 181 M
ST
368 181 M 368 182 L 368 194 L 368 182 M
369 182 L 369 194 L 369 182 M
369 183 L 369 194 L 369 183 M
370 184 L 370 194 L 370 184 M
370 184 L 370 194 L 370 184 M
371 185 L 371 194 L 371 185 M
371 186 L 371 194 L 371 186 M
372 187 L 372 194 L 372 187 M
372 188 L 372 194 L 372 188 M
373 189 L 373 194 L 373 189 M
373 190 L 373 194 L 373 190 M
374 191 L 374 194 L 374 191 M
374 192 L 374 194 L 374 192 M
375 193 L 375 194 L 375 193 M
375 194 L 375 194 L 375 194 M
376 195 L 376 194 L 376 195 M
376 196 L 376 194 L 376 196 M
ST
GR
%% EndObject
GR
%% EndObject AtPlotter
showpage
