.\"     groff -me Title.me
.\"
.\"     Title.me
.\"     Title page for the At Plotter Widget Set V6.0
.\"
.\"     SCCSID = @(#) Title.me (V6.0) Thu Aug  6 09:11:05 1992
.\"
.\"     Peter Klingebiel, University of Paderborn
.\"
.\"     Copyright 1992 by University of Paderborn
.\"
.fp 1 HR
.fp 3 HB
.m1 2v
.m2 2v
.m3 2v
.m4 2v
.ll 6.5i
.pl 11.5i
.ce 100
.nf
.hl
.sp 7
.ft 3
.ps 16
Using The AthenaTools Plotter Widget Set
.sp 2
.ft 1
.ps 12
Version 6.0
.sp
July 1992
.sp 4
.nf
.ps 10
Peter Klingebiel
University of Paderborn
(klin@iat.uni-paderborn.de)
.sp
Based on 'Using The AthenaTools Plotter Widget Set' Version 5
by Gregory Bond
Burdett, Buckeridge & Yound Ltd.
(gnb@bby.oz.au)
.ce 0
.sp 4
.PSPIC Title.eps
.sp 4
.hl
