/* XPM */
static char *noname[] = {
/* width height ncolors chars_per_pixel */
"47 19 16 1",
/* colors */
"` c #39393B",
"a c #D6D6D8",
"b c #F9F9F7",
"c c #565657",
"d c #464647",
"e c #E3E3E4",
"f c #141415",
"g c #666668",
"h c #9B9B9C",
"i c #7D7D7B",
"j c #C9C9CB",
"k c #292927",
"l c #020204",
"m c #AEAEAC",
"n c #89898B",
"o c #B5B5B5",
/* pixels */
"eeeeeeeeeeeeeeeeeeeeeeeeeeeeeeeeeeeeeeeeeeeeeei",
"eeeeeeeeeeeeeeeeeeeeeeeeeeeeeeeeeeeeeeeeeeeeeii",
"eemmmmmmmmmmmmmmmmmmmmmmmmmmmmmmmmmmmmmmmmmmmii",
"eemmmmmmmmmmmmmmmmmmmmmmmmmmmmmmmmmmmmmmmmmmmii",
"eemmmmmiiimmmmmmmmmmmmmmmmmmmmmmmmmmmmmnhmmmmii",
"eemmmnfkddfhmmmmmmmmmmmmmmmmmmmmmmmmmmm`iommmii",
"eemmmfgbeei`ommmmmmmmmmmmmmmmmmmmmmmmmm`hjmmmii",
"eemmnfbammhnemdllkhmgdllkmmgllkhmiflkhm`hjmmmii",
"eemmidbmmmmoji`ab`ho`kab`hnfobcghfobmfo`hjmmmii",
"eemmidemmmmmmmjoifhj`hem`hdgbomehkhiilb`hjmmmii",
"eemmnfemmmmlmif`gkhj`hjm`hdhammm`kddddb`hjmmmii",
"eemmmfnmmmgkb`nbedhj`hjm`hcgjmigi`eejde`hjmmmii",
"eemmmilk`kfoed`d`l`j`hjm`hof``lhafd`fce`hjmmmii",
"eemmmmomhhebommhojmenjjmnjjohhjbjmhhobanjjmmmii",
"eemmmmmojjjmmmmjjjojmjommjommjjommmjjjmmjommmii",
"eemmmmmmmmmmmmmmmmmmmmmmmmmmmmmmmmmmmmmmmmmmmii",
"eemmmmmmmmmmmmmmmmmmmmmmmmmmmmmmmmmmmmmmmmmmmii",
"eeiiiiiiiiiiiiiiiiiiiiiiiiiiiiiiiiiiiiiiiiiiiii",
"eiiiiiiiiiiiiiiiiiiiiiiiiiiiiiiiiiiiiiiiiiiiiii"
};
