/* XPM */
static char *noname[] = {
/* width height ncolors chars_per_pixel */
"47 19 16 1",
/* colors */
"` c #272726",
"a c #3A3A3B",
"b c #E3E3E4",
"c c #A2A2A4",
"d c #161617",
"e c #525254",
"f c #B6B6B6",
"g c #424244",
"h c #F8F8F6",
"i c #C9C9CB",
"j c #020204",
"k c #99999B",
"l c #AEAEAC",
"m c #7E7E7C",
"n c #888889",
"o c #747472",
/* pixels */
"bbbbbbbbbbbbbbbbbbbbbbbbbbbbbbbbbbbbbbbbbbbbbbm",
"bbbbbbbbbbbbbbbbbbbbbbbbbbbbbbbbbbbbbbbbbbbbbmm",
"bblllllllllllllllllllllllllllllllllllllllllllmm",
"bblllllllllllllllllllllllllllllllllllllllllllmm",
"bbllllllllllllllnoollllnklllkolllllllllllllllmm",
"bbllllllllllllk`dggjollamflkdmillllllllllllllmm",
"bbllllllllllll`ahhbidnlakikdmhillllllllllllllmm",
"bblllllllllllkdhblllmaiakfdmhilllllllllllllllmm",
"bbllllllllllloahllllljhamddhillllllllllllllllmm",
"bblllllllllllogbllllljhadfeolllllllllllllllllmm",
"bblllllllllllkdblllln`hakhcdkllllllllllllllllmm",
"bbllllllllllll`olllkdkhakilmdflllllllllllllllmm",
"bbllllllllllllkada`dmhiakillgefllllllllllllllmm",
"bblllllllllllllffckhhilniillkkbllllllllllllllmm",
"bbllllllllllllllliiilllliflllfillllllllllllllmm",
"bblllllllllllllllllllllllllllllllllllllllllllmm",
"bblllllllllllllllllllllllllllllllllllllllllllmm",
"bbmmmmmmmmmmmmmmmmmmmmmmmmmmmmmmmmmmmmmmmmmmmmm",
"bmmmmmmmmmmmmmmmmmmmmmmmmmmmmmmmmmmmmmmmmmmmmmm"
};
