/* XPM */
static char *noname[] = {
/* width height ncolors chars_per_pixel */
"47 19 16 1",
/* colors */
"` c #585856",
"a c #E2E2E4",
"b c #9C9C9E",
"c c #8A8A89",
"d c #7D7D7B",
"e c #2A2A29",
"f c #3A3A3C",
"g c #FCFCFA",
"h c #CBCBCD",
"i c #141416",
"j c #E8E8E6",
"k c #474748",
"l c #C1C1C3",
"m c #020204",
"n c #646464",
"o c #AEAEAC",
/* pixels */
"dddddddddddddddddddddddddddddddddddddddddddddda",
"dddddddddddddddddddddddddddddddddddddddddddddaa",
"ddoooooooooooooooooooooooooooooooooooooooooooaa",
"ddoooooooooooooooooooooooooooooooooooooooooooaa",
"ddooooocddddbooooooooooooooooooooooooooooooooaa",
"ddooooofekkkmcooooooooooooooooooooofoooooooooaa",
"ddooooofbjjjd`loooooooooooooooooooomjooooooooaa",
"ddooooofbhoodkjokmmkoodimebobemidommmooooooooaa",
"ddooooofncddibjnfag`nomogcloedjaibomggoooooooaa",
"ddoooooffkkkialf`bdkkaiddohlmbcdeblmgooooooooaa",
"ddooooofbjjjnbomkkkkdjbckmddmdkkklhmgooooooooaa",
"ddooooofbhooddhfcjjbdbfohb`hmaajnolmgooooooooaa",
"ddooooofbhoodehcikfmbhikficjkffeialmdooooooooaa",
"ddooooochhoobcjoobbhglobboghoobbjgocoaoooooooaa",
"ddoooooolooooohooohhoooohhlooolhhooolhoooooooaa",
"ddoooooooooooooooooooooooooooooooooooooooooooaa",
"ddoooooooooooooooooooooooooooooooooooooooooooaa",
"ddaaaaaaaaaaaaaaaaaaaaaaaaaaaaaaaaaaaaaaaaaaaaa",
"daaaaaaaaaaaaaaaaaaaaaaaaaaaaaaaaaaaaaaaaaaaaaa"
};
