/* XPM */
static char *noname[] = {
/* width height ncolors chars_per_pixel */
"16 16 4 1",
/* colors */
"` c #666664",
"a c #D2D2D4",
"b c #929294",
"c c #AEAEAC",
/* pixels */
"````````````````",
"b`bbbbbbbbbbbbba",
"b```bbbbbbbbbbba",
"b`cc``bbbbbbbbba",
"b`cccc``bbbbbbba",
"b`cccccc``bbbbba",
"b`cccccccc``bbba",
"b`cccccccccc``ba",
"b`ccccccccccaaba",
"b`ccccccccaabbba",
"b`ccccccaabbbbba",
"b`ccccaabbbbbbba",
"b`ccaabbbbbbbbba",
"b`aabbbbbbbbbbba",
"babbbbbbbbbbbbba",
"aaaaaaaaaaaaaaaa"
};
