/* XPM */
static char *noname[] = {
/* width height ncolors chars_per_pixel */
"16 16 4 1",
/* colors */
"` c #666664",
"a c #D2D2D4",
"b c #929294",
"c c #AEAEAC",
/* pixels */
"````````````````",
"babbbbbbbbbbbbba",
"baaabbbbbbbbbbba",
"baccaabbbbbbbbba",
"baccccaabbbbbbba",
"baccccccaabbbbba",
"baccccccccaabbba",
"baccccccccccaaba",
"bacccccccccc``ba",
"bacccccccc``bbba",
"bacccccc``bbbbba",
"bacccc``bbbbbbba",
"bacc``bbbbbbbbba",
"ba``bbbbbbbbbbba",
"b`bbbbbbbbbbbbba",
"aaaaaaaaaaaaaaaa"
};
