[symbol2]
bbox 32 32 480 320
uniq 4
[tools]
[attributes]
p 32 0 100 0 1 setCc:cc $(top)cc:
[layers]
<symbol>
l 100 0 0 192 64 flamCcTop
r 0 32 32 480 320
[comments]
RCS: $Name:  $ $Id: flamCcTop.sym,v 0.0 2004/10/04 18:05:31 hon Developmental $
