[symbol2]
bbox 32 32 288 224
port 192 176 100 0 TIMEOUT symbol 2 288 176 0
port 192 80 100 0 RUNNING symbol 2 288 80 0
port 48 176 100 0 START symbol 1 32 176 0
port 48 80 100 0 STOP symbol 1 32 80 0
uniq 135
[tools]
[attributes]
p 32 -32 100 0 1 setTimeout:timeout XXX
p 32 0 100 0 1 setTimer:timer XXX
[layers]
<symbol>
l 100 0 0 100 123 flamTimer
r 0 32 32 288 224
[comments]
RCS: $Name:  $ $Id: flamTimer.sym,v 0.0 2004/10/04 18:05:31 hon Developmental $
