%!PS-Adobe-2.0
%%Title: rpc.ps
%%Creator: PostScript ImageStream Driver by Matt Heffron of Beckman Instruments
%%CreationDate: 12-Jun-90 14:19:47
%%For: drc:
%%EndComments
/s /show load def
/mto /moveto load def
/ellipsedict 9 dict def
ellipsedict /mtrx matrix put
/ellipse
 { ellipsedict begin
  /endangle exch def
  /startangle exch def
  /orientation exch def
  /minorrad exch def
  /majorrad exch def
  /y exch def
  /x exch def
  /savematrix mtrx currentmatrix def
  x y translate
  orientation rotate
  majorrad minorrad scale
  0 0 1 startangle endangle arc
  savematrix setmatrix
 end } bind def
/concatprocs
 {/proc2 exch cvlit def
  /proc1 exch cvlit def
  /newproc proc1 length proc2 length add array def
  newproc 0 proc1 putinterval
  newproc proc1 length proc2 putinterval
  newproc cvx
 } bind def
/resmatrix matrix def
/findresolution
 {72 0 resmatrix defaultmatrix dtransform
  /yres exch def /xres exch def
  xres dup mul yres dup mul add sqrt
 } bind def
/thebitimage
 {/maskp exch def
  /bihgt exch def
  /biwid exch def
  /strbuf biwid 8 div ceiling cvi string def
  {1 exch sub} currenttransfer concatprocs settransfer
  biwid bihgt
  maskp { false } { 1 } ifelse
  [biwid 0 0 bihgt 0 0]
  { currentfile strbuf readhexstring pop }
  maskp { imagemask } { image } ifelse
 } bind def
/setuserscreendict 22 dict def
setuserscreendict begin
 /tempctm matrix def
 /temprot matrix def
 /tempscale matrix def
end
/setuserscreen
 {setuserscreendict begin
   /spotfunction exch def
   /screenangle exch def
   /cellsize exch def
   /m tempctm currentmatrix def
   /rm screenangle temprot rotate def
   /sm cellsize dup tempscale scale def
   sm rm m m concatmatrix m concatmatrix pop
   1 0 m dtransform /y1 exch def /x1 exch def
   /veclength x1 dup mul y1 dup mul add sqrt def
   /frequency findresolution veclength div def
   /newscreenangle y1 x1 atan def
   m 2 get m 1 get mul m 0 get m 3 get mul sub
   0 gt { { neg } /spotfunction load concatprocs
          /spotfunction exch def } if
   frequency newscreenangle /spotfunction load setscreen
  end
 } bind def
/setpatterndict 18 dict def
setpatterndict begin
 /bitison
  {/ybit exch def /xbit exch def
   /bytevalue bstring ybit bwidth mul xbit 8 idiv add get def
   /mask 1 7 xbit 8 mod sub bitshift def
   bytevalue mask and 0 ne
  } bind def
end
/bitpatternspotfunction
 {setpatterndict begin
   /y exch def /x exch def
   /xindex x 1 add 2 div bpside mul cvi def
   /yindex y 1 add 2 div bpside mul cvi def
   xindex yindex bitison
    {/onbits onbits 1 add def 1}
    {/offbits offbits 1 add def 0} ifelse
  end
 } bind def
/setpattern
 {setpatterndict begin
   /cellsz exch def
   /angle exch def
   /bwidth exch def
   /bpside exch def
   /bstring exch def
   /onbits 0 def /offbits 0 def
   cellsz angle /bitpatternspotfunction load setuserscreen
   {} settransfer
   offbits offbits onbits add div setgray
  end
 } bind def
%%EndProlog
%%BeginSetup
clippath pathbbox
/ymax exch def /xmax exch def /ymin exch def /xmin exch def
/imagesizefactor 1.0 def
%%EndSetup

/Courier findfont 800 scalefont setfont

%%BeginPageSetup
xmin ymin translate
0.01 imagesizefactor mul 0.01 imagesizefactor mul scale
%%EndPageSetup
/savepage save def
newpath 0.0 0.0 mto 57600.0 0 rlineto 0 78624.0 rlineto -57600 0 rlineto closepath
 clip newpath

/Courier findfont 800 scalefont setfont
 0.0 77940 mto
 initclip newpath 0.0 0.0 moveto 57600 0 rlineto 0 78624 rlineto -57600 0 rlineto closepath
 clip newpath 30966 3600 mto

/Helvetica findfont 1000 scalefont setfont
 (235) show  32634 3600 mto
 8400 74400 mto

/Times-Bold findfont 2400 scalefont setfont
 (en\267v) show  12840 74400 mto

/Times-Bold findfont 1800 scalefont setfont
 12990 74400 mto
 (\305) show  12840 74400 mto
 (o) show  13740 74400 mto

/Times-Bold findfont 2400 scalefont setfont
 (s) show  14674 74400 mto

/Helvetica findfont 600 scalefont setfont
 0.0 0.0 mto
 14674 74400 mto
 51889 74400 mto
 51889 74400 mto

/Helvetica findfont 1000 scalefont setfont
 (RPC) show  54000 74400 mto
 8400 73586 mto

gsave newpath 200 setlinewidth 0 setlinecap 8400 73686 mto 54000 73686 lineto stroke
grestore 54000 73686 mto  54000 73586 mto
 54000 73586 mto
 22200 69199 mto

gsave newpath 400 setlinewidth 0 setlinecap 22200 69399 mto 39600 69399 lineto stroke
grestore 39600 69399 mto  39600 69199 mto
 39600 69199 mto
 22200 68699 mto

gsave newpath 100 setlinewidth 0 setlinecap 22200 68749 mto 39600 68749 lineto stroke
grestore 39600 68749 mto  39600 68699 mto
 39600 68699 mto
 29634 66571 mto

/Helvetica-Bold findfont 1200 scalefont setfont
 (RPC) show  32166 66571 mto
 22901 64178 mto
 (SUN REMOTE PROCEDURE) show  38898 64178 mto
 28901 62385 mto
 (CALLS) show  32899 62385 mto
 22200 61020 mto

gsave newpath 100 setlinewidth 0 setlinecap 22200 61070 mto 39600 61070 lineto stroke
grestore 39600 61070 mto  39600 61020 mto
 39600 61020 mto
 22200 60220 mto

gsave newpath 400 setlinewidth 0 setlinecap 22200 60420 mto 39600 60420 lineto stroke
grestore 39600 60420 mto  39600 60220 mto
 39600 60220 mto
 28532 57180 mto

/Helvetica findfont 1000 scalefont setfont
 (By:  JFinger) show  33867 57180 mto
 9428 53919 mto
 (Supported by Atty Mullins \(Mullins.pa@Xerox.com\) and  Bill Van Melle \(vanMelle.pa@Xerox.com\).) show  52971 53919 mto
 8400 51658 mto
 (This document last edited on August 1, 1988.) show  28467 51658 mto

/Helvetica-Bold findfont 1000 scalefont setfont
 28467 51658 mto
 8400 49697 mto
 (INTRODUCTION) show  16066 49697 mto

/Helvetica findfont 1000 scalefont setfont
 16066 49697 mto
 8400 47736 mto
 (This module implements SUN remote procedure calls as specified in the Remote Procedure Call) 228.84615 0 32 4 -1 roll widthshow  53999 47736 mto
 8400 46475 mto
 (Protocol Specification. The syntax is oriented toward Lisp users, differing greatly from Sun's C-like) 173.15384 0 32 4 -1 roll widthshow  53999 46475 mto
 8400 45214 mto
 (syntax.) show  11568 45214 mto
 8400 43253 mto

/Helvetica-Bold findfont 1000 scalefont setfont
 (RPC2 Package) show  15403 43253 mto
 8400 41992 mto

/Helvetica findfont 1000 scalefont setfont
 (All functions and variables mentioned in this document are defined  as external variables in the) 249.79999 0 32 4 -1 roll widthshow  53999 41992 mto
 8400 40731 mto
 (package RPC2, unless otherwise stated.) show  26408 40731 mto
 8400 38770 mto
 ( ) show  8678 38770 mto

/Helvetica-Bold findfont 1000 scalefont setfont
 (REMOTE PROCEDURE DEFINITITION) show  26457 38770 mto
 8400 37509 mto

/Helvetica findfont 1000 scalefont setfont
 (Remote programs are defined via calls to define-remote-program.) show  37410 37509 mto
 8400 36348 mto

/Helvetica-Bold findfont 1000 scalefont setfont
 8400 36348 mto
 8400 34887 mto

/Helvetica findfont 1000 scalefont setfont
 (define-remote-program ) show  22800 34887 mto
 (name number version  protocol &key :constants) show  0.0 0.0 mto
 43920 34887 mto
 44400 34887 mto
 ([Function] ) show  49069 34887 mto
 22800 33726 mto
 (:types :inherits  :procedures ) show  35361 33726 mto
 8400 32265 mto
 8400 32265 mto
 8400 30804 mto
 (      ) show  0.0 0.0 mto
 10068 30804 mto
 22800 30804 mto
 (Defines parameters and result types of the procedures of remote) 286.2222 0 32 4 -1 roll widthshow  53999 30804 mto
 22800 29643 mto
 (program \(number, version,  protocol\) . If successful, returns name,) 212.44444 0 32 4 -1 roll widthshow  53999 29643 mto
 22800 28482 mto
 (otherwise nil.) show  28635 28482 mto
 8400 27021 mto
 (name) show  0.0 0.0 mto
 10901 27021 mto
 22800 27021 mto
 (a string  or symbol that may be used by other procedures \(for) 344.41663 0 32 4 -1 roll widthshow  53999 27021 mto
 22800 25860 mto
 (example, remote-procedure-call\) to uniquely specify this remote) 504.0 0 32 4 -1 roll widthshow  54000 25860 mto
 22800 24699 mto
 (program.  ) show  27357 24699 mto
 8400 23238 mto
 (number) show  0.0 0.0 mto
 11790 23238 mto
 22800 23238 mto
 (is the program number of this program on the remote machine. As) 178.72726 0 32 4 -1 roll widthshow  53999 23238 mto
 22800 22077 mto
 (specified in  Sun's Remote Procedure Call  Programming Guide,) 298.88892 0 32 4 -1 roll widthshow  53999 22077 mto
 22800 20916 mto
 (programs 0 - #x1fffffff are defined by Sun, #x20000000 - #x3fffffff are) 72.1818 0 32 4 -1 roll widthshow  53999 20916 mto
 22800 19755 mto
 (reserved for  users, and #x40000000  - #x5ffffff are designated as) 198.54546 0 32 4 -1 roll widthshow  53999 19755 mto
 22800 18594 mto
 (transient.) show  26913 18594 mto
 8400 17133 mto
 (version) show  0.0 0.0 mto
 11623 17133 mto
 22800 17133 mto
 (a number, is the desired version of  remote program.) show  46087 17133 mto
 8400 15672 mto
 (protocol) show  0.0 0.0 mto
 11957 15672 mto
 22800 15672 mto
 (an atom,UDP or TCP.\(   At the moment TCP is not  supported under) 72.92858 0 32 4 -1 roll widthshow  53999 15672 mto
 22800 14511 mto
 (Medley 1.0-S\). ) show  29580 14511 mto
 8400 13050 mto
 (constants) show  0.0 0.0 mto
 12680 13050 mto
 22800 13050 mto
 (a list  of pairs \(<constant-name> <constant-def>\), where) 907.8571 0 32 4 -1 roll widthshow  53999 13050 mto
 22800 11889 mto
 (<constant-name> is a symbol and a <constant-def> is an XDR) 403.44446 0 32 4 -1 roll widthshow  53999 11889 mto
 22800 10728 mto
 (constant \(See XDR  Constant Definitions  below\) .) show  44920 10728 mto

/Courier findfont 800 scalefont setfont

 savepage restore
showpage
%%BeginPageSetup
xmin ymin translate
0.01 imagesizefactor mul 0.01 imagesizefactor mul scale
%%EndPageSetup
/savepage save def
newpath 0.0 0.0 mto 57600 0 rlineto 0 78624 rlineto -57600 0 rlineto closepath
 clip newpath

/Courier findfont 800 scalefont setfont
 0.0 77940 mto
 initclip newpath 0.0 0.0 moveto 57600 0 rlineto 0 78624 rlineto -57600 0 rlineto closepath
 clip newpath 30966 3600 mto

/Helvetica findfont 1000 scalefont setfont
 (236) show  32634 3600 mto
 8400 74400 mto

/Times-Bold findfont 2400 scalefont setfont
 (en\267v) show  12840 74400 mto

/Times-Bold findfont 1800 scalefont setfont
 12990 74400 mto
 (\305) show  12840 74400 mto
 (o) show  13740 74400 mto

/Times-Bold findfont 2400 scalefont setfont
 (s) show  14674 74400 mto

/Helvetica findfont 600 scalefont setfont
 0.0 0.0 mto
 14674 74400 mto
 51889 74400 mto
 51889 74400 mto

/Helvetica findfont 1000 scalefont setfont
 (RPC) show  54000 74400 mto
 8400 73586 mto

gsave newpath 200 setlinewidth 0 setlinecap 8400 73686 mto 54000 73686 lineto stroke
grestore 54000 73686 mto  54000 73586 mto
 54000 73586 mto
 8400 68659 mto
 (inherits) show  0.0 0.0 mto
 11623 68659 mto
 22800 68659 mto
 (a list of name 's of other remote programs from which types and) 247.24998 0 32 4 -1 roll widthshow  54000 68659 mto
 22800 67498 mto
 (constants are inherited. Inherited types and constants are resolved by) 38.999996 0 32 4 -1 roll widthshow  54000 67498 mto
 22800 66337 mto
 (searching this list in order.) show  34415 66337 mto
 8400 64876 mto
 (types) show  0.0 0.0 mto
 10790 64876 mto
 22800 64876 mto
 (a list of pairs \(<type-name> <typedef>\) , where a <type-name> is a) 148.18182 0 32 4 -1 roll widthshow  53999 64876 mto
 22800 63715 mto
 (symbol and a <typedef> is an XDR type definition \(defined below\).) show  52092 63715 mto
 8400 62254 mto
 (procedures) show  0.0 0.0 mto
 13402 62254 mto
 22800 62254 mto
 (a list of 4-tuples of the form \(<procname> <procnumber> <arg-types>) 57.666668 0 32 4 -1 roll widthshow  53999 62254 mto
 22800 61093 mto
 (<result-types>\), where <procname> is a symbol or string naming the) 107.33333 0 32 4 -1 roll widthshow  53999 61093 mto
 22800 59932 mto
 (procedure, <procnumber> is the procedure number on the remote) 259.375 0 32 4 -1 roll widthshow  54000 59932 mto
 22800 58771 mto
 (machine, <arg-types> is a  \(possibly empty\) list of XDR type) 469.1 0 32 4 -1 roll widthshow  53999 58771 mto
 22800 57610 mto
 (definitions \(see below\)  of the arguments to  be sent to the  remote) 128.2857 0 32 4 -1 roll widthshow  53999 57610 mto
 22800 56449 mto
 (procedure, and <result-types> is a \(possibly empty\) list of  XDR type) 92.909096 0 32 4 -1 roll widthshow  53999 56449 mto
 22800 55288 mto
 (definitions of data to be returned from this remote procedure.) show  49702 55288 mto
 8400 53427 mto

/Helvetica-Bold findfont 1000 scalefont setfont
 (XDR \(EXTERNAL DATA REPRESENTATION\) TYPE DEFINITIONS) show  38902 53427 mto
 8400 51466 mto

/Helvetica findfont 1000 scalefont setfont
 (Because the client and server machines may represent data in different ways, a data representation) 104.85713 0 32 4 -1 roll widthshow  53999 51466 mto
 8400 50205 mto
 (common to both machines is necessary Remote procedure calls pass data between machines in) 224.30771 0 32 4 -1 roll widthshow  53999 50205 mto
 8400 48944 mto
 ('External Data Representation' \(XDR\). The XDR language implemented here is oriented toward Lisp in) 23.461525 0 32 4 -1 roll widthshow  53999 48944 mto
 8400 47683 mto
 (its syntax and is not  identical  to the language spelled out in the Sun XDR Protocol Specification.) show  51311 47683 mto
 8400 45722 mto
 (XDR data types may be defined in the :types keyword argument  for later reference in the :types or) 112.44444 0 32 4 -1 roll widthshow  53999 45722 mto
 8400 44461 mto
 (:procedures of this or later remote programs. When a remote program is defined \(usually at load time\),) 22.5625 0 32 4 -1 roll widthshow  54000 44461 mto
 8400 43200 mto
 (the needed reading and writing functions are compiled for each constructed type referenced. Note that) 29.285713 0 32 4 -1 roll widthshow  53999 43200 mto
 8400 41939 mto
 (all XDR calls are eventually  resolved to a composition of Primitive and Constructed XDR Type) 253.86665 0 32 4 -1 roll widthshow  53999 41939 mto
 8400 40678 mto
 (Definitions \(see below\).) show  18792 40678 mto
 8400 38717 mto

/Helvetica-Bold findfont 1000 scalefont setfont
 (SYNTAX) show  12456 38717 mto
 8400 37456 mto

/Helvetica findfont 1000 scalefont setfont
 (The keywords of the XDR language may be specified as symbols of the   Keyword package. ) show  49363 37456 mto
 8400 35495 mto
 (All XDR Data Types Definitions \(notated here as a <typedef>\), used in Remote Procedure Calls are) 109.13334 0 32 4 -1 roll widthshow  53999 35495 mto
 8400 34234 mto
 (from the following language:) show  20906 34234 mto
 8400 32973 mto
 8400 32973 mto
 8400 31812 mto
 (1\) ) show  9567 31812 mto

/Helvetica-Bold findfont 1000 scalefont setfont
 (Primitive Definition) show  18680 31812 mto

/Helvetica findfont 1000 scalefont setfont
 (:) show  0.0 0.0 mto
 18958 31812 mto
 22800 31812 mto
 (One of the types in *xdr-primitive-types*,) show  40695 31812 mto
 22800 30651 mto
 (:integer) show  26135 30651 mto
 22800 29490 mto
 (:boolean) show  26636 29490 mto
 22800 28329 mto
 (:unsigned) show  27136 28329 mto
 22800 27168 mto
 (:hyperinteger) show  28636 27168 mto
 22800 26007 mto
 (:hyperunsigned) show  29637 26007 mto
 22800 24846 mto
 (:string) show  25523 24846 mto
 22800 23685 mto
 (:float \(not yet implemented\)) show  34916 23685 mto
 22800 22524 mto
 (:double \(not yet implemented\).) show  36306 22524 mto
 8400 20363 mto
 (2\) ) show  9567 20363 mto

/Helvetica-Bold findfont 1000 scalefont setfont
 (Constructed) show  15456 20363 mto

/Helvetica findfont 1000 scalefont setfont
 ( ) show  15734 20363 mto

/Helvetica-Bold findfont 1000 scalefont setfont
 (Definition) show  20345 20363 mto

/Helvetica findfont 1000 scalefont setfont
 (:) show  20623 20363 mto
 22800 19202 mto
 (One of the types in *xdr-constructed-types*,) show  42142 19202 mto
 22800 18041 mto
 (\(:enumeration) show  0.0 0.0 mto
 28969 18041 mto
 33600 18041 mto
 (\(<symbol-1> <constant-1>\) ... ) show  46995 18041 mto
 22800 16880 mto
 33600 16880 mto
 (\(<symbol-n> <constant-n>\) \)) show  46216 16880 mto
 22800 15719 mto
 (\(:union <enumeration-type> <typedef-1> ... <typedef-n>\)) show  47759 15719 mto
 22800 14558 mto
 (\(:fixed-array <typedef> <constant>\)) show  38419 14558 mto
 22800 13397 mto
 (\(:counted-array <typedef>\)) show  34639 13397 mto
 22800 12236 mto
 (\(:opaque <constant>\)) show  32306 12236 mto
 22800 11075 mto
 (\(:struct <defstruct-type>) show  0.0 0.0 mto
 33360 11075 mto
 33600 11075 mto
 (\(<field-name-1> <typedef-1>\) ... ) show  47996 11075 mto

/Courier findfont 800 scalefont setfont

 savepage restore
showpage
%%BeginPageSetup
xmin ymin translate
0.01 imagesizefactor mul 0.01 imagesizefactor mul scale
%%EndPageSetup
/savepage save def
newpath 0.0 0.0 mto 57600 0 rlineto 0 78624 rlineto -57600 0 rlineto closepath
 clip newpath

/Courier findfont 800 scalefont setfont
 0.0 77940 mto
 initclip newpath 0.0 0.0 moveto 57600 0 rlineto 0 78624 rlineto -57600 0 rlineto closepath
 clip newpath 30966 3600 mto

/Helvetica findfont 1000 scalefont setfont
 (237) show  32634 3600 mto
 8400 74400 mto

/Times-Bold findfont 2400 scalefont setfont
 (en\267v) show  12840 74400 mto

/Times-Bold findfont 1800 scalefont setfont
 12990 74400 mto
 (\305) show  12840 74400 mto
 (o) show  13740 74400 mto

/Times-Bold findfont 2400 scalefont setfont
 (s) show  14674 74400 mto

/Helvetica findfont 600 scalefont setfont
 0.0 0.0 mto
 14674 74400 mto
 51889 74400 mto
 51889 74400 mto

/Helvetica findfont 1000 scalefont setfont
 (RPC) show  54000 74400 mto
 8400 73586 mto

gsave newpath 200 setlinewidth 0 setlinecap 8400 73686 mto 54000 73686 lineto stroke
grestore 54000 73686 mto  54000 73586 mto
 54000 73586 mto
 22800 68659 mto
 33600 68659 mto
 0.0 0.0 mto
 33600 68659 mto
 39000 68659 mto
 (\(<field-name n> <typedef-n>\) \)) show  52562 68659 mto
 22800 67498 mto
 (\(:sequence <typedef>\)) show  32806 67498 mto
 22800 66337 mto
 (\(:list <typedef-1> ... <typedef-n>\).) show  37586 66337 mto
 22800 65176 mto
 22800 65176 mto
 8400 64015 mto
 (3\) ) show  9567 64015 mto

/Helvetica-Bold findfont 1000 scalefont setfont
 (Local Definition) show  17068 64015 mto

/Helvetica findfont 1000 scalefont setfont
 (:) show  0.0 0.0 mto
 17346 64015 mto
 22800 64015 mto
 (A symbol defined previously in the same remote program definition.) show  52645 64015 mto
 22800 61854 mto
 (Example:) show  0.0 0.0 mto
 26968 61854 mto
 30000 61854 mto
 (:types \(\(nrec :unsigned\)...\) says that type 'nrec' is) 316.28574 0 32 4 -1 roll widthshow  53999 61854 mto
 30000 60693 mto
 (really only of type ':unsigned'.) show  43117 60693 mto
 30000 59532 mto
 30000 59532 mto
 8400 57371 mto
 (4\) ) show  9567 57371 mto

/Helvetica-Bold findfont 1000 scalefont setfont
 (Qualified Definition) show  18735 57371 mto

/Helvetica findfont 1000 scalefont setfont
 (:) show  0.0 0.0 mto
 19013 57371 mto
 22800 57371 mto
 (A dotted pair of the form \(<RPC program name> . <type>\), where) 208.90909 0 32 4 -1 roll widthshow  53999 57371 mto
 22800 56210 mto
 (<type> is an XDR type local to <RPC program name>.) 208.90909 0 32 4 -1 roll widthshow  0.0 0.0 mto
 46866 56210 mto
 48000 56210 mto
 48000 56210 mto
 22800 54049 mto
 (Example:) show  0.0 0.0 mto
 26968 54049 mto
 30000 54049 mto
 (:types \(\(count \(myprog . nrec\)\)...\) says that a 'count' is) 11.444431 0 32 4 -1 roll widthshow  53999 54049 mto
 30000 52888 mto
 (really whatever myprog defines a 'nrec' to be.) show  50119 52888 mto
 8400 50727 mto
 (5\) ) show  9567 50727 mto

/Helvetica-Bold findfont 1000 scalefont setfont
 (Inherited Definition) show  18679 50727 mto

/Helvetica findfont 1000 scalefont setfont
 (:) show  0.0 0.0 mto
 18957 50727 mto
 22800 50727 mto
 (A symbol defined in the :types argument of a remote program R such) 52.58333 0 32 4 -1 roll widthshow  53999 50727 mto
 22800 49566 mto
 (that R is on the list of remote programs passed as the :inherits) 307.3333 0 32 4 -1 roll widthshow  53999 49566 mto
 22800 48405 mto
 (argument to the current remote program definition. The first such type) 40.89999 0 32 4 -1 roll widthshow  53999 48405 mto
 22800 47244 mto
 (definition found is used, that is, the list of inherited programs is) 325.09094 0 32 4 -1 roll widthshow  53999 47244 mto
 22800 46083 mto
 (scanned from left to right.) show  34083 46083 mto
 8400 44222 mto

/Helvetica-Bold findfont 1000 scalefont setfont
 (XDR CONSTANT DEFINITIONS) show  22956 44222 mto
 8400 42261 mto

/Helvetica findfont 1000 scalefont setfont
 (Constants in XDR are defined by the following grammar:) show  33354 42261 mto
 8400 41000 mto
 8400 41000 mto
 22800 39839 mto
 (<) show  23384 39839 mto

/Helvetica-Bold findfont 1000 scalefont setfont
 (constant-def) show  29384 39839 mto

/Helvetica findfont 1000 scalefont setfont
 (> ::= <) show  32248 39839 mto

/Helvetica-Bold findfont 1000 scalefont setfont
 (integer) show  35582 39839 mto

/Helvetica findfont 1000 scalefont setfont
 (> ) show  36444 39839 mto

/Helvetica-Bold findfont 1000 scalefont setfont
 (|) show  36724 39839 mto

/Helvetica findfont 1000 scalefont setfont
 ( <) show  37586 39839 mto

/Helvetica-Bold findfont 1000 scalefont setfont
 (defined-constant) show  45642 39839 mto

/Helvetica findfont 1000 scalefont setfont
 (>) show  46226 39839 mto
 22800 38678 mto
 22800 38678 mto
 22800 36517 mto
 (<) show  23384 36517 mto

/Helvetica-Bold findfont 1000 scalefont setfont
 (defined constant) show  31385 36517 mto

/Helvetica findfont 1000 scalefont setfont
 (> ::=) show  0.0 0.0 mto
 33387 36517 mto
 37200 36517 mto
 (<) show  37784 36517 mto

/Helvetica-Bold findfont 1000 scalefont setfont
 (locally defined constant) show  49176 36517 mto

/Helvetica findfont 1000 scalefont setfont
 (>) show  49760 36517 mto
 37200 35356 mto
 (; Defined in the Remote Program) 436.60004 0 32 4 -1 roll widthshow  53999 35356 mto
 37200 34195 mto
 (currently being defined.) show  47594 34195 mto
 37200 33034 mto
 37200 33034 mto
 37200 31873 mto

/Helvetica-Bold findfont 1000 scalefont setfont
 (|) show  37480 31873 mto

/Helvetica findfont 1000 scalefont setfont
 (  <) show  38620 31873 mto

/Helvetica-Bold findfont 1000 scalefont setfont
 (inherited constant) show  47288 31873 mto

/Helvetica findfont 1000 scalefont setfont
 (>) show  47872 31873 mto
 37200 30712 mto
 (; Defined in a remote program) 703.39996 0 32 4 -1 roll widthshow  53999 30712 mto
 37200 29551 mto
 (inherited by the current Remote) 698.5 0 32 4 -1 roll widthshow  54000 29551 mto
 37200 28390 mto
 (Program  \(searched from left to right\).) show  53872 28390 mto
 37200 27229 mto
 37200 27229 mto
 37200 26068 mto

/Helvetica-Bold findfont 1000 scalefont setfont
 (|) show  37480 26068 mto

/Helvetica findfont 1000 scalefont setfont
 (  <) show  38620 26068 mto

/Helvetica-Bold findfont 1000 scalefont setfont
 (qualified constant) show  47177 26068 mto

/Helvetica findfont 1000 scalefont setfont
 (>) show  47761 26068 mto
 37200 24907 mto
 (; A dotted pair \(<rp> . <constant>\),) 252.16667 0 32 4 -1 roll widthshow  53999 24907 mto
 37200 23746 mto
 (where <constant> is defined in) 809.25 0 32 4 -1 roll widthshow  54000 23746 mto
 37200 22585 mto
 (remote program <rp>.) show  46926 22585 mto
 8400 20724 mto

/Helvetica-Bold findfont 1000 scalefont setfont
 (SEMANTICS  ) show  14845 20724 mto
 8400 19463 mto

/Helvetica findfont 1000 scalefont setfont
 (An XDR type can be defined by a bidirectional filter mapping a subset of Lisp onto a byte stream and) 59.631584 0 32 4 -1 roll widthshow  53999 19463 mto
 8400 18202 mto
 (vice-versa.) show  13234 18202 mto
 8400 16241 mto
 (For  the XDR primitive type's filter, a description is given of its argument on the Lisp and XDR sides. ) show  52750 16241 mto
 8400 13980 mto
 (:integer) show  22800 13980 mto
 (Lisp:) show  0.0 0.0 mto
 24912 13980 mto
 26400 13980 mto
 (an integer in range -2,147,483,648 to 2,147,483,648 inclusive.) show  53917 13980 mto
 22800 12819 mto
 (XDR:) show  0.0 0.0 mto
 25189 12819 mto
 26400 12819 mto
 (a 4 byte two's complement integer, high order to low order.) show  52411 12819 mto

/Helvetica-Bold findfont 1000 scalefont setfont
 52411 12819 mto

/Courier findfont 800 scalefont setfont

 savepage restore
showpage
%%BeginPageSetup
xmin ymin translate
0.01 imagesizefactor mul 0.01 imagesizefactor mul scale
%%EndPageSetup
/savepage save def
newpath 0.0 0.0 mto 57600 0 rlineto 0 78624 rlineto -57600 0 rlineto closepath
 clip newpath

/Courier findfont 800 scalefont setfont
 0.0 77940 mto
 initclip newpath 0.0 0.0 moveto 57600 0 rlineto 0 78624 rlineto -57600 0 rlineto closepath
 clip newpath 30966 3600 mto

/Helvetica findfont 1000 scalefont setfont
 (238) show  32634 3600 mto
 8400 74400 mto

/Times-Bold findfont 2400 scalefont setfont
 (en\267v) show  12840 74400 mto

/Times-Bold findfont 1800 scalefont setfont
 12990 74400 mto
 (\305) show  12840 74400 mto
 (o) show  13740 74400 mto

/Times-Bold findfont 2400 scalefont setfont
 (s) show  14674 74400 mto

/Helvetica findfont 600 scalefont setfont
 0.0 0.0 mto
 14674 74400 mto
 51889 74400 mto
 51889 74400 mto

/Helvetica findfont 1000 scalefont setfont
 (RPC) show  54000 74400 mto
 8400 73586 mto

gsave newpath 200 setlinewidth 0 setlinecap 8400 73686 mto 54000 73686 lineto stroke
grestore 54000 73686 mto  54000 73586 mto
 54000 73586 mto
 8400 68659 mto
 (:unsigned) show  22800 68659 mto
 (Lisp:) show  0.0 0.0 mto
 24912 68659 mto
 26400 68659 mto
 (an integer in range 0 to 4,294,967,295 inclusive.) show  47746 68659 mto
 22800 67498 mto
 (XDR:) show  0.0 0.0 mto
 25189 67498 mto
 26400 67498 mto
 (a 4 byte non-negative integer, high order to low order.) show  50190 67498 mto
 8400 65337 mto
 (:boolean) show  12236 65337 mto

/Helvetica-Bold findfont 1000 scalefont setfont
 0.0 0.0 mto
 12236 65337 mto
 22800 65337 mto
 22800 65337 mto

/Helvetica findfont 1000 scalefont setfont
 (Lisp:  NIL for false, non-NIL for true. \(The Lisp symbol T is returned) show  52478 65337 mto
 22800 64176 mto
 (when decoding a 1 from the XDR side.\)) show  40252 64176 mto
 22800 63015 mto
 (XDR:) show  0.0 0.0 mto
 25189 63015 mto
 26400 63015 mto
 (0 for false, 1 for true.) show  35627 63015 mto
 8400 60854 mto
 (:hyperinteger) show  22800 60854 mto
 (Lisp: ) show  0.0 0.0 mto
 25190 60854 mto
 26400 60854 mto
 (an integer in range -\(263\)  to 263 -1 inclusive.) show  46576 60854 mto
 22800 59693 mto
 (XDR:) show  0.0 0.0 mto
 25189 59693 mto
 26400 59693 mto
 (a 8 byte two's complement integer, high order to low order.) show  52411 59693 mto

/Helvetica-Bold findfont 1000 scalefont setfont
 52411 59693 mto
 8400 57532 mto

/Helvetica findfont 1000 scalefont setfont
 (:hyperunsigned) show  22800 57532 mto
 (Lisp:) show  0.0 0.0 mto
 24912 57532 mto
 26400 57532 mto
 (an integer in range 0 to 264-1 inclusive.) show  43909 57532 mto
 22800 56371 mto
 (XDR:) show  0.0 0.0 mto
 25189 56371 mto
 26400 56371 mto
 (a 8 byte non-negative integer, high order to low order.) show  50190 56371 mto
 8400 54210 mto
 (:string) show  22800 54210 mto
 (Lisp:) show  0.0 0.0 mto
 24912 54210 mto
 26400 54210 mto
 (a string of any length.) show  35961 54210 mto
 22800 53049 mto
 (XDR: Suppose the string is of length n. The XDR representation is an) show  53481 53049 mto
 22800 51888 mto
 (:unsigned \(the string length n\) ,  followed by the n bytes of the string,) show  53094 51888 mto
 22800 50727 mto
 (followed by enough 0 bytes to make a multiple of 4 bytes. ) show  48480 50727 mto
 8400 48566 mto
 (:string-pointer) show  0.0 0.0 mto
 14513 48566 mto
 22800 48566 mto
 (\(UDP only\)) show  27689 48566 mto
 22800 47405 mto
 (Lisp: a dotted pair \(addr . nbytes\), where addr is a buffer's address) show  52258 47405 mto
 22800 46244 mto
 (and nbytes is the number of bytes in the buffer. \(Should I add an offset) show  53985 46244 mto
 22800 45083 mto
 (argument?\). This is a speed hack to avoid having to copy) show  48090 45083 mto
 22800 43922 mto
 (VMEMPAGEP's twice.) show  32802 43922 mto
 22800 42761 mto
 (XDR: An XDR :string, as above.) show  36972 42761 mto
 8400 40600 mto
 (:float) show  0.0 0.0 mto
 10568 40600 mto
 22800 40600 mto
 (Lisp: A floating point number. \(NOT YET IMPLEMENTED\).) show  48808 40600 mto
 22800 39439 mto
 (XDR: A  4 byte floating point number in IEEE format.) show  46033 39439 mto
 8400 37278 mto
 (:double ) show  0.0 0.0 mto
 11958 37278 mto
 22800 37278 mto
 (Lisp: A floating point number. \(NOT YET IMPLEMENTED\).) show  48808 37278 mto
 22800 36117 mto
 (XDR: A  double precision floating point number in IEEE format.) show  50590 36117 mto
 8400 33956 mto
 (:void ) show  0.0 0.0 mto
 10790 33956 mto
 22800 33956 mto
 (Lisp: null) show  26746 33956 mto
 22800 32795 mto
 (XDR: no bytes.) show  29525 32795 mto
 22800 30634 mto
 (For each constructed XDR type, the  declaration syntax is given along) show  53703 30634 mto
 22800 29473 mto
 (with its corresponding mapping.) show  36861 29473 mto
 8400 27312 mto
 (\(:enumeration \(<symbol> <integer>\) ... \(<symbol> <integer>\)\)) show  35578 27312 mto
 22800 26151 mto
 (Lisp: a symbol) show  29191 26151 mto
 22800 24990 mto
 (XDR: an XDR :integer.) show  32859 24990 mto
 22800 23829 mto
 (The Lisp symbol \(Each symbol is the "discriminant" for that value of) show  52576 23829 mto
 22800 22668 mto
 (the enumeration\) and the XDR integer will be from a corresponding) show  52479 22668 mto
 22800 21507 mto
 (pair in the declaration. It is an error to try to encode a symbol not in) show  52425 21507 mto
 22800 20346 mto
 (the declaration or to try to decode an XDR integer for which there is) show  52647 20346 mto
 22800 19185 mto
 (not a corresponding symbol in the declaration.) show  43254 19185 mto
 8400 17024 mto
 (\(:union <enumeration-type> \(<symbol-1> <typedef-1>\) ... \(<symbol-n> <typedef-n>\)\)) show  45695 17024 mto
 22800 15863 mto
 (Lisp: A list of two elements, the first being a discriminant for the) show  50756 15863 mto
 22800 14702 mto
 (enumeration type, and  the second the appropriate Lisp input/output) show  52818 14702 mto
 22800 13541 mto
 (for the typedef corresponding to that discriminant's type..) show  47923 13541 mto
 22800 12380 mto
 (XDR: An :integer discriminant followed by the XDR input/output for the) show  53869 12380 mto
 22800 11219 mto
 (typedef corresponding to that discriminant's type.) show  44532 11219 mto

/Courier findfont 800 scalefont setfont

 savepage restore
showpage
%%BeginPageSetup
xmin ymin translate
0.01 imagesizefactor mul 0.01 imagesizefactor mul scale
%%EndPageSetup
/savepage save def
newpath 0.0 0.0 mto 57600 0 rlineto 0 78624 rlineto -57600 0 rlineto closepath
 clip newpath

/Courier findfont 800 scalefont setfont
 0.0 77940 mto
 initclip newpath 0.0 0.0 moveto 57600 0 rlineto 0 78624 rlineto -57600 0 rlineto closepath
 clip newpath 30966 3600 mto

/Helvetica findfont 1000 scalefont setfont
 (239) show  32634 3600 mto
 8400 74400 mto

/Times-Bold findfont 2400 scalefont setfont
 (en\267v) show  12840 74400 mto

/Times-Bold findfont 1800 scalefont setfont
 12990 74400 mto
 (\305) show  12840 74400 mto
 (o) show  13740 74400 mto

/Times-Bold findfont 2400 scalefont setfont
 (s) show  14674 74400 mto

/Helvetica findfont 600 scalefont setfont
 0.0 0.0 mto
 14674 74400 mto
 51889 74400 mto
 51889 74400 mto

/Helvetica findfont 1000 scalefont setfont
 (RPC) show  54000 74400 mto
 8400 73586 mto

gsave newpath 200 setlinewidth 0 setlinecap 8400 73686 mto 54000 73686 lineto stroke
grestore 54000 73686 mto  54000 73586 mto
 54000 73586 mto
 8400 68659 mto
 (\(:fixed-array <typedef> <constant>\)) show  24019 68659 mto
 22800 67498 mto
 (Lisp: An array of length <constant>, each element of which is an) show  51204 67498 mto
 22800 66337 mto
 (object of type <typedefLisp>. Note that since the function elt is used in) show  53818 66337 mto
 22800 65176 mto
 (encoding, any Lisp sequence could be used in place of an array.) show  51316 65176 mto
 22800 64015 mto
 (XDR: A sequence of <constant>  objects of type <typedefXDR>.) show  51205 64015 mto
 8400 61854 mto
 (\(:counted-array <typedef>\)) show  20239 61854 mto
 22800 60693 mto
 (Lisp: A list of two elements, the first of which is an integer \(the number) show  53813 60693 mto
 22800 59532 mto
 (of objects to be encoded/decoded\), and the second of which is an) show  51873 59532 mto
 22800 58371 mto
 (array of  objects of type <typedefLisp>.) show  40032 58371 mto
 22800 57210 mto
 (XDR: An integer \(the number of objects to be encoded/decoded\)) show  51315 57210 mto
 22800 56049 mto
 (followed by that number of objects of type <typedefXDR>.) show  48369 56049 mto
 8400 53888 mto
 (\(:opaque <constant>\)) show  0.0 0.0 mto
 17906 53888 mto
 22800 53888 mto
 (Lisp: A string of length <constant>.) show  38198 53888 mto
 22800 52727 mto
 (XDR:  A sequence of <constant> bytes  followed by enough null bytes) show  53706 52727 mto
 22800 51566 mto
 (to round <constant> up to a multiple of four.) show  42145 51566 mto
 8400 49405 mto
 (\(:struct <defstruct-type> \(<field-name-1> <typedef-1>\) ...\(<field-name n> <typedef-n>\) \)) show  46918 49405 mto
 22800 48244 mto
 22800 48244 mto
 22800 47083 mto
 (Lisp: A struct of type <defstruct-type> such that each field mentioned) show  53205 47083 mto
 22800 45922 mto
 (in the this XDR declaration has a value. Note that a separate defstruct) show  53760 45922 mto
 22800 44761 mto
 (must be executed. The fields need not be named here in the same) show  52205 44761 mto
 22800 43600 mto
 (order as those in the defstruct, nor must all the fields named in the) show  52092 43600 mto
 22800 42439 mto
 (defstruct be used here.) show  33028 42439 mto
 22800 41278 mto
 22800 41278 mto
 22800 40117 mto
 (XDR: A sequence of objects of types <typedef1 XDR>...<typedefn) show  52011 40117 mto
 22800 38956 mto
 (XDR>.) show  25773 38956 mto
 8400 36795 mto
 (\(:sequence <typedef>\)) show  0.0 0.0 mto
 18406 36795 mto
 22800 36795 mto
 (This is fashioned after Courier 's method for encoding/decoding linked) show  53758 36795 mto
 22800 35634 mto
 (lists. This type can often be used to get around clumsy recursive) show  51257 35634 mto
 22800 34473 mto
 (definitions involving :union's of enumeration type :boolean.) show  48702 34473 mto
 22800 33312 mto
 22800 33312 mto
 22800 32151 mto
 (Lisp: A list of objects of type <typedefLisp>.) show  42033 32151 mto
 22800 30990 mto
 22800 30990 mto
 22800 29829 mto
 (XDR: A sequence of objects, each preceded by an XDR :boolean) show  51704 29829 mto
 22800 28668 mto
 (encoding of true. The last object in the sequence is followed by the) show  52316 28668 mto
 22800 27507 mto
 (XDR :boolean encoding of false.) show  37141 27507 mto
 22800 26346 mto
 22800 26346 mto
 22800 25185 mto
 (Note:  \(:sequence <typedef>\)  produces the same encoding \(but not) show  52817 25185 mto
 22800 24024 mto
 (the same decoding\)  as) show  33194 24024 mto
 22800 22863 mto
 (\(defstruct astructure this-element the-rest\)) show  41417 22863 mto
 22800 21702 mto
 (along with the declaration) show  34139 21702 mto
 22800 19541 mto
 (\(:recursive \(:union) show  0.0 0.0 mto
 30802 19541 mto
 34800 19541 mto
 (:boolean) show  38636 19541 mto
 34800 18380 mto
 (\(T \(:struct astructure) show  0.0 0.0 mto
 43802 18380 mto
 49200 18380 mto
 49200 18380 mto
 34800 17219 mto
 (\(this-element <typedef>\)) show  45638 17219 mto
 34800 16058 mto
 49200 16058 mto
 (\(the-rest) show  52923 16058 mto
 34800 14897 mto
 (astructure\)\)\)) show  40245 14897 mto
 34800 13736 mto
 (\(NIL :void\)\)\), ) show  40634 13736 mto
 8400 11575 mto
 (\(:list <typedef-1> ... <typedef-n>\)) show  22908 11575 mto

/Courier findfont 800 scalefont setfont

 savepage restore
showpage
%%BeginPageSetup
xmin ymin translate
0.01 imagesizefactor mul 0.01 imagesizefactor mul scale
%%EndPageSetup
/savepage save def
newpath 0.0 0.0 mto 57600 0 rlineto 0 78624 rlineto -57600 0 rlineto closepath
 clip newpath

/Courier findfont 800 scalefont setfont
 0.0 77940 mto
 initclip newpath 0.0 0.0 moveto 57600 0 rlineto 0 78624 rlineto -57600 0 rlineto closepath
 clip newpath 30966 3600 mto

/Helvetica findfont 1000 scalefont setfont
 (240) show  32634 3600 mto
 8400 74400 mto

/Times-Bold findfont 2400 scalefont setfont
 (en\267v) show  12840 74400 mto

/Times-Bold findfont 1800 scalefont setfont
 12990 74400 mto
 (\305) show  12840 74400 mto
 (o) show  13740 74400 mto

/Times-Bold findfont 2400 scalefont setfont
 (s) show  14674 74400 mto

/Helvetica findfont 600 scalefont setfont
 0.0 0.0 mto
 14674 74400 mto
 51889 74400 mto
 51889 74400 mto

/Helvetica findfont 1000 scalefont setfont
 (RPC) show  54000 74400 mto
 8400 73586 mto

gsave newpath 200 setlinewidth 0 setlinecap 8400 73686 mto 54000 73686 lineto stroke
grestore 54000 73686 mto  54000 73586 mto
 54000 73586 mto
 22800 68659 mto
 22800 68659 mto
 22800 67498 mto
 (Lisp: A list , the ith element of which is of type <typedefi Lisp>.) show  50314 67498 mto
 22800 66337 mto
 22800 66337 mto
 22800 65176 mto
 (XDR: A sequence of objects, the ith of which is of type <typedefi) show  51176 65176 mto
 22800 64015 mto
 (XDR>. ) show  26051 64015 mto
 8400 61854 mto
 (\(:skip <unsigned>\)) show  0.0 0.0 mto
 16626 61854 mto
 22800 61854 mto
 (\(For decoding only\)) show  31414 61854 mto
 22800 60693 mto
 22800 60693 mto
 22800 59532 mto
 (Lisp: Nothing) show  28636 59532 mto
 22800 58371 mto
 22800 58371 mto
 22800 57210 mto
 (XDR: Any n bytes of data, where <unsigned> = n.) show  44785 57210 mto
 22800 56049 mto
 22800 56049 mto
 22800 54888 mto
 (Note: This is a klooge for not having to decode the fattr's that NFS) show  52037 54888 mto
 22800 53727 mto
 (returns with every single cotton-pickin'  memory read.) show  46418 53727 mto
 8400 51866 mto

/Helvetica-Bold findfont 1000 scalefont setfont
 (EXAMPLE OF A REMOTE PROGRAM DEFINITION  ) show  32458 51866 mto
 8400 49905 mto

/Helvetica findfont 1000 scalefont setfont
 (The following call to define-remote-program defines the portmapper remote procedures  described in) 94.83335 0 32 4 -1 roll widthshow  53999 49905 mto
 8400 48644 mto
 (Sun's Remote Procedure Call Specification.  Note that there are two definitions of procedure 4 given.) 68.266655 0 32 4 -1 roll widthshow  53999 48644 mto
 8400 47383 mto
 (Since remote procedures may be invoked by name, it is reasonable for there to be more than one) 148.4706 0 32 4 -1 roll widthshow  53999 47383 mto
 8400 46122 mto
 (definition for how to decode and encode the arguments to a given routine. In this case, both a) 252.82353 0 32 4 -1 roll widthshow  53999 46122 mto
 8400 44861 mto
 (recursive and non-recursive definition is given for the values returned from procedure 4. Note also that) 27.600006 0 32 4 -1 roll widthshow  53999 44861 mto
 8400 43600 mto
 (mapstruct and mapsequence must be defstruct'ed before this  call to define-remote-procedure.) show  50252 43600 mto
 8400 41339 mto
 (\(define-remote-program 'portmapper 100000 2 'udp) show  31187 41339 mto
 13200 40178 mto
 (:types) show  17400 40178 mto
 ('\() show  0.0 0.0 mto
 17955 40178 mto
 18600 40178 mto
 (\(mapstruct \(:union  :boolean ) show  31328 40178 mto
 13200 39017 mto
 17400 39017 mto
 18600 39017 mto
 19200 39017 mto
 22800 39017 mto
 0.0 0.0 mto
 22800 39017 mto
 28800 39017 mto
 (\(nil :void\)) show  32856 39017 mto
 13200 37856 mto
 17400 37856 mto
 18600 37856 mto
 19200 37856 mto
 22800 37856 mto
 0.0 0.0 mto
 22800 37856 mto
 28800 37856 mto
 (\(t \(:struct mapstruct) show  37413 37856 mto
 13200 36695 mto
 17400 36695 mto
 18600 36695 mto
 19200 36695 mto
 22800 36695 mto
 28800 36695 mto
 31200 36695 mto
 0.0 0.0 mto
 31200 36695 mto
 33600 36695 mto
 (\(program :unsigned\)) show  42603 36695 mto
 13200 35534 mto
 17400 35534 mto
 18600 35534 mto
 19200 35534 mto
 22800 35534 mto
 28800 35534 mto
 31200 35534 mto
 0.0 0.0 mto
 31200 35534 mto
 33600 35534 mto
 (\(vers :unsigned\)) show  40769 35534 mto
 13200 34373 mto
 17400 34373 mto
 18600 34373 mto
 19200 34373 mto
 22800 34373 mto
 28800 34373 mto
 31200 34373 mto
 0.0 0.0 mto
 31200 34373 mto
 33600 34373 mto
 (\(prot :unsigned\) ) show  40881 34373 mto
 13200 33212 mto
 17400 33212 mto
 18600 33212 mto
 19200 33212 mto
 22800 33212 mto
 28800 33212 mto
 31200 33212 mto
 0.0 0.0 mto
 31200 33212 mto
 33600 33212 mto
 (\(port :unsigned\)) show  40603 33212 mto
 13200 32051 mto
 17400 32051 mto
 18600 32051 mto
 19200 32051 mto
 22800 32051 mto
 28800 32051 mto
 31200 32051 mto
 0.0 0.0 mto
 31200 32051 mto
 33600 32051 mto
 (\(therest mapstruct\)\)\)\)\) ) show  43601 32051 mto
 13200 30890 mto
 17400 30890 mto
 18600 30890 mto
 0.0 0.0 mto
 18600 30890 mto
 19200 30890 mto
 (\(mapsequence \(:sequence \(:struct mapsequence ) show  41210 30890 mto
 13200 29729 mto
 17400 29729 mto
 18600 29729 mto
 19200 29729 mto
 22800 29729 mto
 28800 29729 mto
 31200 29729 mto
 33600 29729 mto
 0.0 0.0 mto
 33600 29729 mto
 37200 29729 mto
 (\(program :unsigned\)) show  46203 29729 mto
 13200 28568 mto
 17400 28568 mto
 18600 28568 mto
 19200 28568 mto
 22800 28568 mto
 28800 28568 mto
 31200 28568 mto
 33600 28568 mto
 0.0 0.0 mto
 33600 28568 mto
 37200 28568 mto
 (\(vers :unsigned\)) show  44369 28568 mto
 13200 27407 mto
 17400 27407 mto
 18600 27407 mto
 19200 27407 mto
 22800 27407 mto
 28800 27407 mto
 31200 27407 mto
 33600 27407 mto
 0.0 0.0 mto
 33600 27407 mto
 37200 27407 mto
 (\(protocol :unsigned\) ) show  46315 27407 mto
 13200 26246 mto
 17400 26246 mto
 18600 26246 mto
 19200 26246 mto
 22800 26246 mto
 28800 26246 mto
 31200 26246 mto
 33600 26246 mto
 0.0 0.0 mto
 33600 26246 mto
 37200 26246 mto
 (\(port :unsigned\)\)\)\)\) ) show  45813 26246 mto
 13200 25085 mto
 (:procedures) show  18480 25085 mto
 13200 23924 mto
 17400 23924 mto
 ('\() show  0.0 0.0 mto
 17955 23924 mto
 18600 23924 mto
 (\(null 0 nil nil\)) show  24212 23924 mto
 13200 22763 mto
 17400 22763 mto
 0.0 0.0 mto
 17400 22763 mto
 18600 22763 mto
 (\(lookup 3 \(:unsigned :unsigned :unsigned :unsigned\)) show  41835 22763 mto
 13200 21602 mto
 17400 21602 mto
 18600 21602 mto
 19200 21602 mto
 22800 21602 mto
 0.0 0.0 mto
 22800 21602 mto
 28800 21602 mto
 (\(:unsigned\)\)) show  34135 21602 mto
 13200 20441 mto
 17400 20441 mto
 0.0 0.0 mto
 17400 20441 mto
 18600 20441 mto
 (\(gooddump 4 nil \(mapsequence\)\) ) show  33606 20441 mto
 13200 19280 mto
 17400 19280 mto
 0.0 0.0 mto
 17400 19280 mto
 18600 19280 mto
 (\(dump 4 nil \(mapstruct\)\) ) show  29491 19280 mto
 13200 18119 mto
 17400 18119 mto
 0.0 0.0 mto
 17400 18119 mto
 18600 18119 mto
 (\(indirect 5 \(:unsigned :unsigned :unsigned) show  37165 18119 mto
 13200 16958 mto
 17400 16958 mto
 18600 16958 mto
 19200 16958 mto
 22800 16958 mto
 0.0 0.0 mto
 22800 16958 mto
 28800 16958 mto
 (:string\)) show  31856 16958 mto
 13200 15797 mto
 17400 15797 mto
 18600 15797 mto
 19200 15797 mto
 22800 15797 mto
 0.0 0.0 mto
 22800 15797 mto
 28800 15797 mto
 (\(:unsigned :string\)\)\)\)) show  37802 15797 mto
 8400 13936 mto

/Helvetica-Bold findfont 1000 scalefont setfont
 (UNDEFINING REMOTE PROGRAMS) show  25345 13936 mto
 8400 11975 mto

/Helvetica findfont 1000 scalefont setfont
 (undefine-remote-program       name number version) show  49609 11975 mto
 ([Function]) show  55200 11975 mto
 58800 11975 mto
 62400 11975 mto
 ( ) show  0.0 0.0 mto
 62678 11975 mto
 66000 11975 mto
 ( ) show  66278 11975 mto
 8400 10014 mto

/Helvetica-Bold findfont 1000 scalefont setfont
 (MAKING REMOTE PROCEDURE CALLS) show  27289 10014 mto

/Courier findfont 800 scalefont setfont

 savepage restore
showpage
%%BeginPageSetup
xmin ymin translate
0.01 imagesizefactor mul 0.01 imagesizefactor mul scale
%%EndPageSetup
/savepage save def
newpath 0.0 0.0 mto 57600 0 rlineto 0 78624 rlineto -57600 0 rlineto closepath
 clip newpath

/Courier findfont 800 scalefont setfont
 0.0 77940 mto
 initclip newpath 0.0 0.0 moveto 57600 0 rlineto 0 78624 rlineto -57600 0 rlineto closepath
 clip newpath 30966 3600 mto

/Helvetica findfont 1000 scalefont setfont
 (241) show  32634 3600 mto
 8400 74400 mto

/Times-Bold findfont 2400 scalefont setfont
 (en\267v) show  12840 74400 mto

/Times-Bold findfont 1800 scalefont setfont
 12990 74400 mto
 (\305) show  12840 74400 mto
 (o) show  13740 74400 mto

/Times-Bold findfont 2400 scalefont setfont
 (s) show  14674 74400 mto

/Helvetica findfont 600 scalefont setfont
 0.0 0.0 mto
 14674 74400 mto
 51889 74400 mto
 51889 74400 mto

/Helvetica findfont 1000 scalefont setfont
 (RPC) show  54000 74400 mto
 8400 73586 mto

gsave newpath 200 setlinewidth 0 setlinecap 8400 73686 mto 54000 73686 lineto stroke
grestore 54000 73686 mto  54000 73586 mto
 54000 73586 mto
 8400 68659 mto
 (remote-procedure-call ) show  22800 68659 mto
 (destination  program procid  arglist) show  0.0 0.0 mto
 38139 68659 mto
 49931 68659 mto
 ([Function] ) show  54600 68659 mto
 22800 67498 mto
 (&key destsocket version credentials protocol) show  42530 67498 mto
 22800 66337 mto
 (dynamic-prognum dynamic-version) show  38359 66337 mto
 22800 65176 mto
 (msec-until-timeout msec-between-tries noerrorflg) show  44527 65176 mto
 22800 64015 mto
 ( ) show  23078 64015 mto
 22800 62854 mto
 (Performs a remote procedure call to program on destination. Returns) 76.44446 0 32 4 -1 roll widthshow  53999 62854 mto
 22800 61693 mto
 (a list of the returned values.) show  35084 61693 mto
 8400 59532 mto
 (destination) show  22800 59532 mto
 (Designates the host to which the procedure call is made. If Destination) show  0.0 0.0 mto
 53981 59532 mto
 55200 59532 mto
 55200 59532 mto
 22800 58371 mto
 (is a number it is interpreted to be the il:iphostadress of the host;  if  a) 56.687508 0 32 4 -1 roll widthshow  54000 58371 mto
 22800 57210 mto
 (symbol or string, it is a name from which  the net address of the host) 64.33334 0 32 4 -1 roll widthshow  53999 57210 mto
 22800 56049 mto
 (may be found.) show  29137 56049 mto
 8400 53888 mto
 (program) show  0.0 0.0 mto
 12123 53888 mto
 22800 53888 mto
 (Designates the remote program to be called. If Program is a number,) 67.545456 0 32 4 -1 roll widthshow  53999 53888 mto
 22800 52727 mto
 (it is interpreted to be the remote program number. If a symbol, in) 224.0 0 32 4 -1 roll widthshow  54000 52727 mto
 22800 51566 mto
 (which case it is assumed to be the name of the remote procedure \(as) 44.230778 0 32 4 -1 roll widthshow  53999 51566 mto
 22800 50405 mto
 (defined in define-remote-procedure. If :version is non-nil, then) 558.5714 0 32 4 -1 roll widthshow  53999 50405 mto
 22800 49244 mto
 (program is treated as a number rather than as a name. If version is nil) 21.285707 0 32 4 -1 roll widthshow  53999 49244 mto
 22800 48083 mto
 (and program is a number, then the latest version of that program is) 135.91667 0 32 4 -1 roll widthshow  53999 48083 mto
 22800 46922 mto
 (used.) show  25246 46922 mto
 8400 44761 mto
 (procid) show  0.0 0.0 mto
 11123 44761 mto
 22800 44761 mto
 (Designates the procedure number from program to be called. If Procid) 18.70001 0 32 4 -1 roll widthshow  53999 44761 mto
 22800 43600 mto
 (is a number it is interpreted to be the remote procedure number;  if a) 68.85715 0 32 4 -1 roll widthshow  53999 43600 mto
 22800 42439 mto
 (symbol,  it is the name given that procedure in) 1200.2222 0 32 4 -1 roll widthshow  53999 42439 mto
 22800 41278 mto
 (define-remote-procedure.) show  34082 41278 mto
 8400 39117 mto
 (arglist) show  0.0 0.0 mto
 11067 39117 mto
 22800 39117 mto
 (A list of the arguments to be serialized into XDR representation and) 122.999985 0 32 4 -1 roll widthshow  54000 39117 mto
 22800 37956 mto
 (passed as the arguments of the remote procedure call.) show  47034 37956 mto
 8400 35795 mto
 (:destsocket) show  0.0 0.0 mto
 13458 35795 mto
 22800 35795 mto
 (Normally, the remote socket must be looked up in the local caches) 163.54544 0 32 4 -1 roll widthshow  53999 35795 mto
 22800 34634 mto
 (\(See *rpc-socket-cache* and *rpc-well-known-sockets*\)  or else found) 50.99999 0 32 4 -1 roll widthshow  54000 34634 mto
 22800 33473 mto
 (by making a call to the Portmapper on the remote machine. If) 375.63635 0 32 4 -1 roll widthshow  53999 33473 mto
 22800 32312 mto
 (:destsocket is non-nil, its value is used as the  remote socket.) show  49923 32312 mto
 8400 30151 mto
 (:version) show  0.0 0.0 mto
 11901 30151 mto
 22800 30151 mto
 (If non-nil designated the desired version of program  as well as) 310.00003 0 32 4 -1 roll widthshow  54000 30151 mto
 22800 28990 mto
 (causing program to be interpreted as a number rather than a name.) 122.90908 0 32 4 -1 roll widthshow  53999 28990 mto
 22800 27829 mto
 (See program above.) show  31860 27829 mto
 8400 25668 mto
 (:credentials) show  0.0 0.0 mto
 13513 25668 mto
 22800 25668 mto
 (An object of type authentication to be passed as  the credentials of the) 5.384617 0 32 4 -1 roll widthshow  53999 25668 mto
 22800 24507 mto
 (remote procedure call. \(See create-unix-authentication\).) show  47532 24507 mto
 8400 22346 mto
 (:protocol) show  0.0 0.0 mto
 12235 22346 mto
 22800 22346 mto
 (A symbol specifying  the transport protocol.  Currently only UDP is) 178.9091 0 32 4 -1 roll widthshow  53999 22346 mto
 22800 21185 mto
 (implemented.  Defaults to UDP. The only reason for using this) 379.99997 0 32 4 -1 roll widthshow  54000 21185 mto
 22800 20024 mto
 (parameter is to specify \(along with the program and version\), which) 146.69998 0 32 4 -1 roll widthshow  53999 20024 mto
 22800 18863 mto
 (known remote program is to be used.) show  39307 18863 mto
 8400 16702 mto
 (:dynamic-prognum) show  0.0 0.0 mto
 16680 16702 mto
 22800 16702 mto
 (If you really can't live without it,  dynamic-prognum  is used as the) 164.0769 0 32 4 -1 roll widthshow  53999 16702 mto
 22800 15541 mto
 (remote program number  in spite of treating the arglist and returned) 128.09091 0 32 4 -1 roll widthshow  53999 15541 mto
 22800 14380 mto
 (values exactly as in program. Don't ask why.) show  42529 14380 mto
 8400 12219 mto
 (:dynamic-version) show  0.0 0.0 mto
 15957 12219 mto
 22800 12219 mto
 (If you really can't live without it,  dynamic-version  is used as the) 219.6923 0 32 4 -1 roll widthshow  53999 12219 mto
 22800 11058 mto
 (remote program version  in spite of treating the arglist and returned) 143.27274 0 32 4 -1 roll widthshow  53999 11058 mto

/Courier findfont 800 scalefont setfont

 savepage restore
showpage
%%BeginPageSetup
xmin ymin translate
0.01 imagesizefactor mul 0.01 imagesizefactor mul scale
%%EndPageSetup
/savepage save def
newpath 0.0 0.0 mto 57600 0 rlineto 0 78624 rlineto -57600 0 rlineto closepath
 clip newpath

/Courier findfont 800 scalefont setfont
 0.0 77940 mto
 initclip newpath 0.0 0.0 moveto 57600 0 rlineto 0 78624 rlineto -57600 0 rlineto closepath
 clip newpath 30966 3600 mto

/Helvetica findfont 1000 scalefont setfont
 (242) show  32634 3600 mto
 8400 74400 mto

/Times-Bold findfont 2400 scalefont setfont
 (en\267v) show  12840 74400 mto

/Times-Bold findfont 1800 scalefont setfont
 12990 74400 mto
 (\305) show  12840 74400 mto
 (o) show  13740 74400 mto

/Times-Bold findfont 2400 scalefont setfont
 (s) show  14674 74400 mto

/Helvetica findfont 600 scalefont setfont
 0.0 0.0 mto
 14674 74400 mto
 51889 74400 mto
 51889 74400 mto

/Helvetica findfont 1000 scalefont setfont
 (RPC) show  54000 74400 mto
 8400 73586 mto

gsave newpath 200 setlinewidth 0 setlinecap 8400 73686 mto 54000 73686 lineto stroke
grestore 54000 73686 mto  54000 73586 mto
 54000 73586 mto
 22800 68659 mto
 (values exactly as  specified in program \(and possibly version\). Don't) 113.4 0 32 4 -1 roll widthshow  53999 68659 mto
 22800 67498 mto
 (ask why. Defaults to 1.) show  32860 67498 mto
 8400 65337 mto
 (:msec-until-timeout) show  0.0 0.0 mto
 16846 65337 mto
 22800 65337 mto
 (Total number of milliseconds  of waiting for a reply packet before) 239.36365 0 32 4 -1 roll widthshow  53999 65337 mto
 22800 64176 mto
 (giving up on this remote procedure call. Defaults to value of) 490.99997 0 32 4 -1 roll widthshow  54000 64176 mto
 22800 63015 mto
 (*rpc-msec-until-timeout*.) show  33746 63015 mto
 8400 60854 mto
 (:msec-between-tries) show  0.0 0.0 mto
 17402 60854 mto
 22800 60854 mto
 (Number of milliseconds between outgoing  UDP packets. Defaults to) 101.11113 0 32 4 -1 roll widthshow  53999 60854 mto
 22800 59693 mto
 (*rpc-msec-between-tries*.) show  34302 59693 mto
 8400 57532 mto
 (:errorflg) show  0.0 0.0 mto
 11845 57532 mto
 22800 57532 mto
 (If   :noerrors, ignores remote procedure call errors. If :returnerrors,) 196.79999 0 32 4 -1 roll widthshow  53999 57532 mto
 22800 56371 mto
 (returns the error as an s-expression. Otherwise, signals a Lisp error.) 102.299995 0 32 4 -1 roll widthshow  53999 56371 mto
 22800 55210 mto
 (Default t.) show  26802 55210 mto
 8400 53349 mto

/Helvetica-Bold findfont 1000 scalefont setfont
 (LOW-LEVEL REMOTE PROCEDURE CALL FUNCTIONS) show  34567 53349 mto
 8400 51088 mto

/Helvetica findfont 1000 scalefont setfont
 (setup-rpc) show  22800 51088 mto
 (destination program procid) show  0.0 0.0 mto
 34638 51088 mto
 51409 51088 mto
 ([Function]) show  55800 51088 mto
 22800 49927 mto
 (&optional destsocket version protocol dynamic-prognum) show  47643 49927 mto
 22800 48766 mto
 (dynamic-version) show  30079 48766 mto
 8400 46605 mto
 8400 46605 mto
 22800 45444 mto
 (Returns four values   destaddr, socket, program and procedure \(Yes,) 74.200005 0 32 4 -1 roll widthshow  53999 45444 mto
 22800 44283 mto
 (this is real, live multiple value return requiring a  multiple-value-bind or) 22.363625 0 32 4 -1 roll widthshow  53999 44283 mto
 22800 43122 mto
 (something similar.\) for consumption by perform-rpc. The arguments to) 30.750013 0 32 4 -1 roll widthshow  54000 43122 mto
 22800 41961 mto
 (setup-rpc are identical in meaning to the identically named arguments) 45.444435 0 32 4 -1 roll widthshow  53999 41961 mto
 22800 40800 mto
 (to remote-procedure-call.) show  33970 40800 mto
 8400 38639 mto
 (open-rpc-stream) show  22800 38639 mto
 (protocol destaddr destsocket) show  0.0 0.0 mto
 35584 38639 mto
 51409 38639 mto
 ([Function]) show  55800 38639 mto
 22800 37478 mto
 22800 37478 mto
 22800 36317 mto
 (Returns an rpcstream for use by perform-rpc. Destaddr and) 614.125 0 32 4 -1 roll widthshow  54000 36317 mto
 22800 35156 mto
 (destsocket are as returned by setup-rpc and protocol is identical to the) 6.727258 0 32 4 -1 roll widthshow  53999 35156 mto
 22800 33995 mto
 (protocol argument to remote-procedure-call.) show  42307 33995 mto
 22800 32834 mto
 22800 32834 mto
 8400 30673 mto
 (close-rpc-stream) show  22800 30673 mto
 (rpcstream protocol) show  0.0 0.0 mto
 31080 30673 mto
 51409 30673 mto
 ([Function]) show  55800 30673 mto
 22800 29512 mto
 22800 29512 mto
 22800 28351 mto
 (Closes rpcstream, an rpc-stream of protocol protocol created by) 370.99997 0 32 4 -1 roll widthshow  54000 28351 mto
 22800 27190 mto
 (open-rpc-stream .) show  30691 27190 mto
 8400 25029 mto
 (perform-rpc) show  22800 25029 mto
 (destaddr destsocket  program  procedure rpcstream) show  0.0 0.0 mto
 45809 25029 mto
 51409 25029 mto
 ([Function]) show  55800 25029 mto
 22800 23868 mto
 (arglist credentials protocol &key errorflg leave-stream-open) show  48975 23868 mto
 22800 22707 mto
 (msec-until-timeout msec-between-tries) show  39970 22707 mto
 8400 20546 mto
 8400 20546 mto
 22800 19385 mto
 (Performs a remote procedure call returning a list of the values) 385.6 0 32 4 -1 roll widthshow  53999 19385 mto
 22800 18224 mto
 (retruned by the remote procedure.) show  37974 18224 mto
 8400 16363 mto

/Helvetica-Bold findfont 1000 scalefont setfont
 (LISTING REMOTE PROGRAMS CURRENTLY DEFINED) show  34179 16363 mto
 8400 14102 mto

/Helvetica findfont 1000 scalefont setfont
 (list-remote-programs) show  22800 14102 mto
 0.0 0.0 mto
 22800 14102 mto
 51409 14102 mto
 ([Function]) show  55800 14102 mto
 8400 11941 mto
 8400 11941 mto

/Courier findfont 800 scalefont setfont

 savepage restore
showpage
%%BeginPageSetup
xmin ymin translate
0.01 imagesizefactor mul 0.01 imagesizefactor mul scale
%%EndPageSetup
/savepage save def
newpath 0.0 0.0 mto 57600 0 rlineto 0 78624 rlineto -57600 0 rlineto closepath
 clip newpath

/Courier findfont 800 scalefont setfont
 0.0 77940 mto
 initclip newpath 0.0 0.0 moveto 57600 0 rlineto 0 78624 rlineto -57600 0 rlineto closepath
 clip newpath 30966 3600 mto

/Helvetica findfont 1000 scalefont setfont
 (243) show  32634 3600 mto
 8400 74400 mto

/Times-Bold findfont 2400 scalefont setfont
 (en\267v) show  12840 74400 mto

/Times-Bold findfont 1800 scalefont setfont
 12990 74400 mto
 (\305) show  12840 74400 mto
 (o) show  13740 74400 mto

/Times-Bold findfont 2400 scalefont setfont
 (s) show  14674 74400 mto

/Helvetica findfont 600 scalefont setfont
 0.0 0.0 mto
 14674 74400 mto
 51889 74400 mto
 51889 74400 mto

/Helvetica findfont 1000 scalefont setfont
 (RPC) show  54000 74400 mto
 8400 73586 mto

gsave newpath 200 setlinewidth 0 setlinecap 8400 73686 mto 54000 73686 lineto stroke
grestore 54000 73686 mto  54000 73586 mto
 54000 73586 mto
 22800 68659 mto
 (Returns a list of 4-tuples \(name number version protocol\) for each) 207.80002 0 32 4 -1 roll widthshow  53999 68659 mto
 22800 67498 mto
 (remote program currently defined.) show  37861 67498 mto
 22800 66337 mto
 22800 66337 mto
 8400 64476 mto

/Helvetica-Bold findfont 1000 scalefont setfont
 (CREATION OF CREDENTIALS) show  22678 64476 mto
 8400 62215 mto

/Helvetica findfont 1000 scalefont setfont
 (create-unix-authentication) show  19905 62215 mto
 22800 61054 mto
 (stamp machine-name uid gid gids) show  0.0 0.0 mto
 37750 61054 mto
 51409 61054 mto
 ([Function]) show  55800 61054 mto
 8400 58893 mto
 8400 58893 mto
 22800 57732 mto
 (Returns a Unix-type authentication suitable for use as the credentials) 76.22222 0 32 4 -1 roll widthshow  53999 57732 mto
 22800 56571 mto
 (of a call to remote-procedure-call or perform-rpc.) show  44306 56571 mto
 22800 55410 mto
 22800 55410 mto
 8400 53249 mto
 (stamp) show  0.0 0.0 mto
 11123 53249 mto
 22800 53249 mto
 (An arbitrary unsigned integer.) show  35917 53249 mto
 8400 51088 mto
 (machine-name) show  0.0 0.0 mto
 15013 51088 mto
 22800 51088 mto
 (A string containing the name of the calling machine.) show  45700 51088 mto
 8400 48927 mto
 (uid) show  0.0 0.0 mto
 9734 48927 mto
 22800 48927 mto
 (User id number on the remote machine.) show  40418 48927 mto
 8400 46766 mto
 (gid) show  0.0 0.0 mto
 9734 46766 mto
 22800 46766 mto
 (Group id number on the  machine.) show  37974 46766 mto
 8400 44605 mto
 (gids) show  0.0 0.0 mto
 10234 44605 mto
 22800 44605 mto
 (A list or array of group id numbers \(on the remote machine\) that) show  50978 44605 mto
 22800 43444 mto
 (contain the caller as a member.) show  55522 43444 mto
 ( ) show  58800 43444 mto
 0.0 0.0 mto
 58800 43444 mto
 62400 43444 mto
 ( ) show  62678 43444 mto
 8400 42283 mto
 8400 42283 mto
 8400 40422 mto

/Helvetica-Bold findfont 1000 scalefont setfont
 (GLOBAL VARIABLES) show  18678 40422 mto
 8400 39161 mto

/Helvetica findfont 1000 scalefont setfont
 8400 39161 mto
 8400 38000 mto
 (*xdr-primitive-types*) show  0.0 0.0 mto
 17345 38000 mto
 27600 38000 mto
 (An a-list of keywords and the corresponding function that) 152.62498 0 32 4 -1 roll widthshow  54000 38000 mto
 27600 36839 mto
 (implements that XDR primitive type.) show  43493 36839 mto
 8400 35178 mto
 (*xdr-constructed-types*) show  0.0 0.0 mto
 18792 35178 mto
 27600 35178 mto
 (An a-list of keywords and the corresponding function that) 152.62498 0 32 4 -1 roll widthshow  54000 35178 mto
 27600 34017 mto
 (generates code to implement that XDR constructed type.) show  52723 34017 mto
 8400 32356 mto
 (*msec-until-timeout*) show  0.0 0.0 mto
 17346 32356 mto
 27600 32356 mto
 (Number of milliseconds before giving up on receiving a) 264.125 0 32 4 -1 roll widthshow  54000 32356 mto
 27600 31195 mto
 (reply packet. Default 1000. ) show  39773 31195 mto
 8400 29534 mto
 (*msec-between-tries*) show  0.0 0.0 mto
 17902 29534 mto
 27600 29534 mto
 (Number of milliseconds to wait before resending UDP) 381.4286 0 32 4 -1 roll widthshow  53999 29534 mto
 27600 28373 mto
 (packet. Default 100.) show  36494 28373 mto
 8400 26712 mto
 (*rpc-ok-to-cache*) show  0.0 0.0 mto
 16124 26712 mto
 27600 26712 mto
 (If non-nil, uses *rpc-socket-cache* as a cache of socket) 229.25 0 32 4 -1 roll widthshow  54000 26712 mto
 27600 25551 mto
 (numbers found to date.) show  37884 25551 mto
 8400 23890 mto
 (*rpc-well-known-sockets*) show  0.0 0.0 mto
 19568 23890 mto
 27600 23890 mto
 (A list of well-known sockets. Format is) show  44493 23890 mto
 27600 22729 mto
 (\() show  0.0 0.0 mto
 27933 22729 mto
 28800 22729 mto
 (<host address>) show  35693 22729 mto
 27600 21568 mto
 28800 21568 mto
 (<remote program number>) show  40749 21568 mto
 27600 20407 mto
 28800 20407 mto
 (<remote program version>) show  40582 20407 mto
 27600 19246 mto
 28800 19246 mto
 (<protocol>) show  33525 19246 mto
 27600 18085 mto
 28800 18085 mto
 (<socket> \)) show  33469 18085 mto
 8400 16424 mto
 (*rpc-socket-cache*) show  0.0 0.0 mto
 16791 16424 mto
 27600 16424 mto
 (A list of non-well-known sockets. Format is same as) 431.125 0 32 4 -1 roll widthshow  54000 16424 mto
 27600 15263 mto
 (*rpc-well-known-sockets*.) show  39046 15263 mto
 8400 13602 mto
 (*debug*) show  0.0 0.0 mto
 11958 13602 mto
 27600 13602 mto
 (If non-nil prints out debugging information. If a number, the) 49.1111 0 32 4 -1 roll widthshow  53999 13602 mto
 27600 12441 mto
 (higher the number, the more information is printed. Default) 62.5 0 32 4 -1 roll widthshow  54000 12441 mto
 27600 11280 mto
 (nil.) show  28878 11280 mto

/Courier findfont 800 scalefont setfont

 savepage restore
showpage
%%BeginPageSetup
xmin ymin translate
0.01 imagesizefactor mul 0.01 imagesizefactor mul scale
%%EndPageSetup
/savepage save def
newpath 0.0 0.0 mto 57600 0 rlineto 0 78624 rlineto -57600 0 rlineto closepath
 clip newpath

/Courier findfont 800 scalefont setfont
 0.0 77940 mto
 initclip newpath 0.0 0.0 moveto 57600 0 rlineto 0 78624 rlineto -57600 0 rlineto closepath
 clip newpath 30966 3600 mto

/Helvetica findfont 1000 scalefont setfont
 (244) show  32634 3600 mto
 8400 74400 mto

/Times-Bold findfont 2400 scalefont setfont
 (en\267v) show  12840 74400 mto

/Times-Bold findfont 1800 scalefont setfont
 12990 74400 mto
 (\305) show  12840 74400 mto
 (o) show  13740 74400 mto

/Times-Bold findfont 2400 scalefont setfont
 (s) show  14674 74400 mto

/Helvetica findfont 600 scalefont setfont
 0.0 0.0 mto
 14674 74400 mto
 51889 74400 mto
 51889 74400 mto

/Helvetica findfont 1000 scalefont setfont
 (RPC) show  54000 74400 mto
 8400 73586 mto

gsave newpath 200 setlinewidth 0 setlinecap 8400 73686 mto 54000 73686 lineto stroke
grestore 54000 73686 mto  54000 73586 mto
 54000 73586 mto
 8400 68659 mto

/Helvetica-Bold findfont 1000 scalefont setfont
 (RPC FILES) show  13623 68659 mto

/Helvetica findfont 1000 scalefont setfont
 0.0 0.0 mto
 13623 68659 mto
 15600 68659 mto
 15600 68659 mto
 8400 66898 mto

/Helvetica-Bold findfont 1000 scalefont setfont
 (RPC) show  10511 66898 mto

/Helvetica findfont 1000 scalefont setfont
 0.0 0.0 mto
 10511 66898 mto
 27600 66898 mto
 (Sets up the RPC2 Package and loads other RPC files.) 259.2222 0 32 4 -1 roll widthshow  53999 66898 mto
 27600 65737 mto
 (Loads Portmapper remote program definition and executes) 46.16666 0 32 4 -1 roll widthshow  53999 65737 mto
 27600 64576 mto
 (it.) show  28378 64576 mto
 8400 62915 mto

/Helvetica-Bold findfont 1000 scalefont setfont
 (RPCLOWLEVEL) show  16067 62915 mto

/Helvetica findfont 1000 scalefont setfont
 0.0 0.0 mto
 16067 62915 mto
 27600 62915 mto
 (Super low-level UDP/TCP functions added to Eric Schoen's) 8.142841 0 32 4 -1 roll widthshow  53999 62915 mto
 27600 61754 mto
 (TCPUDP code.) show  34435 61754 mto
 8400 60093 mto

/Helvetica-Bold findfont 1000 scalefont setfont
 (RPCOS) show  11956 60093 mto

/Helvetica findfont 1000 scalefont setfont
 0.0 0.0 mto
 11956 60093 mto
 27600 60093 mto
 (Low-level interface to Sun OS networking code .) show  48943 60093 mto
 8400 58432 mto

/Helvetica-Bold findfont 1000 scalefont setfont
 (RPCSTRUCT) show  14566 58432 mto

/Helvetica findfont 1000 scalefont setfont
 0.0 0.0 mto
 14566 58432 mto
 27600 58432 mto
 (Structure definitions used by the other files. These are in a) 55.400013 0 32 4 -1 roll widthshow  53999 58432 mto
 27600 57271 mto
 (separate file because they take so long to compile.) show  50056 57271 mto
 8400 55610 mto

/Helvetica-Bold findfont 1000 scalefont setfont
 (RPCCOMMON) show  15177 55610 mto

/Helvetica findfont 1000 scalefont setfont
 0.0 0.0 mto
 15177 55610 mto
 27600 55610 mto
 (Common lookup functions and stream i/o functions used by) 20.749996 0 32 4 -1 roll widthshow  54000 55610 mto
 27600 54449 mto
 (the other files.) show  33881 54449 mto
 8400 52788 mto

/Helvetica-Bold findfont 1000 scalefont setfont
 (RPCXDR) show  12622 52788 mto

/Helvetica findfont 1000 scalefont setfont
 0.0 0.0 mto
 12622 52788 mto
 27600 52788 mto
 (External Data Representation \(XDR\). Code Generation for) 102.000015 0 32 4 -1 roll widthshow  54000 52788 mto
 27600 51627 mto
 (XDR constructed types and XDR primitive functions.) show  50719 51627 mto
 8400 49966 mto

/Helvetica-Bold findfont 1000 scalefont setfont
 (RPCRPC) show  12622 49966 mto

/Helvetica findfont 1000 scalefont setfont
 0.0 0.0 mto
 12622 49966 mto
 27600 49966 mto
 (Remote program definition and remote procedure calls.) show  52054 49966 mto
 8400 48305 mto

/Helvetica-Bold findfont 1000 scalefont setfont
 (RPCPORTMAPPER) show  17567 48305 mto

/Helvetica findfont 1000 scalefont setfont
 0.0 0.0 mto
 17567 48305 mto
 27600 48305 mto
 (Definition of portmapper in UDP and TCP.) show  46218 48305 mto
 8400 46644 mto
 8400 46644 mto
 8400 44783 mto

/Helvetica-Bold findfont 1000 scalefont setfont
 (KNOWN DEFICIENCIES) show  19567 44783 mto
 8400 42822 mto

/Helvetica findfont 1000 scalefont setfont
 (Floating point XDR types are not implemented.) show  29131 42822 mto
 8400 40861 mto
 (The view-packet utility is not documented and needs to be smarter about authentications.) show  47864 40861 mto
 8400 38900 mto
 (Fall through cases of XDR types UNION and ENUMERATE should be added.) show  42691 38900 mto
 8400 36939 mto
 (TCP is not supported under Medley 1.0-S, this should be in the next release.) show  42250 36939 mto
 8400 34978 mto

/Helvetica-Bold findfont 1000 scalefont setfont
 (COPYRIGHT INFORMATION) show  21678 34978 mto
 8400 33717 mto

/Helvetica findfont 1000 scalefont setfont
 (Copyright \(c\) 1987,1988 Leland Stanford Junior University and Envos Corporation.) show  44916 33717 mto
 8400 31756 mto
 (Written by Jeff Finger under support of National Institutes of Health Grant NIH 5P41 RR00785) show  49863 31756 mto
 8400 29795 mto
 (to the SUMEX-AIM Computing Resource at Stanford University.) show  36632 29795 mto
 8400 27834 mto
 (Modified to work under Medley 1.0-S by Atty Mullins.) show  31686 27834 mto

/Courier findfont 800 scalefont setfont

 savepage restore
showpage
%%Trailer
