# Comments allowed in this file like this
   # or like this
# but  they are not allowed after other non-comment text on a line
# Empty lines or lines of all white space (tabs included) are also ignored.

# The first non-blank or comment line contains a space or tab separated 
# list of the names to be used in the schedule.  Each name in the 
# schedule must be found in this list, and if any name in the first 
# list is not found in the schedule, a blank scheudle is created for 
# this person.
# This is usefule because the way we have set up escalation in Telalert, there
# always needs to be a schedule defined for someone, even if they are off duty
# for a week.

Robin Toshi

Jun 1:  00:00-23:59 Robin
Jun 2:  00:00-23:59 Robin
Jun 3:  00:00-23:59 Robin
Jun 4:  00:00-23:59 Robin
Jun 5:  00:00-23:59 Robin
Jun 6:  00:00-23:59 Robin
Jun 7:  00:00-23:59 Robin
Jun 8:  00:00-23:59 Toshi
Jun 9:  00:00-23:59 Toshi
Jun 10: 00:00-23:59 Toshi
Jun 11: 00:00-23:59 Toshi
Jun 12: 00:00-23:59 Toshi
Jun 13: 00:00-23:59 Toshi
Jun 14: 00:00-23:59 Toshi
Jun 15: 00:00-23:59 Robin
Jun 16: 00:00-23:59 Robin
Jun 17: 00:00-23:59 Robin
Jun 18: 00:00-23:59 Robin
Jun 19: 00:00-23:59 Robin
Jun 20: 00:00-23:59 Robin
Jun 21: 00:00-23:59 Robin
Jun 22: 00:00-23:59 Toshi
Jun 23: 00:00-23:59 Toshi
Jun 24: 00:00-23:59 Toshi
Jun 25: 00:00-23:59 Toshi
Jun 26: 00:00-23:59 Toshi
Jun 27: 00:00-23:59 Toshi
Jun 28: 00:00-23:59 Toshi

Jun 29: 00:00-23:59 Robin
Jun 30: 00:00-23:59 Robin
Jul 1:  00:00-23:59 Robin
Jul 2:  00:00-23:59 Robin
Jul 3:  00:00-23:59 Robin
Jul 4:  00:00-23:59 Robin
Jul 5:  00:00-23:59 Robin

Jul 6:  00:00-23:59 Toshi
Jul 7:  00:00-23:59 Toshi
Jul 8:  00:00-23:59 Toshi
Jul 9:  00:00-23:59 Toshi
Jul 10: 00:00-23:59 Toshi
Jul 11: 00:00-23:59 Toshi
Jul 12: 00:00-23:59 Toshi

Jul 13: 00:00-23:59 Robin
Jul 14: 00:00-23:59 Robin
Jul 15: 00:00-23:59 Robin
Jul 16: 00:00-23:59 Robin
Jul 17: 00:00-23:59 Robin
Jul 18: 00:00-23:59 Robin
Jul 19: 00:00-23:59 Robin

Jul 20: 00:00-23:59 Toshi
Jul 21: 00:00-23:59 Toshi
Jul 22: 00:00-23:59 Toshi
Jul 23: 00:00-23:59 Toshi
Jul 24: 00:00-23:59 Toshi
Jul 25: 00:00-23:59 Toshi
Jul 26: 00:00-23:59 Toshi

Jul 27: 00:00-23:59 Robin
Jul 28: 00:00-23:59 Robin
Jul 29: 00:00-23:59 Robin
Jul 30: 00:00-23:59 Robin
Jul 31: 00:00-23:59 Robin
