%!PS-Adobe-3.0
%%BoundingBox: (atend)
%%Pages: (atend)
%%PageOrder: (atend)
%%DocumentFonts: (atend)
%%Creator: Frame 4.0
%%DocumentData: Clean7Bit
%%EndComments
%%BeginProlog
%
% Frame ps_prolog 5.0, for use with Frame 5.0 products
% This ps_prolog file is Copyright (c) 1986-1995 Frame Technology
% Corporation.  All rights reserved.  This ps_prolog file may be
% freely copied and distributed in conjunction with documents created
% using FrameMaker, FrameMaker/SGML and FrameViewer as long as this 
% copyright notice is preserved.
%
% FrameMaker users specify the proper paper size for each print job in the
% "Print" dialog's "Printer Paper Size" "Width" and "Height~ fields.  If the
% printer that the PS file is sent to does not support the requested paper
% size, or if there is no paper tray of the proper size currently installed, 
% then the job will not be printed.  The following flag, if set to true, will
% cause the job to print on the default paper in such cases.
/FMAllowPaperSizeMismatch            true def
%
% Frame products normally print colors as their true color on a color printer
% or as shades of gray, based on luminance, on a black-and white printer. The
% following flag, if set to true, forces all non-white colors to print as pure
% black. This has no effect on bitmap images.
/FMPrintAllColorsAsBlack             false def
%
% Frame products can either set their own line screens or use a printer's 
% default settings. Three flags below control this separately for no 
% separations, spot separations and process separations. If a flag
% is true, then the default printer settings will not be changed. If it is
% false, Frame products will use their own settings from a table based on
% the printer's resolution.
/FMUseDefaultNoSeparationScreen      true  def
/FMUseDefaultSpotSeparationScreen    true  def
/FMUseDefaultProcessSeparationScreen false def
%
% For any given PostScript printer resolution, Frame products have two sets of 
% screen angles and frequencies for printing process separations, which are 
% recomended by Adobe. The following variable chooses the higher frequencies
% when set to true or the lower frequencies when set to false. This is only
% effective if the appropriate FMUseDefault...SeparationScreen flag is false.
/FMUseHighFrequencyScreens true def
%
% The following is a set of predefined optimal frequencies and angles for various
% common dpi settings. This is taken from "Advances in Color Separation Using
% PostScript Software Technology," from Adobe Systems (3/13/89 P.N. LPS 0043)
% and corrolated with information which is in various PPD (4.0) files.
%
% The "dpiranges" figure is the minimum dots per inch device resolution which
% can support this setting. The "low" and "high" values are controlled by the
% setting of the FMUseHighFrequencyScreens flag above. The "TDot" flags control
% the use of the "Yellow Triple Dot" feature whereby the frequency id divided by
% three, but the dot function is "trippled" giving a block of 3x3 dots per cell.
%
% PatFreq is a compromise pattern frequency for ps Level 2 printers which is close
% to the ideal WYSIWYG pattern frequency of 9 repetitions/inch but does not beat
% (too badly) against the screen frequencies of any separations for that DPI.
/dpiranges   [  2540    2400    1693     1270    1200     635      600      0      ] def
/CMLowFreqs  [ 100.402  94.8683 89.2289 100.402  94.8683  66.9349  63.2456 47.4342 ] def
/YLowFreqs   [  95.25   90.0    84.65    95.25   90.0     70.5556  66.6667 50.0    ] def
/KLowFreqs   [  89.8026 84.8528 79.8088  89.8026 84.8528  74.8355  70.7107 53.033  ] def
/CLowAngles  [  71.5651 71.5651 71.5651 71.5651  71.5651  71.5651  71.5651 71.5651 ] def
/MLowAngles  [  18.4349 18.4349 18.4349 18.4349  18.4349  18.4349  18.4349 18.4349 ] def
/YLowTDot    [  true    true    false    true    true     false    false   false   ] def
/CMHighFreqs [ 133.87  126.491 133.843  108.503 102.523  100.402   94.8683 63.2456 ] def
/YHighFreqs  [ 127.0   120.0   126.975  115.455 109.091   95.25    90.0    60.0    ] def
/KHighFreqs  [ 119.737 113.137 119.713  128.289 121.218   89.8026  84.8528 63.6395 ] def
/CHighAngles [  71.5651 71.5651 71.5651  70.0169 70.0169  71.5651  71.5651 71.5651 ] def
/MHighAngles [  18.4349 18.4349 18.4349  19.9831 19.9831  18.4349  18.4349 18.4349 ] def
/YHighTDot   [  false   false   true     false   false    true     true    false   ] def
/PatFreq     [	10.5833 10.0     9.4055  10.5833 10.0	  10.5833  10.0	   9.375   ] def
%
% PostScript Level 2 printers contain an "Accurate Screens" feature which can
% improve process separation rendering at the expense of compute time. This 
% flag is ignored by PostScript Level 1 printers.
/FMUseAcccurateScreens true def
%
% The following PostScript procedure defines the spot function that Frame
% products will use for process separations. You may un-comment-out one of
% the alternative functions below, or use your own.
%
% Dot function
/FMSpotFunction {abs exch abs 2 copy add 1 gt 
		{1 sub dup mul exch 1 sub dup mul add 1 sub }
		{dup mul exch dup mul add 1 exch sub }ifelse } def
%
% Line function
% /FMSpotFunction { pop } def
%
% Elipse function
% /FMSpotFunction { dup 5 mul 8 div mul exch dup mul exch add 
%		sqrt 1 exch sub } def
%
%
/FMversion (5.0) def 
/fMLevel1 /languagelevel where {pop languagelevel} {1} ifelse 2 lt def
/FMPColor
	fMLevel1 {
		false
		/colorimage where {pop pop true} if
	} {
		true
	} ifelse
def
/FrameDict 400 dict def 
systemdict /errordict known not {/errordict 10 dict def
		errordict /rangecheck {stop} put} if
% The readline in PS 23.0 doesn't recognize cr's as nl's on AppleTalk
FrameDict /tmprangecheck errordict /rangecheck get put 
errordict /rangecheck {FrameDict /bug true put} put 
FrameDict /bug false put 
mark 
% Some PS machines read past the CR, so keep the following 3 lines together!
currentfile 5 string readline
00
0000000000
cleartomark 
errordict /rangecheck FrameDict /tmprangecheck get put 
FrameDict /bug get { 
	/readline {
		/gstring exch def
		/gfile exch def
		/gindex 0 def
		{
			gfile read pop 
			dup 10 eq {exit} if 
			dup 13 eq {exit} if 
			gstring exch gindex exch put 
			/gindex gindex 1 add def 
		} loop
		pop 
		gstring 0 gindex getinterval true 
		} bind def
	} if
/FMshowpage /showpage load def
/FMquit /quit load def
/FMFAILURE { 
	dup = flush 
	FMshowpage 
	/Helvetica findfont 12 scalefont setfont
	72 200 moveto show
	72 220 moveto show
	FMshowpage 
	FMquit 
	} def 
/FMVERSION {
	FMversion ne {
		(Frame product version does not match ps_prolog!  Check installation;)
		(also check ~/fminit and ./fminit for old versions) FMFAILURE
		} if
	} def 
/FMBADEPSF { 
	(Adobe's PostScript Language Reference Manual, 2nd Edition, section H.2.4)
	(says your EPS file is not valid, as it calls X              )
	dup dup (X) search pop exch pop exch pop length 
	5 -1 roll 
	putinterval 
	FMFAILURE
	} def
/fmConcatProcs
	{
	/proc2 exch cvlit def/proc1 exch cvlit def/newproc proc1 length proc2 length add array def
	newproc 0 proc1 putinterval newproc proc1 length proc2 putinterval newproc cvx
}def
FrameDict begin [
	/ALDsave
	/FMdicttop
	/FMoptop
	/FMpointsize
	/FMsaveobject
	/b
	/bitmapsave
	/blut
	/bpside
	/bs
	/bstring
	/bwidth
	/c
	/cf
	/cs
	/cynu
	/depth
	/edown
	/fh
	/fillvals
	/fw
	/fx
	/fy
	/g
	/gfile
	/gindex
	/grnt
	/gryt
	/gstring
	/height
	/hh
	/i
	/im
	/indx
	/is
	/k
	/kk
	/landscape
	/lb
	/len
	/llx
	/lly
	/m
	/magu
	/manualfeed
	/n
	/offbits
	/onbits
	/organgle
	/orgbangle
	/orgbfreq
	/orgbproc
	/orgbxfer
	/orgfreq
	/orggangle
	/orggfreq
	/orggproc
	/orggxfer
	/orgmatrix
	/orgproc
	/orgrangle
	/orgrfreq
	/orgrproc
	/orgrxfer
	/orgxfer
	/pagesave
	/paperheight
	/papersizedict
	/paperwidth
	/pos
	/pwid
	/r
	/rad
	/redt
	/sl
	/str
	/tran
	/u
	/urx
	/ury
	/val
	/width
	/width
	/ws
	/ww
	/x
	/x1
	/x2
	/xindex
	/xpoint
	/xscale
	/xx
	/y
	/y1
	/y2
	/yelu
	/yindex
	/ypoint
	/yscale
	/yy
] { 0 def } forall
/FmBD {bind def} bind def
systemdict /pdfmark known {
	/fMAcrobat true def
	
	/FmPD /pdfmark load def
	
	
	/FmPT /show load def
	
	
	currentdistillerparams /CoreDistVersion get 2000 ge {
	
		
		/FmPD2 /pdfmark load def
		
		
		
		
		
		/FmPA { mark exch /Dest exch 5 3 roll 
				/View [ /XYZ null 6 -2 roll FmDC exch pop null] /DEST FmPD 
		}FmBD
	} {
		
		/FmPD2 /cleartomark load def
		/FmPA {pop pop pop}FmBD
	} ifelse
} {
	
	/fMAcrobat false def
	/FmPD /cleartomark load def
	/FmPD2 /cleartomark load def
	/FmPT /pop load def
	/FmPA {pop pop pop}FmBD
} ifelse
/FmDC {
	transform fMDefaultMatrix itransform cvi exch cvi exch
}FmBD
/FmBx {
	dup 3 index lt {3 1 roll exch} if 
	1 index 4 index lt {4 -1 roll 3 1 roll exch 4 1 roll} if
}FmBD
/FMnone 0 def
/FMcyan 1 def
/FMmagenta 2 def
/FMyellow 3 def
/FMblack 4 def
/FMcustom 5 def
/fMNegative false def 
/FrameSepIs FMnone def 
/FrameSepBlack 0 def
/FrameSepYellow 0 def
/FrameSepMagenta 0 def
/FrameSepCyan 0 def
/FrameSepRed 1 def
/FrameSepGreen 1 def
/FrameSepBlue 1 def
/FrameCurGray 1 def
/FrameCurPat null def
/FrameCurColors [ 0 0 0 1 0 0 0 ] def 
/FrameColorEpsilon .001 def	
/eqepsilon {		
	sub dup 0 lt {neg} if
	FrameColorEpsilon le
} bind def
/FrameCmpColorsCMYK { 
	2 copy 0 get exch 0 get eqepsilon {
		2 copy 1 get exch 1 get eqepsilon {
			2 copy 2 get exch 2 get eqepsilon {
				3 get exch 3 get eqepsilon
			} {pop pop false} ifelse
		}{pop pop false} ifelse
	} {pop pop false} ifelse
} bind def
/FrameCmpColorsRGB { 
	2 copy 4 get exch 0 get eqepsilon {
		2 copy 5 get exch 1 get eqepsilon {
			6 get exch 2 get eqepsilon
		}{pop pop false} ifelse
	} {pop pop false} ifelse
} bind def
/RGBtoCMYK { 
	1 exch sub 
	3 1 roll 
	1 exch sub 
	3 1 roll 
	1 exch sub 
	3 1 roll 
	3 copy 
	2 copy 
	le { pop } { exch pop } ifelse 
	2 copy 
	le { pop } { exch pop } ifelse 
	dup dup dup 
	6 1 roll 
	4 1 roll 
	7 1 roll 
	sub 
	6 1 roll 
	sub 
	5 1 roll 
	sub 
	4 1 roll 
} bind def
/CMYKtoRGB { 
	dup dup 4 -1 roll add 						  
	5 1 roll 3 -1 roll add 						  
	4 1 roll add 								  
	1 exch sub dup 0 lt {pop 0} if 3 1 roll 	  
	1 exch sub dup 0 lt {pop 0} if exch 	      
	1 exch sub dup 0 lt {pop 0} if exch	  		  
} bind def
/FrameSepInit {
	1.0 RealSetgray
} bind def
/FrameSetSepColor { 
	/FrameSepBlue exch def
	/FrameSepGreen exch def
	/FrameSepRed exch def
	/FrameSepBlack exch def
	/FrameSepYellow exch def
	/FrameSepMagenta exch def
	/FrameSepCyan exch def
	/FrameSepIs FMcustom def
	setCurrentScreen	
} bind def
/FrameSetCyan {
	/FrameSepBlue 1.0 def
	/FrameSepGreen 1.0 def
	/FrameSepRed 0.0 def
	/FrameSepBlack 0.0 def
	/FrameSepYellow 0.0 def
	/FrameSepMagenta 0.0 def
	/FrameSepCyan 1.0 def
	/FrameSepIs FMcyan def
	setCurrentScreen	
} bind def
 
/FrameSetMagenta {
	/FrameSepBlue 1.0 def
	/FrameSepGreen 0.0 def
	/FrameSepRed 1.0 def
	/FrameSepBlack 0.0 def
	/FrameSepYellow 0.0 def
	/FrameSepMagenta 1.0 def
	/FrameSepCyan 0.0 def
	/FrameSepIs FMmagenta def
	setCurrentScreen
} bind def
 
/FrameSetYellow {
	/FrameSepBlue 0.0 def
	/FrameSepGreen 1.0 def
	/FrameSepRed 1.0 def
	/FrameSepBlack 0.0 def
	/FrameSepYellow 1.0 def
	/FrameSepMagenta 0.0 def
	/FrameSepCyan 0.0 def
	/FrameSepIs FMyellow def
	setCurrentScreen
} bind def
 
/FrameSetBlack {
	/FrameSepBlue 0.0 def
	/FrameSepGreen 0.0 def
	/FrameSepRed 0.0 def
	/FrameSepBlack 1.0 def
	/FrameSepYellow 0.0 def
	/FrameSepMagenta 0.0 def
	/FrameSepCyan 0.0 def
	/FrameSepIs FMblack def
	setCurrentScreen
} bind def
 
/FrameNoSep { 
	/FrameSepIs FMnone def
	setCurrentScreen
} bind def
/FrameSetSepColors { 
	FrameDict begin
	[ exch 1 add 1 roll ]
	/FrameSepColors  
	exch def end
	} bind def
/FrameColorInSepListCMYK { 
	FrameSepColors {  
       		exch dup 3 -1 roll 
       		FrameCmpColorsCMYK 
       		{ pop true exit } if
    	} forall 
	dup true ne {pop false} if
	} bind def
/FrameColorInSepListRGB { 
	FrameSepColors {  
       		exch dup 3 -1 roll 
       		FrameCmpColorsRGB 
       		{ pop true exit } if
    	} forall 
	dup true ne {pop false} if
	} bind def
/RealSetgray /setgray load def
/RealSetrgbcolor /setrgbcolor load def
/RealSethsbcolor /sethsbcolor load def
end 
/setgray { 
	FrameDict begin
	FrameSepIs FMnone eq
		{ RealSetgray } 
		{ 
		FrameSepIs FMblack eq 
			{ RealSetgray } 
			{ FrameSepIs FMcustom eq 
			  FrameSepRed 0 eq and
			  FrameSepGreen 0 eq and
			  FrameSepBlue 0 eq and {
			  	RealSetgray
			  } {
				1 RealSetgray pop 
			  } ifelse
			} ifelse
		} ifelse
	end
} bind def
/setrgbcolor { 
	FrameDict begin
	FrameSepIs FMnone eq
	{  RealSetrgbcolor }
	{
		3 copy [ 4 1 roll ] 
		FrameColorInSepListRGB
		{
				FrameSepBlue eq exch 
			 	FrameSepGreen eq and exch 
			 	FrameSepRed eq and
			 	{ 0 } { 1 } ifelse
		}
		{
			FMPColor {
				RealSetrgbcolor
				currentcmykcolor
			} {
				RGBtoCMYK
			} ifelse
			FrameSepIs FMblack eq
			{1.0 exch sub 4 1 roll pop pop pop} {
			FrameSepIs FMyellow eq
			{pop 1.0 exch sub 3 1 roll pop pop} {
			FrameSepIs FMmagenta eq
			{pop pop 1.0 exch sub exch pop } {
			FrameSepIs FMcyan eq
			{pop pop pop 1.0 exch sub } 
			{pop pop pop pop 1} ifelse } ifelse } ifelse } ifelse 
		} ifelse
		RealSetgray
	} 
	ifelse
	end
} bind def
/sethsbcolor {
	FrameDict begin
	FrameSepIs FMnone eq 
	{ RealSethsbcolor } 
	{
		RealSethsbcolor 
		currentrgbcolor  
		setrgbcolor 
	} 
	ifelse
	end
} bind def
FrameDict begin
/setcmykcolor where {
	pop /RealSetcmykcolor /setcmykcolor load def
} {
	/RealSetcmykcolor {
		4 1 roll
		3 { 3 index add 0 max 1 min 1 exch sub 3 1 roll} repeat 
		RealSetrgbcolor pop
	} bind def
} ifelse
userdict /setcmykcolor { 
		FrameDict begin
		FrameSepIs FMnone eq
		{ RealSetcmykcolor } 
		{
			4 copy [ 5 1 roll ]
			FrameColorInSepListCMYK
			{
				FrameSepBlack eq exch 
				FrameSepYellow eq and exch 
				FrameSepMagenta eq and exch 
				FrameSepCyan eq and 
				{ 0 } { 1 } ifelse
			}
			{
				FrameSepIs FMblack eq
				{1.0 exch sub 4 1 roll pop pop pop} {
				FrameSepIs FMyellow eq
				{pop 1.0 exch sub 3 1 roll pop pop} {
				FrameSepIs FMmagenta eq
				{pop pop 1.0 exch sub exch pop } {
				FrameSepIs FMcyan eq
				{pop pop pop 1.0 exch sub } 
				{pop pop pop pop 1} ifelse } ifelse } ifelse } ifelse 
			} ifelse
			RealSetgray
		}
		ifelse
		end
	} bind put
fMLevel1 { 
	
	
	
	/patScreenDict 7 dict dup begin
		<0f1e3c78f0e1c387> [ 45  { pop } {exch pop} 		.5   2 sqrt] FmBD
		<0f87c3e1f0783c1e> [ 135 { pop } {exch pop}			.5   2 sqrt] FmBD
		<cccccccccccccccc> [ 0   { pop } dup				.5   2	   ] FmBD
		<ffff0000ffff0000> [ 90  { pop } dup				.5   2	   ] FmBD
		<8142241818244281> [ 45  { 2 copy lt {exch} if pop}	dup .75  2 sqrt] FmBD
		<03060c183060c081> [ 45  { pop } {exch pop}			.875 2 sqrt] FmBD
		<8040201008040201> [ 135 { pop } {exch pop}			.875 2 sqrt] FmBD
	end def
} { 
	
	/patProcDict 5 dict dup begin
		<0f1e3c78f0e1c387> { 3 setlinewidth -1 -1 moveto 9 9 lineto stroke 
											4 -4 moveto 12 4 lineto stroke
											-4 4 moveto 4 12 lineto stroke} bind def
		<0f87c3e1f0783c1e> { 3 setlinewidth -1 9 moveto 9 -1 lineto stroke 
											-4 4 moveto 4 -4 lineto stroke
											4 12 moveto 12 4 lineto stroke} bind def
		<8142241818244281> { 1 setlinewidth -1 9 moveto 9 -1 lineto stroke
											-1 -1 moveto 9 9 lineto stroke } bind def
		<03060c183060c081> { 1 setlinewidth -1 -1 moveto 9 9 lineto stroke 
											4 -4 moveto 12 4 lineto stroke
											-4 4 moveto 4 12 lineto stroke} bind def
		<8040201008040201> { 1 setlinewidth -1 9 moveto 9 -1 lineto stroke 
											-4 4 moveto 4 -4 lineto stroke
											4 12 moveto 12 4 lineto stroke} bind def
	end def
	/patDict 15 dict dup begin
		/PatternType 1 def		
		/PaintType 2 def		
		/TilingType 3 def		
		/BBox [ 0 0 8 8 ] def 	
		/XStep 8 def			
		/YStep 8 def			
		/PaintProc {
			begin
			patProcDict bstring known {
				patProcDict bstring get exec
			} {
				8 8 true [1 0 0 -1 0 8] bstring imagemask
			} ifelse
			end
		} bind def
	end def
} ifelse
/combineColor {
    FrameSepIs FMnone eq
	{
		graymode fMLevel1 or not {
			
			[/Pattern [/DeviceCMYK]] setcolorspace
			FrameCurColors 0 4 getinterval aload pop FrameCurPat setcolor
		} {
			FrameCurColors 3 get 1.0 ge {
				FrameCurGray RealSetgray
			} {
				fMAcrobat not FMPColor graymode and and {
					0 1 3 { 
						FrameCurColors exch get
						1 FrameCurGray sub mul
					} for
					RealSetcmykcolor
				} {
					4 1 6 {
						FrameCurColors exch get
						graymode {
							1 exch sub 1 FrameCurGray sub mul 1 exch sub
						} {
							1.0 lt {FrameCurGray} {1} ifelse
						} ifelse
					} for
					RealSetrgbcolor
				} ifelse
			} ifelse
		} ifelse
	} { 
		FrameCurColors 0 4 getinterval aload
		FrameColorInSepListCMYK {
			FrameSepBlack eq exch 
			FrameSepYellow eq and exch 
			FrameSepMagenta eq and exch 
			FrameSepCyan eq and
			FrameSepIs FMcustom eq and
			{ FrameCurGray } { 1 } ifelse
		} {
			FrameSepIs FMblack eq
			{FrameCurGray 1.0 exch sub mul 1.0 exch sub 4 1 roll pop pop pop} {
			FrameSepIs FMyellow eq
			{pop FrameCurGray 1.0 exch sub mul 1.0 exch sub 3 1 roll pop pop} {
			FrameSepIs FMmagenta eq
			{pop pop FrameCurGray 1.0 exch sub mul 1.0 exch sub exch pop } {
			FrameSepIs FMcyan eq
			{pop pop pop FrameCurGray 1.0 exch sub mul 1.0 exch sub } 
			{pop pop pop pop 1} ifelse } ifelse } ifelse } ifelse 
		} ifelse
		graymode fMLevel1 or not {
			
			[/Pattern [/DeviceGray]] setcolorspace
			FrameCurPat setcolor
		} { 
			graymode not fMLevel1 and {
				
				dup 1 lt {pop FrameCurGray} if
			} if
			RealSetgray
		} ifelse
	} ifelse
} bind def
/savematrix {
	orgmatrix currentmatrix pop
	} bind def
/restorematrix {
	orgmatrix setmatrix
	} bind def
/fMDefaultMatrix matrix defaultmatrix def
/fMatrix2 matrix def
/dpi    72 0 fMDefaultMatrix dtransform
    dup mul exch   dup mul add   sqrt def
	
/freq dpi dup 72 div round dup 0 eq {pop 1} if 8 mul div def
/sangle 1 0 fMDefaultMatrix dtransform exch atan def
	sangle fMatrix2 rotate 
	fMDefaultMatrix fMatrix2 concatmatrix 
	dup 0 get /sflipx exch def
	    3 get /sflipy exch def
/screenIndex {
	0 1 dpiranges length 1 sub { dup dpiranges exch get 1 sub dpi le {exit} {pop} ifelse } for
} bind def
/getCyanScreen {
	FMUseHighFrequencyScreens { CHighAngles CMHighFreqs} {CLowAngles CMLowFreqs} ifelse
		screenIndex dup 3 1 roll get 3 1 roll get /FMSpotFunction load
} bind def
/getMagentaScreen {
	FMUseHighFrequencyScreens { MHighAngles CMHighFreqs } {MLowAngles CMLowFreqs} ifelse
		screenIndex dup 3 1 roll get 3 1 roll get /FMSpotFunction load
} bind def
/getYellowScreen {
	FMUseHighFrequencyScreens { YHighTDot YHighFreqs} { YLowTDot YLowFreqs } ifelse
		screenIndex dup 3 1 roll get 3 1 roll get { 3 div
			{2 { 1 add 2 div 3 mul dup floor sub 2 mul 1 sub exch} repeat
			FMSpotFunction } } {/FMSpotFunction load } ifelse
			0.0 exch
} bind def
/getBlackScreen  {
	FMUseHighFrequencyScreens { KHighFreqs } { KLowFreqs } ifelse
		screenIndex get 45.0 /FMSpotFunction load 
} bind def
/getSpotScreen {
	getBlackScreen
} bind def
/getCompositeScreen {
	getBlackScreen
} bind def
/FMSetScreen 
	fMLevel1 { /setscreen load 
	}{ {
		8 dict begin
		/HalftoneType 1 def
		/SpotFunction exch def
		/Angle exch def
		/Frequency exch def
		/AccurateScreens FMUseAcccurateScreens def
		currentdict end sethalftone
	} bind } ifelse
def
/setDefaultScreen {
	FMPColor {
		orgrxfer cvx orggxfer cvx orgbxfer cvx orgxfer cvx setcolortransfer
	}
	{
		orgxfer cvx settransfer
	} ifelse
	orgfreq organgle orgproc cvx setscreen
} bind def
/setCurrentScreen {
	FrameSepIs FMnone eq {
		FMUseDefaultNoSeparationScreen {
			setDefaultScreen
		} {
			getCompositeScreen FMSetScreen
		} ifelse
	} {
		FrameSepIs FMcustom eq {
			FMUseDefaultSpotSeparationScreen {
				setDefaultScreen
			} {
				getSpotScreen FMSetScreen
			} ifelse
		} {
			FMUseDefaultProcessSeparationScreen {
				setDefaultScreen
			} {
				FrameSepIs FMcyan eq {
					getCyanScreen FMSetScreen
				} {
					FrameSepIs FMmagenta eq {
						getMagentaScreen FMSetScreen
					} {
						FrameSepIs FMyellow eq {
							getYellowScreen FMSetScreen
						} {
							getBlackScreen FMSetScreen
						} ifelse
					} ifelse
				} ifelse
			} ifelse
		} ifelse
	} ifelse 
} bind def
end
	
/FMDOCUMENT { 
	array /FMfonts exch def 
	/#copies exch def
	FrameDict begin
	0 ne /manualfeed exch def
	/paperheight exch def
	/paperwidth exch def
	0 ne /fMNegative exch def 
	0 ne /edown exch def 
	/yscale exch def
	/xscale exch def
	fMLevel1 {
		manualfeed {setmanualfeed} if
		/FMdicttop countdictstack 1 add def 
		/FMoptop count def 
		setpapername 
		manualfeed {true} {papersize} ifelse 
		{manualpapersize} {false} ifelse 
		{desperatepapersize} {false} ifelse 
		{papersizefailure} if
		count -1 FMoptop {pop pop} for
		countdictstack -1 FMdicttop {pop end} for 
		}
		{2 dict
		 dup /PageSize [paperwidth paperheight] put
		 manualfeed {dup /ManualFeed manualfeed put} if
		 {setpagedevice} stopped {papersizefailure} if
		}
	ifelse 
	
	FMPColor {
		currentcolorscreen
			cvlit /orgproc exch def
				  /organgle exch def 
				  /orgfreq exch def
			cvlit /orgbproc exch def
				  /orgbangle exch def 
				  /orgbfreq exch def
			cvlit /orggproc exch def
				  /orggangle exch def 
				  /orggfreq exch def
			cvlit /orgrproc exch def
				  /orgrangle exch def 
				  /orgrfreq exch def
			currentcolortransfer 
			fMNegative {
				1 1 4 { 
					pop { 1 exch sub } fmConcatProcs 4 1 roll
				} for
				4 copy
				setcolortransfer
			} if
			cvlit /orgxfer exch def
			cvlit /orgbxfer exch def
			cvlit /orggxfer exch def
			cvlit /orgrxfer exch def
	} {
		currentscreen 
			cvlit /orgproc exch def
				  /organgle exch def 
				  /orgfreq exch def
				  
		currenttransfer 
		fMNegative {
			{ 1 exch sub } fmConcatProcs
			dup settransfer
		} if 
		cvlit /orgxfer exch def
	} ifelse
	end 
} def 
/FMBEGINPAGE { 
	FrameDict begin 
	/pagesave save def
	3.86 setmiterlimit
	/landscape exch 0 ne def
	landscape { 
		90 rotate 0 exch dup /pwid exch def neg translate pop 
	}{
		pop /pwid exch def
	} ifelse
	edown { [-1 0 0 1 pwid 0] concat } if
	0 0 moveto paperwidth 0 lineto paperwidth paperheight lineto 
	0 paperheight lineto 0 0 lineto 1 setgray fill
	xscale yscale scale
	/orgmatrix matrix def
	gsave 
} def 
/FMENDPAGE {
	grestore 
	pagesave restore
	end 
	showpage
	} def 
/FMFONTDEFINE { 
	FrameDict begin
	findfont 
	ReEncode 
	1 index exch 
	definefont 
	FMfonts 3 1 roll 
	put
	end 
	} def 
/FMFILLS {
	FrameDict begin dup
	array /fillvals exch def
	dict /patCache exch def
	end 
	} def 
/FMFILL {
	FrameDict begin
	 fillvals 3 1 roll put
	end 
	} def 
/FMNORMALIZEGRAPHICS { 
	newpath
	1 setlinewidth
	0 setlinecap
	0 0 0 sethsbcolor
	0 setgray 
	} bind def
/FMBEGINEPSF { 
	end 
	/FMEPSF save def 
	/showpage {} def 
% See Adobe's "PostScript Language Reference Manual, 2nd Edition", page 714.
% "...the following operators MUST NOT be used in an EPS file:" (emphasis ours)
	/banddevice {(banddevice) FMBADEPSF} def
	/clear {(clear) FMBADEPSF} def
	/cleardictstack {(cleardictstack) FMBADEPSF} def 
	/copypage {(copypage) FMBADEPSF} def
	/erasepage {(erasepage) FMBADEPSF} def
	/exitserver {(exitserver) FMBADEPSF} def
	/framedevice {(framedevice) FMBADEPSF} def
	/grestoreall {(grestoreall) FMBADEPSF} def
	/initclip {(initclip) FMBADEPSF} def
	/initgraphics {(initgraphics) FMBADEPSF} def
	/quit {(quit) FMBADEPSF} def
	/renderbands {(renderbands) FMBADEPSF} def
	/setglobal {(setglobal) FMBADEPSF} def
	/setpagedevice {(setpagedevice) FMBADEPSF} def
	/setshared {(setshared) FMBADEPSF} def
	/startjob {(startjob) FMBADEPSF} def
	/lettertray {(lettertray) FMBADEPSF} def
	/letter {(letter) FMBADEPSF} def
	/lettersmall {(lettersmall) FMBADEPSF} def
	/11x17tray {(11x17tray) FMBADEPSF} def
	/11x17 {(11x17) FMBADEPSF} def
	/ledgertray {(ledgertray) FMBADEPSF} def
	/ledger {(ledger) FMBADEPSF} def
	/legaltray {(legaltray) FMBADEPSF} def
	/legal {(legal) FMBADEPSF} def
	/statementtray {(statementtray) FMBADEPSF} def
	/statement {(statement) FMBADEPSF} def
	/executivetray {(executivetray) FMBADEPSF} def
	/executive {(executive) FMBADEPSF} def
	/a3tray {(a3tray) FMBADEPSF} def
	/a3 {(a3) FMBADEPSF} def
	/a4tray {(a4tray) FMBADEPSF} def
	/a4 {(a4) FMBADEPSF} def
	/a4small {(a4small) FMBADEPSF} def
	/b4tray {(b4tray) FMBADEPSF} def
	/b4 {(b4) FMBADEPSF} def
	/b5tray {(b5tray) FMBADEPSF} def
	/b5 {(b5) FMBADEPSF} def
	FMNORMALIZEGRAPHICS 
	[/fy /fx /fh /fw /ury /urx /lly /llx] {exch def} forall 
	fx fw 2 div add fy fh 2 div add  translate
	rotate
	fw 2 div neg fh 2 div neg translate
	fw urx llx sub div fh ury lly sub div scale 
	llx neg lly neg translate 
	/FMdicttop countdictstack 1 add def 
	/FMoptop count def 
	} bind def
/FMENDEPSF {
	count -1 FMoptop {pop pop} for 
	countdictstack -1 FMdicttop {pop end} for 
	FMEPSF restore
	FrameDict begin 
	} bind def
FrameDict begin 
/setmanualfeed {
%%BeginFeature *ManualFeed True
	 statusdict /manualfeed true put
%%EndFeature
	} bind def
/max {2 copy lt {exch} if pop} bind def
/min {2 copy gt {exch} if pop} bind def
/inch {72 mul} def
/pagedimen { 
	paperheight sub abs 16 lt exch 
	paperwidth sub abs 16 lt and
	{/papername exch def} {pop} ifelse
	} bind def
/setpapername { 
	/papersizedict 14 dict def 
	papersizedict begin
	/papername /unknown def 
		/Letter 8.5 inch 11.0 inch pagedimen
		/LetterSmall 7.68 inch 10.16 inch pagedimen
		/Tabloid 11.0 inch 17.0 inch pagedimen
		/Ledger 17.0 inch 11.0 inch pagedimen
		/Legal 8.5 inch 14.0 inch pagedimen
		/Statement 5.5 inch 8.5 inch pagedimen
		/Executive 7.5 inch 10.0 inch pagedimen
		/A3 11.69 inch 16.5 inch pagedimen
		/A4 8.26 inch 11.69 inch pagedimen
		/A4Small 7.47 inch 10.85 inch pagedimen
		/B4 10.125 inch 14.33 inch pagedimen
		/B5 7.16 inch 10.125 inch pagedimen
	end
	} bind def
/papersize {
	papersizedict begin
		/Letter {lettertray letter} def
		/LetterSmall {lettertray lettersmall} def
		/Tabloid {11x17tray 11x17} def
		/Ledger {ledgertray ledger} def
		/Legal {legaltray legal} def
		/Statement {statementtray statement} def
		/Executive {executivetray executive} def
		/A3 {a3tray a3} def
		/A4 {a4tray a4} def
		/A4Small {a4tray a4small} def
		/B4 {b4tray b4} def
		/B5 {b5tray b5} def
		/unknown {unknown} def
	papersizedict dup papername known {papername} {/unknown} ifelse get
	end
	statusdict begin stopped end 
	} bind def
/manualpapersize {
	papersizedict begin
		/Letter {letter} def
		/LetterSmall {lettersmall} def
		/Tabloid {11x17} def
		/Ledger {ledger} def
		/Legal {legal} def
		/Statement {statement} def
		/Executive {executive} def
		/A3 {a3} def
		/A4 {a4} def
		/A4Small {a4small} def
		/B4 {b4} def
		/B5 {b5} def
		/unknown {unknown} def
	papersizedict dup papername known {papername} {/unknown} ifelse get
	end
	stopped 
	} bind def
/desperatepapersize {
	statusdict /setpageparams known
		{
		paperwidth paperheight 0 1 
		statusdict begin
		{setpageparams} stopped 
		end
		} {true} ifelse 
	} bind def
/papersizefailure {
	FMAllowPaperSizeMismatch not
		{
(The requested paper size is not available in any currently-installed tray)
(Edit the PS file to "FMAllowPaperSizeMismatch true" to use default tray)
		 FMFAILURE } if
	} def
/DiacriticEncoding [
/.notdef /.notdef /.notdef /.notdef /.notdef /.notdef /.notdef
/.notdef /.notdef /.notdef /.notdef /.notdef /.notdef /.notdef
/.notdef /.notdef /.notdef /.notdef /.notdef /.notdef /.notdef
/.notdef /.notdef /.notdef /.notdef /.notdef /.notdef /.notdef
/.notdef /.notdef /.notdef /.notdef /space /exclam /quotedbl
/numbersign /dollar /percent /ampersand /quotesingle /parenleft
/parenright /asterisk /plus /comma /hyphen /period /slash /zero /one
/two /three /four /five /six /seven /eight /nine /colon /semicolon
/less /equal /greater /question /at /A /B /C /D /E /F /G /H /I /J /K
/L /M /N /O /P /Q /R /S /T /U /V /W /X /Y /Z /bracketleft /backslash
/bracketright /asciicircum /underscore /grave /a /b /c /d /e /f /g /h
/i /j /k /l /m /n /o /p /q /r /s /t /u /v /w /x /y /z /braceleft /bar
/braceright /asciitilde /.notdef /Adieresis /Aring /Ccedilla /Eacute
/Ntilde /Odieresis /Udieresis /aacute /agrave /acircumflex /adieresis
/atilde /aring /ccedilla /eacute /egrave /ecircumflex /edieresis
/iacute /igrave /icircumflex /idieresis /ntilde /oacute /ograve
/ocircumflex /odieresis /otilde /uacute /ugrave /ucircumflex
/udieresis /dagger /.notdef /cent /sterling /section /bullet
/paragraph /germandbls /registered /copyright /trademark /acute
/dieresis /.notdef /AE /Oslash /.notdef /.notdef /.notdef /.notdef
/yen /.notdef /.notdef /.notdef /.notdef /.notdef /.notdef
/ordfeminine /ordmasculine /.notdef /ae /oslash /questiondown
/exclamdown /logicalnot /.notdef /florin /.notdef /.notdef
/guillemotleft /guillemotright /ellipsis /.notdef /Agrave /Atilde
/Otilde /OE /oe /endash /emdash /quotedblleft /quotedblright
/quoteleft /quoteright /.notdef /.notdef /ydieresis /Ydieresis
/fraction /currency /guilsinglleft /guilsinglright /fi /fl /daggerdbl
/periodcentered /quotesinglbase /quotedblbase /perthousand
/Acircumflex /Ecircumflex /Aacute /Edieresis /Egrave /Iacute
/Icircumflex /Idieresis /Igrave /Oacute /Ocircumflex /.notdef /Ograve
/Uacute /Ucircumflex /Ugrave /dotlessi /circumflex /tilde /macron
/breve /dotaccent /ring /cedilla /hungarumlaut /ogonek /caron
] def
/ReEncode { 
	dup 
	length 
	dict begin 
	{
	1 index /FID ne 
		{def} 
		{pop pop} ifelse 
	} forall 
	0 eq {/Encoding DiacriticEncoding def} if 
	currentdict 
	end 
	} bind def
FMPColor 
	
	{
	/BEGINBITMAPCOLOR { 
		BITMAPCOLOR} def
	/BEGINBITMAPCOLORc { 
		BITMAPCOLORc} def
	/BEGINBITMAPTRUECOLOR { 
		BITMAPTRUECOLOR } def
	/BEGINBITMAPTRUECOLORc { 
		BITMAPTRUECOLORc } def
	/BEGINBITMAPCMYK { 
		BITMAPCMYK } def
	/BEGINBITMAPCMYKc { 
		BITMAPCMYKc } def
	}
	
	{
	/BEGINBITMAPCOLOR { 
		BITMAPGRAY} def
	/BEGINBITMAPCOLORc { 
		BITMAPGRAYc} def
	/BEGINBITMAPTRUECOLOR { 
		BITMAPTRUEGRAY } def
	/BEGINBITMAPTRUECOLORc { 
		BITMAPTRUEGRAYc } def
	/BEGINBITMAPCMYK { 
		BITMAPCMYKGRAY } def
	/BEGINBITMAPCMYKc { 
		BITMAPCMYKGRAYc } def
	}
ifelse
/K { 
	FMPrintAllColorsAsBlack {
		dup 1 eq 2 index 1 eq and 3 index 1 eq and not
			{7 {pop} repeat 0 0 0 1 0 0 0} if
	} if 
	FrameCurColors astore 
	pop combineColor
} bind def
/graymode true def
fMLevel1 {
	/fmGetFlip {
		fMatrix2 exch get mul 0 lt { -1 } { 1 } ifelse
	} FmBD
} if
/setPatternMode {
	fMLevel1 {
		2 index patScreenDict exch known {
			pop pop
			patScreenDict exch get aload pop 
			freq 								
			mul									
			5 2 roll							
			fMatrix2 currentmatrix 1 get 0 ne {
				3 -1 roll 90 add 3 1 roll 		
				sflipx 1 fmGetFlip sflipy 2 fmGetFlip neg mul
			} {  								
				sflipx 0 fmGetFlip sflipy 3 fmGetFlip mul 
			} ifelse
			0 lt {exch pop} {pop} ifelse 		
			fMNegative { 
				{neg} fmConcatProcs 			
			} if
			bind
			
			
			
			systemdict /setscreen get exec		
			/FrameCurGray exch def
		} {
			/bwidth  exch def
			/bpside  exch def
			/bstring exch def
			/onbits 0 def  /offbits 0 def
			freq sangle landscape {90 add} if 
				{/ypoint exch def
				 /xpoint exch def
				 /xindex xpoint 1 add 2 div bpside mul cvi def
				 /yindex ypoint 1 add 2 div bpside mul cvi def
				 bstring yindex bwidth mul xindex 8 idiv add get
				 1 7 xindex 8 mod sub bitshift and 0 ne fMNegative {not} if
				 {/onbits  onbits  1 add def 1}
				 {/offbits offbits 1 add def 0}
				 ifelse
				}
				setscreen
			offbits offbits onbits add div fMNegative {1.0 exch sub} if
			/FrameCurGray exch def
		} ifelse
	} { 
		pop pop
		dup patCache exch known {
			patCache exch get
		} { 
			dup
			patDict /bstring 3 -1 roll put
			patDict 
			9 PatFreq screenIndex get div dup matrix scale
			makepattern
			dup 
			patCache 4 -1 roll 3 -1 roll put
		} ifelse
		/FrameCurGray 0 def
		/FrameCurPat exch def
	} ifelse
	/graymode false def
	combineColor
} bind def
/setGrayScaleMode {
	graymode not {
		/graymode true def
		fMLevel1 {
			setCurrentScreen
		} if
	} if
	/FrameCurGray exch def
	combineColor
} bind def
/normalize {
	transform round exch round exch itransform
	} bind def
/dnormalize {
	dtransform round exch round exch idtransform
	} bind def
/lnormalize { 
	0 dtransform exch cvi 2 idiv 2 mul 1 add exch idtransform pop
	} bind def
/H { 
	lnormalize setlinewidth
	} bind def
/Z {
	setlinecap
	} bind def
	
/PFill {
	graymode fMLevel1 or not {
		gsave 1 setgray eofill grestore
	} if
} bind def
/PStroke {
	graymode fMLevel1 or not {
		gsave 1 setgray stroke grestore
	} if
	stroke
} bind def
/X { 
	fillvals exch get
	dup type /stringtype eq
	{8 1 setPatternMode} 
	{setGrayScaleMode}
	ifelse
	} bind def
/V { 
	PFill gsave eofill grestore
	} bind def
/Vclip {
	clip
	} bind def
/Vstrk {
	currentlinewidth exch setlinewidth PStroke setlinewidth
	} bind def
/N { 
	PStroke
	} bind def
/Nclip {
	strokepath clip newpath
	} bind def
/Nstrk {
	currentlinewidth exch setlinewidth PStroke setlinewidth
	} bind def
/M {newpath moveto} bind def
/E {lineto} bind def
/D {curveto} bind def
/O {closepath} bind def
/L { 
 	/n exch def
	newpath
	normalize
	moveto 
	2 1 n {pop normalize lineto} for
	} bind def
/Y { 
	L 
	closepath
	} bind def
/R { 
	/y2 exch def
	/x2 exch def
	/y1 exch def
	/x1 exch def
	x1 y1
	x2 y1
	x2 y2
	x1 y2
	4 Y 
	} bind def
/rarc 
	{rad 
	 arcto
	} bind def
/RR { 
	/rad exch def
	normalize
	/y2 exch def
	/x2 exch def
	normalize
	/y1 exch def
	/x1 exch def
	mark
	newpath
	{
	x1 y1 rad add moveto
	x1 y2 x2 y2 rarc
	x2 y2 x2 y1 rarc
	x2 y1 x1 y1 rarc
	x1 y1 x1 y2 rarc
	closepath
	} stopped {x1 y1 x2 y2 R} if 
	cleartomark
	} bind def
/RRR { 
	/rad exch def
	normalize /y4 exch def /x4 exch def
	normalize /y3 exch def /x3 exch def
	normalize /y2 exch def /x2 exch def
	normalize /y1 exch def /x1 exch def
	newpath
	normalize moveto 
	mark
	{
	x2 y2 x3 y3 rarc
	x3 y3 x4 y4 rarc
	x4 y4 x1 y1 rarc
	x1 y1 x2 y2 rarc
	closepath
	} stopped
	 {x1 y1 x2 y2 x3 y3 x4 y4 newpath moveto lineto lineto lineto closepath} if
	cleartomark
	} bind def
/C { 
	grestore
	gsave
	R 
	clip
	setCurrentScreen
} bind def
/CP { 
	grestore
	gsave
	Y 
	clip
	setCurrentScreen
} bind def
/F { 
	FMfonts exch get
	FMpointsize scalefont
	setfont
	} bind def
/Q { 
	/FMpointsize exch def
	F 
	} bind def
/T { 
	moveto show
	} bind def
/RF { 
	rotate
	0 ne {-1 1 scale} if
	} bind def
/TF { 
	gsave
	moveto 
	RF
	show
	grestore
	} bind def
/P { 
	moveto
	0 32 3 2 roll widthshow
	} bind def
/PF { 
	gsave
	moveto 
	RF
	0 32 3 2 roll widthshow
	grestore
	} bind def
/S { 
	moveto
	0 exch ashow
	} bind def
/SF { 
	gsave
	moveto
	RF
	0 exch ashow
	grestore
	} bind def
/B { 
	moveto
	0 32 4 2 roll 0 exch awidthshow
	} bind def
/BF { 
	gsave
	moveto
	RF
	0 32 4 2 roll 0 exch awidthshow
	grestore
	} bind def
/G { 
	gsave
	newpath
	normalize translate 0.0 0.0 moveto 
	dnormalize scale 
	0.0 0.0 1.0 5 3 roll arc 
	closepath 
	PFill fill
	grestore
	} bind def
/Gstrk {
	savematrix
    newpath
    2 index 2 div add exch 3 index 2 div sub exch 
    normalize 2 index 2 div sub exch 3 index 2 div add exch 
    translate
    scale 
    0.0 0.0 1.0 5 3 roll arc 
    restorematrix
    currentlinewidth exch setlinewidth PStroke setlinewidth
    } bind def
/Gclip { 
	newpath
	savematrix
	normalize translate 0.0 0.0 moveto 
	dnormalize scale 
	0.0 0.0 1.0 5 3 roll arc 
	closepath 
	clip newpath
	restorematrix
	} bind def
/GG { 
	gsave
	newpath
	normalize translate 0.0 0.0 moveto 
	rotate 
	dnormalize scale 
	0.0 0.0 1.0 5 3 roll arc 
	closepath
	PFill
	fill
	grestore
	} bind def
/GGclip { 
	savematrix
	newpath
    normalize translate 0.0 0.0 moveto 
    rotate 
    dnormalize scale 
    0.0 0.0 1.0 5 3 roll arc 
    closepath
	clip newpath
	restorematrix
	} bind def
/GGstrk { 
	savematrix
    newpath
    normalize translate 0.0 0.0 moveto 
    rotate 
    dnormalize scale 
    0.0 0.0 1.0 5 3 roll arc 
    closepath 
	restorematrix
    currentlinewidth exch setlinewidth PStroke setlinewidth
	} bind def
/A { 
	gsave
	savematrix
	newpath
	2 index 2 div add exch 3 index 2 div sub exch 
	normalize 2 index 2 div sub exch 3 index 2 div add exch 
	translate 
	scale 
	0.0 0.0 1.0 5 3 roll arc 
	restorematrix
	PStroke
	grestore
	} bind def
/Aclip {
	newpath
	savematrix
	normalize translate 0.0 0.0 moveto 
	dnormalize scale 
	0.0 0.0 1.0 5 3 roll arc 
	closepath 
	strokepath clip newpath
	restorematrix
} bind def
/Astrk {
	Gstrk
} bind def
/AA { 
	gsave
	savematrix
	newpath
	
	3 index 2 div add exch 4 index 2 div sub exch 
	
	normalize 3 index 2 div sub exch 4 index 2 div add exch
	translate 
	rotate 
	scale 
	0.0 0.0 1.0 5 3 roll arc 
	restorematrix
	PStroke
	grestore
	} bind def
/AAclip {
	savematrix
	newpath
    normalize translate 0.0 0.0 moveto 
    rotate 
    dnormalize scale 
    0.0 0.0 1.0 5 3 roll arc 
    closepath
	strokepath clip newpath
	restorematrix
} bind def
/AAstrk {
	GGstrk
} bind def
/BEGINPRINTCODE { 
	/FMdicttop countdictstack 1 add def 
	/FMoptop count 7 sub def 
	/FMsaveobject save def
	userdict begin 
	/showpage {} def 
	FMNORMALIZEGRAPHICS 
	3 index neg 3 index neg translate
	} bind def
/ENDPRINTCODE {
	count -1 FMoptop {pop pop} for 
	countdictstack -1 FMdicttop {pop end} for 
	FMsaveobject restore 
	} bind def
/gn { 
	0 
	{	46 mul 
		cf read pop 
		32 sub 
		dup 46 lt {exit} if 
		46 sub add 
		} loop
	add 
	} bind def
/cfs { 
	/str sl string def 
	0 1 sl 1 sub {str exch val put} for 
	str def 
	} bind def
/ic [ 
	0 0 0 0 0 0 0 0 0 0 0 0 0 0 0 0223
	0 0 0 0 0 0 0 0 0 0 0 0 0 0 0 0223
	0
	{0 hx} {1 hx} {2 hx} {3 hx} {4 hx} {5 hx} {6 hx} {7 hx} {8 hx} {9 hx}
	{10 hx} {11 hx} {12 hx} {13 hx} {14 hx} {15 hx} {16 hx} {17 hx} {18 hx}
	{19 hx} {gn hx} {0} {1} {2} {3} {4} {5} {6} {7} {8} {9} {10} {11} {12}
	{13} {14} {15} {16} {17} {18} {19} {gn} {0 wh} {1 wh} {2 wh} {3 wh}
	{4 wh} {5 wh} {6 wh} {7 wh} {8 wh} {9 wh} {10 wh} {11 wh} {12 wh}
	{13 wh} {14 wh} {gn wh} {0 bl} {1 bl} {2 bl} {3 bl} {4 bl} {5 bl} {6 bl}
	{7 bl} {8 bl} {9 bl} {10 bl} {11 bl} {12 bl} {13 bl} {14 bl} {gn bl}
	{0 fl} {1 fl} {2 fl} {3 fl} {4 fl} {5 fl} {6 fl} {7 fl} {8 fl} {9 fl}
	{10 fl} {11 fl} {12 fl} {13 fl} {14 fl} {gn fl}
	] def
/ms { 
	/sl exch def 
	/val 255 def 
	/ws cfs 
	/im cfs 
	/val 0 def 
	/bs cfs 
	/cs cfs 
	} bind def
400 ms 
/ip { 
	is 
	0 
	cf cs readline pop 
	{	ic exch get exec 
		add 
		} forall 
	pop 
	
	} bind def
/rip { 
	   
	  
	  bis ris copy pop 
      is
      0
      cf cs readline pop 
      {       ic exch get exec 
              add 
              } forall 
	  pop pop 
	  ris gis copy pop 
	  dup is exch 
	  
      cf cs readline pop 
      {       ic exch get exec 
              add 
              } forall 
	  pop pop
	  gis bis copy pop 
	  dup add is exch 
	  
      cf cs readline pop 
      {       ic exch get exec 
              add 
              } forall 
      pop 
      
      } bind def
/rip4 { 
	   
	  
	  kis cis copy pop 
      is
      0
      cf cs readline pop 
      {       ic exch get exec 
              add 
              } forall 
	  pop pop 
	  cis mis copy pop 
	  dup is exch 
	  
      cf cs readline pop 
      {       ic exch get exec 
              add 
              } forall 
	  pop pop
	  mis yis copy pop 
	  dup dup add is exch 
	  
      cf cs readline pop 
      {       ic exch get exec 
              add 
              } forall 
	  pop pop
	  yis kis copy pop 
	  3 mul is exch 
	  
      cf cs readline pop 
      {       ic exch get exec 
              add 
              } forall 
      pop 
      
      } bind def
/wh { 
	/len exch def 
	/pos exch def 
	ws 0 len getinterval im pos len getinterval copy pop
	pos len 
	} bind def
/bl { 
	/len exch def 
	/pos exch def 
	bs 0 len getinterval im pos len getinterval copy pop
	pos len 
	} bind def
/s1 1 string def
/fl { 
	/len exch def 
	/pos exch def 
	/val cf s1 readhexstring pop 0 get def
	pos 1 pos len add 1 sub {im exch val put} for
	pos len 
	} bind def
/hx { 
	3 copy getinterval 
	cf exch readhexstring pop pop 
	} bind def
/wbytes { 
      dup dup
      8 gt { pop 8 idiv mul }
      { 8 eq {pop} {1 eq {7 add 8 idiv} {3 add 4 idiv} ifelse} ifelse } ifelse
	} bind def
/BEGINBITMAPBWc { 
	1 {} COMMONBITMAPc
	} bind def
/BEGINBITMAPGRAYc { 
	8 {} COMMONBITMAPc
	} bind def
/BEGINBITMAP2BITc { 
	2 {} COMMONBITMAPc
	} bind def
/COMMONBITMAPc { 
		 
	/cvtProc exch def
	/depth exch def
	gsave
	
	3 index 2 div add exch	
	4 index 2 div add exch	
	translate		
	rotate			
	1 index 2 div neg	
	1 index 2 div neg	
	translate		
	scale			
	/height exch def /width exch def
	/lb width depth wbytes def 
	sl lb lt {lb ms} if 
	/bitmapsave save def 
	cvtProc                
	/is im 0 lb getinterval def 
	ws 0 lb getinterval is copy pop 
	/cf currentfile def 
	width height depth [width 0 0 height neg 0 height] 
	{ip} image 
	bitmapsave restore 
	grestore
	} bind def
/BEGINBITMAPBW { 
	1 {} COMMONBITMAP
	} bind def
/BEGINBITMAPGRAY { 
	8 {} COMMONBITMAP
	} bind def
/BEGINBITMAP2BIT { 
	2 {} COMMONBITMAP
	} bind def
/COMMONBITMAP { 
	/cvtProc exch def
	/depth exch def
	gsave
	
	3 index 2 div add exch	
	4 index 2 div add exch	
	translate		
	rotate			
	1 index 2 div neg	
	1 index 2 div neg	
	translate		
	scale			
	/height exch def /width exch def
	/bitmapsave save def 
	cvtProc              
	/is width depth wbytes string def
	/cf currentfile def 
	width height depth [width 0 0 height neg 0 height] 
	{cf is readhexstring pop} image
	bitmapsave restore 
	grestore
	} bind def
/ngrayt 256 array def
/nredt 256 array def
/nbluet 256 array def
/ngreent 256 array def
fMLevel1 {
/colorsetup {
	currentcolortransfer
	/gryt exch def
	/blut exch def
	/grnt exch def
	/redt exch def
	0 1 255 {
		/indx exch def
		/cynu 1 red indx get 255 div sub def
		/magu 1 green indx get 255 div sub def
		/yelu 1 blue indx get 255 div sub def
		/kk cynu magu min yelu min def
		/u kk currentundercolorremoval exec def
%		/u 0 def
		nredt indx 1 0 cynu u sub max sub redt exec put
		ngreent indx 1 0 magu u sub max sub grnt exec put
		nbluet indx 1 0 yelu u sub max sub blut exec put
		ngrayt indx 1 kk currentblackgeneration exec sub gryt exec put
	} for
	{255 mul cvi nredt exch get}
	{255 mul cvi ngreent exch get}
	{255 mul cvi nbluet exch get}
	{255 mul cvi ngrayt exch get}
	setcolortransfer
	{pop 0} setundercolorremoval
	{} setblackgeneration
	} bind def
}
{
/colorSetup2 {
	[ /Indexed /DeviceRGB 255 
		{dup red exch get 255 div 
		 exch dup green exch get 255 div 
		 exch blue exch get 255 div}
	] setcolorspace
} bind def
} ifelse
/fakecolorsetup {
	/tran 256 string def
	0 1 255 {/indx exch def 
		tran indx
		red indx get 77 mul
		green indx get 151 mul
		blue indx get 28 mul
		add add 256 idiv put} for
	currenttransfer
	{255 mul cvi tran exch get 255.0 div}
	exch fmConcatProcs settransfer
} bind def
/BITMAPCOLOR { 
	/depth 8 def
	gsave
	
	3 index 2 div add exch	
	4 index 2 div add exch	
	translate		
	rotate			
	1 index 2 div neg	
	1 index 2 div neg	
	translate		
	scale			
	/height exch def /width exch def
	/bitmapsave save def
	fMLevel1 {	
		colorsetup
		/is width depth wbytes string def
		/cf currentfile def 
		width height depth [width 0 0 height neg 0 height] 
		{cf is readhexstring pop} {is} {is} true 3 colorimage 
	} {
		colorSetup2
		/is width depth wbytes string def
		/cf currentfile def 
		7 dict dup begin
			/ImageType 1 def
			/Width width def
			/Height height def
			/ImageMatrix [width 0 0 height neg 0 height] def
			/DataSource {cf is readhexstring pop} bind def
			/BitsPerComponent depth def
			/Decode [0 255] def
		end image	
	} ifelse
	bitmapsave restore 
	grestore
	} bind def
/BITMAPCOLORc { 
	/depth 8 def
	gsave
	
	3 index 2 div add exch	
	4 index 2 div add exch	
	translate		
	rotate			
	1 index 2 div neg	
	1 index 2 div neg	
	translate		
	scale			
	/height exch def /width exch def
	/lb width depth wbytes def 
	sl lb lt {lb ms} if 
	/bitmapsave save def 
	fMLevel1 {	
		colorsetup
		/is im 0 lb getinterval def 
		ws 0 lb getinterval is copy pop 
		/cf currentfile def 
		width height depth [width 0 0 height neg 0 height] 
		{ip} {is} {is} true 3 colorimage
	} {
		colorSetup2
		/is im 0 lb getinterval def 
		ws 0 lb getinterval is copy pop 
		/cf currentfile def 
		7 dict dup begin
			/ImageType 1 def
			/Width width def
			/Height height def
			/ImageMatrix [width 0 0 height neg 0 height] def
			/DataSource {ip} bind def
			/BitsPerComponent depth def
			/Decode [0 255] def
		end image	
	} ifelse
	bitmapsave restore 
	grestore
	} bind def
/BITMAPTRUECOLORc { 
	/depth 24 def
        gsave
 	
	3 index 2 div add exch	
	4 index 2 div add exch	
	translate		
	rotate			
	1 index 2 div neg	
	1 index 2 div neg	
	translate		
	scale			
	/height exch def /width exch def
	/lb width depth wbytes def 
	sl lb lt {lb ms} if 
	/bitmapsave save def 
        
	/is im 0 lb getinterval def	
	/ris im 0 width getinterval def	
	/gis im width width getinterval def	
	/bis im width 2 mul width getinterval def 
        
	ws 0 lb getinterval is copy pop 
	/cf currentfile def 
	width height 8 [width 0 0 height neg 0 height] 
	{width rip pop ris} {gis} {bis} true 3 colorimage
	bitmapsave restore 
	grestore
	} bind def
/BITMAPCMYKc { 
	/depth 32 def
        gsave
 	
	3 index 2 div add exch	
	4 index 2 div add exch	
	translate		
	rotate			
	1 index 2 div neg	
	1 index 2 div neg	
	translate		
	scale			
	/height exch def /width exch def
	/lb width depth wbytes def 
	sl lb lt {lb ms} if 
	/bitmapsave save def 
        
	/is im 0 lb getinterval def	
	/cis im 0 width getinterval def	
	/mis im width width getinterval def	
	/yis im width 2 mul width getinterval def 
	/kis im width 3 mul width getinterval def 
        
	ws 0 lb getinterval is copy pop 
	/cf currentfile def 
	width height 8 [width 0 0 height neg 0 height] 
	{width rip4 pop cis} {mis} {yis} {kis} true 4 colorimage
	bitmapsave restore 
	grestore
	} bind def
/BITMAPTRUECOLOR { 
        gsave
		
		3 index 2 div add exch	
		4 index 2 div add exch	
		translate		
		rotate			
		1 index 2 div neg	
		1 index 2 div neg	
		translate		
		scale			
		/height exch def /width exch def
        /bitmapsave save def 
        /is width string def
        /gis width string def
        /bis width string def
        /cf currentfile def 
        width height 8 [width 0 0 height neg 0 height] 
        { cf is readhexstring pop } 
        { cf gis readhexstring pop } 
        { cf bis readhexstring pop } 
        true 3 colorimage 
        bitmapsave restore 
        grestore
        } bind def
/BITMAPCMYK { 
        gsave
		
		3 index 2 div add exch	
		4 index 2 div add exch	
		translate		
		rotate			
		1 index 2 div neg	
		1 index 2 div neg	
		translate		
		scale			
		/height exch def /width exch def
        /bitmapsave save def 
        /is width string def
        /mis width string def
        /yis width string def
        /kis width string def
        /cf currentfile def 
        width height 8 [width 0 0 height neg 0 height] 
        { cf is readhexstring pop } 
        { cf mis readhexstring pop } 
        { cf yis readhexstring pop } 
        { cf kis readhexstring pop } 
        true 4 colorimage 
        bitmapsave restore 
        grestore
        } bind def
/BITMAPTRUEGRAYc { 
	/depth 24 def
        gsave
	
	3 index 2 div add exch	
	4 index 2 div add exch	
	translate		
	rotate			
	1 index 2 div neg	
	1 index 2 div neg	
	translate		
	scale			
	/height exch def /width exch def
	/lb width depth wbytes def 
	sl lb lt {lb ms} if 
        /bitmapsave save def 
        
	/is im 0 lb getinterval def	
	/ris im 0 width getinterval def	
	/gis im width width getinterval def	
	/bis im width 2 mul width getinterval def 
        ws 0 lb getinterval is copy pop 
        /cf currentfile def 
        width height 8 [width 0 0 height neg 0 height] 
        {width rip pop ris gis bis width gray} image
        bitmapsave restore 
        grestore
        } bind def
/BITMAPCMYKGRAYc { 
	/depth 32 def
        gsave
	
	3 index 2 div add exch	
	4 index 2 div add exch	
	translate		
	rotate			
	1 index 2 div neg	
	1 index 2 div neg	
	translate		
	scale			
	/height exch def /width exch def
	/lb width depth wbytes def 
	sl lb lt {lb ms} if 
        /bitmapsave save def 
        
	/is im 0 lb getinterval def	
	/cis im 0 width getinterval def	
	/mis im width width getinterval def	
	/yis im width 2 mul width getinterval def 
	/kis im width 3 mul width getinterval def 
        ws 0 lb getinterval is copy pop 
        /cf currentfile def 
        width height 8 [width 0 0 height neg 0 height] 
        {width rip pop cis mis yis kis width cgray} image
        bitmapsave restore 
        grestore
        } bind def
/cgray { 
        /ww exch def
        /k exch def
        /y exch def
        /m exch def
        /c exch def
        0 1 ww 1 sub { /i exch def c i get m i get y i get k i get CMYKtoRGB
				.144 mul 3 1 roll .587 mul 3 1 roll .299 mul add add
				c i 3 -1 roll floor cvi put } for
        c
 		} bind def
/gray { 
        /ww exch def
        /b exch def
        /g exch def
        /r exch def
        0 1 ww 1 sub { /i exch def r i get .299 mul g i get .587 mul
			b i get .114 mul add add r i 3 -1 roll floor cvi put } for
        r
        } bind def
/BITMAPTRUEGRAY { 
        gsave
		
		3 index 2 div add exch	
		4 index 2 div add exch	
		translate		
		rotate			
		1 index 2 div neg	
		1 index 2 div neg	
		translate		
		scale			
		/height exch def /width exch def
        /bitmapsave save def 
        /is width string def
        /gis width string def
        /bis width string def
        /cf currentfile def 
        width height 8 [width 0 0 height neg 0 height] 
        { cf is readhexstring pop 
          cf gis readhexstring pop 
          cf bis readhexstring pop width gray}  image
        bitmapsave restore 
        grestore
        } bind def
/BITMAPCMYKGRAY { 
        gsave
		
		3 index 2 div add exch	
		4 index 2 div add exch	
		translate		
		rotate			
		1 index 2 div neg	
		1 index 2 div neg	
		translate		
		scale			
		/height exch def /width exch def
        /bitmapsave save def 
        /is width string def
        /yis width string def
        /mis width string def
        /kis width string def
        /cf currentfile def 
        width height 8 [width 0 0 height neg 0 height] 
        { cf is readhexstring pop 
          cf mis readhexstring pop 
          cf yis readhexstring pop 
          cf kis readhexstring pop width cgray}  image
        bitmapsave restore 
        grestore
        } bind def
/BITMAPGRAY { 
	8 {fakecolorsetup} COMMONBITMAP
	} bind def
/BITMAPGRAYc { 
	8 {fakecolorsetup} COMMONBITMAPc
	} bind def
/ENDBITMAP {
	} bind def
end 
	/ALDmatrix matrix def ALDmatrix currentmatrix pop
/StartALD {
	/ALDsave save def
	 savematrix
	 ALDmatrix setmatrix
	} bind def
/InALD {
	 restorematrix
	} bind def
/DoneALD {
	 ALDsave restore
	} bind def
/I { setdash } bind def
/J { [] 0 setdash } bind def
%%EndProlog
%%BeginSetup
(5.0) FMVERSION
1 1 0 0 612 792 0 1 18 FMDOCUMENT
0 0 /Helvetica FMFONTDEFINE
1 0 /Helvetica-Bold FMFONTDEFINE
2 0 /NewCenturySchlbk-Roman FMFONTDEFINE
3 1 /ZapfDingbats FMFONTDEFINE
4 0 /Courier FMFONTDEFINE
5 0 /Helvetica-Narrow-Bold FMFONTDEFINE
6 0 /NewCenturySchlbk-Italic FMFONTDEFINE
7 0 /NewCenturySchlbk-Bold FMFONTDEFINE
32 FMFILLS
0 0 FMFILL
1 0.1 FMFILL
2 0.3 FMFILL
3 0.5 FMFILL
4 0.7 FMFILL
5 0.9 FMFILL
6 0.97 FMFILL
7 1 FMFILL
8 <0f1e3c78f0e1c387> FMFILL
9 <0f87c3e1f0783c1e> FMFILL
10 <cccccccccccccccc> FMFILL
11 <ffff0000ffff0000> FMFILL
12 <8142241818244281> FMFILL
13 <03060c183060c081> FMFILL
14 <8040201008040201> FMFILL
16 1 FMFILL
17 0.9 FMFILL
18 0.7 FMFILL
19 0.5 FMFILL
20 0.3 FMFILL
21 0.1 FMFILL
22 0.03 FMFILL
23 0 FMFILL
24 <f0e1c3870f1e3c78> FMFILL
25 <f0783c1e0f87c3e1> FMFILL
26 <3333333333333333> FMFILL
27 <0000ffff0000ffff> FMFILL
28 <7ebddbe7e7dbbd7e> FMFILL
29 <fcf9f3e7cf9f3f7e> FMFILL
30 <7fbfdfeff7fbfdfe> FMFILL
%%EndSetup
%%Page: "mini" 1
%%BeginPaperSize: Letter
%%EndPaperSize
612 792 1 FMBEGINPAGE
[0 0 0 1 0 0 0]
[ 0 1 1 0 1 0 0]
[ 1 0 1 0 0 1 0]
[ 1 1 0 0 0 0 1]
[ 1 0 0 0 0 1 1]
[ 0 1 0 0 1 0 1]
[ 0 0 1 0 1 1 0]
[ 1 0.6 0 0.06 0 0.18 0.6]
 8 FrameSetSepColors
FrameNoSep
0 0 0 1 0 0 0 K
J
400.5 264.7 765 707.3 C
0 0 0 1 0 0 0 K
0 4.34 Q
0 X
0 0 0 1 0 0 0 K
1.74 (PURIFY USER\325S GUIDE) 511.15 683.43 S
1 0.6 0 0.06 0 0.18 0.6 K
504.64 713.81 504.64 612.27 2 L
0.36 H
0 Z
1 0.6 0 0.06 0 0.18 0.6 K
N
439.55 612.27 504.64 612.27 2 L
N
0 0 0 1 0 0 0 K
1 5.06 Q
0 0 0 1 0 0 0 K
(11-1) 722.32 285.67 T
0 0 0 1 0 0 0 K
0 0 0 1 0 0 0 K
1 0.6 0 0.06 0 0.18 0.6 K
1 54.24 Q
1 0.6 0 0.06 0 0.18 0.6 K
(11) 440.35 622.97 T
0 0 0 1 0 0 0 K
1 0.6 0 0.06 0 0.18 0.6 K
0 11.57 Q
(Using Pur) 511.15 622.78 T
(ify Options and API Functions) 562.12 622.78 T
0 0 0 1 0 0 0 K
2 7.23 Q
0 0 0 1 0 0 0 K
(This c) 511.15 585.32 T
(hapter describes how to use Purify options and Application) 531.19 585.32 T
(Programming Interface \050API\051 functions) 511.15 575.92 T
(. It inc) 642.21 575.92 T
(ludes:) 663.85 575.92 T
1 0.6 0 0.06 0 0.18 0.6 K
3 3.47 Q
1 0.6 0 0.06 0 0.18 0.6 K
(n) 511.15 563.05 T
0 0 0 1 0 0 0 K
2 7.23 Q
0 0 0 1 0 0 0 K
(Purify option syntax) 517.66 561.31 T
1 0.6 0 0.06 0 0.18 0.6 K
3 3.47 Q
1 0.6 0 0.06 0 0.18 0.6 K
(n) 511.15 551.04 T
0 0 0 1 0 0 0 K
2 7.23 Q
0 0 0 1 0 0 0 K
(Purify option types) 517.66 549.3 T
1 0.6 0 0.06 0 0.18 0.6 K
3 3.47 Q
1 0.6 0 0.06 0 0.18 0.6 K
(n) 511.15 539.04 T
0 0 0 1 0 0 0 K
2 7.23 Q
0 0 0 1 0 0 0 K
(Purify option processing) 517.66 537.3 T
(And instructions for:) 511.15 525.29 T
1 0.6 0 0.06 0 0.18 0.6 K
3 3.47 Q
1 0.6 0 0.06 0 0.18 0.6 K
(n) 511.15 512.42 T
0 0 0 1 0 0 0 K
2 7.23 Q
0 0 0 1 0 0 0 K
(Using the) 517.66 510.69 T
4 6.51 Q
(-ignore-runtime-environment) 552.35 510.69 T
2 7.23 Q
( option) 657.8 510.69 T
1 0.6 0 0.06 0 0.18 0.6 K
3 3.47 Q
1 0.6 0 0.06 0 0.18 0.6 K
(n) 511.15 500.42 T
0 0 0 1 0 0 0 K
2 7.23 Q
0 0 0 1 0 0 0 K
(Calling Purify API functions from a debugger) 517.66 498.68 T
1 0.6 0 0.06 0 0.18 0.6 K
3 3.47 Q
1 0.6 0 0.06 0 0.18 0.6 K
(n) 511.15 488.41 T
0 0 0 1 0 0 0 K
2 7.23 Q
0 0 0 1 0 0 0 K
(Calling Purify API functions from your program) 517.66 486.67 T
1 0.6 0 0.06 0 0.18 0.6 K
3 3.47 Q
1 0.6 0 0.06 0 0.18 0.6 K
(n) 511.15 476.41 T
0 0 0 1 0 0 0 K
2 7.23 Q
0 0 0 1 0 0 0 K
(Linking with the Purify stubs library) 517.66 474.67 T
(F) 511.15 462.67 T
(or a complete list of Purify options and API functions) 515.58 462.67 T
(, see) 692.59 462.67 T
(Chapter 12, \322Options and API Reference) 511.15 453.26 T
(.) 646.16 453.26 T
(\323) 647.9 453.26 T
0 0 0 1 0 0 0 K
FMENDPAGE
%%EndPage: "mini" 1
%%Page: "mini" 2
612 792 1 FMBEGINPAGE
[0 0 0 1 0 0 0]
[ 0 1 1 0 1 0 0]
[ 1 0 1 0 0 1 0]
[ 1 1 0 0 0 0 1]
[ 1 0 0 0 0 1 1]
[ 0 1 0 0 1 0 1]
[ 0 0 1 0 1 1 0]
[ 1 0.6 0 0.06 0 0.18 0.6]
 8 FrameSetSepColors
FrameNoSep
27 264.7 391.5 707.3 C
0 0 0 1 0 0 0 K
1 5.06 Q
0 X
0 0 0 1 0 0 0 K
(11-2) 59.55 285.67 T
0 F
(  Purify User\325s Guide) 69.68 285.67 T
0 0 0 1 0 0 0 K
0 0 0 1 0 0 0 K
1 0.6 0 0.06 0 0.18 0.6 K
1 7.95 Q
1 0.6 0 0.06 0 0.18 0.6 K
(Using Purify options) 59.55 649.93 T
0 0 0 1 0 0 0 K
1 0.6 0 0.06 0 0.18 0.6 K
(Purify option syntax) 131.14 630.11 T
0 0 0 1 0 0 0 K
2 7.23 Q
0 0 0 1 0 0 0 K
(A Purify option consists of a word or phrase that begins with a) 131.14 615.98 T
(hyphen. F) 131.14 606.58 T
(or example:) 164.5 606.58 T
4 5.79 Q
(-leaks-at-exit=no) 137.65 592.94 T
1 0.6 0 0.06 0 0.18 0.6 K
3 3.47 Q
1 0.6 0 0.06 0 0.18 0.6 K
(n) 131.14 579.97 T
0 0 0 1 0 0 0 K
2 7.23 Q
0 0 0 1 0 0 0 K
(The leading hyphen is required.) 137.65 578.23 T
1 0.6 0 0.06 0 0.18 0.6 K
3 3.47 Q
1 0.6 0 0.06 0 0.18 0.6 K
(n) 131.14 567.96 T
0 0 0 1 0 0 0 K
2 7.23 Q
0 0 0 1 0 0 0 K
(No space is allowed on either side of the equal sign \050=\051.) 137.65 566.23 T
1 0.6 0 0.06 0 0.18 0.6 K
3 3.47 Q
1 0.6 0 0.06 0 0.18 0.6 K
(n) 131.14 555.96 T
0 0 0 1 0 0 0 K
2 7.23 Q
0 0 0 1 0 0 0 K
(Purify ignores case) 137.65 554.22 T
(, hyphens) 201.14 554.22 T
(, and underscores in the option) 233.23 554.22 T
(name) 137.65 544.82 T
(. F) 156.01 544.82 T
(or example) 164.46 544.82 T
(, the option) 201.16 544.82 T
4 6.51 Q
(-leaks-at-exit) 240.94 544.82 T
2 7.23 Q
( is equivalent to) 295.61 544.82 T
4 6.51 Q
(-LEAKS_AT_EXIT) 137.65 535.42 T
2 7.23 Q
( and) 192.33 535.42 T
4 6.51 Q
(-LeaksAtExit) 208.94 535.42 T
2 7.23 Q
(.) 255.8 535.42 T
1 0.6 0 0.06 0 0.18 0.6 K
3 3.47 Q
1 0.6 0 0.06 0 0.18 0.6 K
(n) 131.14 525.15 T
0 0 0 1 0 0 0 K
2 7.23 Q
0 0 0 1 0 0 0 K
(F) 137.65 523.41 T
(or options that take a list of directories) 142.08 523.41 T
(, you can specify the) 271.96 523.41 T
(directory names separated by spaces or colons \050:\051. F) 137.65 514.01 T
(or example:) 308.69 514.01 T
4 5.79 Q
(% purify -user-path=\325/usr/home/program /usr/home/program1\325) 137.65 502.97 T
2 7.23 Q
(or) 137.65 488.27 T
4 5.79 Q
(% purify -user-path=/usr/home/program:/usr/home/program1) 137.65 477.23 T
1 0.6 0 0.06 0 0.18 0.6 K
3 3.47 Q
1 0.6 0 0.06 0 0.18 0.6 K
(n) 131.14 464.26 T
0 0 0 1 0 0 0 K
2 7.23 Q
0 0 0 1 0 0 0 K
(Specify a list of addresses or signals separated by commas \050,\051.) 137.65 462.52 T
(F) 137.65 453.12 T
(or example:) 142.08 453.12 T
4 5.79 Q
(% purify -mail-to-user=chris,pat,kam) 137.65 442.08 T
1 0.6 0 0.06 0 0.18 0.6 K
3 3.47 Q
1 0.6 0 0.06 0 0.18 0.6 K
(n) 131.14 429.11 T
0 0 0 1 0 0 0 K
2 7.23 Q
0 0 0 1 0 0 0 K
(Y) 137.65 427.37 T
(ou can use wildcards) 142.02 427.37 T
(. F) 211.22 427.37 T
(or example) 219.66 427.37 T
(, in \336lenames:) 256.37 427.37 T
4 6.51 Q
(program*) 305.26 427.37 T
2 7.23 Q
(matc) 137.65 417.97 T
(hes) 154.08 417.97 T
4 6.51 Q
(program4) 167.47 417.97 T
2 7.23 Q
(,) 198.71 417.97 T
4 6.51 Q
(/dira/dirb/program.o) 202.73 417.97 T
2 7.23 Q
(, and) 280.71 417.97 T
4 6.51 Q
(/dira/dirb/program1.o) 137.65 408.57 T
2 7.23 Q
(.) 219.53 408.57 T
1 F
(Using con) 131.14 393.96 T
(ver) 165.81 393.96 T
(sion c) 176.56 393.96 T
(haracter) 197.39 393.96 T
(s in \336lenames) 225.82 393.96 T
2 F
(Y) 131.14 381.95 T
(ou can use conversion c) 135.51 381.95 T
(haracters when you specify \336lenames for) 213.4 381.95 T
(options suc) 131.14 372.55 T
(h as) 168.32 372.55 T
4 6.51 Q
(-log-file) 184.13 372.55 T
2 7.23 Q
(,) 219.15 372.55 T
4 6.51 Q
(-watchpoints-file) 223.17 372.55 T
2 7.23 Q
(, and) 289.43 372.55 T
4 6.51 Q
(-view-file) 308.05 372.55 T
2 7.23 Q
(.) 346.98 372.55 T
(Purify supports these conversion c) 131.14 363.15 T
(haracters:) 245.86 363.15 T
1 6.51 Q
(Character) 133.56 345.41 T
(Con) 197.88 345.41 T
(ver) 210.28 345.41 T
(ts to) 220.18 345.41 T
4 F
(%V) 133.56 330.95 T
0 5.79 Q
(Full pathname of the prog) 197.88 331.43 T
(r) 263.76 331.43 T
(am with \322/\323 replaced b) 265.62 331.43 T
(y \322_\323) 321.13 331.43 T
4 6.51 Q
(%v) 133.56 317.93 T
0 5.79 Q
(Prog) 197.88 318.41 T
(r) 210.05 318.41 T
(am name) 211.92 318.41 T
4 6.51 Q
(%p) 133.56 304.91 T
0 5.79 Q
(Process id \050pid\051) 197.88 305.39 T
1 0.6 0 0.06 0 0.18 0.6 K
131.39 355.53 352.45 355.53 2 L
1 0.6 0 0.06 0 0.18 0.6 K
V
1.45 H
0 Z
N
131.39 339.62 352.45 339.62 2 L
V
N
0 0 0 1 0 0 0 K
131.39 326.61 352.45 326.61 2 L
0 0 0 1 0 0 0 K
V
0.36 H
N
131.39 313.59 352.45 313.59 2 L
V
N
1 0.6 0 0.06 0 0.18 0.6 K
131.39 300.57 352.45 300.57 2 L
1 0.6 0 0.06 0 0.18 0.6 K
V
1.45 H
N
0 0 0 1 0 0 0 K
1 0.6 0 0.06 0 0.18 0.6 K
0 0 0 1 0 0 0 K
400.5 264.7 765 707.3 C
0 0 0 1 0 0 0 K
0 5.06 Q
0 X
0 0 0 1 0 0 0 K
(Using Purify Options and API Functions) 630.6 285.67 T
1 F
(11-3) 722.32 285.67 T
0 0 0 1 0 0 0 K
0 0 0 1 0 0 0 K
2 7.23 Q
(If the \336lename is unquali\336ed \050does not contain \322) 511.15 650.41 T
4 6.51 Q
(/) 671.48 650.41 T
2 7.23 Q
(\323\051, Purify writes) 675.39 650.41 T
(it to the directory where the program resides) 511.15 641.01 T
(. Quali\336ed \336lenames) 660.83 641.01 T
(can be absolute or relative to the current working directory) 511.15 631.6 T
(. F) 707.8 631.6 T
(or) 716.25 631.6 T
(example) 511.15 622.2 T
(, if you specify the option:) 539.02 622.2 T
4 6.51 Q
(-log-file=./%v.plog) 511.15 608.56 T
2 7.23 Q
(Purify writes the log \336le to the current working directory) 511.15 593.85 T
(. If the) 700.69 593.85 T
(program is called) 511.15 584.45 T
4 6.51 Q
(test) 570.89 584.45 T
2 7.23 Q
(, the log \336le is called) 586.51 584.45 T
4 6.51 Q
(./test.plog) 656.71 584.45 T
(.) 699.08 584.45 T
1 0.6 0 0.06 0 0.18 0.6 K
1 7.95 Q
1 0.6 0 0.06 0 0.18 0.6 K
(Purify option types) 511.15 564.16 T
0 0 0 1 0 0 0 K
2 7.23 Q
0 0 0 1 0 0 0 K
(Purify uses three types of options: boolean, string) 511.15 550.03 T
(, and integer) 676.12 550.03 T
(.) 717.85 550.03 T
1 0.6 0 0.06 0 0.18 0.6 K
3 3.47 Q
1 0.6 0 0.06 0 0.18 0.6 K
(n) 511.15 537.16 T
0 0 0 1 0 0 0 K
2 7.23 Q
0 0 0 1 0 0 0 K
(Boolean options take the values) 517.66 535.42 T
4 6.51 Q
(yes) 625.9 535.42 T
2 7.23 Q
( or) 637.61 535.42 T
4 6.51 Q
(no) 648.46 535.42 T
2 7.23 Q
(, or) 656.14 535.42 T
4 6.51 Q
(true) 669 535.42 T
2 7.23 Q
( or) 684.62 535.42 T
4 6.51 Q
(false) 695.47 535.42 T
2 7.23 Q
(.) 714.86 535.42 T
(If you do not specify an explicit value) 517.66 526.02 T
(, the value is) 641.55 526.02 T
4 6.51 Q
(yes) 686.3 526.02 T
2 7.23 Q
(. F) 697.83 526.02 T
(or) 706.28 526.02 T
(example) 517.66 516.62 T
(, the option settings) 545.53 516.62 T
4 6.51 Q
(-leaks-at-exit) 613.84 516.62 T
2 7.23 Q
( and) 668.52 516.62 T
4 6.51 Q
(-leaks-at-exit=yes) 517.66 507.21 T
2 7.23 Q
( are identical.) 587.96 507.21 T
1 0.6 0 0.06 0 0.18 0.6 K
3 3.47 Q
1 0.6 0 0.06 0 0.18 0.6 K
(n) 511.15 496.95 T
0 0 0 1 0 0 0 K
2 7.23 Q
0 0 0 1 0 0 0 K
(String options can be a string of any kind. String options are) 517.66 495.21 T
-0.29 (used for program, directory and \336le names) 517.66 485.81 P
-0.29 (, lists of \336le descriptor) 657.83 485.81 P
(numbers) 517.66 476.41 T
(, and lists of mail users) 546.94 476.41 T
(.) 624.46 476.41 T
(If you do not specify an explicit value for a string option, the) 517.66 464.4 T
(value is c) 517.66 455 T
(leared. F) 548.69 455 T
(or example) 578.03 455 T
(, the option) 614.73 455 T
4 6.51 Q
(-log-file=./pureout) 654.51 455 T
2 7.23 Q
(routes Purify messages to the \336le) 517.66 445.6 T
4 6.51 Q
(pureout) 630.97 445.6 T
2 7.23 Q
( in the current) 658.31 445.6 T
(directory) 517.66 436.2 T
(. The option) 546.75 436.2 T
4 6.51 Q
(-log-file=) 588.54 436.2 T
2 7.23 Q
(, without a value) 627.6 436.2 T
(, c) 683.73 436.2 T
(lears any) 690.91 436.2 T
(default speci\336cation of a log\336le) 517.66 426.79 T
(.) 620.8 426.79 T
1 0.6 0 0.06 0 0.18 0.6 K
3 3.47 Q
1 0.6 0 0.06 0 0.18 0.6 K
(n) 511.15 416.52 T
0 0 0 1 0 0 0 K
2 7.23 Q
0 0 0 1 0 0 0 K
(Integer options can be set to any whole number) 517.66 414.79 T
(. F) 675.26 414.79 T
(or example) 683.7 414.79 T
(,) 720.41 414.79 T
-0.26 (the option) 517.66 405.39 P
4 6.51 Q
-0.51 (-chain-length=10) 552.89 405.39 P
2 7.23 Q
-0.26 ( increases the length of the printed) 615.38 405.39 P
(function call c) 517.66 395.98 T
(hains from the default of 6 to 10. An optional sign) 564.21 395.98 T
(can be speci\336ed. Integer values cannot be c) 517.66 386.58 T
(leared.) 661.19 386.58 T
0 0 0 1 0 0 0 K
FMENDPAGE
%%EndPage: "mini" 2
%%Page: "mini" 3
612 792 1 FMBEGINPAGE
[0 0 0 1 0 0 0]
[ 0 1 1 0 1 0 0]
[ 1 0 1 0 0 1 0]
[ 1 1 0 0 0 0 1]
[ 1 0 0 0 0 1 1]
[ 0 1 0 0 1 0 1]
[ 0 0 1 0 1 1 0]
[ 1 0.6 0 0.06 0 0.18 0.6]
 8 FrameSetSepColors
FrameNoSep
27 264.7 391.5 707.3 C
0 0 0 1 0 0 0 K
1 5.06 Q
0 X
0 0 0 1 0 0 0 K
(11-4) 59.55 285.67 T
0 F
(  Purify User\325s Guide) 69.68 285.67 T
0 0 0 1 0 0 0 K
0 0 0 1 0 0 0 K
1 0.6 0 0.06 0 0.18 0.6 K
1 7.95 Q
1 0.6 0 0.06 0 0.18 0.6 K
(Purify option pr) 131.14 649.93 T
(ocessing) 190.21 649.93 T
0 0 0 1 0 0 0 K
2 7.23 Q
0 0 0 1 0 0 0 K
(Y) 131.14 635.8 T
(ou can specify Purify options in the V) 135.51 635.8 T
(iewer) 260.07 635.8 T
(, in environment) 277.69 635.8 T
(variables) 131.14 626.4 T
(, and on the link line) 161.64 626.4 T
(. Purify processes options in this) 230.9 626.4 T
(order \050highest precedence \336rst\051:) 131.14 617 T
1 0.6 0 0.06 0 0.18 0.6 K
3 3.47 Q
1 0.6 0 0.06 0 0.18 0.6 K
(n) 131.14 604.12 T
0 0 0 1 0 0 0 K
2 7.23 Q
0 0 0 1 0 0 0 K
(Options speci\336ed in the V) 137.65 602.39 T
(iewer) 223.37 602.39 T
1 0.6 0 0.06 0 0.18 0.6 K
3 3.47 Q
1 0.6 0 0.06 0 0.18 0.6 K
(n) 131.14 592.12 T
0 0 0 1 0 0 0 K
2 7.23 Q
0 0 0 1 0 0 0 K
(Options speci\336ed in the) 137.65 590.38 T
4 6.51 Q
(PURIFYOPTIONS) 218.28 590.38 T
2 7.23 Q
( or) 269.05 590.38 T
4 6.51 Q
(PUREOPTIONS) 279.9 590.38 T
2 7.23 Q
(environment variables) 137.65 580.98 T
1 0.6 0 0.06 0 0.18 0.6 K
3 3.47 Q
1 0.6 0 0.06 0 0.18 0.6 K
(n) 131.14 570.71 T
0 0 0 1 0 0 0 K
2 7.23 Q
0 0 0 1 0 0 0 K
(Options speci\336ed on the link line) 137.65 568.98 T
1 F
(Specifying options in the Purify Vie) 131.14 554.37 T
(wer) 252.4 554.37 T
2 F
(T) 131.14 542.36 T
(o specify options in the Purify V) 135.57 542.36 T
(iewer) 242.05 542.36 T
(, select) 259.67 542.36 T
5 F
(Runtime) 284.59 542.36 T
2 F
( from the) 308.31 542.36 T
(Options menu.) 131.14 532.96 T
(The Runtime dialog displa) 131.14 518.35 T
(ys the option values in use for the) 219.61 518.35 T
(current program run.) 131.14 508.95 T
-0.09 (Purify applies the options set in the V) 131.14 494.34 P
-0.09 (iewer on subsequent runs of) 256.98 494.34 P
-0.09 (the program displa) 131.14 484.94 P
-0.09 (yed in the V) 194.52 484.94 P
-0.09 (iewer) 234.57 484.94 P
-0.09 (. Options set in the V) 252.2 484.94 P
-0.09 (iewer do) 322.48 484.94 P
6 F
(not) 131.14 475.54 T
2 F
( modify either the default values in the program, or the) 141.72 475.54 T
(environment variables) 131.14 466.14 T
(. When you quit the V) 206.37 466.14 T
(iewer and rerun the) 279.37 466.14 T
(application, the option values revert to their original settings) 131.14 456.73 T
(.) 335.23 456.73 T
1 0.6 0 0.06 0 0.18 0.6 K
1 F
1 0.6 0 0.06 0 0.18 0.6 K
(Note:) 131.14 442.13 T
0 0 0 1 0 0 0 K
2 F
0 0 0 1 0 0 0 K
-0.28 (Purify sends the values of options speci\336ed in the V) 154.58 442.13 P
-0.28 (iewer to) 324.2 442.13 P
(the application at start-up time) 131.14 432.72 T
(. Therefore) 236.3 432.72 T
(, you cannot modify) 272.73 432.72 T
(options while your program is running) 131.14 423.32 T
(.) 259.8 423.32 T
1 F
(Specifying options in en) 131.14 408.71 T
(vir) 214.44 408.71 T
(onment v) 223.14 408.71 T
(ariab) 255.14 408.71 T
(les) 272.36 408.71 T
2 F
(Y) 131.14 396.71 T
(ou can specify any Purify option in the) 135.51 396.71 T
4 6.51 Q
(PURIFYOPTIONS) 265.96 396.71 T
2 7.23 Q
( and) 316.73 396.71 T
4 6.51 Q
-0.38 (PUREOPTIONS) 131.14 387.31 P
2 7.23 Q
-0.2 ( environment variables) 174.1 387.31 P
-0.2 (. V) 250.94 387.31 P
-0.2 (alues in) 259.37 387.31 P
4 6.51 Q
-0.38 (PUREOPTIONS) 287.38 387.31 P
2 7.23 Q
-0.2 ( apply) 330.33 387.31 P
(to Purify) 131.14 377.9 T
(, PureCoverage) 159.7 377.9 T
(, and Quantify softw) 210.73 377.9 T
(are products) 278.92 377.9 T
(. The) 320.52 377.9 T
(values speci\336ed in) 131.14 368.5 T
4 6.51 Q
(PURIFYOPTIONS) 194.23 368.5 T
2 7.23 Q
( take precedence over) 245 368.5 T
4 6.51 Q
(PUREOPTIONS) 131.14 359.1 T
2 7.23 Q
(.) 173.84 359.1 T
(Purify applies) 131.14 344.49 T
6 F
(build-time) 180.03 344.49 T
2 F
( options speci\336ed in environment) 214.71 344.49 T
(variables when a Purify\325) 131.14 335.09 T
(d application is built. Any build-time) 212.19 335.09 T
(options on the link line override environment variables) 131.14 325.69 T
(.) 315 325.69 T
0 0 0 1 0 0 0 K
400.5 264.7 765 707.3 C
0 0 0 1 0 0 0 K
0 5.06 Q
0 X
0 0 0 1 0 0 0 K
(Using Purify Options and API Functions) 630.6 285.67 T
1 F
(11-5) 722.32 285.67 T
0 0 0 1 0 0 0 K
0 0 0 1 0 0 0 K
2 7.23 Q
-0.23 (Purify applies) 511.15 650.41 P
6 F
-0.23 (run-time) 559.58 650.41 P
2 F
-0.23 ( options speci\336ed in environment variables) 588.64 650.41 P
(when you run the Purify\325) 511.15 641.01 T
(d program. The environment values in) 594.32 641.01 T
-0.19 (force when you run the program override any defaults speci\336ed on) 511.15 631.6 P
(the link line) 511.15 622.2 T
(.) 551.75 622.2 T
(If an option is speci\336ed more than once in an environment) 511.15 607.59 T
-0.29 (variable) 511.15 598.19 P
-0.29 (, Purify applies the) 538.35 598.19 P
6 F
-0.29 (\336r) 602.96 598.19 P
-0.29 (st) 610.52 598.19 P
2 F
-0.29 ( value it sees) 616.27 598.19 P
-0.29 (. T) 658.49 598.19 P
-0.29 (o add an overriding) 666.65 598.19 P
(value for the) 511.15 588.79 T
4 6.51 Q
(-log-file) 555.48 588.79 T
2 7.23 Q
( option without c) 590.63 588.79 T
(hanging other options) 646.7 588.79 T
(speci\336ed, use a command like:) 511.15 579.39 T
4 5.61 Q
(csh) 511.15 565.87 T
(% setenv PURIFYOPTIONS) 538.88 565.87 T
("-log-file=new $PURIFYOPTIONS") 616.22 565.87 T
(sh, ksh) 511.15 556.65 T
($ PURIFYOPTIONS="-log-file=new $PURIFYOPTIONS"; export\134) 538.88 556.65 T
(PURIFYOPTIONS) 545.87 547.42 T
1 7.23 Q
(Using the PUREOPTIONS en) 511.15 531.91 T
(vir) 608.91 531.91 T
(onment v) 617.62 531.91 T
(ariab) 649.62 531.91 T
(le) 666.83 531.91 T
2 F
(Y) 511.15 519.91 T
(ou can use the) 515.52 519.91 T
4 6.51 Q
(PUREOPTIONS) 565.48 519.91 T
2 7.23 Q
( environment variable to set options) 608.44 519.91 T
(that apply to Purify) 511.15 510.51 T
(, PureCoverage) 576.28 510.51 T
(, and Quantify softw) 627.31 510.51 T
(are) 695.5 510.51 T
(products) 511.15 501.1 T
(.) 539.89 501.1 T
(F) 511.15 486.49 T
(or example) 515.58 486.49 T
(, if your site has a central shared \336le that is sourced) 552.28 486.49 T
(by all users\325) 511.15 477.09 T
4 6.51 Q
(.cshrc) 553.08 477.09 T
2 7.23 Q
( or) 576.52 477.09 T
4 6.51 Q
(.profile) 587.36 477.09 T
2 7.23 Q
( \336les) 618.61 477.09 T
(, you can set) 634.1 477.09 T
4 6.51 Q
(-cache-dir=alternate/dir) 511.15 467.69 T
2 7.23 Q
( in the) 604.88 467.69 T
4 6.51 Q
(PUREOPTIONS) 628.46 467.69 T
2 7.23 Q
( environment) 671.41 467.69 T
(variable to apply to all users) 511.15 458.29 T
(.) 606.22 458.29 T
1 F
(Specifying options on the link line) 511.15 443.68 T
2 F
(Y) 511.15 431.67 T
(ou can specify any Purify option on the link line) 515.52 431.67 T
(. F) 675.04 431.67 T
(or example:) 683.49 431.67 T
4 5.79 Q
(purify -cache-dir=$HOME/pcache -always-use-cache-dir $CC ...) 511.15 418.03 T
2 7.23 Q
(Purify applies build-time options to the Purify build command) 511.15 403.33 T
(being run. Purify builds run-time options into the executable so) 511.15 393.92 T
(that they become the default values for the Purify\325) 511.15 384.52 T
(d executable) 678.98 384.52 T
(.) 720.51 384.52 T
(This is a convenient w) 511.15 375.12 T
(a) 585.5 375.12 T
(y to build a program with nonstandard) 589.45 375.12 T
(default values for run-time options) 511.15 365.72 T
(. F) 627.36 365.72 T
(or example:) 635.8 365.72 T
4 5.79 Q
(purify -chain-length=12 $CC ...) 511.15 352.08 T
0 0 0 1 0 0 0 K
FMENDPAGE
%%EndPage: "mini" 3
%%Page: "mini" 4
612 792 1 FMBEGINPAGE
[0 0 0 1 0 0 0]
[ 0 1 1 0 1 0 0]
[ 1 0 1 0 0 1 0]
[ 1 1 0 0 0 0 1]
[ 1 0 0 0 0 1 1]
[ 0 1 0 0 1 0 1]
[ 0 0 1 0 1 1 0]
[ 1 0.6 0 0.06 0 0.18 0.6]
 8 FrameSetSepColors
FrameNoSep
27 264.7 391.5 707.3 C
0 0 0 1 0 0 0 K
1 5.06 Q
0 X
0 0 0 1 0 0 0 K
(11-6) 59.55 285.67 T
0 F
(  Purify User\325s Guide) 69.68 285.67 T
0 0 0 1 0 0 0 K
0 0 0 1 0 0 0 K
1 0.6 0 0.06 0 0.18 0.6 K
1 7.95 Q
1 0.6 0 0.06 0 0.18 0.6 K
(Using the -ignore-runtime-en) 131.14 649.93 T
(vir) 240 649.93 T
(onment option) 249.57 649.93 T
0 0 0 1 0 0 0 K
2 7.23 Q
0 0 0 1 0 0 0 K
(Y) 131.14 635.8 T
(ou can use the) 135.51 635.8 T
4 6.51 Q
(-ignore-runtime-environment) 185.47 635.8 T
2 7.23 Q
( option when you) 290.91 635.8 T
(build your executable to make sure that the run-time options you) 131.14 626.4 T
(specify remain in effect whenever the executable is run.) 131.14 617 T
(The) 131.14 602.39 T
4 6.51 Q
(-ignore-runtime-environment) 146.01 602.39 T
2 7.23 Q
( builds into an executable all) 251.46 602.39 T
(the run-time options speci\336ed on the link line along with any) 131.14 592.99 T
-0.16 (run-time options speci\336ed in the) 131.14 583.59 P
4 6.51 Q
-0.31 (PURIFYOPTIONS) 240.57 583.59 P
2 7.23 Q
-0.16 ( and) 291.34 583.59 P
4 6.51 Q
-0.31 (PUREOPTIONS) 307.64 583.59 P
2 7.23 Q
(environment variables) 131.14 574.18 T
(.) 206.37 574.18 T
(The) 131.14 559.57 T
4 6.51 Q
(-ignore-runtime-environment) 146.01 559.57 T
2 7.23 Q
( option also builds in) 251.46 559.57 T
(suppressions) 131.14 550.17 T
(. If you do not explicitly specify the) 174.22 550.17 T
4 6.51 Q
(-suppression-filenames) 131.14 540.77 T
2 7.23 Q
( option, Purify uses the default) 217.06 540.77 T
(suppression \336les) 131.14 531.37 T
4 6.51 Q
(.purify) 188.73 531.37 T
2 7.23 Q
( and) 216.07 531.37 T
4 6.51 Q
(.purify.<platform>) 232.68 531.37 T
2 7.23 Q
(.) 302.98 531.37 T
(When the Purify\325) 131.14 516.76 T
(d program is run, Purify ignores the current) 187.79 516.76 T
(option values set in environment variables in preference to the) 131.14 507.36 T
-0.14 (built-in values) 131.14 497.96 P
-0.14 (. In the V) 179.31 497.96 P
-0.14 (iewer) 210.24 497.96 P
-0.14 (, Purify lets you displa) 227.86 497.96 P
-0.14 (y the run-time) 302.51 497.96 P
(options set for the executable but does not let you c) 131.14 488.56 T
(hange them.) 301.47 488.56 T
(Use the) 131.14 473.95 T
4 6.51 Q
(-ignore-runtime-environment) 158.87 473.95 T
2 7.23 Q
( option when:) 264.32 473.95 T
1 0.6 0 0.06 0 0.18 0.6 K
3 3.47 Q
1 0.6 0 0.06 0 0.18 0.6 K
(n) 131.14 461.07 T
0 0 0 1 0 0 0 K
2 7.23 Q
0 0 0 1 0 0 0 K
(Y) 137.65 459.34 T
(ou w) 142.02 459.34 T
(ant someone else to run your program without their) 157.56 459.34 T
(run-time environment modifying your run-time option) 137.65 449.94 T
(speci\336cations) 137.65 440.54 T
(.) 182.2 440.54 T
1 0.6 0 0.06 0 0.18 0.6 K
3 3.47 Q
1 0.6 0 0.06 0 0.18 0.6 K
(n) 131.14 430.27 T
0 0 0 1 0 0 0 K
2 7.23 Q
0 0 0 1 0 0 0 K
(Y) 137.65 428.53 T
(our program is started automatically by another program and) 142.02 428.53 T
(you cannot set the environment variable for that program.) 137.65 419.13 T
1 0.6 0 0.06 0 0.18 0.6 K
3 3.47 Q
1 0.6 0 0.06 0 0.18 0.6 K
(n) 131.14 408.86 T
0 0 0 1 0 0 0 K
2 7.23 Q
0 0 0 1 0 0 0 K
-0.27 (Y) 137.65 407.12 P
-0.27 (ou ha) 142.02 407.12 P
-0.27 (ve several Purify\325) 160.16 407.12 P
-0.27 (d programs running at one time and you) 217.34 407.12 P
(cannot specify options for eac) 137.65 397.72 T
(h program.) 235.37 397.72 T
1 0.6 0 0.06 0 0.18 0.6 K
3 3.47 Q
1 0.6 0 0.06 0 0.18 0.6 K
(n) 131.14 387.45 T
0 0 0 1 0 0 0 K
2 7.23 Q
0 0 0 1 0 0 0 K
(Y) 137.65 385.72 T
(ou use the) 142.02 385.72 T
4 6.51 Q
(-mail-to-user) 178.32 385.72 T
2 7.23 Q
( option. See \322Mailing Purify output) 229.09 385.72 T
(to developers\323 on page 6-6, and) 137.65 376.31 T
(\322Mail mode option\323 on page) 243.27 376.31 T
(12-13) 137.65 366.91 T
7 F
(.) 156.15 366.91 T
2 F
(T) 131.14 354.91 T
(o \336nd out what options are built into a Purify\325) 135.57 354.91 T
(d program, use:) 288.27 354.91 T
4 5.79 Q
(% <) 131.14 341.26 T
(purifyhome>) 141.56 341.26 T
(/purify_what_options <program name>) 179.74 341.26 T
1 0.6 0 0.06 0 0.18 0.6 K
1 7.23 Q
1 0.6 0 0.06 0 0.18 0.6 K
(Note:) 131.14 326.56 T
0 0 0 1 0 0 0 K
2 F
0 0 0 1 0 0 0 K
(Use the) 154.58 326.56 T
4 6.51 Q
(-ignore-runtime-environment) 182.3 326.56 T
2 7.23 Q
( option at build) 287.75 326.56 T
(time only) 131.14 317.16 T
(. Purify ignores this option if you specify it at run time) 161.58 317.16 T
(.) 343.34 317.16 T
0 0 0 1 0 0 0 K
400.5 264.7 765 707.3 C
0 0 0 1 0 0 0 K
0 5.06 Q
0 X
0 0 0 1 0 0 0 K
(Using Purify Options and API Functions) 630.6 285.67 T
1 F
(11-7) 722.32 285.67 T
0 0 0 1 0 0 0 K
0 0 0 1 0 0 0 K
1 0.6 0 0.06 0 0.18 0.6 K
1 7.95 Q
1 0.6 0 0.06 0 0.18 0.6 K
(Using Purify API functions) 439.55 649.93 T
0 0 0 1 0 0 0 K
2 7.23 Q
0 0 0 1 0 0 0 K
(Y) 511.15 635.8 T
(ou can call Purify API functions from a debugger or from your) 515.52 635.8 T
(program. Unless otherwise speci\336ed, Purify functions return 0,) 511.15 626.4 T
(indicating success) 511.15 617 T
(.) 571.24 617 T
1 0.6 0 0.06 0 0.18 0.6 K
1 7.95 Q
1 0.6 0 0.06 0 0.18 0.6 K
(Calling Purify API functions fr) 511.15 596.7 T
(om a deb) 623.71 596.7 T
(ug) 658.48 596.7 T
(g) 668.12 596.7 T
(er) 673.06 596.7 T
0 0 0 1 0 0 0 K
2 7.23 Q
0 0 0 1 0 0 0 K
(Y) 511.15 582.57 T
(ou can call many Purify functions interactively from a debugger) 515.52 582.57 T
(.) 727.88 582.57 T
(Some) 511.15 573.17 T
(, suc) 529.24 573.17 T
(h as the w) 544.19 573.17 T
(atc) 578.35 573.17 T
(hpoint functions) 588.35 573.17 T
(, the leak-detection) 642.8 573.17 T
(functions) 511.15 563.77 T
(,) 541.9 563.77 T
4 6.51 Q
(purify_describe) 545.92 563.77 T
2 7.23 Q
(, and) 604.37 563.77 T
4 6.51 Q
(purify_what_colors) 623 563.77 T
2 7.23 Q
(, are) 693.11 563.77 T
(especially useful when used with a debugger:) 511.15 554.37 T
4 5.79 Q
(\050gdb\051) 511.15 540.72 T
(print purify_describe\050addr\051) 543.7 540.72 T
-0.29 (\050dbx\051) 511.15 531.32 S
-0.29 (call purify_what_colors\050buf, sizeof\050buf\051\051) 543.7 531.32 S
-0.29 (\050xdb\051) 511.15 521.92 S
-0.29 (p purify_describe\050addr\051) 543.7 521.92 S
1 0.6 0 0.06 0 0.18 0.6 K
1 7.95 Q
1 0.6 0 0.06 0 0.18 0.6 K
(Using the function purify_stop_here) 511.15 500.66 T
0 0 0 1 0 0 0 K
2 7.23 Q
0 0 0 1 0 0 0 K
(T) 511.15 486.53 T
(o enhance the power of your debugger) 515.58 486.53 T
(, set a breakpoint on the) 641.28 486.53 T
-0.21 (function) 511.15 477.13 P
4 6.51 Q
-0.41 (purify_stop_here.) 540.53 477.13 P
2 7.23 Q
-0.21 ( This causes your debugger to stop on) 606.92 477.13 P
(every Purify error message) 511.15 467.73 T
(, right after the message is displa) 601.42 467.73 T
(yed) 713.06 467.73 T
(and) 511.15 458.33 T
6 F
(bef) 525.75 458.33 T
(ore) 535.32 458.33 T
2 F
( the error actually occurs in your program:) 545.36 458.33 T
4 5.79 Q
(\050gdb\051) 511.15 444.68 T
(break purify_stop_here) 543.7 444.68 T
-0.29 (\050dbx\051) 511.15 435.28 S
-0.29 (stop in purify_stop_here) 543.7 435.28 S
-0.29 (\050xdb\051) 511.15 425.88 S
-0.29 (b purify_stop_here) 543.7 425.88 S
1 0.6 0 0.06 0 0.18 0.6 K
1 7.23 Q
1 0.6 0 0.06 0 0.18 0.6 K
(Note:) 511.15 411.17 T
0 0 0 1 0 0 0 K
2 F
0 0 0 1 0 0 0 K
(Do) 534.59 411.17 T
6 F
( not) 543.83 411.17 T
2 F
(call) 558.43 411.17 T
4 6.51 Q
(purify_stop_here) 572.23 411.17 T
2 7.23 Q
( directly from your program.) 634.71 411.17 T
(Instead, set a breakpoint on it. Use a call to) 511.15 401.77 T
4 6.51 Q
(purify_stop_here_internal) 511.15 392.37 T
2 7.23 Q
( to force a call to) 608.78 392.37 T
4 6.51 Q
(purify_stop_here) 665.58 392.37 T
2 7.23 Q
(.) 727.93 392.37 T
0 0 0 1 0 0 0 K
FMENDPAGE
%%EndPage: "mini" 4
%%Page: "mini" 5
612 792 1 FMBEGINPAGE
[0 0 0 1 0 0 0]
[ 0 1 1 0 1 0 0]
[ 1 0 1 0 0 1 0]
[ 1 1 0 0 0 0 1]
[ 1 0 0 0 0 1 1]
[ 0 1 0 0 1 0 1]
[ 0 0 1 0 1 1 0]
[ 1 0.6 0 0.06 0 0.18 0.6]
 8 FrameSetSepColors
FrameNoSep
27 264.7 391.5 707.3 C
0 0 0 1 0 0 0 K
1 5.06 Q
0 X
0 0 0 1 0 0 0 K
(11-8) 59.55 285.67 T
0 F
(  Purify User\325s Guide) 69.68 285.67 T
0 0 0 1 0 0 0 K
0 0 0 1 0 0 0 K
1 0.6 0 0.06 0 0.18 0.6 K
1 7.95 Q
1 0.6 0 0.06 0 0.18 0.6 K
(Calling Purify API functions fr) 131.14 649.93 T
(om y) 243.7 649.93 T
(our pr) 262.07 649.93 T
(ogram) 284.89 649.93 T
0 0 0 1 0 0 0 K
2 7.23 Q
0 0 0 1 0 0 0 K
(T) 131.14 635.8 T
(o call Purify functions from) 135.57 635.8 T
2 6.51 Q
(ANSI C) 228.65 635.8 T
2 7.23 Q
( and) 251.91 635.8 T
2 6.51 Q
(C++) 268.52 635.8 T
2 7.23 Q
( programs) 281.11 635.8 T
(, inc) 314.81 635.8 T
(lude) 328.69 635.8 T
(the \336le) 131.14 626.4 T
4 6.51 Q
(purify.h) 156.33 626.4 T
2 7.23 Q
(:) 187.57 626.4 T
4 5.79 Q
(# include <purify.h>) 131.14 612.75 T
2 7.23 Q
(This header \336le is located in the same directory as Purify) 131.14 598.05 T
(. Y) 321.24 598.05 T
(ou) 329.63 598.05 T
(might need to add the compiler option) 131.14 588.65 T
4 6.51 Q
(-I<purifyhome>) 260.13 588.65 T
2 7.23 Q
( in your) 314.8 588.65 T
(make\336le to locate it.) 131.14 579.24 T
-0.18 (On IRIX, you must also link with the Purify API stubs library) 131.14 564.64 P
-0.18 (. See) 334.98 564.64 P
(\322Linking with the Purify stubs library on IRIX\323 below) 131.14 555.23 T
(.) 309.6 555.23 T
1 0.6 0 0.06 0 0.18 0.6 K
1 7.95 Q
1 0.6 0 0.06 0 0.18 0.6 K
(Linking with the Purify stubs librar) 131.14 534.94 T
(y) 262.07 534.94 T
0 0 0 1 0 0 0 K
2 7.23 Q
0 0 0 1 0 0 0 K
(If you call Purify functions in your program, you should link with) 131.14 520.81 T
(the Purify API stub library) 131.14 511.41 T
(. This is a small library that stubs out) 220.65 511.41 T
(all the Purify API functions when you are) 131.14 502.01 T
6 F
(not) 272.44 502.01 T
2 F
( using Purify) 283.02 502.01 T
(. When) 325.51 502.01 T
(you) 131.14 492.61 T
6 F
(are) 145.07 492.61 T
2 F
( using Purify) 155.65 492.61 T
(, the stubs are ignored.) 198.13 492.61 T
(Add the library) 131.14 478 T
4 6.51 Q
(<purifyhome>/libpurify_stubs.a) 184.45 478 T
2 7.23 Q
( to your link) 301.61 478 T
(line) 131.14 468.6 T
(.) 143.6 468.6 T
1 0.6 0 0.06 0 0.18 0.6 K
1 7.95 Q
1 0.6 0 0.06 0 0.18 0.6 K
(Linking with the Purify stubs librar) 131.14 448.3 T
(y on IRIX) 262.07 448.3 T
0 0 0 1 0 0 0 K
2 7.23 Q
0 0 0 1 0 0 0 K
(If you call Purify functions in your program, you should link with) 131.14 434.17 T
(the Purify API stub library) 131.14 424.77 T
(. This is a small library that stubs out) 220.65 424.77 T
(all the Purify) 131.14 415.37 T
2 6.51 Q
(API) 177.62 415.37 T
2 7.23 Q
( functions) 189.31 415.37 T
(. When you are) 222.07 415.37 T
6 F
(not) 274.44 415.37 T
2 F
( using Purify) 285.02 415.37 T
(, these) 327.51 415.37 T
(stubs satisfy the linker; when you) 131.14 405.97 T
6 F
(are) 246.21 405.97 T
2 F
( using Purify) 256.78 405.97 T
(, the stubs are) 299.27 405.97 T
(overridden by Purify but still required. Purify on IRIX inc) 131.14 396.56 T
(ludes) 324.22 396.56 T
(two versions of the stub library:) 131.14 387.16 T
1 0.6 0 0.06 0 0.18 0.6 K
3 3.47 Q
1 0.6 0 0.06 0 0.18 0.6 K
(n) 131.14 374.77 T
0 0 0 1 0 0 0 K
4 6.51 Q
0 0 0 1 0 0 0 K
(libpurify_stubs.so) 137.65 373.04 T
1 0.6 0 0.06 0 0.18 0.6 K
3 3.47 Q
1 0.6 0 0.06 0 0.18 0.6 K
(n) 131.14 363.92 T
0 0 0 1 0 0 0 K
4 6.51 Q
0 0 0 1 0 0 0 K
(libpurify_stubs.a) 137.65 362.19 T
1 0.6 0 0.06 0 0.18 0.6 K
1 7.23 Q
1 0.6 0 0.06 0 0.18 0.6 K
(Note:) 131.14 350.86 T
0 0 0 1 0 0 0 K
2 F
0 0 0 1 0 0 0 K
(If you are using the N32 Application Binary Interface) 154.58 350.86 T
(\050ABI\051, link with these versions of the stub library:) 131.14 341.46 T
1 0.6 0 0.06 0 0.18 0.6 K
3 3.47 Q
1 0.6 0 0.06 0 0.18 0.6 K
(n) 131.14 329.07 T
0 0 0 1 0 0 0 K
4 6.51 Q
0 0 0 1 0 0 0 K
(libpurify_stubs_n32.so) 137.65 327.33 T
1 0.6 0 0.06 0 0.18 0.6 K
3 3.47 Q
1 0.6 0 0.06 0 0.18 0.6 K
(n) 131.14 318.22 T
0 0 0 1 0 0 0 K
4 6.51 Q
0 0 0 1 0 0 0 K
(libpurify_stubs_n32.a) 137.65 316.48 T
111.07 559.15 125.3 573.45 C
0 0 0 1 0 0 0 K
0 0 0 1 0 0 0 K
1 0.6 0 0.06 0 0.18 0.6 K
117.82 572.83 112.02 569.38 112.02 563.64 117.99 560.36 124.13 563.8 124.13 569.55 6 Y
0.36 H
2 Z
0 X
1 0.6 0 0.06 0 0.18 0.6 K
N
0 4.34 Q
-0.09 (IRIX) 113.8 565.05 S
0 0 0 1 0 0 0 K
27 264.7 391.5 707.3 C
1 1 0 0 0 0 1 K
109.02 532.32 124.69 541.06 C
0 0 0 1 0 0 0 K
1 1 0 0 0 0 1 K
1 0.6 0 0.06 0 0.18 0.6 K
109.57 533.29 124.04 539.97 3.34 RR
0.36 H
0 Z
0 X
1 0.6 0 0.06 0 0.18 0.6 K
N
0 4.34 Q
-0.22 (HPUX) 111 534.89 S
1 1 0 0 0 0 1 K
27 264.7 391.5 707.3 C
92.41 528.55 107.35 543.48 C
0 0 0 1 0 0 0 K
1 1 0 0 0 0 1 K
1 0.6 0 0.06 0 0.18 0.6 K
93.14 529.47 106.78 543.11 6.82 RR
7 X
1 0.6 0 0.06 0 0.18 0.6 K
V
0.36 H
0 Z
0 X
N
0 4.34 Q
-0.26 (Solar) 93.88 534.88 S
-0.26 (is) 102.77 534.88 S
0 0 0 1 0 0 0 K
1 0.6 0 0.06 0 0.18 0.6 K
1 1 0 0 0 0 1 K
27 264.7 391.5 707.3 C
0 0 0 1 0 0 0 K
74.75 528.17 90.57 543.83 C
0 0 0 1 0 0 0 K
0 0 0 1 0 0 0 K
1 0.6 0 0.06 0 0.18 0.6 K
75.73 536.1 82.93 543.21 89.83 536.4 82.62 529.29 4 Y
0.36 H
2 Z
0 X
1 0.6 0 0.06 0 0.18 0.6 K
N
0 4.34 Q
-0.22 (Sun) 79.1 536.57 S
-0.3 (OS4) 78.75 533.33 S
0 0 0 1 0 0 0 K
27 264.7 391.5 707.3 C
110.31 427.8 124.54 442.11 C
0 0 0 1 0 0 0 K
0 0 0 1 0 0 0 K
1 0.6 0 0.06 0 0.18 0.6 K
117.06 441.49 111.26 438.04 111.26 432.3 117.23 429.01 123.37 432.46 123.37 438.2 6 Y
0.36 H
2 Z
0 X
1 0.6 0 0.06 0 0.18 0.6 K
N
0 4.34 Q
-0.09 (IRIX) 113.04 433.71 S
0 0 0 1 0 0 0 K
27 264.7 391.5 707.3 C
0 0 0 1 0 0 0 K
400.5 264.7 765 707.3 C
0 0 0 1 0 0 0 K
0 5.06 Q
0 X
0 0 0 1 0 0 0 K
(Using Purify Options and API Functions) 630.6 285.67 T
1 F
(11-9) 722.32 285.67 T
0 0 0 1 0 0 0 K
0 0 0 1 0 0 0 K
1 7.23 Q
(Installing libpurify_stubs.so) 490.26 680.94 T
2 F
(In the examples below) 490.26 668.94 T
(, replace) 564.1 668.94 T
4 6.51 Q
(<purifyhome>) 594.23 668.94 T
2 7.23 Q
( with the path to) 641.1 668.94 T
(your Purify installation.) 490.26 659.54 T
(If) 490.26 644.93 T
4 6.51 Q
(ld) 497.62 644.93 T
2 7.23 Q
( is a) 505.43 644.93 T
(vailable when you install Purify) 519.03 644.93 T
(, the full pathname is) 625.02 644.93 T
(automatically encoded in) 490.26 635.53 T
4 6.51 Q
(libpurify_stubs.so) 575.85 635.53 T
2 7.23 Q
(.) 646.02 635.53 T
(If) 490.26 620.92 T
4 6.51 Q
(ld) 497.62 620.92 T
2 7.23 Q
( is not a) 505.43 620.92 T
(vailable) 531.89 620.92 T
(, Purify uses the default path) 558.15 620.92 T
4 6.51 Q
(/usr/pure/purify) 490.26 611.52 T
2 7.23 Q
(.) 551.84 611.52 T
(If you do not install Purify in) 490.26 596.91 T
4 6.51 Q
(/usr/pure/purify) 589.38 596.91 T
2 7.23 Q
( and) 651.86 596.91 T
4 6.51 Q
(ld) 668.47 596.91 T
2 7.23 Q
( is not) 676.28 596.91 T
(a) 490.26 587.51 T
(vailable) 494.21 587.51 T
(,) 520.47 587.51 T
4 6.51 Q
(libpurify_stubs.so) 524.5 587.51 T
2 7.23 Q
( is installed without a built-in) 594.79 587.51 T
(path. Y) 490.26 578.1 T
(ou can specify the pathname by typing:) 514.05 578.1 T
4 5.79 Q
(% ld -shared -all -soname \134) 490.26 564.46 T
(<purifyhome>/libpurify_stubs.so -o \134) 490.26 555.06 T
(<purifyhome>/libpurify_stubs.so \134) 490.26 545.66 T
(<purifyhome>/libpurify_stubs.so.std) 490.26 536.26 T
2 7.23 Q
-0.34 (Y) 490.26 521.55 P
-0.34 (ou can also use) 494.63 521.55 P
4 6.51 Q
-0.66 (libpurify_stubs.so) 545.65 521.55 P
2 7.23 Q
-0.34 ( without a path, then specify) 615.94 521.55 P
(it at run time by typing:) 490.26 512.15 T
4 5.79 Q
(% cc <program>.c `purify -printhomedir`/libpurify_stubs.so) 490.26 498.5 T
(% setenv LD_LIBRARY_PATH `purify -printhomedir`) 490.26 489.1 T
(% a.out) 490.26 479.7 T
1 7.23 Q
(Linking with libpurify_stubs.so) 490.26 464.13 T
2 F
(During development, link your program with the) 490.26 452.12 T
4 6.51 Q
(libpurify_stubs.so) 490.26 442.72 T
2 7.23 Q
( library by typing:) 560.55 442.72 T
4 5.79 Q
(cc <program>.c <purifyhome>/libpurify_stubs.so) 490.26 429.08 T
2 7.23 Q
-0.11 (This resolves any API references in your code and lets you use the) 490.26 414.37 P
(API when you Purify the program.) 490.26 404.97 T
1 0.6 0 0.06 0 0.18 0.6 K
1 F
1 0.6 0 0.06 0 0.18 0.6 K
(W) 490.26 390.36 T
(arning:) 496.8 390.36 T
0 0 0 1 0 0 0 K
2 F
0 0 0 1 0 0 0 K
(Do not ship a program linked with the) 528.01 390.36 T
4 6.51 Q
(libpurify_stubs.so) 490.26 380.96 T
2 7.23 Q
( library) 560.55 380.96 T
(. It will cause a fatal error when the) 584.57 380.96 T
(library is not found at run time) 490.26 371.56 T
(.) 594.6 371.56 T
0 0 0 1 0 0 0 K
FMENDPAGE
%%EndPage: "mini" 5
%%Page: "mini" 6
612 792 1 FMBEGINPAGE
[0 0 0 1 0 0 0]
[ 0 1 1 0 1 0 0]
[ 1 0 1 0 0 1 0]
[ 1 1 0 0 0 0 1]
[ 1 0 0 0 0 1 1]
[ 0 1 0 0 1 0 1]
[ 0 0 1 0 1 1 0]
[ 1 0.6 0 0.06 0 0.18 0.6]
 8 FrameSetSepColors
FrameNoSep
27 264.7 391.5 707.3 C
0 0 0 1 0 0 0 K
1 5.06 Q
0 X
0 0 0 1 0 0 0 K
(11-10) 59.55 285.67 T
0 F
(  Purify User\325s Guide) 72.49 285.67 T
0 0 0 1 0 0 0 K
0 0 0 1 0 0 0 K
1 7.23 Q
(Linking with libpurify_stubs.a) 131.14 650.41 T
2 F
(T) 131.14 638.4 T
(o produce a program for non-Purify users) 135.57 638.4 T
(, link with the) 273.05 638.4 T
4 6.51 Q
(libpurify_stubs.a) 131.14 629 T
2 7.23 Q
( library by typing:) 197.53 629 T
4 5.79 Q
(cc <program>.c <purifyhome>/libpurify_stubs.a) 131.14 615.36 T
2 7.23 Q
-0.13 (This disables Purify API functions) 131.14 600.65 P
-0.13 (. If you Purify a program linked) 245.38 600.65 P
(with this library) 131.14 591.25 T
(, Purify API functions are ignored.) 185.16 591.25 T
0 0 0 1 0 0 0 K
FMENDPAGE
%%EndPage: "mini" 6
%%Trailer
%%BoundingBox: 0 0 612 792
%%PageOrder: Ascend
%%Pages: 6
%%DocumentFonts: Helvetica
%%+ Helvetica-Bold
%%+ NewCenturySchlbk-Roman
%%+ ZapfDingbats
%%+ Courier
%%+ Helvetica-Narrow-Bold
%%+ NewCenturySchlbk-Italic
%%+ NewCenturySchlbk-Bold
%%EOF
