%!PS-Adobe-3.0
%%BoundingBox: (atend)
%%Pages: (atend)
%%PageOrder: (atend)
%%DocumentFonts: (atend)
%%Creator: Frame 4.0
%%DocumentData: Clean7Bit
%%EndComments
%%BeginProlog
%
% Frame ps_prolog 5.0, for use with Frame 5.0 products
% This ps_prolog file is Copyright (c) 1986-1995 Frame Technology
% Corporation.  All rights reserved.  This ps_prolog file may be
% freely copied and distributed in conjunction with documents created
% using FrameMaker, FrameMaker/SGML and FrameViewer as long as this 
% copyright notice is preserved.
%
% FrameMaker users specify the proper paper size for each print job in the
% "Print" dialog's "Printer Paper Size" "Width" and "Height~ fields.  If the
% printer that the PS file is sent to does not support the requested paper
% size, or if there is no paper tray of the proper size currently installed, 
% then the job will not be printed.  The following flag, if set to true, will
% cause the job to print on the default paper in such cases.
/FMAllowPaperSizeMismatch            true def
%
% Frame products normally print colors as their true color on a color printer
% or as shades of gray, based on luminance, on a black-and white printer. The
% following flag, if set to true, forces all non-white colors to print as pure
% black. This has no effect on bitmap images.
/FMPrintAllColorsAsBlack             false def
%
% Frame products can either set their own line screens or use a printer's 
% default settings. Three flags below control this separately for no 
% separations, spot separations and process separations. If a flag
% is true, then the default printer settings will not be changed. If it is
% false, Frame products will use their own settings from a table based on
% the printer's resolution.
/FMUseDefaultNoSeparationScreen      true  def
/FMUseDefaultSpotSeparationScreen    true  def
/FMUseDefaultProcessSeparationScreen false def
%
% For any given PostScript printer resolution, Frame products have two sets of 
% screen angles and frequencies for printing process separations, which are 
% recomended by Adobe. The following variable chooses the higher frequencies
% when set to true or the lower frequencies when set to false. This is only
% effective if the appropriate FMUseDefault...SeparationScreen flag is false.
/FMUseHighFrequencyScreens true def
%
% The following is a set of predefined optimal frequencies and angles for various
% common dpi settings. This is taken from "Advances in Color Separation Using
% PostScript Software Technology," from Adobe Systems (3/13/89 P.N. LPS 0043)
% and corrolated with information which is in various PPD (4.0) files.
%
% The "dpiranges" figure is the minimum dots per inch device resolution which
% can support this setting. The "low" and "high" values are controlled by the
% setting of the FMUseHighFrequencyScreens flag above. The "TDot" flags control
% the use of the "Yellow Triple Dot" feature whereby the frequency id divided by
% three, but the dot function is "trippled" giving a block of 3x3 dots per cell.
%
% PatFreq is a compromise pattern frequency for ps Level 2 printers which is close
% to the ideal WYSIWYG pattern frequency of 9 repetitions/inch but does not beat
% (too badly) against the screen frequencies of any separations for that DPI.
/dpiranges   [  2540    2400    1693     1270    1200     635      600      0      ] def
/CMLowFreqs  [ 100.402  94.8683 89.2289 100.402  94.8683  66.9349  63.2456 47.4342 ] def
/YLowFreqs   [  95.25   90.0    84.65    95.25   90.0     70.5556  66.6667 50.0    ] def
/KLowFreqs   [  89.8026 84.8528 79.8088  89.8026 84.8528  74.8355  70.7107 53.033  ] def
/CLowAngles  [  71.5651 71.5651 71.5651 71.5651  71.5651  71.5651  71.5651 71.5651 ] def
/MLowAngles  [  18.4349 18.4349 18.4349 18.4349  18.4349  18.4349  18.4349 18.4349 ] def
/YLowTDot    [  true    true    false    true    true     false    false   false   ] def
/CMHighFreqs [ 133.87  126.491 133.843  108.503 102.523  100.402   94.8683 63.2456 ] def
/YHighFreqs  [ 127.0   120.0   126.975  115.455 109.091   95.25    90.0    60.0    ] def
/KHighFreqs  [ 119.737 113.137 119.713  128.289 121.218   89.8026  84.8528 63.6395 ] def
/CHighAngles [  71.5651 71.5651 71.5651  70.0169 70.0169  71.5651  71.5651 71.5651 ] def
/MHighAngles [  18.4349 18.4349 18.4349  19.9831 19.9831  18.4349  18.4349 18.4349 ] def
/YHighTDot   [  false   false   true     false   false    true     true    false   ] def
/PatFreq     [	10.5833 10.0     9.4055  10.5833 10.0	  10.5833  10.0	   9.375   ] def
%
% PostScript Level 2 printers contain an "Accurate Screens" feature which can
% improve process separation rendering at the expense of compute time. This 
% flag is ignored by PostScript Level 1 printers.
/FMUseAcccurateScreens true def
%
% The following PostScript procedure defines the spot function that Frame
% products will use for process separations. You may un-comment-out one of
% the alternative functions below, or use your own.
%
% Dot function
/FMSpotFunction {abs exch abs 2 copy add 1 gt 
		{1 sub dup mul exch 1 sub dup mul add 1 sub }
		{dup mul exch dup mul add 1 exch sub }ifelse } def
%
% Line function
% /FMSpotFunction { pop } def
%
% Elipse function
% /FMSpotFunction { dup 5 mul 8 div mul exch dup mul exch add 
%		sqrt 1 exch sub } def
%
%
/FMversion (5.0) def 
/fMLevel1 /languagelevel where {pop languagelevel} {1} ifelse 2 lt def
/FMPColor
	fMLevel1 {
		false
		/colorimage where {pop pop true} if
	} {
		true
	} ifelse
def
/FrameDict 400 dict def 
systemdict /errordict known not {/errordict 10 dict def
		errordict /rangecheck {stop} put} if
% The readline in PS 23.0 doesn't recognize cr's as nl's on AppleTalk
FrameDict /tmprangecheck errordict /rangecheck get put 
errordict /rangecheck {FrameDict /bug true put} put 
FrameDict /bug false put 
mark 
% Some PS machines read past the CR, so keep the following 3 lines together!
currentfile 5 string readline
00
0000000000
cleartomark 
errordict /rangecheck FrameDict /tmprangecheck get put 
FrameDict /bug get { 
	/readline {
		/gstring exch def
		/gfile exch def
		/gindex 0 def
		{
			gfile read pop 
			dup 10 eq {exit} if 
			dup 13 eq {exit} if 
			gstring exch gindex exch put 
			/gindex gindex 1 add def 
		} loop
		pop 
		gstring 0 gindex getinterval true 
		} bind def
	} if
/FMshowpage /showpage load def
/FMquit /quit load def
/FMFAILURE { 
	dup = flush 
	FMshowpage 
	/Helvetica findfont 12 scalefont setfont
	72 200 moveto show
	72 220 moveto show
	FMshowpage 
	FMquit 
	} def 
/FMVERSION {
	FMversion ne {
		(Frame product version does not match ps_prolog!  Check installation;)
		(also check ~/fminit and ./fminit for old versions) FMFAILURE
		} if
	} def 
/FMBADEPSF { 
	(Adobe's PostScript Language Reference Manual, 2nd Edition, section H.2.4)
	(says your EPS file is not valid, as it calls X              )
	dup dup (X) search pop exch pop exch pop length 
	5 -1 roll 
	putinterval 
	FMFAILURE
	} def
/fmConcatProcs
	{
	/proc2 exch cvlit def/proc1 exch cvlit def/newproc proc1 length proc2 length add array def
	newproc 0 proc1 putinterval newproc proc1 length proc2 putinterval newproc cvx
}def
FrameDict begin [
	/ALDsave
	/FMdicttop
	/FMoptop
	/FMpointsize
	/FMsaveobject
	/b
	/bitmapsave
	/blut
	/bpside
	/bs
	/bstring
	/bwidth
	/c
	/cf
	/cs
	/cynu
	/depth
	/edown
	/fh
	/fillvals
	/fw
	/fx
	/fy
	/g
	/gfile
	/gindex
	/grnt
	/gryt
	/gstring
	/height
	/hh
	/i
	/im
	/indx
	/is
	/k
	/kk
	/landscape
	/lb
	/len
	/llx
	/lly
	/m
	/magu
	/manualfeed
	/n
	/offbits
	/onbits
	/organgle
	/orgbangle
	/orgbfreq
	/orgbproc
	/orgbxfer
	/orgfreq
	/orggangle
	/orggfreq
	/orggproc
	/orggxfer
	/orgmatrix
	/orgproc
	/orgrangle
	/orgrfreq
	/orgrproc
	/orgrxfer
	/orgxfer
	/pagesave
	/paperheight
	/papersizedict
	/paperwidth
	/pos
	/pwid
	/r
	/rad
	/redt
	/sl
	/str
	/tran
	/u
	/urx
	/ury
	/val
	/width
	/width
	/ws
	/ww
	/x
	/x1
	/x2
	/xindex
	/xpoint
	/xscale
	/xx
	/y
	/y1
	/y2
	/yelu
	/yindex
	/ypoint
	/yscale
	/yy
] { 0 def } forall
/FmBD {bind def} bind def
systemdict /pdfmark known {
	/fMAcrobat true def
	
	/FmPD /pdfmark load def
	
	
	/FmPT /show load def
	
	
	currentdistillerparams /CoreDistVersion get 2000 ge {
	
		
		/FmPD2 /pdfmark load def
		
		
		
		
		
		/FmPA { mark exch /Dest exch 5 3 roll 
				/View [ /XYZ null 6 -2 roll FmDC exch pop null] /DEST FmPD 
		}FmBD
	} {
		
		/FmPD2 /cleartomark load def
		/FmPA {pop pop pop}FmBD
	} ifelse
} {
	
	/fMAcrobat false def
	/FmPD /cleartomark load def
	/FmPD2 /cleartomark load def
	/FmPT /pop load def
	/FmPA {pop pop pop}FmBD
} ifelse
/FmDC {
	transform fMDefaultMatrix itransform cvi exch cvi exch
}FmBD
/FmBx {
	dup 3 index lt {3 1 roll exch} if 
	1 index 4 index lt {4 -1 roll 3 1 roll exch 4 1 roll} if
}FmBD
/FMnone 0 def
/FMcyan 1 def
/FMmagenta 2 def
/FMyellow 3 def
/FMblack 4 def
/FMcustom 5 def
/fMNegative false def 
/FrameSepIs FMnone def 
/FrameSepBlack 0 def
/FrameSepYellow 0 def
/FrameSepMagenta 0 def
/FrameSepCyan 0 def
/FrameSepRed 1 def
/FrameSepGreen 1 def
/FrameSepBlue 1 def
/FrameCurGray 1 def
/FrameCurPat null def
/FrameCurColors [ 0 0 0 1 0 0 0 ] def 
/FrameColorEpsilon .001 def	
/eqepsilon {		
	sub dup 0 lt {neg} if
	FrameColorEpsilon le
} bind def
/FrameCmpColorsCMYK { 
	2 copy 0 get exch 0 get eqepsilon {
		2 copy 1 get exch 1 get eqepsilon {
			2 copy 2 get exch 2 get eqepsilon {
				3 get exch 3 get eqepsilon
			} {pop pop false} ifelse
		}{pop pop false} ifelse
	} {pop pop false} ifelse
} bind def
/FrameCmpColorsRGB { 
	2 copy 4 get exch 0 get eqepsilon {
		2 copy 5 get exch 1 get eqepsilon {
			6 get exch 2 get eqepsilon
		}{pop pop false} ifelse
	} {pop pop false} ifelse
} bind def
/RGBtoCMYK { 
	1 exch sub 
	3 1 roll 
	1 exch sub 
	3 1 roll 
	1 exch sub 
	3 1 roll 
	3 copy 
	2 copy 
	le { pop } { exch pop } ifelse 
	2 copy 
	le { pop } { exch pop } ifelse 
	dup dup dup 
	6 1 roll 
	4 1 roll 
	7 1 roll 
	sub 
	6 1 roll 
	sub 
	5 1 roll 
	sub 
	4 1 roll 
} bind def
/CMYKtoRGB { 
	dup dup 4 -1 roll add 						  
	5 1 roll 3 -1 roll add 						  
	4 1 roll add 								  
	1 exch sub dup 0 lt {pop 0} if 3 1 roll 	  
	1 exch sub dup 0 lt {pop 0} if exch 	      
	1 exch sub dup 0 lt {pop 0} if exch	  		  
} bind def
/FrameSepInit {
	1.0 RealSetgray
} bind def
/FrameSetSepColor { 
	/FrameSepBlue exch def
	/FrameSepGreen exch def
	/FrameSepRed exch def
	/FrameSepBlack exch def
	/FrameSepYellow exch def
	/FrameSepMagenta exch def
	/FrameSepCyan exch def
	/FrameSepIs FMcustom def
	setCurrentScreen	
} bind def
/FrameSetCyan {
	/FrameSepBlue 1.0 def
	/FrameSepGreen 1.0 def
	/FrameSepRed 0.0 def
	/FrameSepBlack 0.0 def
	/FrameSepYellow 0.0 def
	/FrameSepMagenta 0.0 def
	/FrameSepCyan 1.0 def
	/FrameSepIs FMcyan def
	setCurrentScreen	
} bind def
 
/FrameSetMagenta {
	/FrameSepBlue 1.0 def
	/FrameSepGreen 0.0 def
	/FrameSepRed 1.0 def
	/FrameSepBlack 0.0 def
	/FrameSepYellow 0.0 def
	/FrameSepMagenta 1.0 def
	/FrameSepCyan 0.0 def
	/FrameSepIs FMmagenta def
	setCurrentScreen
} bind def
 
/FrameSetYellow {
	/FrameSepBlue 0.0 def
	/FrameSepGreen 1.0 def
	/FrameSepRed 1.0 def
	/FrameSepBlack 0.0 def
	/FrameSepYellow 1.0 def
	/FrameSepMagenta 0.0 def
	/FrameSepCyan 0.0 def
	/FrameSepIs FMyellow def
	setCurrentScreen
} bind def
 
/FrameSetBlack {
	/FrameSepBlue 0.0 def
	/FrameSepGreen 0.0 def
	/FrameSepRed 0.0 def
	/FrameSepBlack 1.0 def
	/FrameSepYellow 0.0 def
	/FrameSepMagenta 0.0 def
	/FrameSepCyan 0.0 def
	/FrameSepIs FMblack def
	setCurrentScreen
} bind def
 
/FrameNoSep { 
	/FrameSepIs FMnone def
	setCurrentScreen
} bind def
/FrameSetSepColors { 
	FrameDict begin
	[ exch 1 add 1 roll ]
	/FrameSepColors  
	exch def end
	} bind def
/FrameColorInSepListCMYK { 
	FrameSepColors {  
       		exch dup 3 -1 roll 
       		FrameCmpColorsCMYK 
       		{ pop true exit } if
    	} forall 
	dup true ne {pop false} if
	} bind def
/FrameColorInSepListRGB { 
	FrameSepColors {  
       		exch dup 3 -1 roll 
       		FrameCmpColorsRGB 
       		{ pop true exit } if
    	} forall 
	dup true ne {pop false} if
	} bind def
/RealSetgray /setgray load def
/RealSetrgbcolor /setrgbcolor load def
/RealSethsbcolor /sethsbcolor load def
end 
/setgray { 
	FrameDict begin
	FrameSepIs FMnone eq
		{ RealSetgray } 
		{ 
		FrameSepIs FMblack eq 
			{ RealSetgray } 
			{ FrameSepIs FMcustom eq 
			  FrameSepRed 0 eq and
			  FrameSepGreen 0 eq and
			  FrameSepBlue 0 eq and {
			  	RealSetgray
			  } {
				1 RealSetgray pop 
			  } ifelse
			} ifelse
		} ifelse
	end
} bind def
/setrgbcolor { 
	FrameDict begin
	FrameSepIs FMnone eq
	{  RealSetrgbcolor }
	{
		3 copy [ 4 1 roll ] 
		FrameColorInSepListRGB
		{
				FrameSepBlue eq exch 
			 	FrameSepGreen eq and exch 
			 	FrameSepRed eq and
			 	{ 0 } { 1 } ifelse
		}
		{
			FMPColor {
				RealSetrgbcolor
				currentcmykcolor
			} {
				RGBtoCMYK
			} ifelse
			FrameSepIs FMblack eq
			{1.0 exch sub 4 1 roll pop pop pop} {
			FrameSepIs FMyellow eq
			{pop 1.0 exch sub 3 1 roll pop pop} {
			FrameSepIs FMmagenta eq
			{pop pop 1.0 exch sub exch pop } {
			FrameSepIs FMcyan eq
			{pop pop pop 1.0 exch sub } 
			{pop pop pop pop 1} ifelse } ifelse } ifelse } ifelse 
		} ifelse
		RealSetgray
	} 
	ifelse
	end
} bind def
/sethsbcolor {
	FrameDict begin
	FrameSepIs FMnone eq 
	{ RealSethsbcolor } 
	{
		RealSethsbcolor 
		currentrgbcolor  
		setrgbcolor 
	} 
	ifelse
	end
} bind def
FrameDict begin
/setcmykcolor where {
	pop /RealSetcmykcolor /setcmykcolor load def
} {
	/RealSetcmykcolor {
		4 1 roll
		3 { 3 index add 0 max 1 min 1 exch sub 3 1 roll} repeat 
		RealSetrgbcolor pop
	} bind def
} ifelse
userdict /setcmykcolor { 
		FrameDict begin
		FrameSepIs FMnone eq
		{ RealSetcmykcolor } 
		{
			4 copy [ 5 1 roll ]
			FrameColorInSepListCMYK
			{
				FrameSepBlack eq exch 
				FrameSepYellow eq and exch 
				FrameSepMagenta eq and exch 
				FrameSepCyan eq and 
				{ 0 } { 1 } ifelse
			}
			{
				FrameSepIs FMblack eq
				{1.0 exch sub 4 1 roll pop pop pop} {
				FrameSepIs FMyellow eq
				{pop 1.0 exch sub 3 1 roll pop pop} {
				FrameSepIs FMmagenta eq
				{pop pop 1.0 exch sub exch pop } {
				FrameSepIs FMcyan eq
				{pop pop pop 1.0 exch sub } 
				{pop pop pop pop 1} ifelse } ifelse } ifelse } ifelse 
			} ifelse
			RealSetgray
		}
		ifelse
		end
	} bind put
fMLevel1 { 
	
	
	
	/patScreenDict 7 dict dup begin
		<0f1e3c78f0e1c387> [ 45  { pop } {exch pop} 		.5   2 sqrt] FmBD
		<0f87c3e1f0783c1e> [ 135 { pop } {exch pop}			.5   2 sqrt] FmBD
		<cccccccccccccccc> [ 0   { pop } dup				.5   2	   ] FmBD
		<ffff0000ffff0000> [ 90  { pop } dup				.5   2	   ] FmBD
		<8142241818244281> [ 45  { 2 copy lt {exch} if pop}	dup .75  2 sqrt] FmBD
		<03060c183060c081> [ 45  { pop } {exch pop}			.875 2 sqrt] FmBD
		<8040201008040201> [ 135 { pop } {exch pop}			.875 2 sqrt] FmBD
	end def
} { 
	
	/patProcDict 5 dict dup begin
		<0f1e3c78f0e1c387> { 3 setlinewidth -1 -1 moveto 9 9 lineto stroke 
											4 -4 moveto 12 4 lineto stroke
											-4 4 moveto 4 12 lineto stroke} bind def
		<0f87c3e1f0783c1e> { 3 setlinewidth -1 9 moveto 9 -1 lineto stroke 
											-4 4 moveto 4 -4 lineto stroke
											4 12 moveto 12 4 lineto stroke} bind def
		<8142241818244281> { 1 setlinewidth -1 9 moveto 9 -1 lineto stroke
											-1 -1 moveto 9 9 lineto stroke } bind def
		<03060c183060c081> { 1 setlinewidth -1 -1 moveto 9 9 lineto stroke 
											4 -4 moveto 12 4 lineto stroke
											-4 4 moveto 4 12 lineto stroke} bind def
		<8040201008040201> { 1 setlinewidth -1 9 moveto 9 -1 lineto stroke 
											-4 4 moveto 4 -4 lineto stroke
											4 12 moveto 12 4 lineto stroke} bind def
	end def
	/patDict 15 dict dup begin
		/PatternType 1 def		
		/PaintType 2 def		
		/TilingType 3 def		
		/BBox [ 0 0 8 8 ] def 	
		/XStep 8 def			
		/YStep 8 def			
		/PaintProc {
			begin
			patProcDict bstring known {
				patProcDict bstring get exec
			} {
				8 8 true [1 0 0 -1 0 8] bstring imagemask
			} ifelse
			end
		} bind def
	end def
} ifelse
/combineColor {
    FrameSepIs FMnone eq
	{
		graymode fMLevel1 or not {
			
			[/Pattern [/DeviceCMYK]] setcolorspace
			FrameCurColors 0 4 getinterval aload pop FrameCurPat setcolor
		} {
			FrameCurColors 3 get 1.0 ge {
				FrameCurGray RealSetgray
			} {
				fMAcrobat not FMPColor graymode and and {
					0 1 3 { 
						FrameCurColors exch get
						1 FrameCurGray sub mul
					} for
					RealSetcmykcolor
				} {
					4 1 6 {
						FrameCurColors exch get
						graymode {
							1 exch sub 1 FrameCurGray sub mul 1 exch sub
						} {
							1.0 lt {FrameCurGray} {1} ifelse
						} ifelse
					} for
					RealSetrgbcolor
				} ifelse
			} ifelse
		} ifelse
	} { 
		FrameCurColors 0 4 getinterval aload
		FrameColorInSepListCMYK {
			FrameSepBlack eq exch 
			FrameSepYellow eq and exch 
			FrameSepMagenta eq and exch 
			FrameSepCyan eq and
			FrameSepIs FMcustom eq and
			{ FrameCurGray } { 1 } ifelse
		} {
			FrameSepIs FMblack eq
			{FrameCurGray 1.0 exch sub mul 1.0 exch sub 4 1 roll pop pop pop} {
			FrameSepIs FMyellow eq
			{pop FrameCurGray 1.0 exch sub mul 1.0 exch sub 3 1 roll pop pop} {
			FrameSepIs FMmagenta eq
			{pop pop FrameCurGray 1.0 exch sub mul 1.0 exch sub exch pop } {
			FrameSepIs FMcyan eq
			{pop pop pop FrameCurGray 1.0 exch sub mul 1.0 exch sub } 
			{pop pop pop pop 1} ifelse } ifelse } ifelse } ifelse 
		} ifelse
		graymode fMLevel1 or not {
			
			[/Pattern [/DeviceGray]] setcolorspace
			FrameCurPat setcolor
		} { 
			graymode not fMLevel1 and {
				
				dup 1 lt {pop FrameCurGray} if
			} if
			RealSetgray
		} ifelse
	} ifelse
} bind def
/savematrix {
	orgmatrix currentmatrix pop
	} bind def
/restorematrix {
	orgmatrix setmatrix
	} bind def
/fMDefaultMatrix matrix defaultmatrix def
/fMatrix2 matrix def
/dpi    72 0 fMDefaultMatrix dtransform
    dup mul exch   dup mul add   sqrt def
	
/freq dpi dup 72 div round dup 0 eq {pop 1} if 8 mul div def
/sangle 1 0 fMDefaultMatrix dtransform exch atan def
	sangle fMatrix2 rotate 
	fMDefaultMatrix fMatrix2 concatmatrix 
	dup 0 get /sflipx exch def
	    3 get /sflipy exch def
/screenIndex {
	0 1 dpiranges length 1 sub { dup dpiranges exch get 1 sub dpi le {exit} {pop} ifelse } for
} bind def
/getCyanScreen {
	FMUseHighFrequencyScreens { CHighAngles CMHighFreqs} {CLowAngles CMLowFreqs} ifelse
		screenIndex dup 3 1 roll get 3 1 roll get /FMSpotFunction load
} bind def
/getMagentaScreen {
	FMUseHighFrequencyScreens { MHighAngles CMHighFreqs } {MLowAngles CMLowFreqs} ifelse
		screenIndex dup 3 1 roll get 3 1 roll get /FMSpotFunction load
} bind def
/getYellowScreen {
	FMUseHighFrequencyScreens { YHighTDot YHighFreqs} { YLowTDot YLowFreqs } ifelse
		screenIndex dup 3 1 roll get 3 1 roll get { 3 div
			{2 { 1 add 2 div 3 mul dup floor sub 2 mul 1 sub exch} repeat
			FMSpotFunction } } {/FMSpotFunction load } ifelse
			0.0 exch
} bind def
/getBlackScreen  {
	FMUseHighFrequencyScreens { KHighFreqs } { KLowFreqs } ifelse
		screenIndex get 45.0 /FMSpotFunction load 
} bind def
/getSpotScreen {
	getBlackScreen
} bind def
/getCompositeScreen {
	getBlackScreen
} bind def
/FMSetScreen 
	fMLevel1 { /setscreen load 
	}{ {
		8 dict begin
		/HalftoneType 1 def
		/SpotFunction exch def
		/Angle exch def
		/Frequency exch def
		/AccurateScreens FMUseAcccurateScreens def
		currentdict end sethalftone
	} bind } ifelse
def
/setDefaultScreen {
	FMPColor {
		orgrxfer cvx orggxfer cvx orgbxfer cvx orgxfer cvx setcolortransfer
	}
	{
		orgxfer cvx settransfer
	} ifelse
	orgfreq organgle orgproc cvx setscreen
} bind def
/setCurrentScreen {
	FrameSepIs FMnone eq {
		FMUseDefaultNoSeparationScreen {
			setDefaultScreen
		} {
			getCompositeScreen FMSetScreen
		} ifelse
	} {
		FrameSepIs FMcustom eq {
			FMUseDefaultSpotSeparationScreen {
				setDefaultScreen
			} {
				getSpotScreen FMSetScreen
			} ifelse
		} {
			FMUseDefaultProcessSeparationScreen {
				setDefaultScreen
			} {
				FrameSepIs FMcyan eq {
					getCyanScreen FMSetScreen
				} {
					FrameSepIs FMmagenta eq {
						getMagentaScreen FMSetScreen
					} {
						FrameSepIs FMyellow eq {
							getYellowScreen FMSetScreen
						} {
							getBlackScreen FMSetScreen
						} ifelse
					} ifelse
				} ifelse
			} ifelse
		} ifelse
	} ifelse 
} bind def
end
	
/FMDOCUMENT { 
	array /FMfonts exch def 
	/#copies exch def
	FrameDict begin
	0 ne /manualfeed exch def
	/paperheight exch def
	/paperwidth exch def
	0 ne /fMNegative exch def 
	0 ne /edown exch def 
	/yscale exch def
	/xscale exch def
	fMLevel1 {
		manualfeed {setmanualfeed} if
		/FMdicttop countdictstack 1 add def 
		/FMoptop count def 
		setpapername 
		manualfeed {true} {papersize} ifelse 
		{manualpapersize} {false} ifelse 
		{desperatepapersize} {false} ifelse 
		{papersizefailure} if
		count -1 FMoptop {pop pop} for
		countdictstack -1 FMdicttop {pop end} for 
		}
		{2 dict
		 dup /PageSize [paperwidth paperheight] put
		 manualfeed {dup /ManualFeed manualfeed put} if
		 {setpagedevice} stopped {papersizefailure} if
		}
	ifelse 
	
	FMPColor {
		currentcolorscreen
			cvlit /orgproc exch def
				  /organgle exch def 
				  /orgfreq exch def
			cvlit /orgbproc exch def
				  /orgbangle exch def 
				  /orgbfreq exch def
			cvlit /orggproc exch def
				  /orggangle exch def 
				  /orggfreq exch def
			cvlit /orgrproc exch def
				  /orgrangle exch def 
				  /orgrfreq exch def
			currentcolortransfer 
			fMNegative {
				1 1 4 { 
					pop { 1 exch sub } fmConcatProcs 4 1 roll
				} for
				4 copy
				setcolortransfer
			} if
			cvlit /orgxfer exch def
			cvlit /orgbxfer exch def
			cvlit /orggxfer exch def
			cvlit /orgrxfer exch def
	} {
		currentscreen 
			cvlit /orgproc exch def
				  /organgle exch def 
				  /orgfreq exch def
				  
		currenttransfer 
		fMNegative {
			{ 1 exch sub } fmConcatProcs
			dup settransfer
		} if 
		cvlit /orgxfer exch def
	} ifelse
	end 
} def 
/FMBEGINPAGE { 
	FrameDict begin 
	/pagesave save def
	3.86 setmiterlimit
	/landscape exch 0 ne def
	landscape { 
		90 rotate 0 exch dup /pwid exch def neg translate pop 
	}{
		pop /pwid exch def
	} ifelse
	edown { [-1 0 0 1 pwid 0] concat } if
	0 0 moveto paperwidth 0 lineto paperwidth paperheight lineto 
	0 paperheight lineto 0 0 lineto 1 setgray fill
	xscale yscale scale
	/orgmatrix matrix def
	gsave 
} def 
/FMENDPAGE {
	grestore 
	pagesave restore
	end 
	showpage
	} def 
/FMFONTDEFINE { 
	FrameDict begin
	findfont 
	ReEncode 
	1 index exch 
	definefont 
	FMfonts 3 1 roll 
	put
	end 
	} def 
/FMFILLS {
	FrameDict begin dup
	array /fillvals exch def
	dict /patCache exch def
	end 
	} def 
/FMFILL {
	FrameDict begin
	 fillvals 3 1 roll put
	end 
	} def 
/FMNORMALIZEGRAPHICS { 
	newpath
	1 setlinewidth
	0 setlinecap
	0 0 0 sethsbcolor
	0 setgray 
	} bind def
/FMBEGINEPSF { 
	end 
	/FMEPSF save def 
	/showpage {} def 
% See Adobe's "PostScript Language Reference Manual, 2nd Edition", page 714.
% "...the following operators MUST NOT be used in an EPS file:" (emphasis ours)
	/banddevice {(banddevice) FMBADEPSF} def
	/clear {(clear) FMBADEPSF} def
	/cleardictstack {(cleardictstack) FMBADEPSF} def 
	/copypage {(copypage) FMBADEPSF} def
	/erasepage {(erasepage) FMBADEPSF} def
	/exitserver {(exitserver) FMBADEPSF} def
	/framedevice {(framedevice) FMBADEPSF} def
	/grestoreall {(grestoreall) FMBADEPSF} def
	/initclip {(initclip) FMBADEPSF} def
	/initgraphics {(initgraphics) FMBADEPSF} def
	/quit {(quit) FMBADEPSF} def
	/renderbands {(renderbands) FMBADEPSF} def
	/setglobal {(setglobal) FMBADEPSF} def
	/setpagedevice {(setpagedevice) FMBADEPSF} def
	/setshared {(setshared) FMBADEPSF} def
	/startjob {(startjob) FMBADEPSF} def
	/lettertray {(lettertray) FMBADEPSF} def
	/letter {(letter) FMBADEPSF} def
	/lettersmall {(lettersmall) FMBADEPSF} def
	/11x17tray {(11x17tray) FMBADEPSF} def
	/11x17 {(11x17) FMBADEPSF} def
	/ledgertray {(ledgertray) FMBADEPSF} def
	/ledger {(ledger) FMBADEPSF} def
	/legaltray {(legaltray) FMBADEPSF} def
	/legal {(legal) FMBADEPSF} def
	/statementtray {(statementtray) FMBADEPSF} def
	/statement {(statement) FMBADEPSF} def
	/executivetray {(executivetray) FMBADEPSF} def
	/executive {(executive) FMBADEPSF} def
	/a3tray {(a3tray) FMBADEPSF} def
	/a3 {(a3) FMBADEPSF} def
	/a4tray {(a4tray) FMBADEPSF} def
	/a4 {(a4) FMBADEPSF} def
	/a4small {(a4small) FMBADEPSF} def
	/b4tray {(b4tray) FMBADEPSF} def
	/b4 {(b4) FMBADEPSF} def
	/b5tray {(b5tray) FMBADEPSF} def
	/b5 {(b5) FMBADEPSF} def
	FMNORMALIZEGRAPHICS 
	[/fy /fx /fh /fw /ury /urx /lly /llx] {exch def} forall 
	fx fw 2 div add fy fh 2 div add  translate
	rotate
	fw 2 div neg fh 2 div neg translate
	fw urx llx sub div fh ury lly sub div scale 
	llx neg lly neg translate 
	/FMdicttop countdictstack 1 add def 
	/FMoptop count def 
	} bind def
/FMENDEPSF {
	count -1 FMoptop {pop pop} for 
	countdictstack -1 FMdicttop {pop end} for 
	FMEPSF restore
	FrameDict begin 
	} bind def
FrameDict begin 
/setmanualfeed {
%%BeginFeature *ManualFeed True
	 statusdict /manualfeed true put
%%EndFeature
	} bind def
/max {2 copy lt {exch} if pop} bind def
/min {2 copy gt {exch} if pop} bind def
/inch {72 mul} def
/pagedimen { 
	paperheight sub abs 16 lt exch 
	paperwidth sub abs 16 lt and
	{/papername exch def} {pop} ifelse
	} bind def
/setpapername { 
	/papersizedict 14 dict def 
	papersizedict begin
	/papername /unknown def 
		/Letter 8.5 inch 11.0 inch pagedimen
		/LetterSmall 7.68 inch 10.16 inch pagedimen
		/Tabloid 11.0 inch 17.0 inch pagedimen
		/Ledger 17.0 inch 11.0 inch pagedimen
		/Legal 8.5 inch 14.0 inch pagedimen
		/Statement 5.5 inch 8.5 inch pagedimen
		/Executive 7.5 inch 10.0 inch pagedimen
		/A3 11.69 inch 16.5 inch pagedimen
		/A4 8.26 inch 11.69 inch pagedimen
		/A4Small 7.47 inch 10.85 inch pagedimen
		/B4 10.125 inch 14.33 inch pagedimen
		/B5 7.16 inch 10.125 inch pagedimen
	end
	} bind def
/papersize {
	papersizedict begin
		/Letter {lettertray letter} def
		/LetterSmall {lettertray lettersmall} def
		/Tabloid {11x17tray 11x17} def
		/Ledger {ledgertray ledger} def
		/Legal {legaltray legal} def
		/Statement {statementtray statement} def
		/Executive {executivetray executive} def
		/A3 {a3tray a3} def
		/A4 {a4tray a4} def
		/A4Small {a4tray a4small} def
		/B4 {b4tray b4} def
		/B5 {b5tray b5} def
		/unknown {unknown} def
	papersizedict dup papername known {papername} {/unknown} ifelse get
	end
	statusdict begin stopped end 
	} bind def
/manualpapersize {
	papersizedict begin
		/Letter {letter} def
		/LetterSmall {lettersmall} def
		/Tabloid {11x17} def
		/Ledger {ledger} def
		/Legal {legal} def
		/Statement {statement} def
		/Executive {executive} def
		/A3 {a3} def
		/A4 {a4} def
		/A4Small {a4small} def
		/B4 {b4} def
		/B5 {b5} def
		/unknown {unknown} def
	papersizedict dup papername known {papername} {/unknown} ifelse get
	end
	stopped 
	} bind def
/desperatepapersize {
	statusdict /setpageparams known
		{
		paperwidth paperheight 0 1 
		statusdict begin
		{setpageparams} stopped 
		end
		} {true} ifelse 
	} bind def
/papersizefailure {
	FMAllowPaperSizeMismatch not
		{
(The requested paper size is not available in any currently-installed tray)
(Edit the PS file to "FMAllowPaperSizeMismatch true" to use default tray)
		 FMFAILURE } if
	} def
/DiacriticEncoding [
/.notdef /.notdef /.notdef /.notdef /.notdef /.notdef /.notdef
/.notdef /.notdef /.notdef /.notdef /.notdef /.notdef /.notdef
/.notdef /.notdef /.notdef /.notdef /.notdef /.notdef /.notdef
/.notdef /.notdef /.notdef /.notdef /.notdef /.notdef /.notdef
/.notdef /.notdef /.notdef /.notdef /space /exclam /quotedbl
/numbersign /dollar /percent /ampersand /quotesingle /parenleft
/parenright /asterisk /plus /comma /hyphen /period /slash /zero /one
/two /three /four /five /six /seven /eight /nine /colon /semicolon
/less /equal /greater /question /at /A /B /C /D /E /F /G /H /I /J /K
/L /M /N /O /P /Q /R /S /T /U /V /W /X /Y /Z /bracketleft /backslash
/bracketright /asciicircum /underscore /grave /a /b /c /d /e /f /g /h
/i /j /k /l /m /n /o /p /q /r /s /t /u /v /w /x /y /z /braceleft /bar
/braceright /asciitilde /.notdef /Adieresis /Aring /Ccedilla /Eacute
/Ntilde /Odieresis /Udieresis /aacute /agrave /acircumflex /adieresis
/atilde /aring /ccedilla /eacute /egrave /ecircumflex /edieresis
/iacute /igrave /icircumflex /idieresis /ntilde /oacute /ograve
/ocircumflex /odieresis /otilde /uacute /ugrave /ucircumflex
/udieresis /dagger /.notdef /cent /sterling /section /bullet
/paragraph /germandbls /registered /copyright /trademark /acute
/dieresis /.notdef /AE /Oslash /.notdef /.notdef /.notdef /.notdef
/yen /.notdef /.notdef /.notdef /.notdef /.notdef /.notdef
/ordfeminine /ordmasculine /.notdef /ae /oslash /questiondown
/exclamdown /logicalnot /.notdef /florin /.notdef /.notdef
/guillemotleft /guillemotright /ellipsis /.notdef /Agrave /Atilde
/Otilde /OE /oe /endash /emdash /quotedblleft /quotedblright
/quoteleft /quoteright /.notdef /.notdef /ydieresis /Ydieresis
/fraction /currency /guilsinglleft /guilsinglright /fi /fl /daggerdbl
/periodcentered /quotesinglbase /quotedblbase /perthousand
/Acircumflex /Ecircumflex /Aacute /Edieresis /Egrave /Iacute
/Icircumflex /Idieresis /Igrave /Oacute /Ocircumflex /.notdef /Ograve
/Uacute /Ucircumflex /Ugrave /dotlessi /circumflex /tilde /macron
/breve /dotaccent /ring /cedilla /hungarumlaut /ogonek /caron
] def
/ReEncode { 
	dup 
	length 
	dict begin 
	{
	1 index /FID ne 
		{def} 
		{pop pop} ifelse 
	} forall 
	0 eq {/Encoding DiacriticEncoding def} if 
	currentdict 
	end 
	} bind def
FMPColor 
	
	{
	/BEGINBITMAPCOLOR { 
		BITMAPCOLOR} def
	/BEGINBITMAPCOLORc { 
		BITMAPCOLORc} def
	/BEGINBITMAPTRUECOLOR { 
		BITMAPTRUECOLOR } def
	/BEGINBITMAPTRUECOLORc { 
		BITMAPTRUECOLORc } def
	/BEGINBITMAPCMYK { 
		BITMAPCMYK } def
	/BEGINBITMAPCMYKc { 
		BITMAPCMYKc } def
	}
	
	{
	/BEGINBITMAPCOLOR { 
		BITMAPGRAY} def
	/BEGINBITMAPCOLORc { 
		BITMAPGRAYc} def
	/BEGINBITMAPTRUECOLOR { 
		BITMAPTRUEGRAY } def
	/BEGINBITMAPTRUECOLORc { 
		BITMAPTRUEGRAYc } def
	/BEGINBITMAPCMYK { 
		BITMAPCMYKGRAY } def
	/BEGINBITMAPCMYKc { 
		BITMAPCMYKGRAYc } def
	}
ifelse
/K { 
	FMPrintAllColorsAsBlack {
		dup 1 eq 2 index 1 eq and 3 index 1 eq and not
			{7 {pop} repeat 0 0 0 1 0 0 0} if
	} if 
	FrameCurColors astore 
	pop combineColor
} bind def
/graymode true def
fMLevel1 {
	/fmGetFlip {
		fMatrix2 exch get mul 0 lt { -1 } { 1 } ifelse
	} FmBD
} if
/setPatternMode {
	fMLevel1 {
		2 index patScreenDict exch known {
			pop pop
			patScreenDict exch get aload pop 
			freq 								
			mul									
			5 2 roll							
			fMatrix2 currentmatrix 1 get 0 ne {
				3 -1 roll 90 add 3 1 roll 		
				sflipx 1 fmGetFlip sflipy 2 fmGetFlip neg mul
			} {  								
				sflipx 0 fmGetFlip sflipy 3 fmGetFlip mul 
			} ifelse
			0 lt {exch pop} {pop} ifelse 		
			fMNegative { 
				{neg} fmConcatProcs 			
			} if
			bind
			
			
			
			systemdict /setscreen get exec		
			/FrameCurGray exch def
		} {
			/bwidth  exch def
			/bpside  exch def
			/bstring exch def
			/onbits 0 def  /offbits 0 def
			freq sangle landscape {90 add} if 
				{/ypoint exch def
				 /xpoint exch def
				 /xindex xpoint 1 add 2 div bpside mul cvi def
				 /yindex ypoint 1 add 2 div bpside mul cvi def
				 bstring yindex bwidth mul xindex 8 idiv add get
				 1 7 xindex 8 mod sub bitshift and 0 ne fMNegative {not} if
				 {/onbits  onbits  1 add def 1}
				 {/offbits offbits 1 add def 0}
				 ifelse
				}
				setscreen
			offbits offbits onbits add div fMNegative {1.0 exch sub} if
			/FrameCurGray exch def
		} ifelse
	} { 
		pop pop
		dup patCache exch known {
			patCache exch get
		} { 
			dup
			patDict /bstring 3 -1 roll put
			patDict 
			9 PatFreq screenIndex get div dup matrix scale
			makepattern
			dup 
			patCache 4 -1 roll 3 -1 roll put
		} ifelse
		/FrameCurGray 0 def
		/FrameCurPat exch def
	} ifelse
	/graymode false def
	combineColor
} bind def
/setGrayScaleMode {
	graymode not {
		/graymode true def
		fMLevel1 {
			setCurrentScreen
		} if
	} if
	/FrameCurGray exch def
	combineColor
} bind def
/normalize {
	transform round exch round exch itransform
	} bind def
/dnormalize {
	dtransform round exch round exch idtransform
	} bind def
/lnormalize { 
	0 dtransform exch cvi 2 idiv 2 mul 1 add exch idtransform pop
	} bind def
/H { 
	lnormalize setlinewidth
	} bind def
/Z {
	setlinecap
	} bind def
	
/PFill {
	graymode fMLevel1 or not {
		gsave 1 setgray eofill grestore
	} if
} bind def
/PStroke {
	graymode fMLevel1 or not {
		gsave 1 setgray stroke grestore
	} if
	stroke
} bind def
/X { 
	fillvals exch get
	dup type /stringtype eq
	{8 1 setPatternMode} 
	{setGrayScaleMode}
	ifelse
	} bind def
/V { 
	PFill gsave eofill grestore
	} bind def
/Vclip {
	clip
	} bind def
/Vstrk {
	currentlinewidth exch setlinewidth PStroke setlinewidth
	} bind def
/N { 
	PStroke
	} bind def
/Nclip {
	strokepath clip newpath
	} bind def
/Nstrk {
	currentlinewidth exch setlinewidth PStroke setlinewidth
	} bind def
/M {newpath moveto} bind def
/E {lineto} bind def
/D {curveto} bind def
/O {closepath} bind def
/L { 
 	/n exch def
	newpath
	normalize
	moveto 
	2 1 n {pop normalize lineto} for
	} bind def
/Y { 
	L 
	closepath
	} bind def
/R { 
	/y2 exch def
	/x2 exch def
	/y1 exch def
	/x1 exch def
	x1 y1
	x2 y1
	x2 y2
	x1 y2
	4 Y 
	} bind def
/rarc 
	{rad 
	 arcto
	} bind def
/RR { 
	/rad exch def
	normalize
	/y2 exch def
	/x2 exch def
	normalize
	/y1 exch def
	/x1 exch def
	mark
	newpath
	{
	x1 y1 rad add moveto
	x1 y2 x2 y2 rarc
	x2 y2 x2 y1 rarc
	x2 y1 x1 y1 rarc
	x1 y1 x1 y2 rarc
	closepath
	} stopped {x1 y1 x2 y2 R} if 
	cleartomark
	} bind def
/RRR { 
	/rad exch def
	normalize /y4 exch def /x4 exch def
	normalize /y3 exch def /x3 exch def
	normalize /y2 exch def /x2 exch def
	normalize /y1 exch def /x1 exch def
	newpath
	normalize moveto 
	mark
	{
	x2 y2 x3 y3 rarc
	x3 y3 x4 y4 rarc
	x4 y4 x1 y1 rarc
	x1 y1 x2 y2 rarc
	closepath
	} stopped
	 {x1 y1 x2 y2 x3 y3 x4 y4 newpath moveto lineto lineto lineto closepath} if
	cleartomark
	} bind def
/C { 
	grestore
	gsave
	R 
	clip
	setCurrentScreen
} bind def
/CP { 
	grestore
	gsave
	Y 
	clip
	setCurrentScreen
} bind def
/F { 
	FMfonts exch get
	FMpointsize scalefont
	setfont
	} bind def
/Q { 
	/FMpointsize exch def
	F 
	} bind def
/T { 
	moveto show
	} bind def
/RF { 
	rotate
	0 ne {-1 1 scale} if
	} bind def
/TF { 
	gsave
	moveto 
	RF
	show
	grestore
	} bind def
/P { 
	moveto
	0 32 3 2 roll widthshow
	} bind def
/PF { 
	gsave
	moveto 
	RF
	0 32 3 2 roll widthshow
	grestore
	} bind def
/S { 
	moveto
	0 exch ashow
	} bind def
/SF { 
	gsave
	moveto
	RF
	0 exch ashow
	grestore
	} bind def
/B { 
	moveto
	0 32 4 2 roll 0 exch awidthshow
	} bind def
/BF { 
	gsave
	moveto
	RF
	0 32 4 2 roll 0 exch awidthshow
	grestore
	} bind def
/G { 
	gsave
	newpath
	normalize translate 0.0 0.0 moveto 
	dnormalize scale 
	0.0 0.0 1.0 5 3 roll arc 
	closepath 
	PFill fill
	grestore
	} bind def
/Gstrk {
	savematrix
    newpath
    2 index 2 div add exch 3 index 2 div sub exch 
    normalize 2 index 2 div sub exch 3 index 2 div add exch 
    translate
    scale 
    0.0 0.0 1.0 5 3 roll arc 
    restorematrix
    currentlinewidth exch setlinewidth PStroke setlinewidth
    } bind def
/Gclip { 
	newpath
	savematrix
	normalize translate 0.0 0.0 moveto 
	dnormalize scale 
	0.0 0.0 1.0 5 3 roll arc 
	closepath 
	clip newpath
	restorematrix
	} bind def
/GG { 
	gsave
	newpath
	normalize translate 0.0 0.0 moveto 
	rotate 
	dnormalize scale 
	0.0 0.0 1.0 5 3 roll arc 
	closepath
	PFill
	fill
	grestore
	} bind def
/GGclip { 
	savematrix
	newpath
    normalize translate 0.0 0.0 moveto 
    rotate 
    dnormalize scale 
    0.0 0.0 1.0 5 3 roll arc 
    closepath
	clip newpath
	restorematrix
	} bind def
/GGstrk { 
	savematrix
    newpath
    normalize translate 0.0 0.0 moveto 
    rotate 
    dnormalize scale 
    0.0 0.0 1.0 5 3 roll arc 
    closepath 
	restorematrix
    currentlinewidth exch setlinewidth PStroke setlinewidth
	} bind def
/A { 
	gsave
	savematrix
	newpath
	2 index 2 div add exch 3 index 2 div sub exch 
	normalize 2 index 2 div sub exch 3 index 2 div add exch 
	translate 
	scale 
	0.0 0.0 1.0 5 3 roll arc 
	restorematrix
	PStroke
	grestore
	} bind def
/Aclip {
	newpath
	savematrix
	normalize translate 0.0 0.0 moveto 
	dnormalize scale 
	0.0 0.0 1.0 5 3 roll arc 
	closepath 
	strokepath clip newpath
	restorematrix
} bind def
/Astrk {
	Gstrk
} bind def
/AA { 
	gsave
	savematrix
	newpath
	
	3 index 2 div add exch 4 index 2 div sub exch 
	
	normalize 3 index 2 div sub exch 4 index 2 div add exch
	translate 
	rotate 
	scale 
	0.0 0.0 1.0 5 3 roll arc 
	restorematrix
	PStroke
	grestore
	} bind def
/AAclip {
	savematrix
	newpath
    normalize translate 0.0 0.0 moveto 
    rotate 
    dnormalize scale 
    0.0 0.0 1.0 5 3 roll arc 
    closepath
	strokepath clip newpath
	restorematrix
} bind def
/AAstrk {
	GGstrk
} bind def
/BEGINPRINTCODE { 
	/FMdicttop countdictstack 1 add def 
	/FMoptop count 7 sub def 
	/FMsaveobject save def
	userdict begin 
	/showpage {} def 
	FMNORMALIZEGRAPHICS 
	3 index neg 3 index neg translate
	} bind def
/ENDPRINTCODE {
	count -1 FMoptop {pop pop} for 
	countdictstack -1 FMdicttop {pop end} for 
	FMsaveobject restore 
	} bind def
/gn { 
	0 
	{	46 mul 
		cf read pop 
		32 sub 
		dup 46 lt {exit} if 
		46 sub add 
		} loop
	add 
	} bind def
/cfs { 
	/str sl string def 
	0 1 sl 1 sub {str exch val put} for 
	str def 
	} bind def
/ic [ 
	0 0 0 0 0 0 0 0 0 0 0 0 0 0 0 0223
	0 0 0 0 0 0 0 0 0 0 0 0 0 0 0 0223
	0
	{0 hx} {1 hx} {2 hx} {3 hx} {4 hx} {5 hx} {6 hx} {7 hx} {8 hx} {9 hx}
	{10 hx} {11 hx} {12 hx} {13 hx} {14 hx} {15 hx} {16 hx} {17 hx} {18 hx}
	{19 hx} {gn hx} {0} {1} {2} {3} {4} {5} {6} {7} {8} {9} {10} {11} {12}
	{13} {14} {15} {16} {17} {18} {19} {gn} {0 wh} {1 wh} {2 wh} {3 wh}
	{4 wh} {5 wh} {6 wh} {7 wh} {8 wh} {9 wh} {10 wh} {11 wh} {12 wh}
	{13 wh} {14 wh} {gn wh} {0 bl} {1 bl} {2 bl} {3 bl} {4 bl} {5 bl} {6 bl}
	{7 bl} {8 bl} {9 bl} {10 bl} {11 bl} {12 bl} {13 bl} {14 bl} {gn bl}
	{0 fl} {1 fl} {2 fl} {3 fl} {4 fl} {5 fl} {6 fl} {7 fl} {8 fl} {9 fl}
	{10 fl} {11 fl} {12 fl} {13 fl} {14 fl} {gn fl}
	] def
/ms { 
	/sl exch def 
	/val 255 def 
	/ws cfs 
	/im cfs 
	/val 0 def 
	/bs cfs 
	/cs cfs 
	} bind def
400 ms 
/ip { 
	is 
	0 
	cf cs readline pop 
	{	ic exch get exec 
		add 
		} forall 
	pop 
	
	} bind def
/rip { 
	   
	  
	  bis ris copy pop 
      is
      0
      cf cs readline pop 
      {       ic exch get exec 
              add 
              } forall 
	  pop pop 
	  ris gis copy pop 
	  dup is exch 
	  
      cf cs readline pop 
      {       ic exch get exec 
              add 
              } forall 
	  pop pop
	  gis bis copy pop 
	  dup add is exch 
	  
      cf cs readline pop 
      {       ic exch get exec 
              add 
              } forall 
      pop 
      
      } bind def
/rip4 { 
	   
	  
	  kis cis copy pop 
      is
      0
      cf cs readline pop 
      {       ic exch get exec 
              add 
              } forall 
	  pop pop 
	  cis mis copy pop 
	  dup is exch 
	  
      cf cs readline pop 
      {       ic exch get exec 
              add 
              } forall 
	  pop pop
	  mis yis copy pop 
	  dup dup add is exch 
	  
      cf cs readline pop 
      {       ic exch get exec 
              add 
              } forall 
	  pop pop
	  yis kis copy pop 
	  3 mul is exch 
	  
      cf cs readline pop 
      {       ic exch get exec 
              add 
              } forall 
      pop 
      
      } bind def
/wh { 
	/len exch def 
	/pos exch def 
	ws 0 len getinterval im pos len getinterval copy pop
	pos len 
	} bind def
/bl { 
	/len exch def 
	/pos exch def 
	bs 0 len getinterval im pos len getinterval copy pop
	pos len 
	} bind def
/s1 1 string def
/fl { 
	/len exch def 
	/pos exch def 
	/val cf s1 readhexstring pop 0 get def
	pos 1 pos len add 1 sub {im exch val put} for
	pos len 
	} bind def
/hx { 
	3 copy getinterval 
	cf exch readhexstring pop pop 
	} bind def
/wbytes { 
      dup dup
      8 gt { pop 8 idiv mul }
      { 8 eq {pop} {1 eq {7 add 8 idiv} {3 add 4 idiv} ifelse} ifelse } ifelse
	} bind def
/BEGINBITMAPBWc { 
	1 {} COMMONBITMAPc
	} bind def
/BEGINBITMAPGRAYc { 
	8 {} COMMONBITMAPc
	} bind def
/BEGINBITMAP2BITc { 
	2 {} COMMONBITMAPc
	} bind def
/COMMONBITMAPc { 
		 
	/cvtProc exch def
	/depth exch def
	gsave
	
	3 index 2 div add exch	
	4 index 2 div add exch	
	translate		
	rotate			
	1 index 2 div neg	
	1 index 2 div neg	
	translate		
	scale			
	/height exch def /width exch def
	/lb width depth wbytes def 
	sl lb lt {lb ms} if 
	/bitmapsave save def 
	cvtProc                
	/is im 0 lb getinterval def 
	ws 0 lb getinterval is copy pop 
	/cf currentfile def 
	width height depth [width 0 0 height neg 0 height] 
	{ip} image 
	bitmapsave restore 
	grestore
	} bind def
/BEGINBITMAPBW { 
	1 {} COMMONBITMAP
	} bind def
/BEGINBITMAPGRAY { 
	8 {} COMMONBITMAP
	} bind def
/BEGINBITMAP2BIT { 
	2 {} COMMONBITMAP
	} bind def
/COMMONBITMAP { 
	/cvtProc exch def
	/depth exch def
	gsave
	
	3 index 2 div add exch	
	4 index 2 div add exch	
	translate		
	rotate			
	1 index 2 div neg	
	1 index 2 div neg	
	translate		
	scale			
	/height exch def /width exch def
	/bitmapsave save def 
	cvtProc              
	/is width depth wbytes string def
	/cf currentfile def 
	width height depth [width 0 0 height neg 0 height] 
	{cf is readhexstring pop} image
	bitmapsave restore 
	grestore
	} bind def
/ngrayt 256 array def
/nredt 256 array def
/nbluet 256 array def
/ngreent 256 array def
fMLevel1 {
/colorsetup {
	currentcolortransfer
	/gryt exch def
	/blut exch def
	/grnt exch def
	/redt exch def
	0 1 255 {
		/indx exch def
		/cynu 1 red indx get 255 div sub def
		/magu 1 green indx get 255 div sub def
		/yelu 1 blue indx get 255 div sub def
		/kk cynu magu min yelu min def
		/u kk currentundercolorremoval exec def
%		/u 0 def
		nredt indx 1 0 cynu u sub max sub redt exec put
		ngreent indx 1 0 magu u sub max sub grnt exec put
		nbluet indx 1 0 yelu u sub max sub blut exec put
		ngrayt indx 1 kk currentblackgeneration exec sub gryt exec put
	} for
	{255 mul cvi nredt exch get}
	{255 mul cvi ngreent exch get}
	{255 mul cvi nbluet exch get}
	{255 mul cvi ngrayt exch get}
	setcolortransfer
	{pop 0} setundercolorremoval
	{} setblackgeneration
	} bind def
}
{
/colorSetup2 {
	[ /Indexed /DeviceRGB 255 
		{dup red exch get 255 div 
		 exch dup green exch get 255 div 
		 exch blue exch get 255 div}
	] setcolorspace
} bind def
} ifelse
/fakecolorsetup {
	/tran 256 string def
	0 1 255 {/indx exch def 
		tran indx
		red indx get 77 mul
		green indx get 151 mul
		blue indx get 28 mul
		add add 256 idiv put} for
	currenttransfer
	{255 mul cvi tran exch get 255.0 div}
	exch fmConcatProcs settransfer
} bind def
/BITMAPCOLOR { 
	/depth 8 def
	gsave
	
	3 index 2 div add exch	
	4 index 2 div add exch	
	translate		
	rotate			
	1 index 2 div neg	
	1 index 2 div neg	
	translate		
	scale			
	/height exch def /width exch def
	/bitmapsave save def
	fMLevel1 {	
		colorsetup
		/is width depth wbytes string def
		/cf currentfile def 
		width height depth [width 0 0 height neg 0 height] 
		{cf is readhexstring pop} {is} {is} true 3 colorimage 
	} {
		colorSetup2
		/is width depth wbytes string def
		/cf currentfile def 
		7 dict dup begin
			/ImageType 1 def
			/Width width def
			/Height height def
			/ImageMatrix [width 0 0 height neg 0 height] def
			/DataSource {cf is readhexstring pop} bind def
			/BitsPerComponent depth def
			/Decode [0 255] def
		end image	
	} ifelse
	bitmapsave restore 
	grestore
	} bind def
/BITMAPCOLORc { 
	/depth 8 def
	gsave
	
	3 index 2 div add exch	
	4 index 2 div add exch	
	translate		
	rotate			
	1 index 2 div neg	
	1 index 2 div neg	
	translate		
	scale			
	/height exch def /width exch def
	/lb width depth wbytes def 
	sl lb lt {lb ms} if 
	/bitmapsave save def 
	fMLevel1 {	
		colorsetup
		/is im 0 lb getinterval def 
		ws 0 lb getinterval is copy pop 
		/cf currentfile def 
		width height depth [width 0 0 height neg 0 height] 
		{ip} {is} {is} true 3 colorimage
	} {
		colorSetup2
		/is im 0 lb getinterval def 
		ws 0 lb getinterval is copy pop 
		/cf currentfile def 
		7 dict dup begin
			/ImageType 1 def
			/Width width def
			/Height height def
			/ImageMatrix [width 0 0 height neg 0 height] def
			/DataSource {ip} bind def
			/BitsPerComponent depth def
			/Decode [0 255] def
		end image	
	} ifelse
	bitmapsave restore 
	grestore
	} bind def
/BITMAPTRUECOLORc { 
	/depth 24 def
        gsave
 	
	3 index 2 div add exch	
	4 index 2 div add exch	
	translate		
	rotate			
	1 index 2 div neg	
	1 index 2 div neg	
	translate		
	scale			
	/height exch def /width exch def
	/lb width depth wbytes def 
	sl lb lt {lb ms} if 
	/bitmapsave save def 
        
	/is im 0 lb getinterval def	
	/ris im 0 width getinterval def	
	/gis im width width getinterval def	
	/bis im width 2 mul width getinterval def 
        
	ws 0 lb getinterval is copy pop 
	/cf currentfile def 
	width height 8 [width 0 0 height neg 0 height] 
	{width rip pop ris} {gis} {bis} true 3 colorimage
	bitmapsave restore 
	grestore
	} bind def
/BITMAPCMYKc { 
	/depth 32 def
        gsave
 	
	3 index 2 div add exch	
	4 index 2 div add exch	
	translate		
	rotate			
	1 index 2 div neg	
	1 index 2 div neg	
	translate		
	scale			
	/height exch def /width exch def
	/lb width depth wbytes def 
	sl lb lt {lb ms} if 
	/bitmapsave save def 
        
	/is im 0 lb getinterval def	
	/cis im 0 width getinterval def	
	/mis im width width getinterval def	
	/yis im width 2 mul width getinterval def 
	/kis im width 3 mul width getinterval def 
        
	ws 0 lb getinterval is copy pop 
	/cf currentfile def 
	width height 8 [width 0 0 height neg 0 height] 
	{width rip4 pop cis} {mis} {yis} {kis} true 4 colorimage
	bitmapsave restore 
	grestore
	} bind def
/BITMAPTRUECOLOR { 
        gsave
		
		3 index 2 div add exch	
		4 index 2 div add exch	
		translate		
		rotate			
		1 index 2 div neg	
		1 index 2 div neg	
		translate		
		scale			
		/height exch def /width exch def
        /bitmapsave save def 
        /is width string def
        /gis width string def
        /bis width string def
        /cf currentfile def 
        width height 8 [width 0 0 height neg 0 height] 
        { cf is readhexstring pop } 
        { cf gis readhexstring pop } 
        { cf bis readhexstring pop } 
        true 3 colorimage 
        bitmapsave restore 
        grestore
        } bind def
/BITMAPCMYK { 
        gsave
		
		3 index 2 div add exch	
		4 index 2 div add exch	
		translate		
		rotate			
		1 index 2 div neg	
		1 index 2 div neg	
		translate		
		scale			
		/height exch def /width exch def
        /bitmapsave save def 
        /is width string def
        /mis width string def
        /yis width string def
        /kis width string def
        /cf currentfile def 
        width height 8 [width 0 0 height neg 0 height] 
        { cf is readhexstring pop } 
        { cf mis readhexstring pop } 
        { cf yis readhexstring pop } 
        { cf kis readhexstring pop } 
        true 4 colorimage 
        bitmapsave restore 
        grestore
        } bind def
/BITMAPTRUEGRAYc { 
	/depth 24 def
        gsave
	
	3 index 2 div add exch	
	4 index 2 div add exch	
	translate		
	rotate			
	1 index 2 div neg	
	1 index 2 div neg	
	translate		
	scale			
	/height exch def /width exch def
	/lb width depth wbytes def 
	sl lb lt {lb ms} if 
        /bitmapsave save def 
        
	/is im 0 lb getinterval def	
	/ris im 0 width getinterval def	
	/gis im width width getinterval def	
	/bis im width 2 mul width getinterval def 
        ws 0 lb getinterval is copy pop 
        /cf currentfile def 
        width height 8 [width 0 0 height neg 0 height] 
        {width rip pop ris gis bis width gray} image
        bitmapsave restore 
        grestore
        } bind def
/BITMAPCMYKGRAYc { 
	/depth 32 def
        gsave
	
	3 index 2 div add exch	
	4 index 2 div add exch	
	translate		
	rotate			
	1 index 2 div neg	
	1 index 2 div neg	
	translate		
	scale			
	/height exch def /width exch def
	/lb width depth wbytes def 
	sl lb lt {lb ms} if 
        /bitmapsave save def 
        
	/is im 0 lb getinterval def	
	/cis im 0 width getinterval def	
	/mis im width width getinterval def	
	/yis im width 2 mul width getinterval def 
	/kis im width 3 mul width getinterval def 
        ws 0 lb getinterval is copy pop 
        /cf currentfile def 
        width height 8 [width 0 0 height neg 0 height] 
        {width rip pop cis mis yis kis width cgray} image
        bitmapsave restore 
        grestore
        } bind def
/cgray { 
        /ww exch def
        /k exch def
        /y exch def
        /m exch def
        /c exch def
        0 1 ww 1 sub { /i exch def c i get m i get y i get k i get CMYKtoRGB
				.144 mul 3 1 roll .587 mul 3 1 roll .299 mul add add
				c i 3 -1 roll floor cvi put } for
        c
 		} bind def
/gray { 
        /ww exch def
        /b exch def
        /g exch def
        /r exch def
        0 1 ww 1 sub { /i exch def r i get .299 mul g i get .587 mul
			b i get .114 mul add add r i 3 -1 roll floor cvi put } for
        r
        } bind def
/BITMAPTRUEGRAY { 
        gsave
		
		3 index 2 div add exch	
		4 index 2 div add exch	
		translate		
		rotate			
		1 index 2 div neg	
		1 index 2 div neg	
		translate		
		scale			
		/height exch def /width exch def
        /bitmapsave save def 
        /is width string def
        /gis width string def
        /bis width string def
        /cf currentfile def 
        width height 8 [width 0 0 height neg 0 height] 
        { cf is readhexstring pop 
          cf gis readhexstring pop 
          cf bis readhexstring pop width gray}  image
        bitmapsave restore 
        grestore
        } bind def
/BITMAPCMYKGRAY { 
        gsave
		
		3 index 2 div add exch	
		4 index 2 div add exch	
		translate		
		rotate			
		1 index 2 div neg	
		1 index 2 div neg	
		translate		
		scale			
		/height exch def /width exch def
        /bitmapsave save def 
        /is width string def
        /yis width string def
        /mis width string def
        /kis width string def
        /cf currentfile def 
        width height 8 [width 0 0 height neg 0 height] 
        { cf is readhexstring pop 
          cf mis readhexstring pop 
          cf yis readhexstring pop 
          cf kis readhexstring pop width cgray}  image
        bitmapsave restore 
        grestore
        } bind def
/BITMAPGRAY { 
	8 {fakecolorsetup} COMMONBITMAP
	} bind def
/BITMAPGRAYc { 
	8 {fakecolorsetup} COMMONBITMAPc
	} bind def
/ENDBITMAP {
	} bind def
end 
	/ALDmatrix matrix def ALDmatrix currentmatrix pop
/StartALD {
	/ALDsave save def
	 savematrix
	 ALDmatrix setmatrix
	} bind def
/InALD {
	 restorematrix
	} bind def
/DoneALD {
	 ALDsave restore
	} bind def
/I { setdash } bind def
/J { [] 0 setdash } bind def
%%EndProlog
%%BeginSetup
(5.0) FMVERSION
1 1 0 0 612 792 0 1 5 FMDOCUMENT
0 0 /Helvetica FMFONTDEFINE
1 0 /Helvetica-Bold FMFONTDEFINE
32 FMFILLS
0 0 FMFILL
1 0.1 FMFILL
2 0.3 FMFILL
3 0.5 FMFILL
4 0.7 FMFILL
5 0.9 FMFILL
6 0.97 FMFILL
7 1 FMFILL
8 <0f1e3c78f0e1c387> FMFILL
9 <0f87c3e1f0783c1e> FMFILL
10 <cccccccccccccccc> FMFILL
11 <ffff0000ffff0000> FMFILL
12 <8142241818244281> FMFILL
13 <03060c183060c081> FMFILL
14 <8040201008040201> FMFILL
16 1 FMFILL
17 0.9 FMFILL
18 0.7 FMFILL
19 0.5 FMFILL
20 0.3 FMFILL
21 0.1 FMFILL
22 0.03 FMFILL
23 0 FMFILL
24 <f0e1c3870f1e3c78> FMFILL
25 <f0783c1e0f87c3e1> FMFILL
26 <3333333333333333> FMFILL
27 <0000ffff0000ffff> FMFILL
28 <7ebddbe7e7dbbd7e> FMFILL
29 <fcf9f3e7cf9f3f7e> FMFILL
30 <7fbfdfeff7fbfdfe> FMFILL
%%EndSetup
%%Page: "mini" 1
%%BeginPaperSize: Letter
%%EndPaperSize
612 792 1 FMBEGINPAGE
[0 0 0 1 0 0 0]
[ 0 1 1 0 1 0 0]
[ 1 0 1 0 0 1 0]
[ 1 1 0 0 0 0 1]
[ 1 0 0 0 0 1 1]
[ 0 1 0 0 1 0 1]
[ 0 0 1 0 1 1 0]
[ 1 0.6 0 0.06 0 0.18 0.6]
 8 FrameSetSepColors
FrameNoSep
0 0 0 1 0 0 0 K
J
400.5 264.7 765 707.3 C
1 0.6 0 0.06 0 0.18 0.6 K
504.64 713.81 504.64 612.27 2 L
0.36 H
0 Z
0 X
1 0.6 0 0.06 0 0.18 0.6 K
N
439.55 612.27 504.64 612.27 2 L
N
0 0 0 1 0 0 0 K
0 4.34 Q
0 0 0 1 0 0 0 K
1.74 (PURIFY USER\325S GUIDE) 509.3 683.9 S
1 0.6 0 0.06 0 0.18 0.6 K
0 11.57 Q
1 0.6 0 0.06 0 0.18 0.6 K
(Contents) 510.68 624.97 T
0 0 0 1 0 0 0 K
0 0 0 1 0 0 0 K
0 0 0 1 0 0 0 K
0 0 0 1 0 0 0 K
0 0 0 1 0 0 0 K
0 0 0 1 0 0 0 K
0 0 0 1 0 0 0 K
1 5.06 Q
0 0 0 1 0 0 0 K
(iii) 728.23 286.37 T
0 0 0 1 0 0 0 K
0 0 0 1 0 0 0 K
1 0.6 0 0.06 0 0.18 0.6 K
1 7.23 Q
1 0.6 0 0.06 0 0.18 0.6 K
(W) 495.96 585.32 T
(elcome to Purify) 502.54 585.32 T
0 0 0 1 0 0 0 K
0 F
0 0 0 1 0 0 0 K
(Getting started) 512.89 574.47 T
( . . . . . . . . . . . . . . . . . . . . . . . . . . . . . . . . . . . . . . . . .) 563.35 574.47 T
(xi) 728.91 574.47 T
(Mastering the basics) 512.89 563.62 T
(. . . . . . . . . . . . . . . . . . . . . . . . . . . . . . . . . . . . .) 581.45 563.62 T
(xi) 728.91 563.62 T
(Learning to use special features) 512.89 552.78 T
(. . . . . . . . . . . . . . . . . . . . . . . . . . . .) 617.64 552.78 T
(xi) 728.91 552.78 T
(Using the reference chapters) 512.89 541.93 T
(. . . . . . . . . . . . . . . . . . . . . . . . . . . . .) 609.59 541.93 T
(xii) 727.3 541.93 T
(Using online Help) 512.89 531.08 T
(. . . . . . . . . . . . . . . . . . . . . . . . . . . . . . . . . . . . . .) 573.41 531.08 T
(xii) 727.3 531.08 T
(Conventions used in this guide) 512.89 520.23 T
(. . . . . . . . . . . . . . . . . . . . . . . . . . . .) 613.62 520.23 T
(xiii) 725.7 520.23 T
(Displaying the release notes) 512.89 509.38 T
( . . . . . . . . . . . . . . . . . . . . . . . . . . . . .) 607.59 509.38 T
(xiii) 725.7 509.38 T
(Installing Purify) 512.89 498.54 T
(. . . . . . . . . . . . . . . . . . . . . . . . . . . . . . . . . . . . . . . .) 565.36 498.54 T
(xiii) 725.7 498.54 T
(Contacting technical support) 512.89 487.69 T
( . . . . . . . . . . . . . . . . . . . . . . . . . . . . .) 607.59 487.69 T
(xiv) 725.29 487.69 T
1 0.6 0 0.06 0 0.18 0.6 K
0 0 0 1 0 0 0 K
1 0.6 0 0.06 0 0.18 0.6 K
1 F
1 0.6 0 0.06 0 0.18 0.6 K
(1) 502.36 468.88 T
0 0 0 1 0 0 0 K
1 0.6 0 0.06 0 0.18 0.6 K
(Intr) 512.89 468.88 T
(oducing Purify) 524.39 468.88 T
0 0 0 1 0 0 0 K
0 F
0 0 0 1 0 0 0 K
(When to use Purify) 512.89 458.04 T
(. . . . . . . . . . . . . . . . . . . . . . . . . . . . . . . . . . . .) 577.43 458.04 T
(1-2) 723.68 458.04 T
(Starting to use Purify) 512.89 447.19 T
( . . . . . . . . . . . . . . . . . . . . . . . . . . . . . . . . . .) 583.46 447.19 T
(1-3) 723.68 447.19 T
(Getting the most out of Purify) 512.89 436.34 T
(. . . . . . . . . . . . . . . . . . . . . . . . . . . .) 609.59 436.34 T
(1-5) 723.68 436.34 T
(Customizing Purify) 519.4 425.49 T
( . . . . . . . . . . . . . . . . . . . . . . . . . . . . . . . . . .) 583.46 425.49 T
(1-5) 723.68 425.49 T
(Using your debugger with Purify) 519.4 414.64 T
(. . . . . . . . . . . . . . . . . . . . . . . .) 625.68 414.64 T
(1-5) 723.68 414.64 T
(Calling Purify\325s API functions) 519.4 403.8 T
( . . . . . . . . . . . . . . . . . . . . . . . . . .) 615.63 403.8 T
(1-6) 723.68 403.8 T
(Integrating Purify into makefiles and scripts) 519.4 392.95 T
( . . . . . . . . . . . . . . .) 659.86 392.95 T
(1-6) 723.68 392.95 T
(Using Purify with other Rational software products) 512.89 382.1 T
( . . . . . . . . . . .) 675.94 382.1 T
(1-7) 723.68 382.1 T
(Using Purify with PureCoverage) 519.4 371.25 T
(. . . . . . . . . . . . . . . . . . . . . . . .) 625.68 371.25 T
(1-7) 723.68 371.25 T
(Using PureLink with Purify and PureCoverage) 519.4 360.4 T
(. . . . . . . . . . . . .) 669.91 360.4 T
(1-8) 723.68 360.4 T
(Using Purify with ClearDDTS) 519.4 349.55 T
( . . . . . . . . . . . . . . . . . . . . . . . . . .) 615.63 349.55 T
(1-8) 723.68 349.55 T
(Checking for memory errors) 512.89 338.71 T
(. . . . . . . . . . . . . . . . . . . . . . . . . . . . .) 605.57 338.71 T
(1-9) 723.68 338.71 T
(Memory access errors) 519.4 327.86 T
(. . . . . . . . . . . . . . . . . . . . . . . . . . . . . . . .) 593.51 327.86 T
(1-9) 723.68 327.86 T
(Accessing through dangling pointers) 519.4 317.01 T
( . . . . . . . . . . . . . . . . . . . .) 639.75 317.01 T
(1-9) 723.68 317.01 T
(Uninitialized memory reads) 519.4 306.16 T
(. . . . . . . . . . . . . . . . . . . . . . . . . . .) 609.59 306.16 T
(1-10) 719.66 306.16 T
0 0 0 1 0 0 0 K
FMENDPAGE
%%EndPage: "mini" 1
%%Page: "mini" 2
612 792 1 FMBEGINPAGE
[0 0 0 1 0 0 0]
[ 0 1 1 0 1 0 0]
[ 1 0 1 0 0 1 0]
[ 1 1 0 0 0 0 1]
[ 1 0 0 0 0 1 1]
[ 0 1 0 0 1 0 1]
[ 0 0 1 0 1 1 0]
[ 1 0.6 0 0.06 0 0.18 0.6]
 8 FrameSetSepColors
FrameNoSep
27 264.7 391.5 707.3 C
0 0 0 1 0 0 0 K
1 5.06 Q
0 X
0 0 0 1 0 0 0 K
(iv) 59.55 285.67 T
0 0 0 1 0 0 0 K
0 0 0 1 0 0 0 K
0 7.23 Q
(Memory allocation errors) 137.65 650.41 T
0 0 0 1 0 0 0 K
0 0 0 1 0 0 0 K
(. . . . . . . . . . . . . . . . . . . . . . . . . . . . .) 220.01 650.41 T
0 0 0 1 0 0 0 K
0 0 0 1 0 0 0 K
(1-10) 337.91 650.41 T
0 0 0 1 0 0 0 K
0 0 0 1 0 0 0 K
(Memory leaks) 137.65 639.56 T
0 0 0 1 0 0 0 K
0 0 0 1 0 0 0 K
( . . . . . . . . . . . . . . . . . . . . . . . . . . . . . . . . . . . . .) 185.83 639.56 T
0 0 0 1 0 0 0 K
0 0 0 1 0 0 0 K
(1-11) 337.91 639.56 T
0 0 0 1 0 0 0 K
0 0 0 1 0 0 0 K
(Errors in third-party code and libraries) 137.65 628.71 T
0 0 0 1 0 0 0 K
0 0 0 1 0 0 0 K
( . . . . . . . . . . . . . . . . . .) 262.23 628.71 T
0 0 0 1 0 0 0 K
0 0 0 1 0 0 0 K
(1-11) 337.91 628.71 T
0 0 0 1 0 0 0 K
1 0.6 0 0.06 0 0.18 0.6 K
0 0 0 1 0 0 0 K
1 0.6 0 0.06 0 0.18 0.6 K
1 F
1 0.6 0 0.06 0 0.18 0.6 K
(2) 120.61 609.91 T
0 0 0 1 0 0 0 K
1 0.6 0 0.06 0 0.18 0.6 K
(Finding Err) 131.14 609.91 T
(or) 169.57 609.91 T
(s in Hello W) 176.7 609.91 T
(orld) 217.26 609.91 T
0 0 0 1 0 0 0 K
0 0 0 1 0 0 0 K
0 F
0 0 0 1 0 0 0 K
(Before you start) 131.14 599.06 T
0 0 0 1 0 0 0 K
0 0 0 1 0 0 0 K
( . . . . . . . . . . . . . . . . . . . . . . . . . . . . . . . . . . . . . .) 185.83 599.06 T
0 0 0 1 0 0 0 K
0 0 0 1 0 0 0 K
(2-2) 341.93 599.06 T
0 0 0 1 0 0 0 K
0 0 0 1 0 0 0 K
(Building a Purify\325d program) 131.14 588.21 T
0 0 0 1 0 0 0 K
0 0 0 1 0 0 0 K
(. . . . . . . . . . . . . . . . . . . . . . . . . . . . . .) 220.01 588.21 T
0 0 0 1 0 0 0 K
0 0 0 1 0 0 0 K
(2-3) 341.93 588.21 T
0 0 0 1 0 0 0 K
0 0 0 1 0 0 0 K
(Compiling and linking in separate stages) 137.65 577.36 T
0 0 0 1 0 0 0 K
0 0 0 1 0 0 0 K
( . . . . . . . . . . . . . . . . .) 270.27 577.36 T
0 0 0 1 0 0 0 K
0 0 0 1 0 0 0 K
(2-3) 341.93 577.36 T
0 0 0 1 0 0 0 K
0 0 0 1 0 0 0 K
(Running a Purify\325d program) 131.14 566.52 T
0 0 0 1 0 0 0 K
0 0 0 1 0 0 0 K
( . . . . . . . . . . . . . . . . . . . . . . . . . . . . .) 222.02 566.52 T
0 0 0 1 0 0 0 K
0 0 0 1 0 0 0 K
(2-4) 341.93 566.52 T
0 0 0 1 0 0 0 K
0 0 0 1 0 0 0 K
(Using the Purify Viewer) 131.14 555.67 T
0 0 0 1 0 0 0 K
0 0 0 1 0 0 0 K
( . . . . . . . . . . . . . . . . . . . . . . . . . . . . . . . .) 209.96 555.67 T
0 0 0 1 0 0 0 K
0 0 0 1 0 0 0 K
(2-5) 341.93 555.67 T
0 0 0 1 0 0 0 K
0 0 0 1 0 0 0 K
(Analyzing an ABR message) 131.14 544.82 T
0 0 0 1 0 0 0 K
0 0 0 1 0 0 0 K
(. . . . . . . . . . . . . . . . . . . . . . . . . . . . .) 224.03 544.82 T
0 0 0 1 0 0 0 K
0 0 0 1 0 0 0 K
(2-6) 341.93 544.82 T
0 0 0 1 0 0 0 K
0 0 0 1 0 0 0 K
(Using line numbers and source filenames) 137.65 533.97 T
0 0 0 1 0 0 0 K
0 0 0 1 0 0 0 K
( . . . . . . . . . . . . . . . .) 274.3 533.97 T
0 0 0 1 0 0 0 K
0 0 0 1 0 0 0 K
(2-7) 341.93 533.97 T
0 0 0 1 0 0 0 K
0 0 0 1 0 0 0 K
(Finding the exact location of the error) 137.65 523.12 T
0 0 0 1 0 0 0 K
0 0 0 1 0 0 0 K
(. . . . . . . . . . . . . . . . . . . .) 260.22 523.12 T
0 0 0 1 0 0 0 K
0 0 0 1 0 0 0 K
(2-8) 341.93 523.12 T
0 0 0 1 0 0 0 K
0 0 0 1 0 0 0 K
(Correcting the ABR error) 137.65 512.28 T
0 0 0 1 0 0 0 K
0 0 0 1 0 0 0 K
(. . . . . . . . . . . . . . . . . . . . . . . . . . . . . .) 220.01 512.28 T
0 0 0 1 0 0 0 K
0 0 0 1 0 0 0 K
(2-9) 341.93 512.28 T
0 0 0 1 0 0 0 K
0 0 0 1 0 0 0 K
(Looking at the file descriptors message) 131.14 501.43 T
0 0 0 1 0 0 0 K
0 0 0 1 0 0 0 K
(. . . . . . . . . . . . . . . . . . .) 260.22 501.43 T
0 0 0 1 0 0 0 K
0 0 0 1 0 0 0 K
(2-10) 337.91 501.43 T
0 0 0 1 0 0 0 K
0 0 0 1 0 0 0 K
(Understanding the memory leaked summary) 131.14 490.58 T
0 0 0 1 0 0 0 K
0 0 0 1 0 0 0 K
(. . . . . . . . . . . . . . .) 276.3 490.58 T
0 0 0 1 0 0 0 K
0 0 0 1 0 0 0 K
(2-11) 337.91 490.58 T
0 0 0 1 0 0 0 K
0 0 0 1 0 0 0 K
(Looking at the MLK error) 137.65 479.73 T
0 0 0 1 0 0 0 K
0 0 0 1 0 0 0 K
(. . . . . . . . . . . . . . . . . . . . . . . . . . . . .) 220.01 479.73 T
0 0 0 1 0 0 0 K
0 0 0 1 0 0 0 K
(2-12) 337.91 479.73 T
0 0 0 1 0 0 0 K
0 0 0 1 0 0 0 K
(Looking at the exit status summary) 131.14 468.88 T
0 0 0 1 0 0 0 K
0 0 0 1 0 0 0 K
( . . . . . . . . . . . . . . . . . . . . . .) 246.15 468.88 T
0 0 0 1 0 0 0 K
0 0 0 1 0 0 0 K
(2-14) 337.91 468.88 T
0 0 0 1 0 0 0 K
0 0 0 1 0 0 0 K
(Rerunning a Purify\325d program) 131.14 458.04 T
0 0 0 1 0 0 0 K
0 0 0 1 0 0 0 K
(. . . . . . . . . . . . . . . . . . . . . . . . . . .) 228.05 458.04 T
0 0 0 1 0 0 0 K
0 0 0 1 0 0 0 K
(2-15) 337.91 458.04 T
0 0 0 1 0 0 0 K
1 0.6 0 0.06 0 0.18 0.6 K
0 0 0 1 0 0 0 K
1 0.6 0 0.06 0 0.18 0.6 K
1 F
1 0.6 0 0.06 0 0.18 0.6 K
(3) 120.61 439.23 T
0 0 0 1 0 0 0 K
1 0.6 0 0.06 0 0.18 0.6 K
(Memor) 131.14 439.23 T
(y Access Err) 154.92 439.23 T
(or) 198.6 439.23 T
(s) 205.72 439.23 T
0 0 0 1 0 0 0 K
0 0 0 1 0 0 0 K
0 F
0 0 0 1 0 0 0 K
(How Purify finds memory access errors) 131.14 428.39 T
0 0 0 1 0 0 0 K
0 0 0 1 0 0 0 K
(. . . . . . . . . . . . . . . . . . . .) 260.22 428.39 T
0 0 0 1 0 0 0 K
0 0 0 1 0 0 0 K
(3-2) 341.93 428.39 T
0 0 0 1 0 0 0 K
0 0 0 1 0 0 0 K
(How Purify checks statically allocated memory) 137.65 417.54 T
0 0 0 1 0 0 0 K
0 0 0 1 0 0 0 K
(. . . . . . . . . . . . .) 288.37 417.54 T
0 0 0 1 0 0 0 K
0 0 0 1 0 0 0 K
(3-4) 341.93 417.54 T
0 0 0 1 0 0 0 K
0 0 0 1 0 0 0 K
(Notes and limitations) 137.65 406.69 T
0 0 0 1 0 0 0 K
0 0 0 1 0 0 0 K
(. . . . . . . . . . . . . . . . . . . . . . . . . . . . . . . . .) 207.95 406.69 T
0 0 0 1 0 0 0 K
0 0 0 1 0 0 0 K
(3-5) 341.93 406.69 T
0 0 0 1 0 0 0 K
0 0 0 1 0 0 0 K
(Building the testHash example program) 131.14 395.84 T
0 0 0 1 0 0 0 K
0 0 0 1 0 0 0 K
(. . . . . . . . . . . . . . . . . . . .) 260.22 395.84 T
0 0 0 1 0 0 0 K
0 0 0 1 0 0 0 K
(3-6) 341.93 395.84 T
0 0 0 1 0 0 0 K
0 0 0 1 0 0 0 K
(Running the testHash program without Purify) 131.14 384.99 T
0 0 0 1 0 0 0 K
0 0 0 1 0 0 0 K
( . . . . . . . . . . . . . . .) 278.32 384.99 T
0 0 0 1 0 0 0 K
0 0 0 1 0 0 0 K
(3-7) 341.93 384.99 T
0 0 0 1 0 0 0 K
0 0 0 1 0 0 0 K
(Running the Purify\325d testHash program) 131.14 374.14 T
0 0 0 1 0 0 0 K
0 0 0 1 0 0 0 K
( . . . . . . . . . . . . . . . . . . . .) 258.21 374.14 T
0 0 0 1 0 0 0 K
0 0 0 1 0 0 0 K
(3-8) 341.93 374.14 T
0 0 0 1 0 0 0 K
0 0 0 1 0 0 0 K
(Debugging the testHash program) 131.14 363.3 T
0 0 0 1 0 0 0 K
0 0 0 1 0 0 0 K
(. . . . . . . . . . . . . . . . . . . . . . . . .) 240.12 363.3 T
0 0 0 1 0 0 0 K
0 0 0 1 0 0 0 K
(3-9) 341.93 363.3 T
0 0 0 1 0 0 0 K
0 0 0 1 0 0 0 K
(Debugging with dbx) 137.65 352.45 T
0 0 0 1 0 0 0 K
0 0 0 1 0 0 0 K
(. . . . . . . . . . . . . . . . . . . . . . . . . . . . . . . . . .) 203.93 352.45 T
0 0 0 1 0 0 0 K
0 0 0 1 0 0 0 K
(3-9) 341.93 352.45 T
0 0 0 1 0 0 0 K
0 0 0 1 0 0 0 K
(Debugging with xdb) 137.65 341.6 T
0 0 0 1 0 0 0 K
0 0 0 1 0 0 0 K
(. . . . . . . . . . . . . . . . . . . . . . . . . . . . . . . . .) 203.93 341.6 T
0 0 0 1 0 0 0 K
0 0 0 1 0 0 0 K
(3-10) 337.91 341.6 T
0 0 0 1 0 0 0 K
0 0 0 1 0 0 0 K
(Reading uninitialized memory) 131.14 330.75 T
0 0 0 1 0 0 0 K
0 0 0 1 0 0 0 K
(. . . . . . . . . . . . . . . . . . . . . . . . . . .) 228.05 330.75 T
0 0 0 1 0 0 0 K
0 0 0 1 0 0 0 K
(3-11) 337.91 330.75 T
0 0 0 1 0 0 0 K
0 0 0 1 0 0 0 K
(A UMR example) 137.65 319.9 T
0 0 0 1 0 0 0 K
0 0 0 1 0 0 0 K
( . . . . . . . . . . . . . . . . . . . . . . . . . . . . . . . . . . .) 193.88 319.9 T
0 0 0 1 0 0 0 K
0 0 0 1 0 0 0 K
(3-11) 337.91 319.9 T
0 0 0 1 0 0 0 K
0 0 0 1 0 0 0 K
(Finding the cause of the UMR error) 137.65 309.06 T
0 0 0 1 0 0 0 K
0 0 0 1 0 0 0 K
( . . . . . . . . . . . . . . . . . . . .) 254.19 309.06 T
0 0 0 1 0 0 0 K
0 0 0 1 0 0 0 K
(3-13) 337.91 309.06 T
0 0 0 1 0 0 0 K
0 0 0 1 0 0 0 K
0 0 0 1 0 0 0 K
400.5 264.7 765 707.3 C
0 0 0 1 0 0 0 K
0 0 0 1 0 0 0 K
0 0 0 1 0 0 0 K
0 0 0 1 0 0 0 K
0 0 0 1 0 0 0 K
1 5.06 Q
0 X
0 0 0 1 0 0 0 K
(v) 729.64 286.37 T
0 0 0 1 0 0 0 K
0 0 0 1 0 0 0 K
0 7.23 Q
(Correcting the UMR error) 517.66 650.41 T
0 0 0 1 0 0 0 K
0 0 0 1 0 0 0 K
(. . . . . . . . . . . . . . . . . . . . . . . . . . . . .) 601.55 650.41 T
0 0 0 1 0 0 0 K
0 0 0 1 0 0 0 K
(3-13) 717.92 650.41 T
0 0 0 1 0 0 0 K
0 0 0 1 0 0 0 K
(Reading and writing beyond the bounds of an array) 511.15 639.56 T
0 0 0 1 0 0 0 K
0 0 0 1 0 0 0 K
(. . . . . . . . . .) 677.95 639.56 T
0 0 0 1 0 0 0 K
0 0 0 1 0 0 0 K
(3-14) 717.92 639.56 T
0 0 0 1 0 0 0 K
0 0 0 1 0 0 0 K
(An ABW example) 517.66 628.71 T
0 0 0 1 0 0 0 K
0 0 0 1 0 0 0 K
(. . . . . . . . . . . . . . . . . . . . . . . . . . . . . . . . . . .) 577.43 628.71 T
0 0 0 1 0 0 0 K
0 0 0 1 0 0 0 K
(3-14) 717.92 628.71 T
0 0 0 1 0 0 0 K
0 0 0 1 0 0 0 K
(Finding the cause of the ABW error) 517.66 617.86 T
0 0 0 1 0 0 0 K
0 0 0 1 0 0 0 K
(. . . . . . . . . . . . . . . . . . . . .) 633.72 617.86 T
0 0 0 1 0 0 0 K
0 0 0 1 0 0 0 K
(3-15) 717.92 617.86 T
0 0 0 1 0 0 0 K
0 0 0 1 0 0 0 K
(Correcting the ABW error) 517.66 607.02 T
0 0 0 1 0 0 0 K
0 0 0 1 0 0 0 K
(. . . . . . . . . . . . . . . . . . . . . . . . . . . . .) 601.55 607.02 T
0 0 0 1 0 0 0 K
0 0 0 1 0 0 0 K
(3-16) 717.92 607.02 T
0 0 0 1 0 0 0 K
0 0 0 1 0 0 0 K
(An ABR example) 517.66 596.17 T
0 0 0 1 0 0 0 K
0 0 0 1 0 0 0 K
( . . . . . . . . . . . . . . . . . . . . . . . . . . . . . . . . . . .) 575.42 596.17 T
0 0 0 1 0 0 0 K
0 0 0 1 0 0 0 K
(3-16) 717.92 596.17 T
0 0 0 1 0 0 0 K
0 0 0 1 0 0 0 K
(Reading or writing freed memory) 511.15 585.32 T
0 0 0 1 0 0 0 K
0 0 0 1 0 0 0 K
( . . . . . . . . . . . . . . . . . . . . . . . .) 619.65 585.32 T
0 0 0 1 0 0 0 K
0 0 0 1 0 0 0 K
(3-17) 717.92 585.32 T
0 0 0 1 0 0 0 K
0 0 0 1 0 0 0 K
(An FMR example) 517.66 574.47 T
0 0 0 1 0 0 0 K
0 0 0 1 0 0 0 K
(. . . . . . . . . . . . . . . . . . . . . . . . . . . . . . . . . . .) 577.43 574.47 T
0 0 0 1 0 0 0 K
0 0 0 1 0 0 0 K
(3-18) 717.92 574.47 T
0 0 0 1 0 0 0 K
0 0 0 1 0 0 0 K
(Finding the cause of the FMR error) 517.66 563.62 T
0 0 0 1 0 0 0 K
0 0 0 1 0 0 0 K
(. . . . . . . . . . . . . . . . . . . . .) 633.72 563.62 T
0 0 0 1 0 0 0 K
0 0 0 1 0 0 0 K
(3-19) 717.92 563.62 T
0 0 0 1 0 0 0 K
0 0 0 1 0 0 0 K
(Correcting the FMR error) 517.66 552.78 T
0 0 0 1 0 0 0 K
0 0 0 1 0 0 0 K
(. . . . . . . . . . . . . . . . . . . . . . . . . . . . .) 601.55 552.78 T
0 0 0 1 0 0 0 K
0 0 0 1 0 0 0 K
(3-20) 717.92 552.78 T
0 0 0 1 0 0 0 K
0 0 0 1 0 0 0 K
(Freeing unallocated or non-heap memory) 511.15 541.93 T
0 0 0 1 0 0 0 K
0 0 0 1 0 0 0 K
( . . . . . . . . . . . . . . . . .) 647.79 541.93 T
0 0 0 1 0 0 0 K
0 0 0 1 0 0 0 K
(3-21) 717.92 541.93 T
0 0 0 1 0 0 0 K
0 0 0 1 0 0 0 K
(An FNH example) 517.66 531.08 T
0 0 0 1 0 0 0 K
0 0 0 1 0 0 0 K
( . . . . . . . . . . . . . . . . . . . . . . . . . . . . . . . . . . .) 575.42 531.08 T
0 0 0 1 0 0 0 K
0 0 0 1 0 0 0 K
(3-21) 717.92 531.08 T
0 0 0 1 0 0 0 K
0 0 0 1 0 0 0 K
(Finding the cause of the FNH error) 517.66 520.23 T
0 0 0 1 0 0 0 K
0 0 0 1 0 0 0 K
( . . . . . . . . . . . . . . . . . . . . .) 631.71 520.23 T
0 0 0 1 0 0 0 K
0 0 0 1 0 0 0 K
(3-22) 717.92 520.23 T
0 0 0 1 0 0 0 K
0 0 0 1 0 0 0 K
(Correcting the FNH error) 517.66 509.38 T
0 0 0 1 0 0 0 K
0 0 0 1 0 0 0 K
( . . . . . . . . . . . . . . . . . . . . . . . . . . . . .) 599.54 509.38 T
0 0 0 1 0 0 0 K
0 0 0 1 0 0 0 K
(3-23) 717.92 509.38 T
0 0 0 1 0 0 0 K
1 0.6 0 0.06 0 0.18 0.6 K
0 0 0 1 0 0 0 K
1 0.6 0 0.06 0 0.18 0.6 K
1 F
1 0.6 0 0.06 0 0.18 0.6 K
(4) 500.62 490.58 T
0 0 0 1 0 0 0 K
1 0.6 0 0.06 0 0.18 0.6 K
(Memor) 511.15 490.58 T
(y Leaks) 534.93 490.58 T
0 0 0 1 0 0 0 K
0 0 0 1 0 0 0 K
0 F
0 0 0 1 0 0 0 K
(How Purify reports memory leaks) 511.15 479.73 T
0 0 0 1 0 0 0 K
0 0 0 1 0 0 0 K
(. . . . . . . . . . . . . . . . . . . . . . . . .) 621.66 479.73 T
0 0 0 1 0 0 0 K
0 0 0 1 0 0 0 K
(4-1) 721.94 479.73 T
0 0 0 1 0 0 0 K
0 0 0 1 0 0 0 K
(Notes and limitations) 517.66 468.88 T
0 0 0 1 0 0 0 K
0 0 0 1 0 0 0 K
( . . . . . . . . . . . . . . . . . . . . . . . . . . . . . . . . .) 587.48 468.88 T
0 0 0 1 0 0 0 K
0 0 0 1 0 0 0 K
(4-3) 721.94 468.88 T
0 0 0 1 0 0 0 K
0 0 0 1 0 0 0 K
(Finding the memory leaks in testHash) 511.15 458.04 T
0 0 0 1 0 0 0 K
0 0 0 1 0 0 0 K
( . . . . . . . . . . . . . . . . . . . . .) 635.73 458.04 T
0 0 0 1 0 0 0 K
0 0 0 1 0 0 0 K
(4-4) 721.94 458.04 T
0 0 0 1 0 0 0 K
0 0 0 1 0 0 0 K
(Finding the source of memory leaks) 517.66 447.19 T
0 0 0 1 0 0 0 K
0 0 0 1 0 0 0 K
( . . . . . . . . . . . . . . . . . . . . .) 635.73 447.19 T
0 0 0 1 0 0 0 K
0 0 0 1 0 0 0 K
(4-6) 721.94 447.19 T
0 0 0 1 0 0 0 K
0 0 0 1 0 0 0 K
(Using your debugger to set breakpoints) 517.66 436.34 T
0 0 0 1 0 0 0 K
0 0 0 1 0 0 0 K
( . . . . . . . . . . . . . . . . . .) 647.79 436.34 T
0 0 0 1 0 0 0 K
0 0 0 1 0 0 0 K
(4-7) 721.94 436.34 T
0 0 0 1 0 0 0 K
0 0 0 1 0 0 0 K
(Running purify_new_leaks) 517.66 425.49 T
0 0 0 1 0 0 0 K
0 0 0 1 0 0 0 K
(. . . . . . . . . . . . . . . . . . . . . . . . . . . . .) 605.57 425.49 T
0 0 0 1 0 0 0 K
0 0 0 1 0 0 0 K
(4-8) 721.94 425.49 T
0 0 0 1 0 0 0 K
0 0 0 1 0 0 0 K
(Correcting the error) 511.15 414.64 T
0 0 0 1 0 0 0 K
0 0 0 1 0 0 0 K
(. . . . . . . . . . . . . . . . . . . . . . . . . . . . . . . . . . .) 577.43 414.64 T
0 0 0 1 0 0 0 K
0 0 0 1 0 0 0 K
(4-10) 717.92 414.64 T
0 0 0 1 0 0 0 K
0 0 0 1 0 0 0 K
(Using the new leaks button) 511.15 403.8 T
0 0 0 1 0 0 0 K
0 0 0 1 0 0 0 K
(. . . . . . . . . . . . . . . . . . . . . . . . . . . . .) 601.55 403.8 T
0 0 0 1 0 0 0 K
0 0 0 1 0 0 0 K
(4-10) 717.92 403.8 T
0 0 0 1 0 0 0 K
0 0 0 1 0 0 0 K
(Disabling memory leaked messages) 511.15 392.95 T
0 0 0 1 0 0 0 K
0 0 0 1 0 0 0 K
(. . . . . . . . . . . . . . . . . . . . . .) 629.7 392.95 T
0 0 0 1 0 0 0 K
0 0 0 1 0 0 0 K
(4-11) 717.92 392.95 T
0 0 0 1 0 0 0 K
1 0.6 0 0.06 0 0.18 0.6 K
0 0 0 1 0 0 0 K
1 0.6 0 0.06 0 0.18 0.6 K
1 F
1 0.6 0 0.06 0 0.18 0.6 K
(5) 500.62 374.14 T
0 0 0 1 0 0 0 K
1 0.6 0 0.06 0 0.18 0.6 K
(Anal) 511.15 374.14 T
(yzing File Descriptor) 526.72 374.14 T
(s) 597.74 374.14 T
0 0 0 1 0 0 0 K
0 0 0 1 0 0 0 K
0 F
0 0 0 1 0 0 0 K
(File descriptors in use messages) 511.15 363.3 T
0 0 0 1 0 0 0 K
0 0 0 1 0 0 0 K
( . . . . . . . . . . . . . . . . . . . . . . . . .) 619.65 363.3 T
0 0 0 1 0 0 0 K
0 0 0 1 0 0 0 K
(5-1) 721.94 363.3 T
0 0 0 1 0 0 0 K
0 0 0 1 0 0 0 K
(File descriptor leak example) 511.15 352.45 T
0 0 0 1 0 0 0 K
0 0 0 1 0 0 0 K
( . . . . . . . . . . . . . . . . . . . . . . . . . . . . .) 603.56 352.45 T
0 0 0 1 0 0 0 K
0 0 0 1 0 0 0 K
(5-3) 721.94 352.45 T
0 0 0 1 0 0 0 K
0 0 0 1 0 0 0 K
(Analyzing FIU messages) 511.15 341.6 T
0 0 0 1 0 0 0 K
0 0 0 1 0 0 0 K
(. . . . . . . . . . . . . . . . . . . . . . . . . . . . . . . .) 593.51 341.6 T
0 0 0 1 0 0 0 K
0 0 0 1 0 0 0 K
(5-4) 721.94 341.6 T
0 0 0 1 0 0 0 K
0 0 0 1 0 0 0 K
(Disabling FIU messages) 511.15 330.75 T
0 0 0 1 0 0 0 K
0 0 0 1 0 0 0 K
(. . . . . . . . . . . . . . . . . . . . . . . . . . . . . . . .) 593.51 330.75 T
0 0 0 1 0 0 0 K
0 0 0 1 0 0 0 K
(5-4) 721.94 330.75 T
0 0 0 1 0 0 0 K
0 0 0 1 0 0 0 K
(Notes and limitations) 511.15 319.9 T
0 0 0 1 0 0 0 K
0 0 0 1 0 0 0 K
(. . . . . . . . . . . . . . . . . . . . . . . . . . . . . . . . . . .) 581.45 319.9 T
0 0 0 1 0 0 0 K
0 0 0 1 0 0 0 K
(5-4) 721.94 319.9 T
0 0 0 1 0 0 0 K
0 0 0 1 0 0 0 K
0 0 0 1 0 0 0 K
FMENDPAGE
%%EndPage: "mini" 2
%%Page: "mini" 3
612 792 1 FMBEGINPAGE
[0 0 0 1 0 0 0]
[ 0 1 1 0 1 0 0]
[ 1 0 1 0 0 1 0]
[ 1 1 0 0 0 0 1]
[ 1 0 0 0 0 1 1]
[ 0 1 0 0 1 0 1]
[ 0 0 1 0 1 1 0]
[ 1 0.6 0 0.06 0 0.18 0.6]
 8 FrameSetSepColors
FrameNoSep
27 264.7 391.5 707.3 C
0 0 0 1 0 0 0 K
1 5.06 Q
0 X
0 0 0 1 0 0 0 K
(vi) 59.55 285.67 T
0 0 0 1 0 0 0 K
1 0.6 0 0.06 0 0.18 0.6 K
0 0 0 1 0 0 0 K
1 0.6 0 0.06 0 0.18 0.6 K
1 7.23 Q
1 0.6 0 0.06 0 0.18 0.6 K
(6) 120.61 650.41 T
0 0 0 1 0 0 0 K
1 0.6 0 0.06 0 0.18 0.6 K
(Customizing Purify) 131.14 650.41 T
0 0 0 1 0 0 0 K
0 0 0 1 0 0 0 K
0 F
0 0 0 1 0 0 0 K
(Controlling Purify output) 131.14 639.56 T
0 0 0 1 0 0 0 K
0 0 0 1 0 0 0 K
(. . . . . . . . . . . . . . . . . . . . . . . . . . . . . . . .) 211.97 639.56 T
0 0 0 1 0 0 0 K
0 0 0 1 0 0 0 K
(6-2) 341.93 639.56 T
0 0 0 1 0 0 0 K
0 0 0 1 0 0 0 K
(Saving Purify output as ASCII text) 137.65 628.71 T
0 0 0 1 0 0 0 K
0 0 0 1 0 0 0 K
( . . . . . . . . . . . . . . . . . . . . . .) 250.17 628.71 T
0 0 0 1 0 0 0 K
0 0 0 1 0 0 0 K
(6-2) 341.93 628.71 T
0 0 0 1 0 0 0 K
0 0 0 1 0 0 0 K
(Saving Purify output to a view file) 137.65 617.86 T
0 0 0 1 0 0 0 K
0 0 0 1 0 0 0 K
(. . . . . . . . . . . . . . . . . . . . . . .) 248.16 617.86 T
0 0 0 1 0 0 0 K
0 0 0 1 0 0 0 K
(6-3) 341.93 617.86 T
0 0 0 1 0 0 0 K
0 0 0 1 0 0 0 K
(Prestarting the Viewer) 137.65 607.02 T
0 0 0 1 0 0 0 K
0 0 0 1 0 0 0 K
(. . . . . . . . . . . . . . . . . . . . . . . . . . . . . . . .) 211.97 607.02 T
0 0 0 1 0 0 0 K
0 0 0 1 0 0 0 K
(6-5) 341.93 607.02 T
0 0 0 1 0 0 0 K
0 0 0 1 0 0 0 K
(Mailing Purify output to developers) 131.14 596.17 T
0 0 0 1 0 0 0 K
0 0 0 1 0 0 0 K
(. . . . . . . . . . . . . . . . . . . . . . . .) 244.14 596.17 T
0 0 0 1 0 0 0 K
0 0 0 1 0 0 0 K
(6-6) 341.93 596.17 T
0 0 0 1 0 0 0 K
0 0 0 1 0 0 0 K
(Using the -mail-to-user-option) 137.65 585.32 T
0 0 0 1 0 0 0 K
0 0 0 1 0 0 0 K
(. . . . . . . . . . . . . . . . . . . . . . . . . .) 236.1 585.32 T
0 0 0 1 0 0 0 K
0 0 0 1 0 0 0 K
(6-6) 341.93 585.32 T
0 0 0 1 0 0 0 K
0 0 0 1 0 0 0 K
(Protecting your run-time option settings) 137.65 574.47 T
0 0 0 1 0 0 0 K
0 0 0 1 0 0 0 K
( . . . . . . . . . . . . . . . . . .) 266.25 574.47 T
0 0 0 1 0 0 0 K
0 0 0 1 0 0 0 K
(6-6) 341.93 574.47 T
0 0 0 1 0 0 0 K
0 0 0 1 0 0 0 K
(Annotating Purify\325s output) 131.14 563.62 T
0 0 0 1 0 0 0 K
0 0 0 1 0 0 0 K
(. . . . . . . . . . . . . . . . . . . . . . . . . . . . . . .) 215.99 563.62 T
0 0 0 1 0 0 0 K
0 0 0 1 0 0 0 K
(6-7) 341.93 563.62 T
0 0 0 1 0 0 0 K
0 0 0 1 0 0 0 K
(Customizing Purify messages) 131.14 552.78 T
0 0 0 1 0 0 0 K
0 0 0 1 0 0 0 K
( . . . . . . . . . . . . . . . . . . . . . . . . . . .) 230.06 552.78 T
0 0 0 1 0 0 0 K
0 0 0 1 0 0 0 K
(6-9) 341.93 552.78 T
0 0 0 1 0 0 0 K
0 0 0 1 0 0 0 K
(Controlling the content and appearance of messages) 137.65 541.93 T
0 0 0 1 0 0 0 K
0 0 0 1 0 0 0 K
( . . . . . . .) 310.48 541.93 T
0 0 0 1 0 0 0 K
0 0 0 1 0 0 0 K
(6-9) 341.93 541.93 T
0 0 0 1 0 0 0 K
0 0 0 1 0 0 0 K
(Controlling message batching) 137.65 531.08 T
0 0 0 1 0 0 0 K
0 0 0 1 0 0 0 K
(. . . . . . . . . . . . . . . . . . . . . . . . . .) 236.1 531.08 T
0 0 0 1 0 0 0 K
0 0 0 1 0 0 0 K
(6-9) 341.93 531.08 T
0 0 0 1 0 0 0 K
0 0 0 1 0 0 0 K
(Customizing the thread summary message) 137.65 520.23 T
0 0 0 1 0 0 0 K
0 0 0 1 0 0 0 K
( . . . . . . . . . . . . . .) 278.32 520.23 T
0 0 0 1 0 0 0 K
0 0 0 1 0 0 0 K
(6-10) 337.91 520.23 T
0 0 0 1 0 0 0 K
0 0 0 1 0 0 0 K
(Enabling JIT debugging) 131.14 509.38 T
0 0 0 1 0 0 0 K
0 0 0 1 0 0 0 K
( . . . . . . . . . . . . . . . . . . . . . . . . . . . . . . .) 209.96 509.38 T
0 0 0 1 0 0 0 K
0 0 0 1 0 0 0 K
(6-11) 337.91 509.38 T
0 0 0 1 0 0 0 K
0 0 0 1 0 0 0 K
(Reporting Purify status at exit) 131.14 498.54 T
0 0 0 1 0 0 0 K
0 0 0 1 0 0 0 K
(. . . . . . . . . . . . . . . . . . . . . . . . . . .) 228.05 498.54 T
0 0 0 1 0 0 0 K
0 0 0 1 0 0 0 K
(6-13) 337.91 498.54 T
0 0 0 1 0 0 0 K
0 0 0 1 0 0 0 K
(Running shell scripts at exit) 131.14 487.69 T
0 0 0 1 0 0 0 K
0 0 0 1 0 0 0 K
( . . . . . . . . . . . . . . . . . . . . . . . . . . . .) 222.02 487.69 T
0 0 0 1 0 0 0 K
0 0 0 1 0 0 0 K
(6-14) 337.91 487.69 T
0 0 0 1 0 0 0 K
0 0 0 1 0 0 0 K
(Customizing the Purify Viewer) 131.14 476.84 T
0 0 0 1 0 0 0 K
0 0 0 1 0 0 0 K
( . . . . . . . . . . . . . . . . . . . . . . . . . .) 230.06 476.84 T
0 0 0 1 0 0 0 K
0 0 0 1 0 0 0 K
(6-15) 337.91 476.84 T
0 0 0 1 0 0 0 K
0 0 0 1 0 0 0 K
(Customizing Purify scripts) 131.14 465.99 T
0 0 0 1 0 0 0 K
0 0 0 1 0 0 0 K
( . . . . . . . . . . . . . . . . . . . . . . . . . . . . .) 218 465.99 T
0 0 0 1 0 0 0 K
0 0 0 1 0 0 0 K
(6-16) 337.91 465.99 T
0 0 0 1 0 0 0 K
0 0 0 1 0 0 0 K
(Customizing the program controls) 137.65 455.14 T
0 0 0 1 0 0 0 K
0 0 0 1 0 0 0 K
(. . . . . . . . . . . . . . . . . . . . . .) 248.16 455.14 T
0 0 0 1 0 0 0 K
0 0 0 1 0 0 0 K
(6-17) 337.91 455.14 T
0 0 0 1 0 0 0 K
0 0 0 1 0 0 0 K
(Managing cached object files) 131.14 444.3 T
0 0 0 1 0 0 0 K
0 0 0 1 0 0 0 K
(. . . . . . . . . . . . . . . . . . . . . . . . . . .) 228.05 444.3 T
0 0 0 1 0 0 0 K
0 0 0 1 0 0 0 K
(6-19) 337.91 444.3 T
0 0 0 1 0 0 0 K
0 0 0 1 0 0 0 K
(Deleting cached object files) 137.65 433.45 T
0 0 0 1 0 0 0 K
0 0 0 1 0 0 0 K
(. . . . . . . . . . . . . . . . . . . . . . . . . . .) 228.05 433.45 T
0 0 0 1 0 0 0 K
0 0 0 1 0 0 0 K
(6-20) 337.91 433.45 T
0 0 0 1 0 0 0 K
0 0 0 1 0 0 0 K
(Integrating Purify with a configuration management system) 131.14 422.6 T
0 0 0 1 0 0 0 K
0 0 0 1 0 0 0 K
( . . .) 322.55 422.6 T
0 0 0 1 0 0 0 K
0 0 0 1 0 0 0 K
(6-21) 337.91 422.6 T
0 0 0 1 0 0 0 K
1 0.6 0 0.06 0 0.18 0.6 K
0 0 0 1 0 0 0 K
1 0.6 0 0.06 0 0.18 0.6 K
1 F
1 0.6 0 0.06 0 0.18 0.6 K
(7) 120.61 403.8 T
0 0 0 1 0 0 0 K
1 0.6 0 0.06 0 0.18 0.6 K
(Suppressing Purify Messa) 131.14 403.8 T
(g) 221.5 403.8 T
(es) 225.99 403.8 T
0 0 0 1 0 0 0 K
0 0 0 1 0 0 0 K
0 F
0 0 0 1 0 0 0 K
(Suppressing messages in the Viewer) 131.14 392.95 T
0 0 0 1 0 0 0 K
0 0 0 1 0 0 0 K
(. . . . . . . . . . . . . . . . . . . . . .) 252.18 392.95 T
0 0 0 1 0 0 0 K
0 0 0 1 0 0 0 K
(7-2) 341.93 392.95 T
0 0 0 1 0 0 0 K
0 0 0 1 0 0 0 K
(Selecting where to suppress a message) 137.65 382.1 T
0 0 0 1 0 0 0 K
0 0 0 1 0 0 0 K
(. . . . . . . . . . . . . . . . . .) 268.26 382.1 T
0 0 0 1 0 0 0 K
0 0 0 1 0 0 0 K
(7-3) 341.93 382.1 T
0 0 0 1 0 0 0 K
0 0 0 1 0 0 0 K
(Making a suppression permanent) 137.65 371.25 T
0 0 0 1 0 0 0 K
0 0 0 1 0 0 0 K
(. . . . . . . . . . . . . . . . . . . . . . .) 248.16 371.25 T
0 0 0 1 0 0 0 K
0 0 0 1 0 0 0 K
(7-3) 341.93 371.25 T
0 0 0 1 0 0 0 K
0 0 0 1 0 0 0 K
(Saving a suppression directive to another .purify file) 137.65 360.4 T
0 0 0 1 0 0 0 K
0 0 0 1 0 0 0 K
( . . . . . . . .) 306.46 360.4 T
0 0 0 1 0 0 0 K
0 0 0 1 0 0 0 K
(7-3) 341.93 360.4 T
0 0 0 1 0 0 0 K
0 0 0 1 0 0 0 K
(Specifying suppressions in a .purify file) 131.14 349.56 T
0 0 0 1 0 0 0 K
0 0 0 1 0 0 0 K
( . . . . . . . . . . . . . . . . . . . .) 258.21 349.56 T
0 0 0 1 0 0 0 K
0 0 0 1 0 0 0 K
(7-4) 341.93 349.56 T
0 0 0 1 0 0 0 K
0 0 0 1 0 0 0 K
(Using ".) 137.65 338.71 T
(.) 166.34 338.71 T
(." syntax) 171.97 338.71 T
0 0 0 1 0 0 0 K
0 0 0 1 0 0 0 K
( . . . . . . . . . . . . . . . . . . . . . . . . . . . . . . . . . .) 201.92 338.71 T
0 0 0 1 0 0 0 K
0 0 0 1 0 0 0 K
(7-4) 341.93 338.71 T
0 0 0 1 0 0 0 K
0 0 0 1 0 0 0 K
(Suppressing error messages in C++ code) 137.65 327.86 T
0 0 0 1 0 0 0 K
0 0 0 1 0 0 0 K
( . . . . . . . . . . . . . . . .) 274.3 327.86 T
0 0 0 1 0 0 0 K
0 0 0 1 0 0 0 K
(7-5) 341.93 327.86 T
0 0 0 1 0 0 0 K
0 0 0 1 0 0 0 K
(Suppressing messages in the Hello World example) 137.65 317.01 T
0 0 0 1 0 0 0 K
0 0 0 1 0 0 0 K
(. . . . . . . . .) 304.45 317.01 T
0 0 0 1 0 0 0 K
0 0 0 1 0 0 0 K
(7-6) 341.93 317.01 T
0 0 0 1 0 0 0 K
0 0 0 1 0 0 0 K
(Displaying suppressed messages) 131.14 306.16 T
0 0 0 1 0 0 0 K
0 0 0 1 0 0 0 K
( . . . . . . . . . . . . . . . . . . . . . . . .) 242.13 306.16 T
0 0 0 1 0 0 0 K
0 0 0 1 0 0 0 K
(7-6) 341.93 306.16 T
0 0 0 1 0 0 0 K
0 0 0 1 0 0 0 K
0 0 0 1 0 0 0 K
400.5 264.7 765 707.3 C
0 0 0 1 0 0 0 K
0 0 0 1 0 0 0 K
0 0 0 1 0 0 0 K
0 0 0 1 0 0 0 K
0 0 0 1 0 0 0 K
1 5.06 Q
0 X
0 0 0 1 0 0 0 K
(vii) 726.82 286.37 T
0 0 0 1 0 0 0 K
0 0 0 1 0 0 0 K
0 7.23 Q
(Removing and editing suppressions) 511.15 650.41 T
0 0 0 1 0 0 0 K
0 0 0 1 0 0 0 K
(. . . . . . . . . . . . . . . . . . . . . . .) 629.7 650.41 T
0 0 0 1 0 0 0 K
0 0 0 1 0 0 0 K
(7-7) 721.94 650.41 T
0 0 0 1 0 0 0 K
0 0 0 1 0 0 0 K
(Temporarily unsuppressing messages) 511.15 639.56 T
0 0 0 1 0 0 0 K
0 0 0 1 0 0 0 K
( . . . . . . . . . . . . . . . . . . . . .) 635.73 639.56 T
0 0 0 1 0 0 0 K
0 0 0 1 0 0 0 K
(7-7) 721.94 639.56 T
0 0 0 1 0 0 0 K
0 0 0 1 0 0 0 K
(Using the unsuppress directive) 517.66 628.71 T
0 0 0 1 0 0 0 K
0 0 0 1 0 0 0 K
( . . . . . . . . . . . . . . . . . . . . . . . . .) 619.65 628.71 T
0 0 0 1 0 0 0 K
0 0 0 1 0 0 0 K
(7-8) 721.94 628.71 T
0 0 0 1 0 0 0 K
0 0 0 1 0 0 0 K
(Sharing suppressions between programs) 511.15 617.86 T
0 0 0 1 0 0 0 K
0 0 0 1 0 0 0 K
(. . . . . . . . . . . . . . . . . . .) 645.78 617.86 T
0 0 0 1 0 0 0 K
0 0 0 1 0 0 0 K
(7-9) 721.94 617.86 T
0 0 0 1 0 0 0 K
0 0 0 1 0 0 0 K
(Suppression precedence) 517.66 607.02 T
0 0 0 1 0 0 0 K
0 0 0 1 0 0 0 K
(. . . . . . . . . . . . . . . . . . . . . . . . . . . . . .) 601.55 607.02 T
0 0 0 1 0 0 0 K
0 0 0 1 0 0 0 K
(7-9) 721.94 607.02 T
0 0 0 1 0 0 0 K
0 0 0 1 0 0 0 K
(Creating suppressions for specific operating systems) 517.66 596.17 T
0 0 0 1 0 0 0 K
0 0 0 1 0 0 0 K
(. . . . . . . .) 690.02 596.17 T
0 0 0 1 0 0 0 K
0 0 0 1 0 0 0 K
(7-9) 721.94 596.17 T
0 0 0 1 0 0 0 K
0 0 0 1 0 0 0 K
(Using the -suppression-filenames option) 517.66 585.32 T
0 0 0 1 0 0 0 K
0 0 0 1 0 0 0 K
(. . . . . . . . . . . . . . . . .) 649.8 585.32 T
0 0 0 1 0 0 0 K
0 0 0 1 0 0 0 K
(7-10) 717.92 585.32 T
0 0 0 1 0 0 0 K
1 0.6 0 0.06 0 0.18 0.6 K
0 0 0 1 0 0 0 K
1 0.6 0 0.06 0 0.18 0.6 K
1 F
1 0.6 0 0.06 0 0.18 0.6 K
(8) 500.62 566.52 T
0 0 0 1 0 0 0 K
1 0.6 0 0.06 0 0.18 0.6 K
(Setting W) 511.15 566.52 T
(atc) 544.21 566.52 T
(hpoints) 554.59 566.52 T
0 0 0 1 0 0 0 K
0 0 0 1 0 0 0 K
0 F
0 0 0 1 0 0 0 K
(When to use watchpoints) 511.15 555.67 T
0 0 0 1 0 0 0 K
0 0 0 1 0 0 0 K
( . . . . . . . . . . . . . . . . . . . . . . . . . . . . . . .) 595.52 555.67 T
0 0 0 1 0 0 0 K
0 0 0 1 0 0 0 K
(8-1) 721.94 555.67 T
0 0 0 1 0 0 0 K
0 0 0 1 0 0 0 K
(Why use Purify\325s watchpoints?) 511.15 544.82 T
0 0 0 1 0 0 0 K
0 0 0 1 0 0 0 K
( . . . . . . . . . . . . . . . . . . . . . . . . . . .) 611.61 544.82 T
0 0 0 1 0 0 0 K
0 0 0 1 0 0 0 K
(8-2) 721.94 544.82 T
0 0 0 1 0 0 0 K
0 0 0 1 0 0 0 K
(Calling Purify watchpoint functions) 511.15 533.97 T
0 0 0 1 0 0 0 K
0 0 0 1 0 0 0 K
( . . . . . . . . . . . . . . . . . . . . . . . .) 623.67 533.97 T
0 0 0 1 0 0 0 K
0 0 0 1 0 0 0 K
(8-3) 721.94 533.97 T
0 0 0 1 0 0 0 K
0 0 0 1 0 0 0 K
(Stopping at watchpoints in a debugger) 517.66 523.12 T
0 0 0 1 0 0 0 K
0 0 0 1 0 0 0 K
( . . . . . . . . . . . . . . . . . . .) 643.77 523.12 T
0 0 0 1 0 0 0 K
0 0 0 1 0 0 0 K
(8-4) 721.94 523.12 T
0 0 0 1 0 0 0 K
0 0 0 1 0 0 0 K
(A watchpoint example) 511.15 512.28 T
0 0 0 1 0 0 0 K
0 0 0 1 0 0 0 K
(. . . . . . . . . . . . . . . . . . . . . . . . . . . . . . . . . .) 585.47 512.28 T
0 0 0 1 0 0 0 K
0 0 0 1 0 0 0 K
(8-4) 721.94 512.28 T
0 0 0 1 0 0 0 K
0 0 0 1 0 0 0 K
(Saving watchpoints) 511.15 501.43 T
0 0 0 1 0 0 0 K
0 0 0 1 0 0 0 K
(. . . . . . . . . . . . . . . . . . . . . . . . . . . . . . . . . . . .) 577.43 501.43 T
0 0 0 1 0 0 0 K
0 0 0 1 0 0 0 K
(8-6) 721.94 501.43 T
0 0 0 1 0 0 0 K
0 0 0 1 0 0 0 K
(Notes and limitations) 511.15 490.58 T
0 0 0 1 0 0 0 K
0 0 0 1 0 0 0 K
(. . . . . . . . . . . . . . . . . . . . . . . . . . . . . . . . . . .) 581.45 490.58 T
0 0 0 1 0 0 0 K
0 0 0 1 0 0 0 K
(8-6) 721.94 490.58 T
0 0 0 1 0 0 0 K
1 0.6 0 0.06 0 0.18 0.6 K
0 0 0 1 0 0 0 K
1 0.6 0 0.06 0 0.18 0.6 K
1 F
1 0.6 0 0.06 0 0.18 0.6 K
(9) 500.62 471.78 T
0 0 0 1 0 0 0 K
1 0.6 0 0.06 0 0.18 0.6 K
(Custom Memor) 511.15 471.78 T
(y Mana) 563.86 471.78 T
(g) 588.3 471.78 T
(er) 592.79 471.78 T
(s) 599.52 471.78 T
0 0 0 1 0 0 0 K
0 0 0 1 0 0 0 K
0 F
0 0 0 1 0 0 0 K
(Types of custom memory managers) 511.15 460.93 T
0 0 0 1 0 0 0 K
0 0 0 1 0 0 0 K
(. . . . . . . . . . . . . . . . . . . . . . .) 629.7 460.93 T
0 0 0 1 0 0 0 K
0 0 0 1 0 0 0 K
(9-1) 721.94 460.93 T
0 0 0 1 0 0 0 K
0 0 0 1 0 0 0 K
(Modifying fixed-size allocators) 511.15 450.08 T
0 0 0 1 0 0 0 K
0 0 0 1 0 0 0 K
( . . . . . . . . . . . . . . . . . . . . . . . . . . .) 611.61 450.08 T
0 0 0 1 0 0 0 K
0 0 0 1 0 0 0 K
(9-3) 721.94 450.08 T
0 0 0 1 0 0 0 K
0 0 0 1 0 0 0 K
(Using purify_is_running instead of #ifdef) 511.15 439.23 T
0 0 0 1 0 0 0 K
0 0 0 1 0 0 0 K
( . . . . . . . . . . . . . . . . . . .) 643.77 439.23 T
0 0 0 1 0 0 0 K
0 0 0 1 0 0 0 K
(9-4) 721.94 439.23 T
0 0 0 1 0 0 0 K
0 0 0 1 0 0 0 K
(Modifying pool allocators) 511.15 428.39 T
0 0 0 1 0 0 0 K
0 0 0 1 0 0 0 K
(. . . . . . . . . . . . . . . . . . . . . . . . . . . . . . . .) 593.51 428.39 T
0 0 0 1 0 0 0 K
0 0 0 1 0 0 0 K
(9-5) 721.94 428.39 T
0 0 0 1 0 0 0 K
0 0 0 1 0 0 0 K
(Modifying sbrk allocators) 511.15 417.54 T
0 0 0 1 0 0 0 K
0 0 0 1 0 0 0 K
(. . . . . . . . . . . . . . . . . . . . . . . . . . . . . . . .) 593.51 417.54 T
0 0 0 1 0 0 0 K
0 0 0 1 0 0 0 K
(9-7) 721.94 417.54 T
0 0 0 1 0 0 0 K
0 0 0 1 0 0 0 K
(Accessing auxiliary data) 511.15 406.69 T
0 0 0 1 0 0 0 K
0 0 0 1 0 0 0 K
( . . . . . . . . . . . . . . . . . . . . . . . . . . . . . . . .) 591.5 406.69 T
0 0 0 1 0 0 0 K
0 0 0 1 0 0 0 K
(9-8) 721.94 406.69 T
0 0 0 1 0 0 0 K
0 0 0 1 0 0 0 K
(Auxiliary data example) 517.66 395.84 T
0 0 0 1 0 0 0 K
0 0 0 1 0 0 0 K
(. . . . . . . . . . . . . . . . . . . . . . . . . . . . . . . .) 593.51 395.84 T
0 0 0 1 0 0 0 K
0 0 0 1 0 0 0 K
(9-8) 721.94 395.84 T
0 0 0 1 0 0 0 K
1 0.6 0 0.06 0 0.18 0.6 K
0 0 0 1 0 0 0 K
1 0.6 0 0.06 0 0.18 0.6 K
1 F
1 0.6 0 0.06 0 0.18 0.6 K
(10) 496.6 377.04 T
0 0 0 1 0 0 0 K
1 0.6 0 0.06 0 0.18 0.6 K
(Purify Messa) 511.15 377.04 T
(g) 555.7 377.04 T
(es Ref) 560.19 377.04 T
(erence) 581.82 377.04 T
0 0 0 1 0 0 0 K
0 0 0 1 0 0 0 K
0 F
0 0 0 1 0 0 0 K
(Message quick reference) 511.15 366.19 T
0 0 0 1 0 0 0 K
0 0 0 1 0 0 0 K
( . . . . . . . . . . . . . . . . . . . . . . . . . . . . . .) 595.52 366.19 T
0 0 0 1 0 0 0 K
0 0 0 1 0 0 0 K
(10-1) 717.92 366.19 T
0 0 0 1 0 0 0 K
0 0 0 1 0 0 0 K
(Message severity) 511.15 355.34 T
0 0 0 1 0 0 0 K
0 0 0 1 0 0 0 K
( . . . . . . . . . . . . . . . . . . . . . . . . . . . . . . . . . . . .) 571.4 355.34 T
0 0 0 1 0 0 0 K
0 0 0 1 0 0 0 K
(10-2) 717.92 355.34 T
0 0 0 1 0 0 0 K
0 0 0 1 0 0 0 K
(Message descriptions) 511.15 344.49 T
0 0 0 1 0 0 0 K
0 0 0 1 0 0 0 K
( . . . . . . . . . . . . . . . . . . . . . . . . . . . . . . . . .) 583.46 344.49 T
0 0 0 1 0 0 0 K
0 0 0 1 0 0 0 K
(10-3) 717.92 344.49 T
0 0 0 1 0 0 0 K
1 0.6 0 0.06 0 0.18 0.6 K
0 0 0 1 0 0 0 K
1 0.6 0 0.06 0 0.18 0.6 K
1 F
1 0.6 0 0.06 0 0.18 0.6 K
(11) 496.6 325.69 T
0 0 0 1 0 0 0 K
1 0.6 0 0.06 0 0.18 0.6 K
(Using Purify Options and API Functions) 511.15 325.69 T
0 0 0 1 0 0 0 K
0 0 0 1 0 0 0 K
0 F
0 0 0 1 0 0 0 K
(Using Purify options) 511.15 314.84 T
0 0 0 1 0 0 0 K
0 0 0 1 0 0 0 K
( . . . . . . . . . . . . . . . . . . . . . . . . . . . . . . . . . .) 579.44 314.84 T
0 0 0 1 0 0 0 K
0 0 0 1 0 0 0 K
(11-2) 717.92 314.84 T
0 0 0 1 0 0 0 K
0 0 0 1 0 0 0 K
0 0 0 1 0 0 0 K
FMENDPAGE
%%EndPage: "mini" 3
%%Page: "mini" 4
612 792 1 FMBEGINPAGE
[0 0 0 1 0 0 0]
[ 0 1 1 0 1 0 0]
[ 1 0 1 0 0 1 0]
[ 1 1 0 0 0 0 1]
[ 1 0 0 0 0 1 1]
[ 0 1 0 0 1 0 1]
[ 0 0 1 0 1 1 0]
[ 1 0.6 0 0.06 0 0.18 0.6]
 8 FrameSetSepColors
FrameNoSep
27 264.7 391.5 707.3 C
0 0 0 1 0 0 0 K
1 5.06 Q
0 X
0 0 0 1 0 0 0 K
(viii) 59.55 285.67 T
0 0 0 1 0 0 0 K
0 0 0 1 0 0 0 K
0 7.23 Q
(Purify option syntax) 137.65 650.41 T
0 0 0 1 0 0 0 K
0 0 0 1 0 0 0 K
(. . . . . . . . . . . . . . . . . . . . . . . . . . . . . . . . .) 203.93 650.41 T
0 0 0 1 0 0 0 K
0 0 0 1 0 0 0 K
(11-2) 337.91 650.41 T
0 0 0 1 0 0 0 K
0 0 0 1 0 0 0 K
(Purify option types) 137.65 639.56 T
0 0 0 1 0 0 0 K
0 0 0 1 0 0 0 K
(. . . . . . . . . . . . . . . . . . . . . . . . . . . . . . . . . .) 199.91 639.56 T
0 0 0 1 0 0 0 K
0 0 0 1 0 0 0 K
(11-3) 337.91 639.56 T
0 0 0 1 0 0 0 K
0 0 0 1 0 0 0 K
(Purify option processing) 137.65 628.71 T
0 0 0 1 0 0 0 K
0 0 0 1 0 0 0 K
( . . . . . . . . . . . . . . . . . . . . . . . . . . . . .) 218 628.71 T
0 0 0 1 0 0 0 K
0 0 0 1 0 0 0 K
(11-4) 337.91 628.71 T
0 0 0 1 0 0 0 K
0 0 0 1 0 0 0 K
(Using the -ignore-runtime-environment option) 137.65 617.86 T
0 0 0 1 0 0 0 K
0 0 0 1 0 0 0 K
( . . . . . . . . . . . .) 286.36 617.86 T
0 0 0 1 0 0 0 K
0 0 0 1 0 0 0 K
(11-6) 337.91 617.86 T
0 0 0 1 0 0 0 K
0 0 0 1 0 0 0 K
(Using Purify API functions) 131.14 607.02 T
0 0 0 1 0 0 0 K
0 0 0 1 0 0 0 K
( . . . . . . . . . . . . . . . . . . . . . . . . . . . . .) 218 607.02 T
0 0 0 1 0 0 0 K
0 0 0 1 0 0 0 K
(11-7) 337.91 607.02 T
0 0 0 1 0 0 0 K
0 0 0 1 0 0 0 K
(Calling Purify API functions from a debugger) 137.65 596.17 T
0 0 0 1 0 0 0 K
0 0 0 1 0 0 0 K
( . . . . . . . . . . . . .) 282.34 596.17 T
0 0 0 1 0 0 0 K
0 0 0 1 0 0 0 K
(11-7) 337.91 596.17 T
0 0 0 1 0 0 0 K
0 0 0 1 0 0 0 K
(Using the function purify_stop_here) 137.65 585.32 T
0 0 0 1 0 0 0 K
0 0 0 1 0 0 0 K
( . . . . . . . . . . . . . . . . . . . .) 254.19 585.32 T
0 0 0 1 0 0 0 K
0 0 0 1 0 0 0 K
(11-7) 337.91 585.32 T
0 0 0 1 0 0 0 K
0 0 0 1 0 0 0 K
(Calling Purify API functions from your program) 137.65 574.47 T
0 0 0 1 0 0 0 K
0 0 0 1 0 0 0 K
(. . . . . . . . . . . .) 288.37 574.47 T
0 0 0 1 0 0 0 K
0 0 0 1 0 0 0 K
(11-8) 337.91 574.47 T
0 0 0 1 0 0 0 K
0 0 0 1 0 0 0 K
(Linking with the Purify stubs library) 137.65 563.62 T
0 0 0 1 0 0 0 K
0 0 0 1 0 0 0 K
(. . . . . . . . . . . . . . . . . . . . .) 252.18 563.62 T
0 0 0 1 0 0 0 K
0 0 0 1 0 0 0 K
(11-8) 337.91 563.62 T
0 0 0 1 0 0 0 K
0 0 0 1 0 0 0 K
(Linking with the Purify stubs library on IRIX) 137.65 552.78 T
0 0 0 1 0 0 0 K
0 0 0 1 0 0 0 K
( . . . . . . . . . . . . . .) 278.32 552.78 T
0 0 0 1 0 0 0 K
0 0 0 1 0 0 0 K
(11-8) 337.91 552.78 T
0 0 0 1 0 0 0 K
1 0.6 0 0.06 0 0.18 0.6 K
0 0 0 1 0 0 0 K
1 0.6 0 0.06 0 0.18 0.6 K
1 F
1 0.6 0 0.06 0 0.18 0.6 K
(12) 116.59 533.97 T
0 0 0 1 0 0 0 K
1 0.6 0 0.06 0 0.18 0.6 K
(Purify Options and API Ref) 131.14 533.97 T
(erence) 223.5 533.97 T
0 0 0 1 0 0 0 K
0 0 0 1 0 0 0 K
0 F
0 0 0 1 0 0 0 K
(Build-time options quick reference) 131.14 523.12 T
0 0 0 1 0 0 0 K
0 0 0 1 0 0 0 K
( . . . . . . . . . . . . . . . . . . . . . . .) 242.13 523.12 T
0 0 0 1 0 0 0 K
0 0 0 1 0 0 0 K
(12-1) 337.91 523.12 T
0 0 0 1 0 0 0 K
0 0 0 1 0 0 0 K
(Run-time options quick reference) 131.14 512.28 T
0 0 0 1 0 0 0 K
0 0 0 1 0 0 0 K
(. . . . . . . . . . . . . . . . . . . . . . . .) 240.12 512.28 T
0 0 0 1 0 0 0 K
0 0 0 1 0 0 0 K
(12-2) 337.91 512.28 T
0 0 0 1 0 0 0 K
0 0 0 1 0 0 0 K
(API functions quick reference) 131.14 501.43 T
0 0 0 1 0 0 0 K
0 0 0 1 0 0 0 K
(. . . . . . . . . . . . . . . . . . . . . . . . . . .) 228.05 501.43 T
0 0 0 1 0 0 0 K
0 0 0 1 0 0 0 K
(12-4) 337.91 501.43 T
0 0 0 1 0 0 0 K
0 0 0 1 0 0 0 K
(Build-time options) 131.14 490.58 T
0 0 0 1 0 0 0 K
0 0 0 1 0 0 0 K
(. . . . . . . . . . . . . . . . . . . . . . . . . . . . . . . . . . . .) 191.86 490.58 T
0 0 0 1 0 0 0 K
0 0 0 1 0 0 0 K
(12-6) 337.91 490.58 T
0 0 0 1 0 0 0 K
0 0 0 1 0 0 0 K
(Annotation options) 131.14 479.73 T
0 0 0 1 0 0 0 K
0 0 0 1 0 0 0 K
( . . . . . . . . . . . . . . . . . . . . . . . . . . . . . . . . . . .) 193.88 479.73 T
0 0 0 1 0 0 0 K
0 0 0 1 0 0 0 K
(12-9) 337.91 479.73 T
0 0 0 1 0 0 0 K
0 0 0 1 0 0 0 K
(Annotation API) 131.14 468.88 T
0 0 0 1 0 0 0 K
0 0 0 1 0 0 0 K
( . . . . . . . . . . . . . . . . . . . . . . . . . . . . . . . . . . . . . .) 181.81 468.88 T
0 0 0 1 0 0 0 K
0 0 0 1 0 0 0 K
(12-9) 337.91 468.88 T
0 0 0 1 0 0 0 K
0 0 0 1 0 0 0 K
(Exit processing options) 131.14 458.04 T
0 0 0 1 0 0 0 K
0 0 0 1 0 0 0 K
(. . . . . . . . . . . . . . . . . . . . . . . . . . . . . . .) 207.95 458.04 T
0 0 0 1 0 0 0 K
0 0 0 1 0 0 0 K
(12-10) 333.89 458.04 T
0 0 0 1 0 0 0 K
0 0 0 1 0 0 0 K
(Exit processing API) 131.14 447.19 T
0 0 0 1 0 0 0 K
0 0 0 1 0 0 0 K
(. . . . . . . . . . . . . . . . . . . . . . . . . . . . . . . . . .) 195.88 447.19 T
0 0 0 1 0 0 0 K
0 0 0 1 0 0 0 K
(12-11) 333.89 447.19 T
0 0 0 1 0 0 0 K
0 0 0 1 0 0 0 K
(File descriptor options) 131.14 436.34 T
0 0 0 1 0 0 0 K
0 0 0 1 0 0 0 K
(. . . . . . . . . . . . . . . . . . . . . . . . . . . . . . . .) 203.93 436.34 T
0 0 0 1 0 0 0 K
0 0 0 1 0 0 0 K
(12-12) 333.89 436.34 T
0 0 0 1 0 0 0 K
0 0 0 1 0 0 0 K
(File descriptor API) 131.14 425.49 T
0 0 0 1 0 0 0 K
0 0 0 1 0 0 0 K
( . . . . . . . . . . . . . . . . . . . . . . . . . . . . . . . . . .) 193.88 425.49 T
0 0 0 1 0 0 0 K
0 0 0 1 0 0 0 K
(12-12) 333.89 425.49 T
0 0 0 1 0 0 0 K
0 0 0 1 0 0 0 K
(Mail mode option) 131.14 414.64 T
0 0 0 1 0 0 0 K
0 0 0 1 0 0 0 K
( . . . . . . . . . . . . . . . . . . . . . . . . . . . . . . . . . . .) 189.85 414.64 T
0 0 0 1 0 0 0 K
0 0 0 1 0 0 0 K
(12-13) 333.89 414.64 T
0 0 0 1 0 0 0 K
0 0 0 1 0 0 0 K
(Memory access options) 131.14 403.8 T
0 0 0 1 0 0 0 K
0 0 0 1 0 0 0 K
( . . . . . . . . . . . . . . . . . . . . . . . . . . . . . .) 209.96 403.8 T
0 0 0 1 0 0 0 K
0 0 0 1 0 0 0 K
(12-14) 333.89 403.8 T
0 0 0 1 0 0 0 K
0 0 0 1 0 0 0 K
(Memory access API) 131.14 392.95 T
0 0 0 1 0 0 0 K
0 0 0 1 0 0 0 K
( . . . . . . . . . . . . . . . . . . . . . . . . . . . . . . . . .) 197.9 392.95 T
0 0 0 1 0 0 0 K
0 0 0 1 0 0 0 K
(12-15) 333.89 392.95 T
0 0 0 1 0 0 0 K
0 0 0 1 0 0 0 K
(Memory leak options) 131.14 382.1 T
0 0 0 1 0 0 0 K
0 0 0 1 0 0 0 K
(. . . . . . . . . . . . . . . . . . . . . . . . . . . . . . . . .) 199.91 382.1 T
0 0 0 1 0 0 0 K
0 0 0 1 0 0 0 K
(12-16) 333.89 382.1 T
0 0 0 1 0 0 0 K
0 0 0 1 0 0 0 K
(Memory leak API) 131.14 371.25 T
0 0 0 1 0 0 0 K
0 0 0 1 0 0 0 K
( . . . . . . . . . . . . . . . . . . . . . . . . . . . . . . . . . . .) 189.85 371.25 T
0 0 0 1 0 0 0 K
0 0 0 1 0 0 0 K
(12-17) 333.89 371.25 T
0 0 0 1 0 0 0 K
0 0 0 1 0 0 0 K
(Message appearance options) 131.14 360.4 T
0 0 0 1 0 0 0 K
0 0 0 1 0 0 0 K
(. . . . . . . . . . . . . . . . . . . . . . . . . .) 228.05 360.4 T
0 0 0 1 0 0 0 K
0 0 0 1 0 0 0 K
(12-18) 333.89 360.4 T
0 0 0 1 0 0 0 K
0 0 0 1 0 0 0 K
(Message batching options) 131.14 349.56 T
0 0 0 1 0 0 0 K
0 0 0 1 0 0 0 K
( . . . . . . . . . . . . . . . . . . . . . . . . . . . .) 218 349.56 T
0 0 0 1 0 0 0 K
0 0 0 1 0 0 0 K
(12-19) 333.89 349.56 T
0 0 0 1 0 0 0 K
0 0 0 1 0 0 0 K
(Message batching API) 131.14 338.71 T
0 0 0 1 0 0 0 K
0 0 0 1 0 0 0 K
( . . . . . . . . . . . . . . . . . . . . . . . . . . . . . . .) 205.94 338.71 T
0 0 0 1 0 0 0 K
0 0 0 1 0 0 0 K
(12-20) 333.89 338.71 T
0 0 0 1 0 0 0 K
0 0 0 1 0 0 0 K
(Output mode options) 131.14 327.86 T
0 0 0 1 0 0 0 K
0 0 0 1 0 0 0 K
( . . . . . . . . . . . . . . . . . . . . . . . . . . . . . . . .) 201.92 327.86 T
0 0 0 1 0 0 0 K
0 0 0 1 0 0 0 K
(12-21) 333.89 327.86 T
0 0 0 1 0 0 0 K
0 0 0 1 0 0 0 K
(Pool allocation API) 131.14 317.01 T
0 0 0 1 0 0 0 K
0 0 0 1 0 0 0 K
( . . . . . . . . . . . . . . . . . . . . . . . . . . . . . . . . . .) 193.88 317.01 T
0 0 0 1 0 0 0 K
0 0 0 1 0 0 0 K
(12-23) 333.89 317.01 T
0 0 0 1 0 0 0 K
0 0 0 1 0 0 0 K
(Static checking options) 131.14 306.16 T
0 0 0 1 0 0 0 K
0 0 0 1 0 0 0 K
(. . . . . . . . . . . . . . . . . . . . . . . . . . . . . . .) 207.95 306.16 T
0 0 0 1 0 0 0 K
0 0 0 1 0 0 0 K
(12-24) 333.89 306.16 T
0 0 0 1 0 0 0 K
0 0 0 1 0 0 0 K
0 0 0 1 0 0 0 K
400.5 264.7 765 707.3 C
0 0 0 1 0 0 0 K
0 0 0 1 0 0 0 K
0 0 0 1 0 0 0 K
0 0 0 1 0 0 0 K
0 0 0 1 0 0 0 K
1 5.06 Q
0 X
0 0 0 1 0 0 0 K
(ix) 728.23 286.37 T
0 0 0 1 0 0 0 K
0 0 0 1 0 0 0 K
0 7.23 Q
(Suppression options) 511.15 650.41 T
0 0 0 1 0 0 0 K
0 0 0 1 0 0 0 K
( . . . . . . . . . . . . . . . . . . . . . . . . . . . . . . . . .) 579.44 650.41 T
0 0 0 1 0 0 0 K
0 0 0 1 0 0 0 K
(12-26) 713.9 650.41 T
0 0 0 1 0 0 0 K
0 0 0 1 0 0 0 K
(Threads options) 511.15 639.56 T
0 0 0 1 0 0 0 K
0 0 0 1 0 0 0 K
(. . . . . . . . . . . . . . . . . . . . . . . . . . . . . . . . . . . . .) 565.36 639.56 T
0 0 0 1 0 0 0 K
0 0 0 1 0 0 0 K
(12-27) 713.9 639.56 T
0 0 0 1 0 0 0 K
0 0 0 1 0 0 0 K
(Threads API) 511.15 628.71 T
0 0 0 1 0 0 0 K
0 0 0 1 0 0 0 K
( . . . . . . . . . . . . . . . . . . . . . . . . . . . . . . . . . . . . . . .) 555.31 628.71 T
0 0 0 1 0 0 0 K
0 0 0 1 0 0 0 K
(12-28) 713.9 628.71 T
0 0 0 1 0 0 0 K
0 0 0 1 0 0 0 K
(Watchpoint options) 511.15 617.86 T
0 0 0 1 0 0 0 K
0 0 0 1 0 0 0 K
( . . . . . . . . . . . . . . . . . . . . . . . . . . . . . . . . . .) 575.42 617.86 T
0 0 0 1 0 0 0 K
0 0 0 1 0 0 0 K
(12-29) 713.9 617.86 T
0 0 0 1 0 0 0 K
0 0 0 1 0 0 0 K
(Watchpoint API) 511.15 607.02 T
0 0 0 1 0 0 0 K
0 0 0 1 0 0 0 K
( . . . . . . . . . . . . . . . . . . . . . . . . . . . . . . . . . . . . .) 563.35 607.02 T
0 0 0 1 0 0 0 K
0 0 0 1 0 0 0 K
(12-29) 713.9 607.02 T
0 0 0 1 0 0 0 K
0 0 0 1 0 0 0 K
(Miscellaneous options) 511.15 596.17 T
0 0 0 1 0 0 0 K
0 0 0 1 0 0 0 K
(. . . . . . . . . . . . . . . . . . . . . . . . . . . . . . . .) 585.47 596.17 T
0 0 0 1 0 0 0 K
0 0 0 1 0 0 0 K
(12-31) 713.9 596.17 T
0 0 0 1 0 0 0 K
0 0 0 1 0 0 0 K
(Miscellaneous API) 511.15 585.32 T
0 0 0 1 0 0 0 K
0 0 0 1 0 0 0 K
(. . . . . . . . . . . . . . . . . . . . . . . . . . . . . . . . . . .) 573.41 585.32 T
0 0 0 1 0 0 0 K
0 0 0 1 0 0 0 K
(12-33) 713.9 585.32 T
0 0 0 1 0 0 0 K
1 0.6 0 0.06 0 0.18 0.6 K
0 0 0 1 0 0 0 K
1 0.6 0 0.06 0 0.18 0.6 K
1 F
1 0.6 0 0.06 0 0.18 0.6 K
(13) 496.6 566.52 T
0 0 0 1 0 0 0 K
1 0.6 0 0.06 0 0.18 0.6 K
(Common Questions) 511.15 566.52 T
0 0 0 1 0 0 0 K
0 0 0 1 0 0 0 K
0 F
0 0 0 1 0 0 0 K
(Questions about building Purify\325d programs) 511.15 555.67 T
0 0 0 1 0 0 0 K
0 0 0 1 0 0 0 K
( . . . . . . . . . . . . . . . .) 651.82 555.67 T
0 0 0 1 0 0 0 K
0 0 0 1 0 0 0 K
(13-1) 717.92 555.67 T
0 0 0 1 0 0 0 K
0 0 0 1 0 0 0 K
(Questions about running Purify\325d programs) 511.15 544.82 T
0 0 0 1 0 0 0 K
0 0 0 1 0 0 0 K
( . . . . . . . . . . . . . . . .) 651.82 544.82 T
0 0 0 1 0 0 0 K
0 0 0 1 0 0 0 K
(13-5) 717.92 544.82 T
0 0 0 1 0 0 0 K
0 0 0 1 0 0 0 K
(General questions) 511.15 533.97 T
0 0 0 1 0 0 0 K
0 0 0 1 0 0 0 K
(. . . . . . . . . . . . . . . . . . . . . . . . . . . . . . . . . . . .) 573.41 533.97 T
0 0 0 1 0 0 0 K
0 0 0 1 0 0 0 K
(13-9) 717.92 533.97 T
0 0 0 1 0 0 0 K
1 0.6 0 0.06 0 0.18 0.6 K
0 0 0 1 0 0 0 K
1 0.6 0 0.06 0 0.18 0.6 K
0 0 0 1 0 0 0 K
1 0.6 0 0.06 0 0.18 0.6 K
1 F
1 0.6 0 0.06 0 0.18 0.6 K
(Purify Quic) 511.15 515.17 T
(k Ref) 549.59 515.17 T
(erence) 567.2 515.17 T
0 0 0 1 0 0 0 K
1 0.6 0 0.06 0 0.18 0.6 K
0 0 0 1 0 0 0 K
1 0.6 0 0.06 0 0.18 0.6 K
0 0 0 1 0 0 0 K
1 0.6 0 0.06 0 0.18 0.6 K
(Inde) 511.15 496.37 T
(x) 525.91 496.37 T
0 0 0 1 0 0 0 K
0 0 0 1 0 0 0 K
0 0 0 1 0 0 0 K
FMENDPAGE
%%EndPage: "mini" 4
%%Page: "mini" 5
612 792 1 FMBEGINPAGE
[0 0 0 1 0 0 0]
[ 0 1 1 0 1 0 0]
[ 1 0 1 0 0 1 0]
[ 1 1 0 0 0 0 1]
[ 1 0 0 0 0 1 1]
[ 0 1 0 0 1 0 1]
[ 0 0 1 0 1 1 0]
[ 1 0.6 0 0.06 0 0.18 0.6]
 8 FrameSetSepColors
FrameNoSep
27 264.7 391.5 707.3 C
0 0 0 1 0 0 0 K
1 5.06 Q
0 X
0 0 0 1 0 0 0 K
(x) 59.55 285.67 T
0 0 0 1 0 0 0 K
0 0 0 1 0 0 0 K
0 0 0 1 0 0 0 K
FMENDPAGE
%%EndPage: "mini" 5
%%Trailer
%%BoundingBox: 0 0 612 792
%%PageOrder: Ascend
%%Pages: 5
%%DocumentFonts: Helvetica
%%+ Helvetica-Bold
%%EOF
