%!PS-Adobe-3.0
%%BoundingBox: (atend)
%%Pages: (atend)
%%PageOrder: (atend)
%%DocumentFonts: (atend)
%%Creator: Frame 4.0
%%DocumentData: Clean7Bit
%%EndComments
%%BeginProlog
%
% Frame ps_prolog 5.0, for use with Frame 5.0 products
% This ps_prolog file is Copyright (c) 1986-1995 Frame Technology
% Corporation.  All rights reserved.  This ps_prolog file may be
% freely copied and distributed in conjunction with documents created
% using FrameMaker, FrameMaker/SGML and FrameViewer as long as this 
% copyright notice is preserved.
%
% FrameMaker users specify the proper paper size for each print job in the
% "Print" dialog's "Printer Paper Size" "Width" and "Height~ fields.  If the
% printer that the PS file is sent to does not support the requested paper
% size, or if there is no paper tray of the proper size currently installed, 
% then the job will not be printed.  The following flag, if set to true, will
% cause the job to print on the default paper in such cases.
/FMAllowPaperSizeMismatch            true def
%
% Frame products normally print colors as their true color on a color printer
% or as shades of gray, based on luminance, on a black-and white printer. The
% following flag, if set to true, forces all non-white colors to print as pure
% black. This has no effect on bitmap images.
/FMPrintAllColorsAsBlack             false def
%
% Frame products can either set their own line screens or use a printer's 
% default settings. Three flags below control this separately for no 
% separations, spot separations and process separations. If a flag
% is true, then the default printer settings will not be changed. If it is
% false, Frame products will use their own settings from a table based on
% the printer's resolution.
/FMUseDefaultNoSeparationScreen      true  def
/FMUseDefaultSpotSeparationScreen    true  def
/FMUseDefaultProcessSeparationScreen false def
%
% For any given PostScript printer resolution, Frame products have two sets of 
% screen angles and frequencies for printing process separations, which are 
% recomended by Adobe. The following variable chooses the higher frequencies
% when set to true or the lower frequencies when set to false. This is only
% effective if the appropriate FMUseDefault...SeparationScreen flag is false.
/FMUseHighFrequencyScreens true def
%
% The following is a set of predefined optimal frequencies and angles for various
% common dpi settings. This is taken from "Advances in Color Separation Using
% PostScript Software Technology," from Adobe Systems (3/13/89 P.N. LPS 0043)
% and corrolated with information which is in various PPD (4.0) files.
%
% The "dpiranges" figure is the minimum dots per inch device resolution which
% can support this setting. The "low" and "high" values are controlled by the
% setting of the FMUseHighFrequencyScreens flag above. The "TDot" flags control
% the use of the "Yellow Triple Dot" feature whereby the frequency id divided by
% three, but the dot function is "trippled" giving a block of 3x3 dots per cell.
%
% PatFreq is a compromise pattern frequency for ps Level 2 printers which is close
% to the ideal WYSIWYG pattern frequency of 9 repetitions/inch but does not beat
% (too badly) against the screen frequencies of any separations for that DPI.
/dpiranges   [  2540    2400    1693     1270    1200     635      600      0      ] def
/CMLowFreqs  [ 100.402  94.8683 89.2289 100.402  94.8683  66.9349  63.2456 47.4342 ] def
/YLowFreqs   [  95.25   90.0    84.65    95.25   90.0     70.5556  66.6667 50.0    ] def
/KLowFreqs   [  89.8026 84.8528 79.8088  89.8026 84.8528  74.8355  70.7107 53.033  ] def
/CLowAngles  [  71.5651 71.5651 71.5651 71.5651  71.5651  71.5651  71.5651 71.5651 ] def
/MLowAngles  [  18.4349 18.4349 18.4349 18.4349  18.4349  18.4349  18.4349 18.4349 ] def
/YLowTDot    [  true    true    false    true    true     false    false   false   ] def
/CMHighFreqs [ 133.87  126.491 133.843  108.503 102.523  100.402   94.8683 63.2456 ] def
/YHighFreqs  [ 127.0   120.0   126.975  115.455 109.091   95.25    90.0    60.0    ] def
/KHighFreqs  [ 119.737 113.137 119.713  128.289 121.218   89.8026  84.8528 63.6395 ] def
/CHighAngles [  71.5651 71.5651 71.5651  70.0169 70.0169  71.5651  71.5651 71.5651 ] def
/MHighAngles [  18.4349 18.4349 18.4349  19.9831 19.9831  18.4349  18.4349 18.4349 ] def
/YHighTDot   [  false   false   true     false   false    true     true    false   ] def
/PatFreq     [	10.5833 10.0     9.4055  10.5833 10.0	  10.5833  10.0	   9.375   ] def
%
% PostScript Level 2 printers contain an "Accurate Screens" feature which can
% improve process separation rendering at the expense of compute time. This 
% flag is ignored by PostScript Level 1 printers.
/FMUseAcccurateScreens true def
%
% The following PostScript procedure defines the spot function that Frame
% products will use for process separations. You may un-comment-out one of
% the alternative functions below, or use your own.
%
% Dot function
/FMSpotFunction {abs exch abs 2 copy add 1 gt 
		{1 sub dup mul exch 1 sub dup mul add 1 sub }
		{dup mul exch dup mul add 1 exch sub }ifelse } def
%
% Line function
% /FMSpotFunction { pop } def
%
% Elipse function
% /FMSpotFunction { dup 5 mul 8 div mul exch dup mul exch add 
%		sqrt 1 exch sub } def
%
%
/FMversion (5.0) def 
/fMLevel1 /languagelevel where {pop languagelevel} {1} ifelse 2 lt def
/FMPColor
	fMLevel1 {
		false
		/colorimage where {pop pop true} if
	} {
		true
	} ifelse
def
/FrameDict 400 dict def 
systemdict /errordict known not {/errordict 10 dict def
		errordict /rangecheck {stop} put} if
% The readline in PS 23.0 doesn't recognize cr's as nl's on AppleTalk
FrameDict /tmprangecheck errordict /rangecheck get put 
errordict /rangecheck {FrameDict /bug true put} put 
FrameDict /bug false put 
mark 
% Some PS machines read past the CR, so keep the following 3 lines together!
currentfile 5 string readline
00
0000000000
cleartomark 
errordict /rangecheck FrameDict /tmprangecheck get put 
FrameDict /bug get { 
	/readline {
		/gstring exch def
		/gfile exch def
		/gindex 0 def
		{
			gfile read pop 
			dup 10 eq {exit} if 
			dup 13 eq {exit} if 
			gstring exch gindex exch put 
			/gindex gindex 1 add def 
		} loop
		pop 
		gstring 0 gindex getinterval true 
		} bind def
	} if
/FMshowpage /showpage load def
/FMquit /quit load def
/FMFAILURE { 
	dup = flush 
	FMshowpage 
	/Helvetica findfont 12 scalefont setfont
	72 200 moveto show
	72 220 moveto show
	FMshowpage 
	FMquit 
	} def 
/FMVERSION {
	FMversion ne {
		(Frame product version does not match ps_prolog!  Check installation;)
		(also check ~/fminit and ./fminit for old versions) FMFAILURE
		} if
	} def 
/FMBADEPSF { 
	(Adobe's PostScript Language Reference Manual, 2nd Edition, section H.2.4)
	(says your EPS file is not valid, as it calls X              )
	dup dup (X) search pop exch pop exch pop length 
	5 -1 roll 
	putinterval 
	FMFAILURE
	} def
/fmConcatProcs
	{
	/proc2 exch cvlit def/proc1 exch cvlit def/newproc proc1 length proc2 length add array def
	newproc 0 proc1 putinterval newproc proc1 length proc2 putinterval newproc cvx
}def
FrameDict begin [
	/ALDsave
	/FMdicttop
	/FMoptop
	/FMpointsize
	/FMsaveobject
	/b
	/bitmapsave
	/blut
	/bpside
	/bs
	/bstring
	/bwidth
	/c
	/cf
	/cs
	/cynu
	/depth
	/edown
	/fh
	/fillvals
	/fw
	/fx
	/fy
	/g
	/gfile
	/gindex
	/grnt
	/gryt
	/gstring
	/height
	/hh
	/i
	/im
	/indx
	/is
	/k
	/kk
	/landscape
	/lb
	/len
	/llx
	/lly
	/m
	/magu
	/manualfeed
	/n
	/offbits
	/onbits
	/organgle
	/orgbangle
	/orgbfreq
	/orgbproc
	/orgbxfer
	/orgfreq
	/orggangle
	/orggfreq
	/orggproc
	/orggxfer
	/orgmatrix
	/orgproc
	/orgrangle
	/orgrfreq
	/orgrproc
	/orgrxfer
	/orgxfer
	/pagesave
	/paperheight
	/papersizedict
	/paperwidth
	/pos
	/pwid
	/r
	/rad
	/redt
	/sl
	/str
	/tran
	/u
	/urx
	/ury
	/val
	/width
	/width
	/ws
	/ww
	/x
	/x1
	/x2
	/xindex
	/xpoint
	/xscale
	/xx
	/y
	/y1
	/y2
	/yelu
	/yindex
	/ypoint
	/yscale
	/yy
] { 0 def } forall
/FmBD {bind def} bind def
systemdict /pdfmark known {
	/fMAcrobat true def
	
	/FmPD /pdfmark load def
	
	
	/FmPT /show load def
	
	
	currentdistillerparams /CoreDistVersion get 2000 ge {
	
		
		/FmPD2 /pdfmark load def
		
		
		
		
		
		/FmPA { mark exch /Dest exch 5 3 roll 
				/View [ /XYZ null 6 -2 roll FmDC exch pop null] /DEST FmPD 
		}FmBD
	} {
		
		/FmPD2 /cleartomark load def
		/FmPA {pop pop pop}FmBD
	} ifelse
} {
	
	/fMAcrobat false def
	/FmPD /cleartomark load def
	/FmPD2 /cleartomark load def
	/FmPT /pop load def
	/FmPA {pop pop pop}FmBD
} ifelse
/FmDC {
	transform fMDefaultMatrix itransform cvi exch cvi exch
}FmBD
/FmBx {
	dup 3 index lt {3 1 roll exch} if 
	1 index 4 index lt {4 -1 roll 3 1 roll exch 4 1 roll} if
}FmBD
/FMnone 0 def
/FMcyan 1 def
/FMmagenta 2 def
/FMyellow 3 def
/FMblack 4 def
/FMcustom 5 def
/fMNegative false def 
/FrameSepIs FMnone def 
/FrameSepBlack 0 def
/FrameSepYellow 0 def
/FrameSepMagenta 0 def
/FrameSepCyan 0 def
/FrameSepRed 1 def
/FrameSepGreen 1 def
/FrameSepBlue 1 def
/FrameCurGray 1 def
/FrameCurPat null def
/FrameCurColors [ 0 0 0 1 0 0 0 ] def 
/FrameColorEpsilon .001 def	
/eqepsilon {		
	sub dup 0 lt {neg} if
	FrameColorEpsilon le
} bind def
/FrameCmpColorsCMYK { 
	2 copy 0 get exch 0 get eqepsilon {
		2 copy 1 get exch 1 get eqepsilon {
			2 copy 2 get exch 2 get eqepsilon {
				3 get exch 3 get eqepsilon
			} {pop pop false} ifelse
		}{pop pop false} ifelse
	} {pop pop false} ifelse
} bind def
/FrameCmpColorsRGB { 
	2 copy 4 get exch 0 get eqepsilon {
		2 copy 5 get exch 1 get eqepsilon {
			6 get exch 2 get eqepsilon
		}{pop pop false} ifelse
	} {pop pop false} ifelse
} bind def
/RGBtoCMYK { 
	1 exch sub 
	3 1 roll 
	1 exch sub 
	3 1 roll 
	1 exch sub 
	3 1 roll 
	3 copy 
	2 copy 
	le { pop } { exch pop } ifelse 
	2 copy 
	le { pop } { exch pop } ifelse 
	dup dup dup 
	6 1 roll 
	4 1 roll 
	7 1 roll 
	sub 
	6 1 roll 
	sub 
	5 1 roll 
	sub 
	4 1 roll 
} bind def
/CMYKtoRGB { 
	dup dup 4 -1 roll add 						  
	5 1 roll 3 -1 roll add 						  
	4 1 roll add 								  
	1 exch sub dup 0 lt {pop 0} if 3 1 roll 	  
	1 exch sub dup 0 lt {pop 0} if exch 	      
	1 exch sub dup 0 lt {pop 0} if exch	  		  
} bind def
/FrameSepInit {
	1.0 RealSetgray
} bind def
/FrameSetSepColor { 
	/FrameSepBlue exch def
	/FrameSepGreen exch def
	/FrameSepRed exch def
	/FrameSepBlack exch def
	/FrameSepYellow exch def
	/FrameSepMagenta exch def
	/FrameSepCyan exch def
	/FrameSepIs FMcustom def
	setCurrentScreen	
} bind def
/FrameSetCyan {
	/FrameSepBlue 1.0 def
	/FrameSepGreen 1.0 def
	/FrameSepRed 0.0 def
	/FrameSepBlack 0.0 def
	/FrameSepYellow 0.0 def
	/FrameSepMagenta 0.0 def
	/FrameSepCyan 1.0 def
	/FrameSepIs FMcyan def
	setCurrentScreen	
} bind def
 
/FrameSetMagenta {
	/FrameSepBlue 1.0 def
	/FrameSepGreen 0.0 def
	/FrameSepRed 1.0 def
	/FrameSepBlack 0.0 def
	/FrameSepYellow 0.0 def
	/FrameSepMagenta 1.0 def
	/FrameSepCyan 0.0 def
	/FrameSepIs FMmagenta def
	setCurrentScreen
} bind def
 
/FrameSetYellow {
	/FrameSepBlue 0.0 def
	/FrameSepGreen 1.0 def
	/FrameSepRed 1.0 def
	/FrameSepBlack 0.0 def
	/FrameSepYellow 1.0 def
	/FrameSepMagenta 0.0 def
	/FrameSepCyan 0.0 def
	/FrameSepIs FMyellow def
	setCurrentScreen
} bind def
 
/FrameSetBlack {
	/FrameSepBlue 0.0 def
	/FrameSepGreen 0.0 def
	/FrameSepRed 0.0 def
	/FrameSepBlack 1.0 def
	/FrameSepYellow 0.0 def
	/FrameSepMagenta 0.0 def
	/FrameSepCyan 0.0 def
	/FrameSepIs FMblack def
	setCurrentScreen
} bind def
 
/FrameNoSep { 
	/FrameSepIs FMnone def
	setCurrentScreen
} bind def
/FrameSetSepColors { 
	FrameDict begin
	[ exch 1 add 1 roll ]
	/FrameSepColors  
	exch def end
	} bind def
/FrameColorInSepListCMYK { 
	FrameSepColors {  
       		exch dup 3 -1 roll 
       		FrameCmpColorsCMYK 
       		{ pop true exit } if
    	} forall 
	dup true ne {pop false} if
	} bind def
/FrameColorInSepListRGB { 
	FrameSepColors {  
       		exch dup 3 -1 roll 
       		FrameCmpColorsRGB 
       		{ pop true exit } if
    	} forall 
	dup true ne {pop false} if
	} bind def
/RealSetgray /setgray load def
/RealSetrgbcolor /setrgbcolor load def
/RealSethsbcolor /sethsbcolor load def
end 
/setgray { 
	FrameDict begin
	FrameSepIs FMnone eq
		{ RealSetgray } 
		{ 
		FrameSepIs FMblack eq 
			{ RealSetgray } 
			{ FrameSepIs FMcustom eq 
			  FrameSepRed 0 eq and
			  FrameSepGreen 0 eq and
			  FrameSepBlue 0 eq and {
			  	RealSetgray
			  } {
				1 RealSetgray pop 
			  } ifelse
			} ifelse
		} ifelse
	end
} bind def
/setrgbcolor { 
	FrameDict begin
	FrameSepIs FMnone eq
	{  RealSetrgbcolor }
	{
		3 copy [ 4 1 roll ] 
		FrameColorInSepListRGB
		{
				FrameSepBlue eq exch 
			 	FrameSepGreen eq and exch 
			 	FrameSepRed eq and
			 	{ 0 } { 1 } ifelse
		}
		{
			FMPColor {
				RealSetrgbcolor
				currentcmykcolor
			} {
				RGBtoCMYK
			} ifelse
			FrameSepIs FMblack eq
			{1.0 exch sub 4 1 roll pop pop pop} {
			FrameSepIs FMyellow eq
			{pop 1.0 exch sub 3 1 roll pop pop} {
			FrameSepIs FMmagenta eq
			{pop pop 1.0 exch sub exch pop } {
			FrameSepIs FMcyan eq
			{pop pop pop 1.0 exch sub } 
			{pop pop pop pop 1} ifelse } ifelse } ifelse } ifelse 
		} ifelse
		RealSetgray
	} 
	ifelse
	end
} bind def
/sethsbcolor {
	FrameDict begin
	FrameSepIs FMnone eq 
	{ RealSethsbcolor } 
	{
		RealSethsbcolor 
		currentrgbcolor  
		setrgbcolor 
	} 
	ifelse
	end
} bind def
FrameDict begin
/setcmykcolor where {
	pop /RealSetcmykcolor /setcmykcolor load def
} {
	/RealSetcmykcolor {
		4 1 roll
		3 { 3 index add 0 max 1 min 1 exch sub 3 1 roll} repeat 
		RealSetrgbcolor pop
	} bind def
} ifelse
userdict /setcmykcolor { 
		FrameDict begin
		FrameSepIs FMnone eq
		{ RealSetcmykcolor } 
		{
			4 copy [ 5 1 roll ]
			FrameColorInSepListCMYK
			{
				FrameSepBlack eq exch 
				FrameSepYellow eq and exch 
				FrameSepMagenta eq and exch 
				FrameSepCyan eq and 
				{ 0 } { 1 } ifelse
			}
			{
				FrameSepIs FMblack eq
				{1.0 exch sub 4 1 roll pop pop pop} {
				FrameSepIs FMyellow eq
				{pop 1.0 exch sub 3 1 roll pop pop} {
				FrameSepIs FMmagenta eq
				{pop pop 1.0 exch sub exch pop } {
				FrameSepIs FMcyan eq
				{pop pop pop 1.0 exch sub } 
				{pop pop pop pop 1} ifelse } ifelse } ifelse } ifelse 
			} ifelse
			RealSetgray
		}
		ifelse
		end
	} bind put
fMLevel1 { 
	
	
	
	/patScreenDict 7 dict dup begin
		<0f1e3c78f0e1c387> [ 45  { pop } {exch pop} 		.5   2 sqrt] FmBD
		<0f87c3e1f0783c1e> [ 135 { pop } {exch pop}			.5   2 sqrt] FmBD
		<cccccccccccccccc> [ 0   { pop } dup				.5   2	   ] FmBD
		<ffff0000ffff0000> [ 90  { pop } dup				.5   2	   ] FmBD
		<8142241818244281> [ 45  { 2 copy lt {exch} if pop}	dup .75  2 sqrt] FmBD
		<03060c183060c081> [ 45  { pop } {exch pop}			.875 2 sqrt] FmBD
		<8040201008040201> [ 135 { pop } {exch pop}			.875 2 sqrt] FmBD
	end def
} { 
	
	/patProcDict 5 dict dup begin
		<0f1e3c78f0e1c387> { 3 setlinewidth -1 -1 moveto 9 9 lineto stroke 
											4 -4 moveto 12 4 lineto stroke
											-4 4 moveto 4 12 lineto stroke} bind def
		<0f87c3e1f0783c1e> { 3 setlinewidth -1 9 moveto 9 -1 lineto stroke 
											-4 4 moveto 4 -4 lineto stroke
											4 12 moveto 12 4 lineto stroke} bind def
		<8142241818244281> { 1 setlinewidth -1 9 moveto 9 -1 lineto stroke
											-1 -1 moveto 9 9 lineto stroke } bind def
		<03060c183060c081> { 1 setlinewidth -1 -1 moveto 9 9 lineto stroke 
											4 -4 moveto 12 4 lineto stroke
											-4 4 moveto 4 12 lineto stroke} bind def
		<8040201008040201> { 1 setlinewidth -1 9 moveto 9 -1 lineto stroke 
											-4 4 moveto 4 -4 lineto stroke
											4 12 moveto 12 4 lineto stroke} bind def
	end def
	/patDict 15 dict dup begin
		/PatternType 1 def		
		/PaintType 2 def		
		/TilingType 3 def		
		/BBox [ 0 0 8 8 ] def 	
		/XStep 8 def			
		/YStep 8 def			
		/PaintProc {
			begin
			patProcDict bstring known {
				patProcDict bstring get exec
			} {
				8 8 true [1 0 0 -1 0 8] bstring imagemask
			} ifelse
			end
		} bind def
	end def
} ifelse
/combineColor {
    FrameSepIs FMnone eq
	{
		graymode fMLevel1 or not {
			
			[/Pattern [/DeviceCMYK]] setcolorspace
			FrameCurColors 0 4 getinterval aload pop FrameCurPat setcolor
		} {
			FrameCurColors 3 get 1.0 ge {
				FrameCurGray RealSetgray
			} {
				fMAcrobat not FMPColor graymode and and {
					0 1 3 { 
						FrameCurColors exch get
						1 FrameCurGray sub mul
					} for
					RealSetcmykcolor
				} {
					4 1 6 {
						FrameCurColors exch get
						graymode {
							1 exch sub 1 FrameCurGray sub mul 1 exch sub
						} {
							1.0 lt {FrameCurGray} {1} ifelse
						} ifelse
					} for
					RealSetrgbcolor
				} ifelse
			} ifelse
		} ifelse
	} { 
		FrameCurColors 0 4 getinterval aload
		FrameColorInSepListCMYK {
			FrameSepBlack eq exch 
			FrameSepYellow eq and exch 
			FrameSepMagenta eq and exch 
			FrameSepCyan eq and
			FrameSepIs FMcustom eq and
			{ FrameCurGray } { 1 } ifelse
		} {
			FrameSepIs FMblack eq
			{FrameCurGray 1.0 exch sub mul 1.0 exch sub 4 1 roll pop pop pop} {
			FrameSepIs FMyellow eq
			{pop FrameCurGray 1.0 exch sub mul 1.0 exch sub 3 1 roll pop pop} {
			FrameSepIs FMmagenta eq
			{pop pop FrameCurGray 1.0 exch sub mul 1.0 exch sub exch pop } {
			FrameSepIs FMcyan eq
			{pop pop pop FrameCurGray 1.0 exch sub mul 1.0 exch sub } 
			{pop pop pop pop 1} ifelse } ifelse } ifelse } ifelse 
		} ifelse
		graymode fMLevel1 or not {
			
			[/Pattern [/DeviceGray]] setcolorspace
			FrameCurPat setcolor
		} { 
			graymode not fMLevel1 and {
				
				dup 1 lt {pop FrameCurGray} if
			} if
			RealSetgray
		} ifelse
	} ifelse
} bind def
/savematrix {
	orgmatrix currentmatrix pop
	} bind def
/restorematrix {
	orgmatrix setmatrix
	} bind def
/fMDefaultMatrix matrix defaultmatrix def
/fMatrix2 matrix def
/dpi    72 0 fMDefaultMatrix dtransform
    dup mul exch   dup mul add   sqrt def
	
/freq dpi dup 72 div round dup 0 eq {pop 1} if 8 mul div def
/sangle 1 0 fMDefaultMatrix dtransform exch atan def
	sangle fMatrix2 rotate 
	fMDefaultMatrix fMatrix2 concatmatrix 
	dup 0 get /sflipx exch def
	    3 get /sflipy exch def
/screenIndex {
	0 1 dpiranges length 1 sub { dup dpiranges exch get 1 sub dpi le {exit} {pop} ifelse } for
} bind def
/getCyanScreen {
	FMUseHighFrequencyScreens { CHighAngles CMHighFreqs} {CLowAngles CMLowFreqs} ifelse
		screenIndex dup 3 1 roll get 3 1 roll get /FMSpotFunction load
} bind def
/getMagentaScreen {
	FMUseHighFrequencyScreens { MHighAngles CMHighFreqs } {MLowAngles CMLowFreqs} ifelse
		screenIndex dup 3 1 roll get 3 1 roll get /FMSpotFunction load
} bind def
/getYellowScreen {
	FMUseHighFrequencyScreens { YHighTDot YHighFreqs} { YLowTDot YLowFreqs } ifelse
		screenIndex dup 3 1 roll get 3 1 roll get { 3 div
			{2 { 1 add 2 div 3 mul dup floor sub 2 mul 1 sub exch} repeat
			FMSpotFunction } } {/FMSpotFunction load } ifelse
			0.0 exch
} bind def
/getBlackScreen  {
	FMUseHighFrequencyScreens { KHighFreqs } { KLowFreqs } ifelse
		screenIndex get 45.0 /FMSpotFunction load 
} bind def
/getSpotScreen {
	getBlackScreen
} bind def
/getCompositeScreen {
	getBlackScreen
} bind def
/FMSetScreen 
	fMLevel1 { /setscreen load 
	}{ {
		8 dict begin
		/HalftoneType 1 def
		/SpotFunction exch def
		/Angle exch def
		/Frequency exch def
		/AccurateScreens FMUseAcccurateScreens def
		currentdict end sethalftone
	} bind } ifelse
def
/setDefaultScreen {
	FMPColor {
		orgrxfer cvx orggxfer cvx orgbxfer cvx orgxfer cvx setcolortransfer
	}
	{
		orgxfer cvx settransfer
	} ifelse
	orgfreq organgle orgproc cvx setscreen
} bind def
/setCurrentScreen {
	FrameSepIs FMnone eq {
		FMUseDefaultNoSeparationScreen {
			setDefaultScreen
		} {
			getCompositeScreen FMSetScreen
		} ifelse
	} {
		FrameSepIs FMcustom eq {
			FMUseDefaultSpotSeparationScreen {
				setDefaultScreen
			} {
				getSpotScreen FMSetScreen
			} ifelse
		} {
			FMUseDefaultProcessSeparationScreen {
				setDefaultScreen
			} {
				FrameSepIs FMcyan eq {
					getCyanScreen FMSetScreen
				} {
					FrameSepIs FMmagenta eq {
						getMagentaScreen FMSetScreen
					} {
						FrameSepIs FMyellow eq {
							getYellowScreen FMSetScreen
						} {
							getBlackScreen FMSetScreen
						} ifelse
					} ifelse
				} ifelse
			} ifelse
		} ifelse
	} ifelse 
} bind def
end
	
/FMDOCUMENT { 
	array /FMfonts exch def 
	/#copies exch def
	FrameDict begin
	0 ne /manualfeed exch def
	/paperheight exch def
	/paperwidth exch def
	0 ne /fMNegative exch def 
	0 ne /edown exch def 
	/yscale exch def
	/xscale exch def
	fMLevel1 {
		manualfeed {setmanualfeed} if
		/FMdicttop countdictstack 1 add def 
		/FMoptop count def 
		setpapername 
		manualfeed {true} {papersize} ifelse 
		{manualpapersize} {false} ifelse 
		{desperatepapersize} {false} ifelse 
		{papersizefailure} if
		count -1 FMoptop {pop pop} for
		countdictstack -1 FMdicttop {pop end} for 
		}
		{2 dict
		 dup /PageSize [paperwidth paperheight] put
		 manualfeed {dup /ManualFeed manualfeed put} if
		 {setpagedevice} stopped {papersizefailure} if
		}
	ifelse 
	
	FMPColor {
		currentcolorscreen
			cvlit /orgproc exch def
				  /organgle exch def 
				  /orgfreq exch def
			cvlit /orgbproc exch def
				  /orgbangle exch def 
				  /orgbfreq exch def
			cvlit /orggproc exch def
				  /orggangle exch def 
				  /orggfreq exch def
			cvlit /orgrproc exch def
				  /orgrangle exch def 
				  /orgrfreq exch def
			currentcolortransfer 
			fMNegative {
				1 1 4 { 
					pop { 1 exch sub } fmConcatProcs 4 1 roll
				} for
				4 copy
				setcolortransfer
			} if
			cvlit /orgxfer exch def
			cvlit /orgbxfer exch def
			cvlit /orggxfer exch def
			cvlit /orgrxfer exch def
	} {
		currentscreen 
			cvlit /orgproc exch def
				  /organgle exch def 
				  /orgfreq exch def
				  
		currenttransfer 
		fMNegative {
			{ 1 exch sub } fmConcatProcs
			dup settransfer
		} if 
		cvlit /orgxfer exch def
	} ifelse
	end 
} def 
/FMBEGINPAGE { 
	FrameDict begin 
	/pagesave save def
	3.86 setmiterlimit
	/landscape exch 0 ne def
	landscape { 
		90 rotate 0 exch dup /pwid exch def neg translate pop 
	}{
		pop /pwid exch def
	} ifelse
	edown { [-1 0 0 1 pwid 0] concat } if
	0 0 moveto paperwidth 0 lineto paperwidth paperheight lineto 
	0 paperheight lineto 0 0 lineto 1 setgray fill
	xscale yscale scale
	/orgmatrix matrix def
	gsave 
} def 
/FMENDPAGE {
	grestore 
	pagesave restore
	end 
	showpage
	} def 
/FMFONTDEFINE { 
	FrameDict begin
	findfont 
	ReEncode 
	1 index exch 
	definefont 
	FMfonts 3 1 roll 
	put
	end 
	} def 
/FMFILLS {
	FrameDict begin dup
	array /fillvals exch def
	dict /patCache exch def
	end 
	} def 
/FMFILL {
	FrameDict begin
	 fillvals 3 1 roll put
	end 
	} def 
/FMNORMALIZEGRAPHICS { 
	newpath
	1 setlinewidth
	0 setlinecap
	0 0 0 sethsbcolor
	0 setgray 
	} bind def
/FMBEGINEPSF { 
	end 
	/FMEPSF save def 
	/showpage {} def 
% See Adobe's "PostScript Language Reference Manual, 2nd Edition", page 714.
% "...the following operators MUST NOT be used in an EPS file:" (emphasis ours)
	/banddevice {(banddevice) FMBADEPSF} def
	/clear {(clear) FMBADEPSF} def
	/cleardictstack {(cleardictstack) FMBADEPSF} def 
	/copypage {(copypage) FMBADEPSF} def
	/erasepage {(erasepage) FMBADEPSF} def
	/exitserver {(exitserver) FMBADEPSF} def
	/framedevice {(framedevice) FMBADEPSF} def
	/grestoreall {(grestoreall) FMBADEPSF} def
	/initclip {(initclip) FMBADEPSF} def
	/initgraphics {(initgraphics) FMBADEPSF} def
	/quit {(quit) FMBADEPSF} def
	/renderbands {(renderbands) FMBADEPSF} def
	/setglobal {(setglobal) FMBADEPSF} def
	/setpagedevice {(setpagedevice) FMBADEPSF} def
	/setshared {(setshared) FMBADEPSF} def
	/startjob {(startjob) FMBADEPSF} def
	/lettertray {(lettertray) FMBADEPSF} def
	/letter {(letter) FMBADEPSF} def
	/lettersmall {(lettersmall) FMBADEPSF} def
	/11x17tray {(11x17tray) FMBADEPSF} def
	/11x17 {(11x17) FMBADEPSF} def
	/ledgertray {(ledgertray) FMBADEPSF} def
	/ledger {(ledger) FMBADEPSF} def
	/legaltray {(legaltray) FMBADEPSF} def
	/legal {(legal) FMBADEPSF} def
	/statementtray {(statementtray) FMBADEPSF} def
	/statement {(statement) FMBADEPSF} def
	/executivetray {(executivetray) FMBADEPSF} def
	/executive {(executive) FMBADEPSF} def
	/a3tray {(a3tray) FMBADEPSF} def
	/a3 {(a3) FMBADEPSF} def
	/a4tray {(a4tray) FMBADEPSF} def
	/a4 {(a4) FMBADEPSF} def
	/a4small {(a4small) FMBADEPSF} def
	/b4tray {(b4tray) FMBADEPSF} def
	/b4 {(b4) FMBADEPSF} def
	/b5tray {(b5tray) FMBADEPSF} def
	/b5 {(b5) FMBADEPSF} def
	FMNORMALIZEGRAPHICS 
	[/fy /fx /fh /fw /ury /urx /lly /llx] {exch def} forall 
	fx fw 2 div add fy fh 2 div add  translate
	rotate
	fw 2 div neg fh 2 div neg translate
	fw urx llx sub div fh ury lly sub div scale 
	llx neg lly neg translate 
	/FMdicttop countdictstack 1 add def 
	/FMoptop count def 
	} bind def
/FMENDEPSF {
	count -1 FMoptop {pop pop} for 
	countdictstack -1 FMdicttop {pop end} for 
	FMEPSF restore
	FrameDict begin 
	} bind def
FrameDict begin 
/setmanualfeed {
%%BeginFeature *ManualFeed True
	 statusdict /manualfeed true put
%%EndFeature
	} bind def
/max {2 copy lt {exch} if pop} bind def
/min {2 copy gt {exch} if pop} bind def
/inch {72 mul} def
/pagedimen { 
	paperheight sub abs 16 lt exch 
	paperwidth sub abs 16 lt and
	{/papername exch def} {pop} ifelse
	} bind def
/setpapername { 
	/papersizedict 14 dict def 
	papersizedict begin
	/papername /unknown def 
		/Letter 8.5 inch 11.0 inch pagedimen
		/LetterSmall 7.68 inch 10.16 inch pagedimen
		/Tabloid 11.0 inch 17.0 inch pagedimen
		/Ledger 17.0 inch 11.0 inch pagedimen
		/Legal 8.5 inch 14.0 inch pagedimen
		/Statement 5.5 inch 8.5 inch pagedimen
		/Executive 7.5 inch 10.0 inch pagedimen
		/A3 11.69 inch 16.5 inch pagedimen
		/A4 8.26 inch 11.69 inch pagedimen
		/A4Small 7.47 inch 10.85 inch pagedimen
		/B4 10.125 inch 14.33 inch pagedimen
		/B5 7.16 inch 10.125 inch pagedimen
	end
	} bind def
/papersize {
	papersizedict begin
		/Letter {lettertray letter} def
		/LetterSmall {lettertray lettersmall} def
		/Tabloid {11x17tray 11x17} def
		/Ledger {ledgertray ledger} def
		/Legal {legaltray legal} def
		/Statement {statementtray statement} def
		/Executive {executivetray executive} def
		/A3 {a3tray a3} def
		/A4 {a4tray a4} def
		/A4Small {a4tray a4small} def
		/B4 {b4tray b4} def
		/B5 {b5tray b5} def
		/unknown {unknown} def
	papersizedict dup papername known {papername} {/unknown} ifelse get
	end
	statusdict begin stopped end 
	} bind def
/manualpapersize {
	papersizedict begin
		/Letter {letter} def
		/LetterSmall {lettersmall} def
		/Tabloid {11x17} def
		/Ledger {ledger} def
		/Legal {legal} def
		/Statement {statement} def
		/Executive {executive} def
		/A3 {a3} def
		/A4 {a4} def
		/A4Small {a4small} def
		/B4 {b4} def
		/B5 {b5} def
		/unknown {unknown} def
	papersizedict dup papername known {papername} {/unknown} ifelse get
	end
	stopped 
	} bind def
/desperatepapersize {
	statusdict /setpageparams known
		{
		paperwidth paperheight 0 1 
		statusdict begin
		{setpageparams} stopped 
		end
		} {true} ifelse 
	} bind def
/papersizefailure {
	FMAllowPaperSizeMismatch not
		{
(The requested paper size is not available in any currently-installed tray)
(Edit the PS file to "FMAllowPaperSizeMismatch true" to use default tray)
		 FMFAILURE } if
	} def
/DiacriticEncoding [
/.notdef /.notdef /.notdef /.notdef /.notdef /.notdef /.notdef
/.notdef /.notdef /.notdef /.notdef /.notdef /.notdef /.notdef
/.notdef /.notdef /.notdef /.notdef /.notdef /.notdef /.notdef
/.notdef /.notdef /.notdef /.notdef /.notdef /.notdef /.notdef
/.notdef /.notdef /.notdef /.notdef /space /exclam /quotedbl
/numbersign /dollar /percent /ampersand /quotesingle /parenleft
/parenright /asterisk /plus /comma /hyphen /period /slash /zero /one
/two /three /four /five /six /seven /eight /nine /colon /semicolon
/less /equal /greater /question /at /A /B /C /D /E /F /G /H /I /J /K
/L /M /N /O /P /Q /R /S /T /U /V /W /X /Y /Z /bracketleft /backslash
/bracketright /asciicircum /underscore /grave /a /b /c /d /e /f /g /h
/i /j /k /l /m /n /o /p /q /r /s /t /u /v /w /x /y /z /braceleft /bar
/braceright /asciitilde /.notdef /Adieresis /Aring /Ccedilla /Eacute
/Ntilde /Odieresis /Udieresis /aacute /agrave /acircumflex /adieresis
/atilde /aring /ccedilla /eacute /egrave /ecircumflex /edieresis
/iacute /igrave /icircumflex /idieresis /ntilde /oacute /ograve
/ocircumflex /odieresis /otilde /uacute /ugrave /ucircumflex
/udieresis /dagger /.notdef /cent /sterling /section /bullet
/paragraph /germandbls /registered /copyright /trademark /acute
/dieresis /.notdef /AE /Oslash /.notdef /.notdef /.notdef /.notdef
/yen /.notdef /.notdef /.notdef /.notdef /.notdef /.notdef
/ordfeminine /ordmasculine /.notdef /ae /oslash /questiondown
/exclamdown /logicalnot /.notdef /florin /.notdef /.notdef
/guillemotleft /guillemotright /ellipsis /.notdef /Agrave /Atilde
/Otilde /OE /oe /endash /emdash /quotedblleft /quotedblright
/quoteleft /quoteright /.notdef /.notdef /ydieresis /Ydieresis
/fraction /currency /guilsinglleft /guilsinglright /fi /fl /daggerdbl
/periodcentered /quotesinglbase /quotedblbase /perthousand
/Acircumflex /Ecircumflex /Aacute /Edieresis /Egrave /Iacute
/Icircumflex /Idieresis /Igrave /Oacute /Ocircumflex /.notdef /Ograve
/Uacute /Ucircumflex /Ugrave /dotlessi /circumflex /tilde /macron
/breve /dotaccent /ring /cedilla /hungarumlaut /ogonek /caron
] def
/ReEncode { 
	dup 
	length 
	dict begin 
	{
	1 index /FID ne 
		{def} 
		{pop pop} ifelse 
	} forall 
	0 eq {/Encoding DiacriticEncoding def} if 
	currentdict 
	end 
	} bind def
FMPColor 
	
	{
	/BEGINBITMAPCOLOR { 
		BITMAPCOLOR} def
	/BEGINBITMAPCOLORc { 
		BITMAPCOLORc} def
	/BEGINBITMAPTRUECOLOR { 
		BITMAPTRUECOLOR } def
	/BEGINBITMAPTRUECOLORc { 
		BITMAPTRUECOLORc } def
	/BEGINBITMAPCMYK { 
		BITMAPCMYK } def
	/BEGINBITMAPCMYKc { 
		BITMAPCMYKc } def
	}
	
	{
	/BEGINBITMAPCOLOR { 
		BITMAPGRAY} def
	/BEGINBITMAPCOLORc { 
		BITMAPGRAYc} def
	/BEGINBITMAPTRUECOLOR { 
		BITMAPTRUEGRAY } def
	/BEGINBITMAPTRUECOLORc { 
		BITMAPTRUEGRAYc } def
	/BEGINBITMAPCMYK { 
		BITMAPCMYKGRAY } def
	/BEGINBITMAPCMYKc { 
		BITMAPCMYKGRAYc } def
	}
ifelse
/K { 
	FMPrintAllColorsAsBlack {
		dup 1 eq 2 index 1 eq and 3 index 1 eq and not
			{7 {pop} repeat 0 0 0 1 0 0 0} if
	} if 
	FrameCurColors astore 
	pop combineColor
} bind def
/graymode true def
fMLevel1 {
	/fmGetFlip {
		fMatrix2 exch get mul 0 lt { -1 } { 1 } ifelse
	} FmBD
} if
/setPatternMode {
	fMLevel1 {
		2 index patScreenDict exch known {
			pop pop
			patScreenDict exch get aload pop 
			freq 								
			mul									
			5 2 roll							
			fMatrix2 currentmatrix 1 get 0 ne {
				3 -1 roll 90 add 3 1 roll 		
				sflipx 1 fmGetFlip sflipy 2 fmGetFlip neg mul
			} {  								
				sflipx 0 fmGetFlip sflipy 3 fmGetFlip mul 
			} ifelse
			0 lt {exch pop} {pop} ifelse 		
			fMNegative { 
				{neg} fmConcatProcs 			
			} if
			bind
			
			
			
			systemdict /setscreen get exec		
			/FrameCurGray exch def
		} {
			/bwidth  exch def
			/bpside  exch def
			/bstring exch def
			/onbits 0 def  /offbits 0 def
			freq sangle landscape {90 add} if 
				{/ypoint exch def
				 /xpoint exch def
				 /xindex xpoint 1 add 2 div bpside mul cvi def
				 /yindex ypoint 1 add 2 div bpside mul cvi def
				 bstring yindex bwidth mul xindex 8 idiv add get
				 1 7 xindex 8 mod sub bitshift and 0 ne fMNegative {not} if
				 {/onbits  onbits  1 add def 1}
				 {/offbits offbits 1 add def 0}
				 ifelse
				}
				setscreen
			offbits offbits onbits add div fMNegative {1.0 exch sub} if
			/FrameCurGray exch def
		} ifelse
	} { 
		pop pop
		dup patCache exch known {
			patCache exch get
		} { 
			dup
			patDict /bstring 3 -1 roll put
			patDict 
			9 PatFreq screenIndex get div dup matrix scale
			makepattern
			dup 
			patCache 4 -1 roll 3 -1 roll put
		} ifelse
		/FrameCurGray 0 def
		/FrameCurPat exch def
	} ifelse
	/graymode false def
	combineColor
} bind def
/setGrayScaleMode {
	graymode not {
		/graymode true def
		fMLevel1 {
			setCurrentScreen
		} if
	} if
	/FrameCurGray exch def
	combineColor
} bind def
/normalize {
	transform round exch round exch itransform
	} bind def
/dnormalize {
	dtransform round exch round exch idtransform
	} bind def
/lnormalize { 
	0 dtransform exch cvi 2 idiv 2 mul 1 add exch idtransform pop
	} bind def
/H { 
	lnormalize setlinewidth
	} bind def
/Z {
	setlinecap
	} bind def
	
/PFill {
	graymode fMLevel1 or not {
		gsave 1 setgray eofill grestore
	} if
} bind def
/PStroke {
	graymode fMLevel1 or not {
		gsave 1 setgray stroke grestore
	} if
	stroke
} bind def
/X { 
	fillvals exch get
	dup type /stringtype eq
	{8 1 setPatternMode} 
	{setGrayScaleMode}
	ifelse
	} bind def
/V { 
	PFill gsave eofill grestore
	} bind def
/Vclip {
	clip
	} bind def
/Vstrk {
	currentlinewidth exch setlinewidth PStroke setlinewidth
	} bind def
/N { 
	PStroke
	} bind def
/Nclip {
	strokepath clip newpath
	} bind def
/Nstrk {
	currentlinewidth exch setlinewidth PStroke setlinewidth
	} bind def
/M {newpath moveto} bind def
/E {lineto} bind def
/D {curveto} bind def
/O {closepath} bind def
/L { 
 	/n exch def
	newpath
	normalize
	moveto 
	2 1 n {pop normalize lineto} for
	} bind def
/Y { 
	L 
	closepath
	} bind def
/R { 
	/y2 exch def
	/x2 exch def
	/y1 exch def
	/x1 exch def
	x1 y1
	x2 y1
	x2 y2
	x1 y2
	4 Y 
	} bind def
/rarc 
	{rad 
	 arcto
	} bind def
/RR { 
	/rad exch def
	normalize
	/y2 exch def
	/x2 exch def
	normalize
	/y1 exch def
	/x1 exch def
	mark
	newpath
	{
	x1 y1 rad add moveto
	x1 y2 x2 y2 rarc
	x2 y2 x2 y1 rarc
	x2 y1 x1 y1 rarc
	x1 y1 x1 y2 rarc
	closepath
	} stopped {x1 y1 x2 y2 R} if 
	cleartomark
	} bind def
/RRR { 
	/rad exch def
	normalize /y4 exch def /x4 exch def
	normalize /y3 exch def /x3 exch def
	normalize /y2 exch def /x2 exch def
	normalize /y1 exch def /x1 exch def
	newpath
	normalize moveto 
	mark
	{
	x2 y2 x3 y3 rarc
	x3 y3 x4 y4 rarc
	x4 y4 x1 y1 rarc
	x1 y1 x2 y2 rarc
	closepath
	} stopped
	 {x1 y1 x2 y2 x3 y3 x4 y4 newpath moveto lineto lineto lineto closepath} if
	cleartomark
	} bind def
/C { 
	grestore
	gsave
	R 
	clip
	setCurrentScreen
} bind def
/CP { 
	grestore
	gsave
	Y 
	clip
	setCurrentScreen
} bind def
/F { 
	FMfonts exch get
	FMpointsize scalefont
	setfont
	} bind def
/Q { 
	/FMpointsize exch def
	F 
	} bind def
/T { 
	moveto show
	} bind def
/RF { 
	rotate
	0 ne {-1 1 scale} if
	} bind def
/TF { 
	gsave
	moveto 
	RF
	show
	grestore
	} bind def
/P { 
	moveto
	0 32 3 2 roll widthshow
	} bind def
/PF { 
	gsave
	moveto 
	RF
	0 32 3 2 roll widthshow
	grestore
	} bind def
/S { 
	moveto
	0 exch ashow
	} bind def
/SF { 
	gsave
	moveto
	RF
	0 exch ashow
	grestore
	} bind def
/B { 
	moveto
	0 32 4 2 roll 0 exch awidthshow
	} bind def
/BF { 
	gsave
	moveto
	RF
	0 32 4 2 roll 0 exch awidthshow
	grestore
	} bind def
/G { 
	gsave
	newpath
	normalize translate 0.0 0.0 moveto 
	dnormalize scale 
	0.0 0.0 1.0 5 3 roll arc 
	closepath 
	PFill fill
	grestore
	} bind def
/Gstrk {
	savematrix
    newpath
    2 index 2 div add exch 3 index 2 div sub exch 
    normalize 2 index 2 div sub exch 3 index 2 div add exch 
    translate
    scale 
    0.0 0.0 1.0 5 3 roll arc 
    restorematrix
    currentlinewidth exch setlinewidth PStroke setlinewidth
    } bind def
/Gclip { 
	newpath
	savematrix
	normalize translate 0.0 0.0 moveto 
	dnormalize scale 
	0.0 0.0 1.0 5 3 roll arc 
	closepath 
	clip newpath
	restorematrix
	} bind def
/GG { 
	gsave
	newpath
	normalize translate 0.0 0.0 moveto 
	rotate 
	dnormalize scale 
	0.0 0.0 1.0 5 3 roll arc 
	closepath
	PFill
	fill
	grestore
	} bind def
/GGclip { 
	savematrix
	newpath
    normalize translate 0.0 0.0 moveto 
    rotate 
    dnormalize scale 
    0.0 0.0 1.0 5 3 roll arc 
    closepath
	clip newpath
	restorematrix
	} bind def
/GGstrk { 
	savematrix
    newpath
    normalize translate 0.0 0.0 moveto 
    rotate 
    dnormalize scale 
    0.0 0.0 1.0 5 3 roll arc 
    closepath 
	restorematrix
    currentlinewidth exch setlinewidth PStroke setlinewidth
	} bind def
/A { 
	gsave
	savematrix
	newpath
	2 index 2 div add exch 3 index 2 div sub exch 
	normalize 2 index 2 div sub exch 3 index 2 div add exch 
	translate 
	scale 
	0.0 0.0 1.0 5 3 roll arc 
	restorematrix
	PStroke
	grestore
	} bind def
/Aclip {
	newpath
	savematrix
	normalize translate 0.0 0.0 moveto 
	dnormalize scale 
	0.0 0.0 1.0 5 3 roll arc 
	closepath 
	strokepath clip newpath
	restorematrix
} bind def
/Astrk {
	Gstrk
} bind def
/AA { 
	gsave
	savematrix
	newpath
	
	3 index 2 div add exch 4 index 2 div sub exch 
	
	normalize 3 index 2 div sub exch 4 index 2 div add exch
	translate 
	rotate 
	scale 
	0.0 0.0 1.0 5 3 roll arc 
	restorematrix
	PStroke
	grestore
	} bind def
/AAclip {
	savematrix
	newpath
    normalize translate 0.0 0.0 moveto 
    rotate 
    dnormalize scale 
    0.0 0.0 1.0 5 3 roll arc 
    closepath
	strokepath clip newpath
	restorematrix
} bind def
/AAstrk {
	GGstrk
} bind def
/BEGINPRINTCODE { 
	/FMdicttop countdictstack 1 add def 
	/FMoptop count 7 sub def 
	/FMsaveobject save def
	userdict begin 
	/showpage {} def 
	FMNORMALIZEGRAPHICS 
	3 index neg 3 index neg translate
	} bind def
/ENDPRINTCODE {
	count -1 FMoptop {pop pop} for 
	countdictstack -1 FMdicttop {pop end} for 
	FMsaveobject restore 
	} bind def
/gn { 
	0 
	{	46 mul 
		cf read pop 
		32 sub 
		dup 46 lt {exit} if 
		46 sub add 
		} loop
	add 
	} bind def
/cfs { 
	/str sl string def 
	0 1 sl 1 sub {str exch val put} for 
	str def 
	} bind def
/ic [ 
	0 0 0 0 0 0 0 0 0 0 0 0 0 0 0 0223
	0 0 0 0 0 0 0 0 0 0 0 0 0 0 0 0223
	0
	{0 hx} {1 hx} {2 hx} {3 hx} {4 hx} {5 hx} {6 hx} {7 hx} {8 hx} {9 hx}
	{10 hx} {11 hx} {12 hx} {13 hx} {14 hx} {15 hx} {16 hx} {17 hx} {18 hx}
	{19 hx} {gn hx} {0} {1} {2} {3} {4} {5} {6} {7} {8} {9} {10} {11} {12}
	{13} {14} {15} {16} {17} {18} {19} {gn} {0 wh} {1 wh} {2 wh} {3 wh}
	{4 wh} {5 wh} {6 wh} {7 wh} {8 wh} {9 wh} {10 wh} {11 wh} {12 wh}
	{13 wh} {14 wh} {gn wh} {0 bl} {1 bl} {2 bl} {3 bl} {4 bl} {5 bl} {6 bl}
	{7 bl} {8 bl} {9 bl} {10 bl} {11 bl} {12 bl} {13 bl} {14 bl} {gn bl}
	{0 fl} {1 fl} {2 fl} {3 fl} {4 fl} {5 fl} {6 fl} {7 fl} {8 fl} {9 fl}
	{10 fl} {11 fl} {12 fl} {13 fl} {14 fl} {gn fl}
	] def
/ms { 
	/sl exch def 
	/val 255 def 
	/ws cfs 
	/im cfs 
	/val 0 def 
	/bs cfs 
	/cs cfs 
	} bind def
400 ms 
/ip { 
	is 
	0 
	cf cs readline pop 
	{	ic exch get exec 
		add 
		} forall 
	pop 
	
	} bind def
/rip { 
	   
	  
	  bis ris copy pop 
      is
      0
      cf cs readline pop 
      {       ic exch get exec 
              add 
              } forall 
	  pop pop 
	  ris gis copy pop 
	  dup is exch 
	  
      cf cs readline pop 
      {       ic exch get exec 
              add 
              } forall 
	  pop pop
	  gis bis copy pop 
	  dup add is exch 
	  
      cf cs readline pop 
      {       ic exch get exec 
              add 
              } forall 
      pop 
      
      } bind def
/rip4 { 
	   
	  
	  kis cis copy pop 
      is
      0
      cf cs readline pop 
      {       ic exch get exec 
              add 
              } forall 
	  pop pop 
	  cis mis copy pop 
	  dup is exch 
	  
      cf cs readline pop 
      {       ic exch get exec 
              add 
              } forall 
	  pop pop
	  mis yis copy pop 
	  dup dup add is exch 
	  
      cf cs readline pop 
      {       ic exch get exec 
              add 
              } forall 
	  pop pop
	  yis kis copy pop 
	  3 mul is exch 
	  
      cf cs readline pop 
      {       ic exch get exec 
              add 
              } forall 
      pop 
      
      } bind def
/wh { 
	/len exch def 
	/pos exch def 
	ws 0 len getinterval im pos len getinterval copy pop
	pos len 
	} bind def
/bl { 
	/len exch def 
	/pos exch def 
	bs 0 len getinterval im pos len getinterval copy pop
	pos len 
	} bind def
/s1 1 string def
/fl { 
	/len exch def 
	/pos exch def 
	/val cf s1 readhexstring pop 0 get def
	pos 1 pos len add 1 sub {im exch val put} for
	pos len 
	} bind def
/hx { 
	3 copy getinterval 
	cf exch readhexstring pop pop 
	} bind def
/wbytes { 
      dup dup
      8 gt { pop 8 idiv mul }
      { 8 eq {pop} {1 eq {7 add 8 idiv} {3 add 4 idiv} ifelse} ifelse } ifelse
	} bind def
/BEGINBITMAPBWc { 
	1 {} COMMONBITMAPc
	} bind def
/BEGINBITMAPGRAYc { 
	8 {} COMMONBITMAPc
	} bind def
/BEGINBITMAP2BITc { 
	2 {} COMMONBITMAPc
	} bind def
/COMMONBITMAPc { 
		 
	/cvtProc exch def
	/depth exch def
	gsave
	
	3 index 2 div add exch	
	4 index 2 div add exch	
	translate		
	rotate			
	1 index 2 div neg	
	1 index 2 div neg	
	translate		
	scale			
	/height exch def /width exch def
	/lb width depth wbytes def 
	sl lb lt {lb ms} if 
	/bitmapsave save def 
	cvtProc                
	/is im 0 lb getinterval def 
	ws 0 lb getinterval is copy pop 
	/cf currentfile def 
	width height depth [width 0 0 height neg 0 height] 
	{ip} image 
	bitmapsave restore 
	grestore
	} bind def
/BEGINBITMAPBW { 
	1 {} COMMONBITMAP
	} bind def
/BEGINBITMAPGRAY { 
	8 {} COMMONBITMAP
	} bind def
/BEGINBITMAP2BIT { 
	2 {} COMMONBITMAP
	} bind def
/COMMONBITMAP { 
	/cvtProc exch def
	/depth exch def
	gsave
	
	3 index 2 div add exch	
	4 index 2 div add exch	
	translate		
	rotate			
	1 index 2 div neg	
	1 index 2 div neg	
	translate		
	scale			
	/height exch def /width exch def
	/bitmapsave save def 
	cvtProc              
	/is width depth wbytes string def
	/cf currentfile def 
	width height depth [width 0 0 height neg 0 height] 
	{cf is readhexstring pop} image
	bitmapsave restore 
	grestore
	} bind def
/ngrayt 256 array def
/nredt 256 array def
/nbluet 256 array def
/ngreent 256 array def
fMLevel1 {
/colorsetup {
	currentcolortransfer
	/gryt exch def
	/blut exch def
	/grnt exch def
	/redt exch def
	0 1 255 {
		/indx exch def
		/cynu 1 red indx get 255 div sub def
		/magu 1 green indx get 255 div sub def
		/yelu 1 blue indx get 255 div sub def
		/kk cynu magu min yelu min def
		/u kk currentundercolorremoval exec def
%		/u 0 def
		nredt indx 1 0 cynu u sub max sub redt exec put
		ngreent indx 1 0 magu u sub max sub grnt exec put
		nbluet indx 1 0 yelu u sub max sub blut exec put
		ngrayt indx 1 kk currentblackgeneration exec sub gryt exec put
	} for
	{255 mul cvi nredt exch get}
	{255 mul cvi ngreent exch get}
	{255 mul cvi nbluet exch get}
	{255 mul cvi ngrayt exch get}
	setcolortransfer
	{pop 0} setundercolorremoval
	{} setblackgeneration
	} bind def
}
{
/colorSetup2 {
	[ /Indexed /DeviceRGB 255 
		{dup red exch get 255 div 
		 exch dup green exch get 255 div 
		 exch blue exch get 255 div}
	] setcolorspace
} bind def
} ifelse
/fakecolorsetup {
	/tran 256 string def
	0 1 255 {/indx exch def 
		tran indx
		red indx get 77 mul
		green indx get 151 mul
		blue indx get 28 mul
		add add 256 idiv put} for
	currenttransfer
	{255 mul cvi tran exch get 255.0 div}
	exch fmConcatProcs settransfer
} bind def
/BITMAPCOLOR { 
	/depth 8 def
	gsave
	
	3 index 2 div add exch	
	4 index 2 div add exch	
	translate		
	rotate			
	1 index 2 div neg	
	1 index 2 div neg	
	translate		
	scale			
	/height exch def /width exch def
	/bitmapsave save def
	fMLevel1 {	
		colorsetup
		/is width depth wbytes string def
		/cf currentfile def 
		width height depth [width 0 0 height neg 0 height] 
		{cf is readhexstring pop} {is} {is} true 3 colorimage 
	} {
		colorSetup2
		/is width depth wbytes string def
		/cf currentfile def 
		7 dict dup begin
			/ImageType 1 def
			/Width width def
			/Height height def
			/ImageMatrix [width 0 0 height neg 0 height] def
			/DataSource {cf is readhexstring pop} bind def
			/BitsPerComponent depth def
			/Decode [0 255] def
		end image	
	} ifelse
	bitmapsave restore 
	grestore
	} bind def
/BITMAPCOLORc { 
	/depth 8 def
	gsave
	
	3 index 2 div add exch	
	4 index 2 div add exch	
	translate		
	rotate			
	1 index 2 div neg	
	1 index 2 div neg	
	translate		
	scale			
	/height exch def /width exch def
	/lb width depth wbytes def 
	sl lb lt {lb ms} if 
	/bitmapsave save def 
	fMLevel1 {	
		colorsetup
		/is im 0 lb getinterval def 
		ws 0 lb getinterval is copy pop 
		/cf currentfile def 
		width height depth [width 0 0 height neg 0 height] 
		{ip} {is} {is} true 3 colorimage
	} {
		colorSetup2
		/is im 0 lb getinterval def 
		ws 0 lb getinterval is copy pop 
		/cf currentfile def 
		7 dict dup begin
			/ImageType 1 def
			/Width width def
			/Height height def
			/ImageMatrix [width 0 0 height neg 0 height] def
			/DataSource {ip} bind def
			/BitsPerComponent depth def
			/Decode [0 255] def
		end image	
	} ifelse
	bitmapsave restore 
	grestore
	} bind def
/BITMAPTRUECOLORc { 
	/depth 24 def
        gsave
 	
	3 index 2 div add exch	
	4 index 2 div add exch	
	translate		
	rotate			
	1 index 2 div neg	
	1 index 2 div neg	
	translate		
	scale			
	/height exch def /width exch def
	/lb width depth wbytes def 
	sl lb lt {lb ms} if 
	/bitmapsave save def 
        
	/is im 0 lb getinterval def	
	/ris im 0 width getinterval def	
	/gis im width width getinterval def	
	/bis im width 2 mul width getinterval def 
        
	ws 0 lb getinterval is copy pop 
	/cf currentfile def 
	width height 8 [width 0 0 height neg 0 height] 
	{width rip pop ris} {gis} {bis} true 3 colorimage
	bitmapsave restore 
	grestore
	} bind def
/BITMAPCMYKc { 
	/depth 32 def
        gsave
 	
	3 index 2 div add exch	
	4 index 2 div add exch	
	translate		
	rotate			
	1 index 2 div neg	
	1 index 2 div neg	
	translate		
	scale			
	/height exch def /width exch def
	/lb width depth wbytes def 
	sl lb lt {lb ms} if 
	/bitmapsave save def 
        
	/is im 0 lb getinterval def	
	/cis im 0 width getinterval def	
	/mis im width width getinterval def	
	/yis im width 2 mul width getinterval def 
	/kis im width 3 mul width getinterval def 
        
	ws 0 lb getinterval is copy pop 
	/cf currentfile def 
	width height 8 [width 0 0 height neg 0 height] 
	{width rip4 pop cis} {mis} {yis} {kis} true 4 colorimage
	bitmapsave restore 
	grestore
	} bind def
/BITMAPTRUECOLOR { 
        gsave
		
		3 index 2 div add exch	
		4 index 2 div add exch	
		translate		
		rotate			
		1 index 2 div neg	
		1 index 2 div neg	
		translate		
		scale			
		/height exch def /width exch def
        /bitmapsave save def 
        /is width string def
        /gis width string def
        /bis width string def
        /cf currentfile def 
        width height 8 [width 0 0 height neg 0 height] 
        { cf is readhexstring pop } 
        { cf gis readhexstring pop } 
        { cf bis readhexstring pop } 
        true 3 colorimage 
        bitmapsave restore 
        grestore
        } bind def
/BITMAPCMYK { 
        gsave
		
		3 index 2 div add exch	
		4 index 2 div add exch	
		translate		
		rotate			
		1 index 2 div neg	
		1 index 2 div neg	
		translate		
		scale			
		/height exch def /width exch def
        /bitmapsave save def 
        /is width string def
        /mis width string def
        /yis width string def
        /kis width string def
        /cf currentfile def 
        width height 8 [width 0 0 height neg 0 height] 
        { cf is readhexstring pop } 
        { cf mis readhexstring pop } 
        { cf yis readhexstring pop } 
        { cf kis readhexstring pop } 
        true 4 colorimage 
        bitmapsave restore 
        grestore
        } bind def
/BITMAPTRUEGRAYc { 
	/depth 24 def
        gsave
	
	3 index 2 div add exch	
	4 index 2 div add exch	
	translate		
	rotate			
	1 index 2 div neg	
	1 index 2 div neg	
	translate		
	scale			
	/height exch def /width exch def
	/lb width depth wbytes def 
	sl lb lt {lb ms} if 
        /bitmapsave save def 
        
	/is im 0 lb getinterval def	
	/ris im 0 width getinterval def	
	/gis im width width getinterval def	
	/bis im width 2 mul width getinterval def 
        ws 0 lb getinterval is copy pop 
        /cf currentfile def 
        width height 8 [width 0 0 height neg 0 height] 
        {width rip pop ris gis bis width gray} image
        bitmapsave restore 
        grestore
        } bind def
/BITMAPCMYKGRAYc { 
	/depth 32 def
        gsave
	
	3 index 2 div add exch	
	4 index 2 div add exch	
	translate		
	rotate			
	1 index 2 div neg	
	1 index 2 div neg	
	translate		
	scale			
	/height exch def /width exch def
	/lb width depth wbytes def 
	sl lb lt {lb ms} if 
        /bitmapsave save def 
        
	/is im 0 lb getinterval def	
	/cis im 0 width getinterval def	
	/mis im width width getinterval def	
	/yis im width 2 mul width getinterval def 
	/kis im width 3 mul width getinterval def 
        ws 0 lb getinterval is copy pop 
        /cf currentfile def 
        width height 8 [width 0 0 height neg 0 height] 
        {width rip pop cis mis yis kis width cgray} image
        bitmapsave restore 
        grestore
        } bind def
/cgray { 
        /ww exch def
        /k exch def
        /y exch def
        /m exch def
        /c exch def
        0 1 ww 1 sub { /i exch def c i get m i get y i get k i get CMYKtoRGB
				.144 mul 3 1 roll .587 mul 3 1 roll .299 mul add add
				c i 3 -1 roll floor cvi put } for
        c
 		} bind def
/gray { 
        /ww exch def
        /b exch def
        /g exch def
        /r exch def
        0 1 ww 1 sub { /i exch def r i get .299 mul g i get .587 mul
			b i get .114 mul add add r i 3 -1 roll floor cvi put } for
        r
        } bind def
/BITMAPTRUEGRAY { 
        gsave
		
		3 index 2 div add exch	
		4 index 2 div add exch	
		translate		
		rotate			
		1 index 2 div neg	
		1 index 2 div neg	
		translate		
		scale			
		/height exch def /width exch def
        /bitmapsave save def 
        /is width string def
        /gis width string def
        /bis width string def
        /cf currentfile def 
        width height 8 [width 0 0 height neg 0 height] 
        { cf is readhexstring pop 
          cf gis readhexstring pop 
          cf bis readhexstring pop width gray}  image
        bitmapsave restore 
        grestore
        } bind def
/BITMAPCMYKGRAY { 
        gsave
		
		3 index 2 div add exch	
		4 index 2 div add exch	
		translate		
		rotate			
		1 index 2 div neg	
		1 index 2 div neg	
		translate		
		scale			
		/height exch def /width exch def
        /bitmapsave save def 
        /is width string def
        /yis width string def
        /mis width string def
        /kis width string def
        /cf currentfile def 
        width height 8 [width 0 0 height neg 0 height] 
        { cf is readhexstring pop 
          cf mis readhexstring pop 
          cf yis readhexstring pop 
          cf kis readhexstring pop width cgray}  image
        bitmapsave restore 
        grestore
        } bind def
/BITMAPGRAY { 
	8 {fakecolorsetup} COMMONBITMAP
	} bind def
/BITMAPGRAYc { 
	8 {fakecolorsetup} COMMONBITMAPc
	} bind def
/ENDBITMAP {
	} bind def
end 
	/ALDmatrix matrix def ALDmatrix currentmatrix pop
/StartALD {
	/ALDsave save def
	 savematrix
	 ALDmatrix setmatrix
	} bind def
/InALD {
	 restorematrix
	} bind def
/DoneALD {
	 ALDsave restore
	} bind def
/I { setdash } bind def
/J { [] 0 setdash } bind def
%%EndProlog
%%BeginSetup
(5.0) FMVERSION
1 1 0 0 612 792 0 1 13 FMDOCUMENT
0 0 /Helvetica FMFONTDEFINE
1 0 /Helvetica-Bold FMFONTDEFINE
2 0 /NewCenturySchlbk-Roman FMFONTDEFINE
3 0 /Courier FMFONTDEFINE
4 1 /ZapfDingbats FMFONTDEFINE
5 0 /NewCenturySchlbk-Bold FMFONTDEFINE
32 FMFILLS
0 0 FMFILL
1 0.1 FMFILL
2 0.3 FMFILL
3 0.5 FMFILL
4 0.7 FMFILL
5 0.9 FMFILL
6 0.97 FMFILL
7 1 FMFILL
8 <0f1e3c78f0e1c387> FMFILL
9 <0f87c3e1f0783c1e> FMFILL
10 <cccccccccccccccc> FMFILL
11 <ffff0000ffff0000> FMFILL
12 <8142241818244281> FMFILL
13 <03060c183060c081> FMFILL
14 <8040201008040201> FMFILL
16 1 FMFILL
17 0.9 FMFILL
18 0.7 FMFILL
19 0.5 FMFILL
20 0.3 FMFILL
21 0.1 FMFILL
22 0.03 FMFILL
23 0 FMFILL
24 <f0e1c3870f1e3c78> FMFILL
25 <f0783c1e0f87c3e1> FMFILL
26 <3333333333333333> FMFILL
27 <0000ffff0000ffff> FMFILL
28 <7ebddbe7e7dbbd7e> FMFILL
29 <fcf9f3e7cf9f3f7e> FMFILL
30 <7fbfdfeff7fbfdfe> FMFILL
%%EndSetup
%%Page: "mini" 1
%%BeginPaperSize: Letter
%%EndPaperSize
612 792 1 FMBEGINPAGE
[0 0 0 1 0 0 0]
[ 0 1 1 0 1 0 0]
[ 1 0 1 0 0 1 0]
[ 1 1 0 0 0 0 1]
[ 1 0 0 0 0 1 1]
[ 0 1 0 0 1 0 1]
[ 0 0 1 0 1 1 0]
[ 1 0.6 0 0.06 0 0.18 0.6]
 8 FrameSetSepColors
FrameNoSep
0 0 0 1 0 0 0 K
J
400.5 264.7 765 707.3 C
0 0 0 1 0 0 0 K
0 4.34 Q
0 X
0 0 0 1 0 0 0 K
1.74 (PURIFY USER\325S GUIDE) 511.15 683.43 S
1 0.6 0 0.06 0 0.18 0.6 K
504.64 713.81 504.64 612.27 2 L
0.36 H
0 Z
1 0.6 0 0.06 0 0.18 0.6 K
N
439.55 612.27 504.64 612.27 2 L
N
0 0 0 1 0 0 0 K
1 5.06 Q
0 0 0 1 0 0 0 K
(9-1) 725.14 285.67 T
0 0 0 1 0 0 0 K
0 0 0 1 0 0 0 K
1 0.6 0 0.06 0 0.18 0.6 K
1 54.24 Q
1 0.6 0 0.06 0 0.18 0.6 K
(9) 470.51 622.97 T
0 0 0 1 0 0 0 K
1 0.6 0 0.06 0 0.18 0.6 K
0 11.57 Q
(Custom Memor) 511.15 622.78 T
(y Managers) 590.58 622.78 T
0 0 0 1 0 0 0 K
2 7.23 Q
0 0 0 1 0 0 0 K
(An important part of Purify\325) 511.15 585.32 T
(s error detection involves trac) 605.13 585.32 T
(king) 704.44 585.32 T
3 6.51 Q
(malloc) 511.15 575.92 T
2 7.23 Q
( and) 534.58 575.92 T
3 6.51 Q
(free) 551.2 575.92 T
2 7.23 Q
( calls) 566.82 575.92 T
(. If you use custom memory-management) 583.78 575.92 T
-0.04 (la) 511.15 566.52 P
-0.04 (yers rather than calling) 517.38 566.52 P
3 6.51 Q
-0.07 (malloc) 598.66 566.52 P
2 7.23 Q
-0.04 ( or) 622.1 566.52 P
3 6.51 Q
-0.07 (free) 632.87 566.52 P
2 7.23 Q
-0.04 ( directly) 648.49 566.52 P
-0.04 (, you might need) 675.01 566.52 P
(to modify them slightly to make them compatible with Purify) 511.15 557.11 T
(.) 714.66 557.11 T
(Y) 511.15 542.51 T
(ou can preserve your custom memory manager\325) 515.52 542.51 T
(s semantics and) 672.97 542.51 T
-0.43 (implementation during normal operation, but provide an alternate) 511.15 533.1 P
(implementation that uses) 511.15 523.7 T
3 6.51 Q
(malloc) 599.16 523.7 T
2 7.23 Q
( and) 622.59 523.7 T
3 6.51 Q
(free) 639.2 523.7 T
2 7.23 Q
( when the program is) 654.83 523.7 T
(Purify\325) 511.15 514.3 T
(d.) 533.38 514.3 T
1 0.6 0 0.06 0 0.18 0.6 K
1 7.95 Q
1 0.6 0 0.06 0 0.18 0.6 K
(T) 439.55 494 T
(ypes of custom memor) 443.94 494 T
(y mana) 531.1 494 T
(g) 558.44 494 T
(er) 563.38 494 T
(s) 570.78 494 T
0 0 0 1 0 0 0 K
2 7.23 Q
0 0 0 1 0 0 0 K
(There are \336ve categories of custom memory managers:) 511.15 479.88 T
1 0.6 0 0.06 0 0.18 0.6 K
4 3.47 Q
1 0.6 0 0.06 0 0.18 0.6 K
(n) 511.15 467 T
0 0 0 1 0 0 0 K
5 7.23 Q
0 0 0 1 0 0 0 K
(Malloc veneers) 517.66 465.27 T
2 F
( are la) 573.98 465.27 T
(yers over) 595.07 465.27 T
3 6.51 Q
(malloc) 627.48 465.27 T
2 7.23 Q
( and) 650.91 465.27 T
3 6.51 Q
(free) 667.52 465.27 T
2 7.23 Q
( that c) 683.15 465.27 T
(hec) 704.39 465.27 T
(k) 715.59 465.27 T
(error returns so that the callers do not ha) 517.66 455.87 T
(ve to) 656.47 455.87 T
(. Y) 672.28 455.87 T
(ou do not need) 680.67 455.87 T
(to modify) 517.66 446.46 T
3 6.51 Q
(malloc) 550.88 446.46 T
2 7.23 Q
( veneers when you use Purify because the) 574.31 446.46 T
(actual allocation and freeing is still done by) 517.66 437.06 T
3 6.51 Q
(malloc) 665.41 437.06 T
2 7.23 Q
( and) 688.84 437.06 T
3 6.51 Q
(free) 705.46 437.06 T
2 7.23 Q
(.) 720.95 437.06 T
1 0.6 0 0.06 0 0.18 0.6 K
4 3.47 Q
1 0.6 0 0.06 0 0.18 0.6 K
(n) 511.15 426.79 T
0 0 0 1 0 0 0 K
5 7.23 Q
0 0 0 1 0 0 0 K
-0.35 (Improved mallocs) 517.66 425.06 P
2 F
-0.34 (are allocation pac) 586.2 425.06 P
-0.34 (kages that are better than) 644.27 425.06 P
(the) 517.66 415.66 T
3 6.51 Q
(malloc) 530.52 415.66 T
2 7.23 Q
( and) 553.95 415.66 T
3 6.51 Q
(free) 570.56 415.66 T
2 7.23 Q
( in the) 586.18 415.66 T
2 6.51 Q
(C) 609.76 415.66 T
2 7.23 Q
( library) 614.46 415.66 T
(. F) 638.47 415.66 T
(or example) 646.92 415.66 T
(, they can) 683.62 415.66 T
(reduce memory fragmentation or perform garbage collection.) 517.66 406.26 T
(Improved) 517.66 396.85 T
3 6.51 Q
(mallocs) 551.67 396.85 T
2 7.23 Q
( present the same interface as the standard) 579.01 396.85 T
3 6.51 Q
(malloc) 517.66 387.45 T
2 7.23 Q
( and) 541.09 387.45 T
3 6.51 Q
(free) 557.71 387.45 T
2 7.23 Q
( functions) 573.33 387.45 T
(.) 606.09 387.45 T
(Y) 517.66 375.45 T
(ou do not need to modify improved) 522.03 375.45 T
3 6.51 Q
(mallocs) 639.09 375.45 T
2 7.23 Q
( when you use) 666.42 375.45 T
(Purify because Purify does not replace the) 517.66 366.05 T
3 6.51 Q
(malloc) 660.57 366.05 T
2 7.23 Q
(, it merely) 683.87 366.05 T
(intercepts calls to it.) 517.66 356.64 T
1 0.6 0 0.06 0 0.18 0.6 K
4 3.47 Q
1 0.6 0 0.06 0 0.18 0.6 K
(n) 511.15 346.37 T
0 0 0 1 0 0 0 K
5 7.23 Q
0 0 0 1 0 0 0 K
(F) 517.66 344.64 T
(ixed-size allocators) 522.75 344.64 T
2 F
( work by requesting a large bloc) 594.87 344.64 T
(k of) 701.31 344.64 T
(memory using) 517.66 335.24 T
3 6.51 Q
(malloc) 567.22 335.24 T
2 7.23 Q
( and then allocating many \336xed size) 590.65 335.24 T
(sub-bloc) 517.66 325.83 T
(ks) 544.93 325.83 T
(. These allocators are more ef\336cient than) 552.39 325.83 T
3 6.51 Q
(malloc) 690.88 325.83 T
2 7.23 Q
(because the sub-bloc) 517.66 316.43 T
(ks do not need any size overhead.) 586.05 316.43 T
0 0 0 1 0 0 0 K
FMENDPAGE
%%EndPage: "mini" 1
%%Page: "mini" 2
612 792 1 FMBEGINPAGE
[0 0 0 1 0 0 0]
[ 0 1 1 0 1 0 0]
[ 1 0 1 0 0 1 0]
[ 1 1 0 0 0 0 1]
[ 1 0 0 0 0 1 1]
[ 0 1 0 0 1 0 1]
[ 0 0 1 0 1 1 0]
[ 1 0.6 0 0.06 0 0.18 0.6]
 8 FrameSetSepColors
FrameNoSep
27 264.7 391.5 707.3 C
0 0 0 1 0 0 0 K
1 5.06 Q
0 X
0 0 0 1 0 0 0 K
(9-2) 59.55 285.67 T
0 F
(  Purify User\325s Guide) 66.86 285.67 T
0 0 0 1 0 0 0 K
0 0 0 1 0 0 0 K
2 7.23 Q
(Y) 137.65 650.41 T
(ou must make minor c) 142.02 650.41 T
(hanges to \336xed-size allocators when you) 216.58 650.41 T
(use Purify) 137.65 641.01 T
(. See \322Modifying \336xed-size allocators\323 on page 9-3.) 171.17 641.01 T
1 0.6 0 0.06 0 0.18 0.6 K
4 3.47 Q
1 0.6 0 0.06 0 0.18 0.6 K
(n) 131.14 630.74 T
0 0 0 1 0 0 0 K
5 7.23 Q
0 0 0 1 0 0 0 K
(P) 137.65 629 T
(ool allocators) 142.74 629 T
2 F
( allow an application to specify a location) 193.44 629 T
-0.26 (identi\336er in addition to a size when making a memory allocation) 137.65 619.6 P
(request, thus reducing the amount of paging) 137.65 610.2 T
(. These memory) 286 610.2 T
(managers can also support pool-level operations) 137.65 600.8 T
(, suc) 297.93 600.8 T
(h as) 312.88 600.8 T
(printing or freeing an entire pool.) 137.65 591.4 T
(Y) 137.65 579.39 T
(ou must make minor c) 142.02 579.39 T
(hanges to pool allocators when you use) 216.58 579.39 T
(Purify) 137.65 569.99 T
(. See \322Modifying pool allocators\323 on page 9-5.) 157.77 569.99 T
1 0.6 0 0.06 0 0.18 0.6 K
4 3.47 Q
1 0.6 0 0.06 0 0.18 0.6 K
(n) 131.14 559.72 T
0 0 0 1 0 0 0 K
5 7.23 Q
0 0 0 1 0 0 0 K
(Sbrk allocators) 137.65 557.98 T
2 F
( ha) 195.05 557.98 T
(ve application-speci\336c semantics and use) 205.43 557.98 T
(the system call) 137.65 548.58 T
3 6.51 Q
(sbrk) 189.76 548.58 T
2 7.23 Q
( to allocate memory rather than using) 205.38 548.58 T
3 6.51 Q
(malloc) 137.65 539.18 T
2 7.23 Q
(. T) 160.95 539.18 T
(o preserve compatibility with library routines) 169.4 539.18 T
(,) 321.38 539.18 T
3 6.51 Q
(sbrk) 325.4 539.18 T
2 7.23 Q
-0.09 (allocators generally implement a) 137.65 529.78 P
3 6.51 Q
-0.18 (malloc) 248.99 529.78 P
2 7.23 Q
-0.09 ( interface in addition to) 272.42 529.78 P
(their application-speci\336c interface) 137.65 520.38 T
(.) 251.35 520.38 T
-0.16 (Y) 137.65 508.37 P
-0.16 (ou must make several c) 142.02 508.37 P
-0.16 (hanges to) 219.95 508.37 P
3 6.51 Q
-0.31 (sbrk) 253.78 508.37 P
2 7.23 Q
-0.16 ( allocators when you use) 269.4 508.37 P
(Purify) 137.65 498.97 T
(. See \322Modifying sbrk allocators\323 on page 9-7.) 157.77 498.97 T
0 0 0 1 0 0 0 K
400.5 264.7 765 707.3 C
0 0 0 1 0 0 0 K
0 5.06 Q
0 X
0 0 0 1 0 0 0 K
(Custom Memory Managers) 661.28 285.67 T
1 F
(9-3) 725.14 285.67 T
0 0 0 1 0 0 0 K
0 0 0 1 0 0 0 K
1 0.6 0 0.06 0 0.18 0.6 K
1 7.95 Q
1 0.6 0 0.06 0 0.18 0.6 K
(Modifying \336x) 439.55 649.93 T
(ed-siz) 488.54 649.93 T
(e allocator) 511.16 649.93 T
(s) 550.83 649.93 T
0 0 0 1 0 0 0 K
2 7.23 Q
0 0 0 1 0 0 0 K
(Suppose you ha) 511.15 635.8 T
(ve a special purpose allocator for cells) 563.32 635.8 T
(, called) 689.17 635.8 T
3 6.51 Q
(AllocateCell) 511.15 626.4 T
2 7.23 Q
(, that \336rst searc) 558.02 626.4 T
(hes its own free list and then, if) 611.27 626.4 T
(needed, calls) 511.15 617 T
3 6.51 Q
(malloc) 555.89 617 T
2 7.23 Q
( to allocate an additional bloc) 579.32 617 T
(k to hold one) 677.2 617 T
(hundred cells) 511.15 607.59 T
(.) 556.1 607.59 T
3 6.51 Q
(FreeCell) 560.12 607.59 T
2 7.23 Q
( puts the cell on its own free list.) 591.36 607.59 T
(Since this allocator exists solely for ef\336ciency) 511.15 592.99 T
(, the simplest w) 660.92 592.99 T
(a) 713.57 592.99 T
(y to) 717.52 592.99 T
(modify it for use with Purify is to override the ef\336ciency measure) 511.15 583.59 T
(by turning) 511.15 574.18 T
3 6.51 Q
(AllocateCell) 548.52 574.18 T
2 7.23 Q
( and) 595.38 574.18 T
3 6.51 Q
(FreeCell) 612 574.18 T
2 7.23 Q
( into the) 643.24 574.18 T
3 6.51 Q
(malloc) 673.24 574.18 T
2 7.23 Q
( veneer) 696.68 574.18 T
(category) 511.15 564.78 T
(. Y) 538.5 564.78 T
(ou can do this by conditionally compiling the allocation) 546.89 564.78 T
(code depending on whether or not the program is Purify\325) 511.15 555.38 T
(d.) 699.19 555.38 T
3 5.79 Q
(struct Cell *AllocateCell\050\051 {) 511.15 541.73 T
(#ifdef PURIFY) 511.15 533.78 T
(    return \050struct Cell *\051malloc\050sizeof\050struct Cell\051\051;) 511.15 525.83 T
(#else) 511.15 517.87 T
(    ... original code for AllocateCell ...) 511.15 509.91 T
(#endif /* PURIFY */) 511.15 501.96 T
(}) 511.15 494 T
(void FreeCell\050struct Cell* c\051 {) 511.15 486.05 T
(#ifdef PURIFY) 511.15 478.09 T
(free\050\050char*\051c\051;) 530.68 470.14 T
(#else) 511.15 462.18 T
(    ... original code for FreeCell ...) 511.15 454.23 T
(#endif /* PURIFY */) 511.15 446.27 T
(}) 511.15 438.32 T
0 0 0 1 0 0 0 K
FMENDPAGE
%%EndPage: "mini" 2
%%Page: "mini" 3
612 792 1 FMBEGINPAGE
[0 0 0 1 0 0 0]
[ 0 1 1 0 1 0 0]
[ 1 0 1 0 0 1 0]
[ 1 1 0 0 0 0 1]
[ 1 0 0 0 0 1 1]
[ 0 1 0 0 1 0 1]
[ 0 0 1 0 1 1 0]
[ 1 0.6 0 0.06 0 0.18 0.6]
 8 FrameSetSepColors
FrameNoSep
27 264.7 391.5 707.3 C
0 0 0 1 0 0 0 K
1 5.06 Q
0 X
0 0 0 1 0 0 0 K
(9-4) 59.55 285.67 T
0 F
(  Purify User\325s Guide) 66.86 285.67 T
0 0 0 1 0 0 0 K
0 0 0 1 0 0 0 K
1 0.6 0 0.06 0 0.18 0.6 K
1 7.95 Q
1 0.6 0 0.06 0 0.18 0.6 K
(Using purify_is_running instead of #ifdef) 59.55 649.93 T
0 0 0 1 0 0 0 K
2 7.23 Q
0 0 0 1 0 0 0 K
(Y) 131.14 635.8 T
(ou can use the compile-time \337ag) 135.51 635.8 T
3 6.51 Q
(#ifdef PURIFY) 244.94 635.8 T
2 7.23 Q
(; however) 295.17 635.8 T
(, it) 326.45 635.8 T
-0.05 (requires that you re-compile your program with the) 131.14 626.4 P
3 6.51 Q
-0.1 (-DPURIFY) 304.96 626.4 P
2 7.23 Q
-0.05 ( \337ag) 336.21 626.4 P
(set. A simpler solution is to use the) 131.14 617 T
3 6.51 Q
(purify_is_running) 250.62 617 T
2 7.23 Q
( function) 317.02 617 T
(to determine if the program is Purify\325) 131.14 607.59 T
(d. F) 255.7 607.59 T
(or example:) 268.3 607.59 T
3 5.79 Q
(struct Cell *AllocateCell\050\051 {) 131.14 593.95 T
(if \050purify_is_running\050\051\051 {) 145.03 585.99 T
(return \050struct Cell *\051malloc\050sizeof\050struct Cell\051\051;) 158.91 578.04 T
(} else {) 145.03 570.09 T
(... original code for AllocateCell ...) 158.91 562.13 T
(}) 145.03 554.17 T
(}) 131.14 546.22 T
2 7.23 Q
(T) 131.14 532.96 T
(o use) 135.57 532.96 T
3 6.51 Q
(purify_is_running) 154.59 532.96 T
2 7.23 Q
(, add the) 220.8 532.96 T
3 6.51 Q
(<purifyhome>/purify_stubs.a) 131.14 523.56 T
2 7.23 Q
( library to the end of your library) 236.59 523.56 T
(list for your link line) 131.14 514.16 T
(. This provides a de\336nition of the) 199.99 514.16 T
3 6.51 Q
(purify_is_running) 131.14 504.76 T
2 7.23 Q
( function that returns) 197.53 504.76 T
3 6.51 Q
(FALSE) 272.26 504.76 T
2 7.23 Q
( when you do not) 291.79 504.76 T
(use Purify) 131.14 495.35 T
(. When you use Purify) 164.66 495.35 T
(, the stubs \336le is ignored.) 237.68 495.35 T
1 0.6 0 0.06 0 0.18 0.6 K
1 F
1 0.6 0 0.06 0 0.18 0.6 K
(Note:) 131.14 480.74 T
0 0 0 1 0 0 0 K
2 F
0 0 0 1 0 0 0 K
(The) 154.58 480.74 T
3 6.51 Q
(purify_is_running) 169.45 480.74 T
2 7.23 Q
( function is useful for purposes) 235.84 480.74 T
(other than modifying custom memory managers) 131.14 471.34 T
(. See) 291.68 471.34 T
(\322Miscellaneous API\323 on page 12-33.) 131.14 461.94 T
(If you are using) 131.14 447.33 T
2 6.51 Q
( ANSI C) 183.64 447.33 T
(, C++) 208.47 447.33 T
2 7.23 Q
(, or a compiler that requires function) 224.68 447.33 T
-0.32 (prototypes) 131.14 437.93 P
-0.32 (, inc) 166.18 437.93 P
-0.32 (lude the) 179.74 437.93 P
3 6.51 Q
-0.62 (<purifyhome>/purify.h) 208.43 437.93 P
2 7.23 Q
-0.32 ( \336le in your source) 290.44 437.93 P
(code in order to dec) 131.14 428.53 T
(lare the) 195.64 428.53 T
3 6.51 Q
(purify_is_running) 223.63 428.53 T
2 7.23 Q
( function. The) 290.02 428.53 T
(run-time cost of calling) 131.14 419.13 T
3 6.51 Q
(purify_is_running) 210.16 419.13 T
2 7.23 Q
( is negligible) 276.55 419.13 T
(.) 318.62 419.13 T
1 0.6 0 0.06 0 0.18 0.6 K
1 F
1 0.6 0 0.06 0 0.18 0.6 K
(Note:) 131.14 404.52 T
0 0 0 1 0 0 0 K
2 F
0 0 0 1 0 0 0 K
(Purify inc) 154.58 404.52 T
(ludes the source code for) 187.47 404.52 T
3 6.51 Q
(purify_stubs.a) 271.43 404.52 T
2 7.23 Q
(\050) 131.14 395.12 T
3 6.51 Q
(pure_stubs.c) 133.55 395.12 T
2 7.23 Q
( and) 180.42 395.12 T
3 6.51 Q
(purify.h) 197.03 395.12 T
2 7.23 Q
(\051 without copyright. Y) 228.27 395.12 T
(ou can inc) 300.54 395.12 T
(lude) 334.1 395.12 T
(it in the libraries you ship to customers) 131.14 385.72 T
(, or compile it on other) 262.49 385.72 T
(platforms) 131.14 376.31 T
(. This allows you to inc) 163.24 376.31 T
(lude calls to Purify) 239.54 376.31 T
2 6.51 Q
(API) 304.64 376.31 T
2 7.23 Q
( functions) 316.33 376.31 T
-0.33 (throughout development and testing) 131.14 366.91 P
-0.33 (, without ha) 251.98 366.91 P
-0.33 (ving to re-compile) 291.7 366.91 P
(or c) 131.14 357.51 T
(hange your code for \336nal shipment.) 143.14 357.51 T
0 0 0 1 0 0 0 K
400.5 264.7 765 707.3 C
0 0 0 1 0 0 0 K
0 5.06 Q
0 X
0 0 0 1 0 0 0 K
(Custom Memory Managers) 661.28 285.67 T
1 F
(9-5) 725.14 285.67 T
0 0 0 1 0 0 0 K
0 0 0 1 0 0 0 K
1 0.6 0 0.06 0 0.18 0.6 K
1 7.95 Q
1 0.6 0 0.06 0 0.18 0.6 K
(Modifying pool allocator) 439.55 649.93 T
(s) 531.38 649.93 T
0 0 0 1 0 0 0 K
2 7.23 Q
0 0 0 1 0 0 0 K
(Simple pool allocators allow an application to specify a location) 511.15 635.8 T
(identi\336er when allocating memory) 511.15 626.4 T
(. More sophisticated pool) 625.17 626.4 T
(allocators also support pool-level operations suc) 511.15 617 T
(h as freeing or) 670.35 617 T
(printing an entire pool with one function call.) 511.15 607.59 T
(If you are using a simple pool allocator) 511.15 592.99 T
(, you can defeat the pool) 639.82 592.99 T
(allocator when the program is Purify\325) 511.15 583.59 T
(d in the same manner) 635.58 583.59 T
(described for \336xed-size allocators) 511.15 574.18 T
(. See \322Modifying \336xed-size) 621.46 574.18 T
(allocators\323 on page 9-3.) 511.15 564.78 T
(If you are using a sophisticated pool allocator) 511.15 550.17 T
(, you can take) 661.78 550.17 T
(advantage of Purify\325) 511.15 540.77 T
(s pool support to implement the pool-level) 578.35 540.77 T
(operations suc) 511.15 531.37 T
(h as freeing a pool. Purify can handle eac) 559.18 531.37 T
(h) 696.55 531.37 T
(allocation request by calling) 511.15 521.97 T
3 6.51 Q
(malloc) 607.06 521.97 T
2 7.23 Q
(, and also labeling the) 630.37 521.97 T
(returned bloc) 511.15 512.57 T
(k with the correct pool-id. P) 555.7 512.57 T
(ool-level operations can) 647.98 512.57 T
-0.31 (then be performed later by mapping a function over all bloc) 511.15 503.16 P
-0.31 (ks with) 706.27 503.16 P
(a given pool-id.) 511.15 493.76 T
-0.29 (As with \336xed-size allocators) 511.15 479.15 P
-0.29 (, you can use a run-time \337ag instead of) 603.44 479.15 P
(a compile-time \337ag) 511.15 469.75 T
(. See \322Using purify_is_running instead of) 574.46 469.75 T
(#ifdef) 511.15 460.35 T
(\323 on page 9-4, for details) 530.76 460.35 T
(.) 611.35 460.35 T
(Purify\325) 511.15 445.74 T
(s pool interface functions assume that pool-id is a 32-bit) 533.47 445.74 T
(sized datum. F) 511.15 436.34 T
(or a complete list of functions for pool allocation,) 560.32 436.34 T
(see \322P) 511.15 426.94 T
(ool allocation API\323 on page 12-23.) 531.11 426.94 T
3 5.79 Q
(PoolId AllocatePool\050\051 {) 511.15 413.29 T
(if \050purify_is_running\050\051\051 {) 525.04 405.34 T
(static PoolId pool_counter = 0;) 530.68 397.38 T
(/* return unique id, but allocate no mem */) 530.68 389.43 T
(return pool_counter++;) 530.68 381.47 T
(} else {) 525.04 373.52 T
(... original code for AllocatePool\050\051 ...) 530.68 365.56 T
(    }) 511.15 357.61 T
(}) 511.15 349.65 T
0 0 0 1 0 0 0 K
FMENDPAGE
%%EndPage: "mini" 3
%%Page: "mini" 4
612 792 1 FMBEGINPAGE
[0 0 0 1 0 0 0]
[ 0 1 1 0 1 0 0]
[ 1 0 1 0 0 1 0]
[ 1 1 0 0 0 0 1]
[ 1 0 0 0 0 1 1]
[ 0 1 0 0 1 0 1]
[ 0 0 1 0 1 1 0]
[ 1 0.6 0 0.06 0 0.18 0.6]
 8 FrameSetSepColors
FrameNoSep
27 264.7 391.5 707.3 C
0 0 0 1 0 0 0 K
1 5.06 Q
0 X
0 0 0 1 0 0 0 K
(9-6) 59.55 285.67 T
0 F
(  Purify User\325s Guide) 66.86 285.67 T
0 0 0 1 0 0 0 K
0 0 0 1 0 0 0 K
3 5.79 Q
(char* AllocateFromPool\050PoolId id, int size\051 {) 131.14 651.37 T
(if \050purify_is_running\050\051\051 {) 145.03 643.42 T
(char* ret = malloc\050size\051;) 150.67 635.46 T
(purify_set_pool_id\050ret, id\051;) 150.67 627.51 T
(return ret;) 150.67 619.55 T
(} else {) 145.03 611.6 T
(... original code for AllocateFromPool ...) 150.67 603.64 T
(    }) 131.14 595.69 T
(}) 131.14 587.73 T
(void FreeToPool\050char* mem\051) 131.14 571.82 T
({) 224.87 571.82 T
(if \050purify_is_running\050\051\051 {) 145.03 563.86 T
(free\050mem\051; /* this clears the pool id */) 150.67 555.91 T
(} else {) 145.03 547.96 T
(... original code for FreeToPool ...) 150.67 540 T
(    }) 131.14 532.04 T
(}) 131.14 524.09 T
(void FreeEntirePool\050PoolId id\051 {) 131.14 508.18 T
(if \050purify_is_running\050\051\051 {) 145.03 500.22 T
(/* call \325free\325 on each block in this pool */) 150.67 492.27 T
(purify_map_pool\050id, free\051;) 150.67 484.31 T
(} else {) 145.03 476.36 T
(... original code for FreeEntirePool ...) 150.67 468.4 T
(    }) 131.14 460.45 T
(}) 131.14 452.49 T
(void PrintPool\050PoolId id\051 {) 131.14 436.58 T
(if \050purify_is_running\050\051\051 {) 145.03 428.63 T
(/* PrintBlock operates on a single block */) 150.67 420.67 T
(/* call PrintBlock on every block in this pool */) 150.67 412.72 T
(purify_map_pool\050id, PrintBlock\051;) 150.67 404.76 T
(} else {) 145.03 396.8 T
(... original code for PrintPool ...) 155.44 388.85 T
(    }) 131.14 380.89 T
(}) 131.14 372.94 T
0 0 0 1 0 0 0 K
400.5 264.7 765 707.3 C
0 0 0 1 0 0 0 K
0 5.06 Q
0 X
0 0 0 1 0 0 0 K
(Custom Memory Managers) 661.28 285.67 T
1 F
(9-7) 725.14 285.67 T
0 0 0 1 0 0 0 K
0 0 0 1 0 0 0 K
1 0.6 0 0.06 0 0.18 0.6 K
1 7.95 Q
1 0.6 0 0.06 0 0.18 0.6 K
(Modifying sbrk allocator) 439.55 649.93 T
(s) 531.38 649.93 T
0 0 0 1 0 0 0 K
2 7.23 Q
0 0 0 1 0 0 0 K
(Custom allocators are written to obtain their memory directly) 511.15 635.8 T
(from the operating system using) 511.15 626.4 T
3 6.51 Q
(brk) 621.51 626.4 T
2 7.23 Q
(,) 633.23 626.4 T
3 6.51 Q
(sbrk) 637.25 626.4 T
2 7.23 Q
(,) 652.87 626.4 T
3 6.51 Q
(mmap) 656.89 626.4 T
2 7.23 Q
(, or some other) 672.38 626.4 T
-0.07 (method. Usually suc) 511.15 617 P
-0.07 (h allocators also supply a de\336nition of) 579.13 617 P
3 6.51 Q
-0.14 (malloc) 707.08 617 P
2 7.23 Q
-0.27 (and) 511.15 607.59 P
3 6.51 Q
-0.52 (free) 525.49 607.59 P
2 7.23 Q
-0.27 ( because many) 541.11 607.59 P
3 6.51 Q
-0.52 (libc) 591.34 607.59 P
2 7.23 Q
-0.27 ( functions call) 606.96 607.59 P
3 6.51 Q
-0.52 (malloc) 654.91 607.59 P
2 7.23 Q
-0.27 ( and the default) 678.34 607.59 P
3 6.51 Q
(malloc) 511.15 598.19 T
2 7.23 Q
( does not work when other functions are calling) 534.58 598.19 T
3 6.51 Q
(sbrk) 694.9 598.19 T
2 7.23 Q
(.) 710.53 598.19 T
(T) 511.15 583.59 T
(o use Purify with) 515.58 583.59 T
3 6.51 Q
(sbrk) 574.78 583.59 T
2 7.23 Q
( allocators) 590.4 583.59 T
(, you need to write an alternate) 624.65 583.59 T
(implementation of your allocator calling) 511.15 574.18 T
3 6.51 Q
(malloc) 646.97 574.18 T
2 7.23 Q
( instead of) 670.4 574.18 T
3 6.51 Q
(sbrk) 707.1 574.18 T
2 7.23 Q
(.) 722.73 574.18 T
(F) 511.15 564.78 T
(or example) 515.58 564.78 T
(, if you ha) 552.28 564.78 T
(ve an external function) 585.3 564.78 T
3 6.51 Q
(GetPages) 664.72 564.78 T
2 7.23 Q
( that calls) 695.96 564.78 T
3 6.51 Q
(sbrk) 511.15 555.38 T
2 7.23 Q
(, and your own) 526.77 555.38 T
3 6.51 Q
(malloc) 578.21 555.38 T
2 7.23 Q
( implementation on top of) 601.64 555.38 T
3 6.51 Q
(GetPages) 689.51 555.38 T
2 7.23 Q
(,) 720.57 555.38 T
(you could use:) 511.15 545.98 T
3 5.79 Q
(char* GetPages\050int n\051 {) 511.15 532.33 T
(if \050purify_is_running\050\051\051 {) 525.04 524.38 T
(return malloc\050n * PAGSIZ\051;) 530.68 516.42 T
(} else {) 525.04 508.47 T
(return sbrk\050n * PAGSIZ\051; /* original code */) 530.68 500.51 T
(    }) 511.15 492.56 T
(}) 511.15 484.6 T
-0.1 (/* for Purify, don\325t) 511.15 468.69 P
-0.1 (define) 583.76 468.69 P
-0.1 (malloc, free: use default from libc) 608.06 468.69 P
(*/) 511.15 460.74 T
(#ifndef PURIFY     /* original case */) 511.15 452.78 T
(char* malloc\050int n\051 {) 511.15 444.83 T
(    ... original code for malloc on top of GetPages ...) 511.15 436.87 T
(}) 511.15 428.92 T
(void free\050char* x\051 {) 511.15 420.96 T
(    ...) 511.15 413.01 T
(}) 511.15 405.05 T
(#endif /* PURIFY */) 511.15 397.09 T
0 0 0 1 0 0 0 K
FMENDPAGE
%%EndPage: "mini" 4
%%Page: "mini" 5
612 792 1 FMBEGINPAGE
[0 0 0 1 0 0 0]
[ 0 1 1 0 1 0 0]
[ 1 0 1 0 0 1 0]
[ 1 1 0 0 0 0 1]
[ 1 0 0 0 0 1 1]
[ 0 1 0 0 1 0 1]
[ 0 0 1 0 1 1 0]
[ 1 0.6 0 0.06 0 0.18 0.6]
 8 FrameSetSepColors
FrameNoSep
27 264.7 391.5 707.3 C
0 0 0 1 0 0 0 K
1 5.06 Q
0 X
0 0 0 1 0 0 0 K
(9-8) 59.55 285.67 T
0 F
(  Purify User\325s Guide) 66.86 285.67 T
0 0 0 1 0 0 0 K
0 0 0 1 0 0 0 K
1 0.6 0 0.06 0 0.18 0.6 K
1 7.95 Q
1 0.6 0 0.06 0 0.18 0.6 K
(Accessing auxiliar) 59.55 649.93 T
(y data) 129.49 649.93 T
0 0 0 1 0 0 0 K
2 7.23 Q
0 0 0 1 0 0 0 K
(Special purpose custom memory allocation facilities can store) 131.14 635.8 T
(additional data with the allocated memory) 131.14 626.4 T
(. This data might) 272.5 626.4 T
(inc) 131.14 617 T
(lude allocation time statistics or pointers to c) 141 617 T
(lean up functions) 291.37 617 T
(to be called when the memory is freed. Often this is accomplished) 131.14 607.59 T
-0.3 (by allocating a few extra bytes of memory at the start of eac) 131.14 598.19 P
-0.3 (h bloc) 327.24 598.19 P
-0.3 (k) 346.44 598.19 P
(to store these values) 131.14 588.79 T
(, and returning a pointer to the memory past) 199.41 588.79 T
(these values) 131.14 579.39 T
(.) 172.35 579.39 T
-0.18 (Purify allows you to associate user data with every allocated bloc) 131.14 564.78 P
-0.18 (k) 346.32 564.78 P
(of memory by using the functions) 131.14 555.38 T
3 6.51 Q
(purify_set_user_data) 244.45 555.38 T
2 7.23 Q
( and) 322.55 555.38 T
3 6.51 Q
(purify_get_user_data) 131.14 545.98 T
2 7.23 Q
(.) 209.25 545.98 T
1 0.6 0 0.06 0 0.18 0.6 K
1 7.95 Q
1 0.6 0 0.06 0 0.18 0.6 K
(A) 131.14 525.68 T
(uxiliar) 136.65 525.68 T
(y data e) 160.16 525.68 T
(xample) 189.67 525.68 T
0 0 0 1 0 0 0 K
2 7.23 Q
0 0 0 1 0 0 0 K
(Extending the pool allocator example described on page) 131.14 511.55 T
(9-5,) 318.79 511.55 T
-0.32 (assume that the function) 131.14 502.15 P
3 6.51 Q
-0.62 (AllocateFromPool) 215.6 502.15 P
2 7.23 Q
-0.32 ( stores the pool-id and) 278.08 502.15 P
-0.24 (the bloc) 131.14 492.75 P
-0.24 (k size with eac) 156.84 492.75 P
-0.24 (h bloc) 205.08 492.75 P
-0.24 (k allocated. W) 224.34 492.75 P
-0.24 (ithout Purify) 271.15 492.75 P
-0.24 (, you might) 313.39 492.75 P
(use the two words immediately preceding the bloc) 131.14 483.35 T
(k returned to) 297.71 483.35 T
(the user for these values) 131.14 473.95 T
(.) 213.06 473.95 T
3 5.79 Q
(char* AllocateFromPool\050int pool_id, int size\051 {) 131.14 460.3 T
(char *mem = ... get size+8 bytes ..) 148.5 452.35 T
(/* Store the pool_id and size. */) 148.5 444.39 T
(  *\050\050int*\051mem + 0\051 = pool_id;) 145.03 436.44 T
(*\050\050int*\051mem + 1\051 = size;) 151.97 428.48 T
(/* Return the rest of the chunk to the user. */) 148.5 420.53 T
(return \050char*\051\050\050int*\051mem + 2\051;) 148.5 412.57 T
(}) 131.14 404.62 T
(int BlockSize\050char* mem\051 {) 131.14 388.7 T
(     return *\050\050int*\051mem - 1\051;) 131.14 380.75 T
(}) 131.14 364.84 T
0 0 0 1 0 0 0 K
400.5 264.7 765 707.3 C
0 0 0 1 0 0 0 K
0 5.06 Q
0 X
0 0 0 1 0 0 0 K
(Custom Memory Managers) 661.28 285.67 T
1 F
(9-9) 725.14 285.67 T
0 0 0 1 0 0 0 K
0 0 0 1 0 0 0 K
2 7.23 Q
(W) 511.15 650.41 T
(ith Purify) 518.12 650.41 T
(, you can implement this by using:) 549.76 650.41 T
3 5.79 Q
(#ifdef PURIFY) 511.15 636.76 T
(char* AllocateFromPool\050int pool_id, int size\051 {) 511.15 628.81 T
(    char *mem = malloc\050size\051;) 511.15 620.85 T
(    purify_set_pool_id\050mem, pool_id\051;) 511.15 612.9 T
(    purify_set_user_data\050mem, size\051;) 511.15 604.94 T
(    return mem;) 511.15 596.99 T
(}) 511.15 589.03 T
(int BlockSize\050char* mem\051 {) 511.15 573.12 T
(    return purify_get_user_data\050mem\051;) 511.15 565.17 T
(}) 511.15 557.21 T
(#endif /* PURIFY */) 511.15 549.26 T
2 7.23 Q
(Y) 511.15 526.6 T
(ou can also use the user data \336eld to associate a string name to) 515.52 526.6 T
(the memory for debugging purposes:) 511.15 517.2 T
3 5.79 Q
(char* Malloc\050int size, char* debug_name\051) 511.15 503.55 T
(    char* mem = malloc\050size\051;) 511.15 495.6 T
(    purify_set_pool_id\050mem, 0\051;) 511.15 487.64 T
(    purify_set_user_data\050mem, debug_name\051;) 511.15 479.68 T
(    return mem;) 511.15 471.73 T
(}) 511.15 463.77 T
(void PrintBlock\050char* mem\051 {) 511.15 447.86 T
(    char* debug_name = purify_get_user_data\050mem\051;) 511.15 439.91 T
(    printf\050"%s\134n", debug_name\051;) 511.15 431.95 T
(    purify_describe\050mem\051;) 511.15 424 T
(}) 511.15 416.04 T
1 0.6 0 0.06 0 0.18 0.6 K
1 7.23 Q
1 0.6 0 0.06 0 0.18 0.6 K
(Note:) 511.15 394.83 T
0 0 0 1 0 0 0 K
2 F
0 0 0 1 0 0 0 K
(Auxiliary data can only be associated with memory in a) 534.59 394.83 T
(pool. If necessary) 511.15 385.43 T
(, you can assign a dummy pool-id of 0 in order to) 567.97 385.43 T
(establish a storage area for the auxiliary data.) 511.15 376.02 T
-0.24 (See also) 511.15 361.42 P
-0.24 (, the) 537.84 361.42 P
3 6.51 Q
-0.47 (-pointer-offset) 554.23 361.42 P
2 7.23 Q
-0.24 ( option in \322Memory leak options\323 on) 612.81 361.42 P
(page 12-16.) 511.15 352.02 T
0 0 0 1 0 0 0 K
FMENDPAGE
%%EndPage: "mini" 5
%%Page: "mini" 6
612 792 1 FMBEGINPAGE
[0 0 0 1 0 0 0]
[ 0 1 1 0 1 0 0]
[ 1 0 1 0 0 1 0]
[ 1 1 0 0 0 0 1]
[ 1 0 0 0 0 1 1]
[ 0 1 0 0 1 0 1]
[ 0 0 1 0 1 1 0]
[ 1 0.6 0 0.06 0 0.18 0.6]
 8 FrameSetSepColors
FrameNoSep
27 264.7 391.5 707.3 C
0 0 0 1 0 0 0 K
1 5.06 Q
0 X
0 0 0 1 0 0 0 K
(9-10) 59.55 285.67 T
0 F
(  Purify User\325s Guide) 69.68 285.67 T
0 0 0 1 0 0 0 K
0 0 0 1 0 0 0 K
0 0 0 1 0 0 0 K
FMENDPAGE
%%EndPage: "mini" 6
%%Trailer
%%BoundingBox: 0 0 612 792
%%PageOrder: Ascend
%%Pages: 6
%%DocumentFonts: Helvetica
%%+ Helvetica-Bold
%%+ NewCenturySchlbk-Roman
%%+ Courier
%%+ ZapfDingbats
%%+ NewCenturySchlbk-Bold
%%EOF
