%!PS-Adobe-3.0
%%BoundingBox: (atend)
%%Pages: (atend)
%%PageOrder: (atend)
%%DocumentFonts: (atend)
%%Creator: Frame 4.0
%%DocumentData: Clean7Bit
%%EndComments
%%BeginProlog
%
% Frame ps_prolog 5.0, for use with Frame 5.0 products
% This ps_prolog file is Copyright (c) 1986-1995 Frame Technology
% Corporation.  All rights reserved.  This ps_prolog file may be
% freely copied and distributed in conjunction with documents created
% using FrameMaker, FrameMaker/SGML and FrameViewer as long as this 
% copyright notice is preserved.
%
% FrameMaker users specify the proper paper size for each print job in the
% "Print" dialog's "Printer Paper Size" "Width" and "Height~ fields.  If the
% printer that the PS file is sent to does not support the requested paper
% size, or if there is no paper tray of the proper size currently installed, 
% then the job will not be printed.  The following flag, if set to true, will
% cause the job to print on the default paper in such cases.
/FMAllowPaperSizeMismatch            true def
%
% Frame products normally print colors as their true color on a color printer
% or as shades of gray, based on luminance, on a black-and white printer. The
% following flag, if set to true, forces all non-white colors to print as pure
% black. This has no effect on bitmap images.
/FMPrintAllColorsAsBlack             false def
%
% Frame products can either set their own line screens or use a printer's 
% default settings. Three flags below control this separately for no 
% separations, spot separations and process separations. If a flag
% is true, then the default printer settings will not be changed. If it is
% false, Frame products will use their own settings from a table based on
% the printer's resolution.
/FMUseDefaultNoSeparationScreen      true  def
/FMUseDefaultSpotSeparationScreen    true  def
/FMUseDefaultProcessSeparationScreen false def
%
% For any given PostScript printer resolution, Frame products have two sets of 
% screen angles and frequencies for printing process separations, which are 
% recomended by Adobe. The following variable chooses the higher frequencies
% when set to true or the lower frequencies when set to false. This is only
% effective if the appropriate FMUseDefault...SeparationScreen flag is false.
/FMUseHighFrequencyScreens true def
%
% The following is a set of predefined optimal frequencies and angles for various
% common dpi settings. This is taken from "Advances in Color Separation Using
% PostScript Software Technology," from Adobe Systems (3/13/89 P.N. LPS 0043)
% and corrolated with information which is in various PPD (4.0) files.
%
% The "dpiranges" figure is the minimum dots per inch device resolution which
% can support this setting. The "low" and "high" values are controlled by the
% setting of the FMUseHighFrequencyScreens flag above. The "TDot" flags control
% the use of the "Yellow Triple Dot" feature whereby the frequency id divided by
% three, but the dot function is "trippled" giving a block of 3x3 dots per cell.
%
% PatFreq is a compromise pattern frequency for ps Level 2 printers which is close
% to the ideal WYSIWYG pattern frequency of 9 repetitions/inch but does not beat
% (too badly) against the screen frequencies of any separations for that DPI.
/dpiranges   [  2540    2400    1693     1270    1200     635      600      0      ] def
/CMLowFreqs  [ 100.402  94.8683 89.2289 100.402  94.8683  66.9349  63.2456 47.4342 ] def
/YLowFreqs   [  95.25   90.0    84.65    95.25   90.0     70.5556  66.6667 50.0    ] def
/KLowFreqs   [  89.8026 84.8528 79.8088  89.8026 84.8528  74.8355  70.7107 53.033  ] def
/CLowAngles  [  71.5651 71.5651 71.5651 71.5651  71.5651  71.5651  71.5651 71.5651 ] def
/MLowAngles  [  18.4349 18.4349 18.4349 18.4349  18.4349  18.4349  18.4349 18.4349 ] def
/YLowTDot    [  true    true    false    true    true     false    false   false   ] def
/CMHighFreqs [ 133.87  126.491 133.843  108.503 102.523  100.402   94.8683 63.2456 ] def
/YHighFreqs  [ 127.0   120.0   126.975  115.455 109.091   95.25    90.0    60.0    ] def
/KHighFreqs  [ 119.737 113.137 119.713  128.289 121.218   89.8026  84.8528 63.6395 ] def
/CHighAngles [  71.5651 71.5651 71.5651  70.0169 70.0169  71.5651  71.5651 71.5651 ] def
/MHighAngles [  18.4349 18.4349 18.4349  19.9831 19.9831  18.4349  18.4349 18.4349 ] def
/YHighTDot   [  false   false   true     false   false    true     true    false   ] def
/PatFreq     [	10.5833 10.0     9.4055  10.5833 10.0	  10.5833  10.0	   9.375   ] def
%
% PostScript Level 2 printers contain an "Accurate Screens" feature which can
% improve process separation rendering at the expense of compute time. This 
% flag is ignored by PostScript Level 1 printers.
/FMUseAcccurateScreens true def
%
% The following PostScript procedure defines the spot function that Frame
% products will use for process separations. You may un-comment-out one of
% the alternative functions below, or use your own.
%
% Dot function
/FMSpotFunction {abs exch abs 2 copy add 1 gt 
		{1 sub dup mul exch 1 sub dup mul add 1 sub }
		{dup mul exch dup mul add 1 exch sub }ifelse } def
%
% Line function
% /FMSpotFunction { pop } def
%
% Elipse function
% /FMSpotFunction { dup 5 mul 8 div mul exch dup mul exch add 
%		sqrt 1 exch sub } def
%
%
/FMversion (5.0) def 
/fMLevel1 /languagelevel where {pop languagelevel} {1} ifelse 2 lt def
/FMPColor
	fMLevel1 {
		false
		/colorimage where {pop pop true} if
	} {
		true
	} ifelse
def
/FrameDict 400 dict def 
systemdict /errordict known not {/errordict 10 dict def
		errordict /rangecheck {stop} put} if
% The readline in PS 23.0 doesn't recognize cr's as nl's on AppleTalk
FrameDict /tmprangecheck errordict /rangecheck get put 
errordict /rangecheck {FrameDict /bug true put} put 
FrameDict /bug false put 
mark 
% Some PS machines read past the CR, so keep the following 3 lines together!
currentfile 5 string readline
00
0000000000
cleartomark 
errordict /rangecheck FrameDict /tmprangecheck get put 
FrameDict /bug get { 
	/readline {
		/gstring exch def
		/gfile exch def
		/gindex 0 def
		{
			gfile read pop 
			dup 10 eq {exit} if 
			dup 13 eq {exit} if 
			gstring exch gindex exch put 
			/gindex gindex 1 add def 
		} loop
		pop 
		gstring 0 gindex getinterval true 
		} bind def
	} if
/FMshowpage /showpage load def
/FMquit /quit load def
/FMFAILURE { 
	dup = flush 
	FMshowpage 
	/Helvetica findfont 12 scalefont setfont
	72 200 moveto show
	72 220 moveto show
	FMshowpage 
	FMquit 
	} def 
/FMVERSION {
	FMversion ne {
		(Frame product version does not match ps_prolog!  Check installation;)
		(also check ~/fminit and ./fminit for old versions) FMFAILURE
		} if
	} def 
/FMBADEPSF { 
	(Adobe's PostScript Language Reference Manual, 2nd Edition, section H.2.4)
	(says your EPS file is not valid, as it calls X              )
	dup dup (X) search pop exch pop exch pop length 
	5 -1 roll 
	putinterval 
	FMFAILURE
	} def
/fmConcatProcs
	{
	/proc2 exch cvlit def/proc1 exch cvlit def/newproc proc1 length proc2 length add array def
	newproc 0 proc1 putinterval newproc proc1 length proc2 putinterval newproc cvx
}def
FrameDict begin [
	/ALDsave
	/FMdicttop
	/FMoptop
	/FMpointsize
	/FMsaveobject
	/b
	/bitmapsave
	/blut
	/bpside
	/bs
	/bstring
	/bwidth
	/c
	/cf
	/cs
	/cynu
	/depth
	/edown
	/fh
	/fillvals
	/fw
	/fx
	/fy
	/g
	/gfile
	/gindex
	/grnt
	/gryt
	/gstring
	/height
	/hh
	/i
	/im
	/indx
	/is
	/k
	/kk
	/landscape
	/lb
	/len
	/llx
	/lly
	/m
	/magu
	/manualfeed
	/n
	/offbits
	/onbits
	/organgle
	/orgbangle
	/orgbfreq
	/orgbproc
	/orgbxfer
	/orgfreq
	/orggangle
	/orggfreq
	/orggproc
	/orggxfer
	/orgmatrix
	/orgproc
	/orgrangle
	/orgrfreq
	/orgrproc
	/orgrxfer
	/orgxfer
	/pagesave
	/paperheight
	/papersizedict
	/paperwidth
	/pos
	/pwid
	/r
	/rad
	/redt
	/sl
	/str
	/tran
	/u
	/urx
	/ury
	/val
	/width
	/width
	/ws
	/ww
	/x
	/x1
	/x2
	/xindex
	/xpoint
	/xscale
	/xx
	/y
	/y1
	/y2
	/yelu
	/yindex
	/ypoint
	/yscale
	/yy
] { 0 def } forall
/FmBD {bind def} bind def
systemdict /pdfmark known {
	/fMAcrobat true def
	
	/FmPD /pdfmark load def
	
	
	/FmPT /show load def
	
	
	currentdistillerparams /CoreDistVersion get 2000 ge {
	
		
		/FmPD2 /pdfmark load def
		
		
		
		
		
		/FmPA { mark exch /Dest exch 5 3 roll 
				/View [ /XYZ null 6 -2 roll FmDC exch pop null] /DEST FmPD 
		}FmBD
	} {
		
		/FmPD2 /cleartomark load def
		/FmPA {pop pop pop}FmBD
	} ifelse
} {
	
	/fMAcrobat false def
	/FmPD /cleartomark load def
	/FmPD2 /cleartomark load def
	/FmPT /pop load def
	/FmPA {pop pop pop}FmBD
} ifelse
/FmDC {
	transform fMDefaultMatrix itransform cvi exch cvi exch
}FmBD
/FmBx {
	dup 3 index lt {3 1 roll exch} if 
	1 index 4 index lt {4 -1 roll 3 1 roll exch 4 1 roll} if
}FmBD
/FMnone 0 def
/FMcyan 1 def
/FMmagenta 2 def
/FMyellow 3 def
/FMblack 4 def
/FMcustom 5 def
/fMNegative false def 
/FrameSepIs FMnone def 
/FrameSepBlack 0 def
/FrameSepYellow 0 def
/FrameSepMagenta 0 def
/FrameSepCyan 0 def
/FrameSepRed 1 def
/FrameSepGreen 1 def
/FrameSepBlue 1 def
/FrameCurGray 1 def
/FrameCurPat null def
/FrameCurColors [ 0 0 0 1 0 0 0 ] def 
/FrameColorEpsilon .001 def	
/eqepsilon {		
	sub dup 0 lt {neg} if
	FrameColorEpsilon le
} bind def
/FrameCmpColorsCMYK { 
	2 copy 0 get exch 0 get eqepsilon {
		2 copy 1 get exch 1 get eqepsilon {
			2 copy 2 get exch 2 get eqepsilon {
				3 get exch 3 get eqepsilon
			} {pop pop false} ifelse
		}{pop pop false} ifelse
	} {pop pop false} ifelse
} bind def
/FrameCmpColorsRGB { 
	2 copy 4 get exch 0 get eqepsilon {
		2 copy 5 get exch 1 get eqepsilon {
			6 get exch 2 get eqepsilon
		}{pop pop false} ifelse
	} {pop pop false} ifelse
} bind def
/RGBtoCMYK { 
	1 exch sub 
	3 1 roll 
	1 exch sub 
	3 1 roll 
	1 exch sub 
	3 1 roll 
	3 copy 
	2 copy 
	le { pop } { exch pop } ifelse 
	2 copy 
	le { pop } { exch pop } ifelse 
	dup dup dup 
	6 1 roll 
	4 1 roll 
	7 1 roll 
	sub 
	6 1 roll 
	sub 
	5 1 roll 
	sub 
	4 1 roll 
} bind def
/CMYKtoRGB { 
	dup dup 4 -1 roll add 						  
	5 1 roll 3 -1 roll add 						  
	4 1 roll add 								  
	1 exch sub dup 0 lt {pop 0} if 3 1 roll 	  
	1 exch sub dup 0 lt {pop 0} if exch 	      
	1 exch sub dup 0 lt {pop 0} if exch	  		  
} bind def
/FrameSepInit {
	1.0 RealSetgray
} bind def
/FrameSetSepColor { 
	/FrameSepBlue exch def
	/FrameSepGreen exch def
	/FrameSepRed exch def
	/FrameSepBlack exch def
	/FrameSepYellow exch def
	/FrameSepMagenta exch def
	/FrameSepCyan exch def
	/FrameSepIs FMcustom def
	setCurrentScreen	
} bind def
/FrameSetCyan {
	/FrameSepBlue 1.0 def
	/FrameSepGreen 1.0 def
	/FrameSepRed 0.0 def
	/FrameSepBlack 0.0 def
	/FrameSepYellow 0.0 def
	/FrameSepMagenta 0.0 def
	/FrameSepCyan 1.0 def
	/FrameSepIs FMcyan def
	setCurrentScreen	
} bind def
 
/FrameSetMagenta {
	/FrameSepBlue 1.0 def
	/FrameSepGreen 0.0 def
	/FrameSepRed 1.0 def
	/FrameSepBlack 0.0 def
	/FrameSepYellow 0.0 def
	/FrameSepMagenta 1.0 def
	/FrameSepCyan 0.0 def
	/FrameSepIs FMmagenta def
	setCurrentScreen
} bind def
 
/FrameSetYellow {
	/FrameSepBlue 0.0 def
	/FrameSepGreen 1.0 def
	/FrameSepRed 1.0 def
	/FrameSepBlack 0.0 def
	/FrameSepYellow 1.0 def
	/FrameSepMagenta 0.0 def
	/FrameSepCyan 0.0 def
	/FrameSepIs FMyellow def
	setCurrentScreen
} bind def
 
/FrameSetBlack {
	/FrameSepBlue 0.0 def
	/FrameSepGreen 0.0 def
	/FrameSepRed 0.0 def
	/FrameSepBlack 1.0 def
	/FrameSepYellow 0.0 def
	/FrameSepMagenta 0.0 def
	/FrameSepCyan 0.0 def
	/FrameSepIs FMblack def
	setCurrentScreen
} bind def
 
/FrameNoSep { 
	/FrameSepIs FMnone def
	setCurrentScreen
} bind def
/FrameSetSepColors { 
	FrameDict begin
	[ exch 1 add 1 roll ]
	/FrameSepColors  
	exch def end
	} bind def
/FrameColorInSepListCMYK { 
	FrameSepColors {  
       		exch dup 3 -1 roll 
       		FrameCmpColorsCMYK 
       		{ pop true exit } if
    	} forall 
	dup true ne {pop false} if
	} bind def
/FrameColorInSepListRGB { 
	FrameSepColors {  
       		exch dup 3 -1 roll 
       		FrameCmpColorsRGB 
       		{ pop true exit } if
    	} forall 
	dup true ne {pop false} if
	} bind def
/RealSetgray /setgray load def
/RealSetrgbcolor /setrgbcolor load def
/RealSethsbcolor /sethsbcolor load def
end 
/setgray { 
	FrameDict begin
	FrameSepIs FMnone eq
		{ RealSetgray } 
		{ 
		FrameSepIs FMblack eq 
			{ RealSetgray } 
			{ FrameSepIs FMcustom eq 
			  FrameSepRed 0 eq and
			  FrameSepGreen 0 eq and
			  FrameSepBlue 0 eq and {
			  	RealSetgray
			  } {
				1 RealSetgray pop 
			  } ifelse
			} ifelse
		} ifelse
	end
} bind def
/setrgbcolor { 
	FrameDict begin
	FrameSepIs FMnone eq
	{  RealSetrgbcolor }
	{
		3 copy [ 4 1 roll ] 
		FrameColorInSepListRGB
		{
				FrameSepBlue eq exch 
			 	FrameSepGreen eq and exch 
			 	FrameSepRed eq and
			 	{ 0 } { 1 } ifelse
		}
		{
			FMPColor {
				RealSetrgbcolor
				currentcmykcolor
			} {
				RGBtoCMYK
			} ifelse
			FrameSepIs FMblack eq
			{1.0 exch sub 4 1 roll pop pop pop} {
			FrameSepIs FMyellow eq
			{pop 1.0 exch sub 3 1 roll pop pop} {
			FrameSepIs FMmagenta eq
			{pop pop 1.0 exch sub exch pop } {
			FrameSepIs FMcyan eq
			{pop pop pop 1.0 exch sub } 
			{pop pop pop pop 1} ifelse } ifelse } ifelse } ifelse 
		} ifelse
		RealSetgray
	} 
	ifelse
	end
} bind def
/sethsbcolor {
	FrameDict begin
	FrameSepIs FMnone eq 
	{ RealSethsbcolor } 
	{
		RealSethsbcolor 
		currentrgbcolor  
		setrgbcolor 
	} 
	ifelse
	end
} bind def
FrameDict begin
/setcmykcolor where {
	pop /RealSetcmykcolor /setcmykcolor load def
} {
	/RealSetcmykcolor {
		4 1 roll
		3 { 3 index add 0 max 1 min 1 exch sub 3 1 roll} repeat 
		RealSetrgbcolor pop
	} bind def
} ifelse
userdict /setcmykcolor { 
		FrameDict begin
		FrameSepIs FMnone eq
		{ RealSetcmykcolor } 
		{
			4 copy [ 5 1 roll ]
			FrameColorInSepListCMYK
			{
				FrameSepBlack eq exch 
				FrameSepYellow eq and exch 
				FrameSepMagenta eq and exch 
				FrameSepCyan eq and 
				{ 0 } { 1 } ifelse
			}
			{
				FrameSepIs FMblack eq
				{1.0 exch sub 4 1 roll pop pop pop} {
				FrameSepIs FMyellow eq
				{pop 1.0 exch sub 3 1 roll pop pop} {
				FrameSepIs FMmagenta eq
				{pop pop 1.0 exch sub exch pop } {
				FrameSepIs FMcyan eq
				{pop pop pop 1.0 exch sub } 
				{pop pop pop pop 1} ifelse } ifelse } ifelse } ifelse 
			} ifelse
			RealSetgray
		}
		ifelse
		end
	} bind put
fMLevel1 { 
	
	
	
	/patScreenDict 7 dict dup begin
		<0f1e3c78f0e1c387> [ 45  { pop } {exch pop} 		.5   2 sqrt] FmBD
		<0f87c3e1f0783c1e> [ 135 { pop } {exch pop}			.5   2 sqrt] FmBD
		<cccccccccccccccc> [ 0   { pop } dup				.5   2	   ] FmBD
		<ffff0000ffff0000> [ 90  { pop } dup				.5   2	   ] FmBD
		<8142241818244281> [ 45  { 2 copy lt {exch} if pop}	dup .75  2 sqrt] FmBD
		<03060c183060c081> [ 45  { pop } {exch pop}			.875 2 sqrt] FmBD
		<8040201008040201> [ 135 { pop } {exch pop}			.875 2 sqrt] FmBD
	end def
} { 
	
	/patProcDict 5 dict dup begin
		<0f1e3c78f0e1c387> { 3 setlinewidth -1 -1 moveto 9 9 lineto stroke 
											4 -4 moveto 12 4 lineto stroke
											-4 4 moveto 4 12 lineto stroke} bind def
		<0f87c3e1f0783c1e> { 3 setlinewidth -1 9 moveto 9 -1 lineto stroke 
											-4 4 moveto 4 -4 lineto stroke
											4 12 moveto 12 4 lineto stroke} bind def
		<8142241818244281> { 1 setlinewidth -1 9 moveto 9 -1 lineto stroke
											-1 -1 moveto 9 9 lineto stroke } bind def
		<03060c183060c081> { 1 setlinewidth -1 -1 moveto 9 9 lineto stroke 
											4 -4 moveto 12 4 lineto stroke
											-4 4 moveto 4 12 lineto stroke} bind def
		<8040201008040201> { 1 setlinewidth -1 9 moveto 9 -1 lineto stroke 
											-4 4 moveto 4 -4 lineto stroke
											4 12 moveto 12 4 lineto stroke} bind def
	end def
	/patDict 15 dict dup begin
		/PatternType 1 def		
		/PaintType 2 def		
		/TilingType 3 def		
		/BBox [ 0 0 8 8 ] def 	
		/XStep 8 def			
		/YStep 8 def			
		/PaintProc {
			begin
			patProcDict bstring known {
				patProcDict bstring get exec
			} {
				8 8 true [1 0 0 -1 0 8] bstring imagemask
			} ifelse
			end
		} bind def
	end def
} ifelse
/combineColor {
    FrameSepIs FMnone eq
	{
		graymode fMLevel1 or not {
			
			[/Pattern [/DeviceCMYK]] setcolorspace
			FrameCurColors 0 4 getinterval aload pop FrameCurPat setcolor
		} {
			FrameCurColors 3 get 1.0 ge {
				FrameCurGray RealSetgray
			} {
				fMAcrobat not FMPColor graymode and and {
					0 1 3 { 
						FrameCurColors exch get
						1 FrameCurGray sub mul
					} for
					RealSetcmykcolor
				} {
					4 1 6 {
						FrameCurColors exch get
						graymode {
							1 exch sub 1 FrameCurGray sub mul 1 exch sub
						} {
							1.0 lt {FrameCurGray} {1} ifelse
						} ifelse
					} for
					RealSetrgbcolor
				} ifelse
			} ifelse
		} ifelse
	} { 
		FrameCurColors 0 4 getinterval aload
		FrameColorInSepListCMYK {
			FrameSepBlack eq exch 
			FrameSepYellow eq and exch 
			FrameSepMagenta eq and exch 
			FrameSepCyan eq and
			FrameSepIs FMcustom eq and
			{ FrameCurGray } { 1 } ifelse
		} {
			FrameSepIs FMblack eq
			{FrameCurGray 1.0 exch sub mul 1.0 exch sub 4 1 roll pop pop pop} {
			FrameSepIs FMyellow eq
			{pop FrameCurGray 1.0 exch sub mul 1.0 exch sub 3 1 roll pop pop} {
			FrameSepIs FMmagenta eq
			{pop pop FrameCurGray 1.0 exch sub mul 1.0 exch sub exch pop } {
			FrameSepIs FMcyan eq
			{pop pop pop FrameCurGray 1.0 exch sub mul 1.0 exch sub } 
			{pop pop pop pop 1} ifelse } ifelse } ifelse } ifelse 
		} ifelse
		graymode fMLevel1 or not {
			
			[/Pattern [/DeviceGray]] setcolorspace
			FrameCurPat setcolor
		} { 
			graymode not fMLevel1 and {
				
				dup 1 lt {pop FrameCurGray} if
			} if
			RealSetgray
		} ifelse
	} ifelse
} bind def
/savematrix {
	orgmatrix currentmatrix pop
	} bind def
/restorematrix {
	orgmatrix setmatrix
	} bind def
/fMDefaultMatrix matrix defaultmatrix def
/fMatrix2 matrix def
/dpi    72 0 fMDefaultMatrix dtransform
    dup mul exch   dup mul add   sqrt def
	
/freq dpi dup 72 div round dup 0 eq {pop 1} if 8 mul div def
/sangle 1 0 fMDefaultMatrix dtransform exch atan def
	sangle fMatrix2 rotate 
	fMDefaultMatrix fMatrix2 concatmatrix 
	dup 0 get /sflipx exch def
	    3 get /sflipy exch def
/screenIndex {
	0 1 dpiranges length 1 sub { dup dpiranges exch get 1 sub dpi le {exit} {pop} ifelse } for
} bind def
/getCyanScreen {
	FMUseHighFrequencyScreens { CHighAngles CMHighFreqs} {CLowAngles CMLowFreqs} ifelse
		screenIndex dup 3 1 roll get 3 1 roll get /FMSpotFunction load
} bind def
/getMagentaScreen {
	FMUseHighFrequencyScreens { MHighAngles CMHighFreqs } {MLowAngles CMLowFreqs} ifelse
		screenIndex dup 3 1 roll get 3 1 roll get /FMSpotFunction load
} bind def
/getYellowScreen {
	FMUseHighFrequencyScreens { YHighTDot YHighFreqs} { YLowTDot YLowFreqs } ifelse
		screenIndex dup 3 1 roll get 3 1 roll get { 3 div
			{2 { 1 add 2 div 3 mul dup floor sub 2 mul 1 sub exch} repeat
			FMSpotFunction } } {/FMSpotFunction load } ifelse
			0.0 exch
} bind def
/getBlackScreen  {
	FMUseHighFrequencyScreens { KHighFreqs } { KLowFreqs } ifelse
		screenIndex get 45.0 /FMSpotFunction load 
} bind def
/getSpotScreen {
	getBlackScreen
} bind def
/getCompositeScreen {
	getBlackScreen
} bind def
/FMSetScreen 
	fMLevel1 { /setscreen load 
	}{ {
		8 dict begin
		/HalftoneType 1 def
		/SpotFunction exch def
		/Angle exch def
		/Frequency exch def
		/AccurateScreens FMUseAcccurateScreens def
		currentdict end sethalftone
	} bind } ifelse
def
/setDefaultScreen {
	FMPColor {
		orgrxfer cvx orggxfer cvx orgbxfer cvx orgxfer cvx setcolortransfer
	}
	{
		orgxfer cvx settransfer
	} ifelse
	orgfreq organgle orgproc cvx setscreen
} bind def
/setCurrentScreen {
	FrameSepIs FMnone eq {
		FMUseDefaultNoSeparationScreen {
			setDefaultScreen
		} {
			getCompositeScreen FMSetScreen
		} ifelse
	} {
		FrameSepIs FMcustom eq {
			FMUseDefaultSpotSeparationScreen {
				setDefaultScreen
			} {
				getSpotScreen FMSetScreen
			} ifelse
		} {
			FMUseDefaultProcessSeparationScreen {
				setDefaultScreen
			} {
				FrameSepIs FMcyan eq {
					getCyanScreen FMSetScreen
				} {
					FrameSepIs FMmagenta eq {
						getMagentaScreen FMSetScreen
					} {
						FrameSepIs FMyellow eq {
							getYellowScreen FMSetScreen
						} {
							getBlackScreen FMSetScreen
						} ifelse
					} ifelse
				} ifelse
			} ifelse
		} ifelse
	} ifelse 
} bind def
end
	
/FMDOCUMENT { 
	array /FMfonts exch def 
	/#copies exch def
	FrameDict begin
	0 ne /manualfeed exch def
	/paperheight exch def
	/paperwidth exch def
	0 ne /fMNegative exch def 
	0 ne /edown exch def 
	/yscale exch def
	/xscale exch def
	fMLevel1 {
		manualfeed {setmanualfeed} if
		/FMdicttop countdictstack 1 add def 
		/FMoptop count def 
		setpapername 
		manualfeed {true} {papersize} ifelse 
		{manualpapersize} {false} ifelse 
		{desperatepapersize} {false} ifelse 
		{papersizefailure} if
		count -1 FMoptop {pop pop} for
		countdictstack -1 FMdicttop {pop end} for 
		}
		{2 dict
		 dup /PageSize [paperwidth paperheight] put
		 manualfeed {dup /ManualFeed manualfeed put} if
		 {setpagedevice} stopped {papersizefailure} if
		}
	ifelse 
	
	FMPColor {
		currentcolorscreen
			cvlit /orgproc exch def
				  /organgle exch def 
				  /orgfreq exch def
			cvlit /orgbproc exch def
				  /orgbangle exch def 
				  /orgbfreq exch def
			cvlit /orggproc exch def
				  /orggangle exch def 
				  /orggfreq exch def
			cvlit /orgrproc exch def
				  /orgrangle exch def 
				  /orgrfreq exch def
			currentcolortransfer 
			fMNegative {
				1 1 4 { 
					pop { 1 exch sub } fmConcatProcs 4 1 roll
				} for
				4 copy
				setcolortransfer
			} if
			cvlit /orgxfer exch def
			cvlit /orgbxfer exch def
			cvlit /orggxfer exch def
			cvlit /orgrxfer exch def
	} {
		currentscreen 
			cvlit /orgproc exch def
				  /organgle exch def 
				  /orgfreq exch def
				  
		currenttransfer 
		fMNegative {
			{ 1 exch sub } fmConcatProcs
			dup settransfer
		} if 
		cvlit /orgxfer exch def
	} ifelse
	end 
} def 
/FMBEGINPAGE { 
	FrameDict begin 
	/pagesave save def
	3.86 setmiterlimit
	/landscape exch 0 ne def
	landscape { 
		90 rotate 0 exch dup /pwid exch def neg translate pop 
	}{
		pop /pwid exch def
	} ifelse
	edown { [-1 0 0 1 pwid 0] concat } if
	0 0 moveto paperwidth 0 lineto paperwidth paperheight lineto 
	0 paperheight lineto 0 0 lineto 1 setgray fill
	xscale yscale scale
	/orgmatrix matrix def
	gsave 
} def 
/FMENDPAGE {
	grestore 
	pagesave restore
	end 
	showpage
	} def 
/FMFONTDEFINE { 
	FrameDict begin
	findfont 
	ReEncode 
	1 index exch 
	definefont 
	FMfonts 3 1 roll 
	put
	end 
	} def 
/FMFILLS {
	FrameDict begin dup
	array /fillvals exch def
	dict /patCache exch def
	end 
	} def 
/FMFILL {
	FrameDict begin
	 fillvals 3 1 roll put
	end 
	} def 
/FMNORMALIZEGRAPHICS { 
	newpath
	1 setlinewidth
	0 setlinecap
	0 0 0 sethsbcolor
	0 setgray 
	} bind def
/FMBEGINEPSF { 
	end 
	/FMEPSF save def 
	/showpage {} def 
% See Adobe's "PostScript Language Reference Manual, 2nd Edition", page 714.
% "...the following operators MUST NOT be used in an EPS file:" (emphasis ours)
	/banddevice {(banddevice) FMBADEPSF} def
	/clear {(clear) FMBADEPSF} def
	/cleardictstack {(cleardictstack) FMBADEPSF} def 
	/copypage {(copypage) FMBADEPSF} def
	/erasepage {(erasepage) FMBADEPSF} def
	/exitserver {(exitserver) FMBADEPSF} def
	/framedevice {(framedevice) FMBADEPSF} def
	/grestoreall {(grestoreall) FMBADEPSF} def
	/initclip {(initclip) FMBADEPSF} def
	/initgraphics {(initgraphics) FMBADEPSF} def
	/quit {(quit) FMBADEPSF} def
	/renderbands {(renderbands) FMBADEPSF} def
	/setglobal {(setglobal) FMBADEPSF} def
	/setpagedevice {(setpagedevice) FMBADEPSF} def
	/setshared {(setshared) FMBADEPSF} def
	/startjob {(startjob) FMBADEPSF} def
	/lettertray {(lettertray) FMBADEPSF} def
	/letter {(letter) FMBADEPSF} def
	/lettersmall {(lettersmall) FMBADEPSF} def
	/11x17tray {(11x17tray) FMBADEPSF} def
	/11x17 {(11x17) FMBADEPSF} def
	/ledgertray {(ledgertray) FMBADEPSF} def
	/ledger {(ledger) FMBADEPSF} def
	/legaltray {(legaltray) FMBADEPSF} def
	/legal {(legal) FMBADEPSF} def
	/statementtray {(statementtray) FMBADEPSF} def
	/statement {(statement) FMBADEPSF} def
	/executivetray {(executivetray) FMBADEPSF} def
	/executive {(executive) FMBADEPSF} def
	/a3tray {(a3tray) FMBADEPSF} def
	/a3 {(a3) FMBADEPSF} def
	/a4tray {(a4tray) FMBADEPSF} def
	/a4 {(a4) FMBADEPSF} def
	/a4small {(a4small) FMBADEPSF} def
	/b4tray {(b4tray) FMBADEPSF} def
	/b4 {(b4) FMBADEPSF} def
	/b5tray {(b5tray) FMBADEPSF} def
	/b5 {(b5) FMBADEPSF} def
	FMNORMALIZEGRAPHICS 
	[/fy /fx /fh /fw /ury /urx /lly /llx] {exch def} forall 
	fx fw 2 div add fy fh 2 div add  translate
	rotate
	fw 2 div neg fh 2 div neg translate
	fw urx llx sub div fh ury lly sub div scale 
	llx neg lly neg translate 
	/FMdicttop countdictstack 1 add def 
	/FMoptop count def 
	} bind def
/FMENDEPSF {
	count -1 FMoptop {pop pop} for 
	countdictstack -1 FMdicttop {pop end} for 
	FMEPSF restore
	FrameDict begin 
	} bind def
FrameDict begin 
/setmanualfeed {
%%BeginFeature *ManualFeed True
	 statusdict /manualfeed true put
%%EndFeature
	} bind def
/max {2 copy lt {exch} if pop} bind def
/min {2 copy gt {exch} if pop} bind def
/inch {72 mul} def
/pagedimen { 
	paperheight sub abs 16 lt exch 
	paperwidth sub abs 16 lt and
	{/papername exch def} {pop} ifelse
	} bind def
/setpapername { 
	/papersizedict 14 dict def 
	papersizedict begin
	/papername /unknown def 
		/Letter 8.5 inch 11.0 inch pagedimen
		/LetterSmall 7.68 inch 10.16 inch pagedimen
		/Tabloid 11.0 inch 17.0 inch pagedimen
		/Ledger 17.0 inch 11.0 inch pagedimen
		/Legal 8.5 inch 14.0 inch pagedimen
		/Statement 5.5 inch 8.5 inch pagedimen
		/Executive 7.5 inch 10.0 inch pagedimen
		/A3 11.69 inch 16.5 inch pagedimen
		/A4 8.26 inch 11.69 inch pagedimen
		/A4Small 7.47 inch 10.85 inch pagedimen
		/B4 10.125 inch 14.33 inch pagedimen
		/B5 7.16 inch 10.125 inch pagedimen
	end
	} bind def
/papersize {
	papersizedict begin
		/Letter {lettertray letter} def
		/LetterSmall {lettertray lettersmall} def
		/Tabloid {11x17tray 11x17} def
		/Ledger {ledgertray ledger} def
		/Legal {legaltray legal} def
		/Statement {statementtray statement} def
		/Executive {executivetray executive} def
		/A3 {a3tray a3} def
		/A4 {a4tray a4} def
		/A4Small {a4tray a4small} def
		/B4 {b4tray b4} def
		/B5 {b5tray b5} def
		/unknown {unknown} def
	papersizedict dup papername known {papername} {/unknown} ifelse get
	end
	statusdict begin stopped end 
	} bind def
/manualpapersize {
	papersizedict begin
		/Letter {letter} def
		/LetterSmall {lettersmall} def
		/Tabloid {11x17} def
		/Ledger {ledger} def
		/Legal {legal} def
		/Statement {statement} def
		/Executive {executive} def
		/A3 {a3} def
		/A4 {a4} def
		/A4Small {a4small} def
		/B4 {b4} def
		/B5 {b5} def
		/unknown {unknown} def
	papersizedict dup papername known {papername} {/unknown} ifelse get
	end
	stopped 
	} bind def
/desperatepapersize {
	statusdict /setpageparams known
		{
		paperwidth paperheight 0 1 
		statusdict begin
		{setpageparams} stopped 
		end
		} {true} ifelse 
	} bind def
/papersizefailure {
	FMAllowPaperSizeMismatch not
		{
(The requested paper size is not available in any currently-installed tray)
(Edit the PS file to "FMAllowPaperSizeMismatch true" to use default tray)
		 FMFAILURE } if
	} def
/DiacriticEncoding [
/.notdef /.notdef /.notdef /.notdef /.notdef /.notdef /.notdef
/.notdef /.notdef /.notdef /.notdef /.notdef /.notdef /.notdef
/.notdef /.notdef /.notdef /.notdef /.notdef /.notdef /.notdef
/.notdef /.notdef /.notdef /.notdef /.notdef /.notdef /.notdef
/.notdef /.notdef /.notdef /.notdef /space /exclam /quotedbl
/numbersign /dollar /percent /ampersand /quotesingle /parenleft
/parenright /asterisk /plus /comma /hyphen /period /slash /zero /one
/two /three /four /five /six /seven /eight /nine /colon /semicolon
/less /equal /greater /question /at /A /B /C /D /E /F /G /H /I /J /K
/L /M /N /O /P /Q /R /S /T /U /V /W /X /Y /Z /bracketleft /backslash
/bracketright /asciicircum /underscore /grave /a /b /c /d /e /f /g /h
/i /j /k /l /m /n /o /p /q /r /s /t /u /v /w /x /y /z /braceleft /bar
/braceright /asciitilde /.notdef /Adieresis /Aring /Ccedilla /Eacute
/Ntilde /Odieresis /Udieresis /aacute /agrave /acircumflex /adieresis
/atilde /aring /ccedilla /eacute /egrave /ecircumflex /edieresis
/iacute /igrave /icircumflex /idieresis /ntilde /oacute /ograve
/ocircumflex /odieresis /otilde /uacute /ugrave /ucircumflex
/udieresis /dagger /.notdef /cent /sterling /section /bullet
/paragraph /germandbls /registered /copyright /trademark /acute
/dieresis /.notdef /AE /Oslash /.notdef /.notdef /.notdef /.notdef
/yen /.notdef /.notdef /.notdef /.notdef /.notdef /.notdef
/ordfeminine /ordmasculine /.notdef /ae /oslash /questiondown
/exclamdown /logicalnot /.notdef /florin /.notdef /.notdef
/guillemotleft /guillemotright /ellipsis /.notdef /Agrave /Atilde
/Otilde /OE /oe /endash /emdash /quotedblleft /quotedblright
/quoteleft /quoteright /.notdef /.notdef /ydieresis /Ydieresis
/fraction /currency /guilsinglleft /guilsinglright /fi /fl /daggerdbl
/periodcentered /quotesinglbase /quotedblbase /perthousand
/Acircumflex /Ecircumflex /Aacute /Edieresis /Egrave /Iacute
/Icircumflex /Idieresis /Igrave /Oacute /Ocircumflex /.notdef /Ograve
/Uacute /Ucircumflex /Ugrave /dotlessi /circumflex /tilde /macron
/breve /dotaccent /ring /cedilla /hungarumlaut /ogonek /caron
] def
/ReEncode { 
	dup 
	length 
	dict begin 
	{
	1 index /FID ne 
		{def} 
		{pop pop} ifelse 
	} forall 
	0 eq {/Encoding DiacriticEncoding def} if 
	currentdict 
	end 
	} bind def
FMPColor 
	
	{
	/BEGINBITMAPCOLOR { 
		BITMAPCOLOR} def
	/BEGINBITMAPCOLORc { 
		BITMAPCOLORc} def
	/BEGINBITMAPTRUECOLOR { 
		BITMAPTRUECOLOR } def
	/BEGINBITMAPTRUECOLORc { 
		BITMAPTRUECOLORc } def
	/BEGINBITMAPCMYK { 
		BITMAPCMYK } def
	/BEGINBITMAPCMYKc { 
		BITMAPCMYKc } def
	}
	
	{
	/BEGINBITMAPCOLOR { 
		BITMAPGRAY} def
	/BEGINBITMAPCOLORc { 
		BITMAPGRAYc} def
	/BEGINBITMAPTRUECOLOR { 
		BITMAPTRUEGRAY } def
	/BEGINBITMAPTRUECOLORc { 
		BITMAPTRUEGRAYc } def
	/BEGINBITMAPCMYK { 
		BITMAPCMYKGRAY } def
	/BEGINBITMAPCMYKc { 
		BITMAPCMYKGRAYc } def
	}
ifelse
/K { 
	FMPrintAllColorsAsBlack {
		dup 1 eq 2 index 1 eq and 3 index 1 eq and not
			{7 {pop} repeat 0 0 0 1 0 0 0} if
	} if 
	FrameCurColors astore 
	pop combineColor
} bind def
/graymode true def
fMLevel1 {
	/fmGetFlip {
		fMatrix2 exch get mul 0 lt { -1 } { 1 } ifelse
	} FmBD
} if
/setPatternMode {
	fMLevel1 {
		2 index patScreenDict exch known {
			pop pop
			patScreenDict exch get aload pop 
			freq 								
			mul									
			5 2 roll							
			fMatrix2 currentmatrix 1 get 0 ne {
				3 -1 roll 90 add 3 1 roll 		
				sflipx 1 fmGetFlip sflipy 2 fmGetFlip neg mul
			} {  								
				sflipx 0 fmGetFlip sflipy 3 fmGetFlip mul 
			} ifelse
			0 lt {exch pop} {pop} ifelse 		
			fMNegative { 
				{neg} fmConcatProcs 			
			} if
			bind
			
			
			
			systemdict /setscreen get exec		
			/FrameCurGray exch def
		} {
			/bwidth  exch def
			/bpside  exch def
			/bstring exch def
			/onbits 0 def  /offbits 0 def
			freq sangle landscape {90 add} if 
				{/ypoint exch def
				 /xpoint exch def
				 /xindex xpoint 1 add 2 div bpside mul cvi def
				 /yindex ypoint 1 add 2 div bpside mul cvi def
				 bstring yindex bwidth mul xindex 8 idiv add get
				 1 7 xindex 8 mod sub bitshift and 0 ne fMNegative {not} if
				 {/onbits  onbits  1 add def 1}
				 {/offbits offbits 1 add def 0}
				 ifelse
				}
				setscreen
			offbits offbits onbits add div fMNegative {1.0 exch sub} if
			/FrameCurGray exch def
		} ifelse
	} { 
		pop pop
		dup patCache exch known {
			patCache exch get
		} { 
			dup
			patDict /bstring 3 -1 roll put
			patDict 
			9 PatFreq screenIndex get div dup matrix scale
			makepattern
			dup 
			patCache 4 -1 roll 3 -1 roll put
		} ifelse
		/FrameCurGray 0 def
		/FrameCurPat exch def
	} ifelse
	/graymode false def
	combineColor
} bind def
/setGrayScaleMode {
	graymode not {
		/graymode true def
		fMLevel1 {
			setCurrentScreen
		} if
	} if
	/FrameCurGray exch def
	combineColor
} bind def
/normalize {
	transform round exch round exch itransform
	} bind def
/dnormalize {
	dtransform round exch round exch idtransform
	} bind def
/lnormalize { 
	0 dtransform exch cvi 2 idiv 2 mul 1 add exch idtransform pop
	} bind def
/H { 
	lnormalize setlinewidth
	} bind def
/Z {
	setlinecap
	} bind def
	
/PFill {
	graymode fMLevel1 or not {
		gsave 1 setgray eofill grestore
	} if
} bind def
/PStroke {
	graymode fMLevel1 or not {
		gsave 1 setgray stroke grestore
	} if
	stroke
} bind def
/X { 
	fillvals exch get
	dup type /stringtype eq
	{8 1 setPatternMode} 
	{setGrayScaleMode}
	ifelse
	} bind def
/V { 
	PFill gsave eofill grestore
	} bind def
/Vclip {
	clip
	} bind def
/Vstrk {
	currentlinewidth exch setlinewidth PStroke setlinewidth
	} bind def
/N { 
	PStroke
	} bind def
/Nclip {
	strokepath clip newpath
	} bind def
/Nstrk {
	currentlinewidth exch setlinewidth PStroke setlinewidth
	} bind def
/M {newpath moveto} bind def
/E {lineto} bind def
/D {curveto} bind def
/O {closepath} bind def
/L { 
 	/n exch def
	newpath
	normalize
	moveto 
	2 1 n {pop normalize lineto} for
	} bind def
/Y { 
	L 
	closepath
	} bind def
/R { 
	/y2 exch def
	/x2 exch def
	/y1 exch def
	/x1 exch def
	x1 y1
	x2 y1
	x2 y2
	x1 y2
	4 Y 
	} bind def
/rarc 
	{rad 
	 arcto
	} bind def
/RR { 
	/rad exch def
	normalize
	/y2 exch def
	/x2 exch def
	normalize
	/y1 exch def
	/x1 exch def
	mark
	newpath
	{
	x1 y1 rad add moveto
	x1 y2 x2 y2 rarc
	x2 y2 x2 y1 rarc
	x2 y1 x1 y1 rarc
	x1 y1 x1 y2 rarc
	closepath
	} stopped {x1 y1 x2 y2 R} if 
	cleartomark
	} bind def
/RRR { 
	/rad exch def
	normalize /y4 exch def /x4 exch def
	normalize /y3 exch def /x3 exch def
	normalize /y2 exch def /x2 exch def
	normalize /y1 exch def /x1 exch def
	newpath
	normalize moveto 
	mark
	{
	x2 y2 x3 y3 rarc
	x3 y3 x4 y4 rarc
	x4 y4 x1 y1 rarc
	x1 y1 x2 y2 rarc
	closepath
	} stopped
	 {x1 y1 x2 y2 x3 y3 x4 y4 newpath moveto lineto lineto lineto closepath} if
	cleartomark
	} bind def
/C { 
	grestore
	gsave
	R 
	clip
	setCurrentScreen
} bind def
/CP { 
	grestore
	gsave
	Y 
	clip
	setCurrentScreen
} bind def
/F { 
	FMfonts exch get
	FMpointsize scalefont
	setfont
	} bind def
/Q { 
	/FMpointsize exch def
	F 
	} bind def
/T { 
	moveto show
	} bind def
/RF { 
	rotate
	0 ne {-1 1 scale} if
	} bind def
/TF { 
	gsave
	moveto 
	RF
	show
	grestore
	} bind def
/P { 
	moveto
	0 32 3 2 roll widthshow
	} bind def
/PF { 
	gsave
	moveto 
	RF
	0 32 3 2 roll widthshow
	grestore
	} bind def
/S { 
	moveto
	0 exch ashow
	} bind def
/SF { 
	gsave
	moveto
	RF
	0 exch ashow
	grestore
	} bind def
/B { 
	moveto
	0 32 4 2 roll 0 exch awidthshow
	} bind def
/BF { 
	gsave
	moveto
	RF
	0 32 4 2 roll 0 exch awidthshow
	grestore
	} bind def
/G { 
	gsave
	newpath
	normalize translate 0.0 0.0 moveto 
	dnormalize scale 
	0.0 0.0 1.0 5 3 roll arc 
	closepath 
	PFill fill
	grestore
	} bind def
/Gstrk {
	savematrix
    newpath
    2 index 2 div add exch 3 index 2 div sub exch 
    normalize 2 index 2 div sub exch 3 index 2 div add exch 
    translate
    scale 
    0.0 0.0 1.0 5 3 roll arc 
    restorematrix
    currentlinewidth exch setlinewidth PStroke setlinewidth
    } bind def
/Gclip { 
	newpath
	savematrix
	normalize translate 0.0 0.0 moveto 
	dnormalize scale 
	0.0 0.0 1.0 5 3 roll arc 
	closepath 
	clip newpath
	restorematrix
	} bind def
/GG { 
	gsave
	newpath
	normalize translate 0.0 0.0 moveto 
	rotate 
	dnormalize scale 
	0.0 0.0 1.0 5 3 roll arc 
	closepath
	PFill
	fill
	grestore
	} bind def
/GGclip { 
	savematrix
	newpath
    normalize translate 0.0 0.0 moveto 
    rotate 
    dnormalize scale 
    0.0 0.0 1.0 5 3 roll arc 
    closepath
	clip newpath
	restorematrix
	} bind def
/GGstrk { 
	savematrix
    newpath
    normalize translate 0.0 0.0 moveto 
    rotate 
    dnormalize scale 
    0.0 0.0 1.0 5 3 roll arc 
    closepath 
	restorematrix
    currentlinewidth exch setlinewidth PStroke setlinewidth
	} bind def
/A { 
	gsave
	savematrix
	newpath
	2 index 2 div add exch 3 index 2 div sub exch 
	normalize 2 index 2 div sub exch 3 index 2 div add exch 
	translate 
	scale 
	0.0 0.0 1.0 5 3 roll arc 
	restorematrix
	PStroke
	grestore
	} bind def
/Aclip {
	newpath
	savematrix
	normalize translate 0.0 0.0 moveto 
	dnormalize scale 
	0.0 0.0 1.0 5 3 roll arc 
	closepath 
	strokepath clip newpath
	restorematrix
} bind def
/Astrk {
	Gstrk
} bind def
/AA { 
	gsave
	savematrix
	newpath
	
	3 index 2 div add exch 4 index 2 div sub exch 
	
	normalize 3 index 2 div sub exch 4 index 2 div add exch
	translate 
	rotate 
	scale 
	0.0 0.0 1.0 5 3 roll arc 
	restorematrix
	PStroke
	grestore
	} bind def
/AAclip {
	savematrix
	newpath
    normalize translate 0.0 0.0 moveto 
    rotate 
    dnormalize scale 
    0.0 0.0 1.0 5 3 roll arc 
    closepath
	strokepath clip newpath
	restorematrix
} bind def
/AAstrk {
	GGstrk
} bind def
/BEGINPRINTCODE { 
	/FMdicttop countdictstack 1 add def 
	/FMoptop count 7 sub def 
	/FMsaveobject save def
	userdict begin 
	/showpage {} def 
	FMNORMALIZEGRAPHICS 
	3 index neg 3 index neg translate
	} bind def
/ENDPRINTCODE {
	count -1 FMoptop {pop pop} for 
	countdictstack -1 FMdicttop {pop end} for 
	FMsaveobject restore 
	} bind def
/gn { 
	0 
	{	46 mul 
		cf read pop 
		32 sub 
		dup 46 lt {exit} if 
		46 sub add 
		} loop
	add 
	} bind def
/cfs { 
	/str sl string def 
	0 1 sl 1 sub {str exch val put} for 
	str def 
	} bind def
/ic [ 
	0 0 0 0 0 0 0 0 0 0 0 0 0 0 0 0223
	0 0 0 0 0 0 0 0 0 0 0 0 0 0 0 0223
	0
	{0 hx} {1 hx} {2 hx} {3 hx} {4 hx} {5 hx} {6 hx} {7 hx} {8 hx} {9 hx}
	{10 hx} {11 hx} {12 hx} {13 hx} {14 hx} {15 hx} {16 hx} {17 hx} {18 hx}
	{19 hx} {gn hx} {0} {1} {2} {3} {4} {5} {6} {7} {8} {9} {10} {11} {12}
	{13} {14} {15} {16} {17} {18} {19} {gn} {0 wh} {1 wh} {2 wh} {3 wh}
	{4 wh} {5 wh} {6 wh} {7 wh} {8 wh} {9 wh} {10 wh} {11 wh} {12 wh}
	{13 wh} {14 wh} {gn wh} {0 bl} {1 bl} {2 bl} {3 bl} {4 bl} {5 bl} {6 bl}
	{7 bl} {8 bl} {9 bl} {10 bl} {11 bl} {12 bl} {13 bl} {14 bl} {gn bl}
	{0 fl} {1 fl} {2 fl} {3 fl} {4 fl} {5 fl} {6 fl} {7 fl} {8 fl} {9 fl}
	{10 fl} {11 fl} {12 fl} {13 fl} {14 fl} {gn fl}
	] def
/ms { 
	/sl exch def 
	/val 255 def 
	/ws cfs 
	/im cfs 
	/val 0 def 
	/bs cfs 
	/cs cfs 
	} bind def
400 ms 
/ip { 
	is 
	0 
	cf cs readline pop 
	{	ic exch get exec 
		add 
		} forall 
	pop 
	
	} bind def
/rip { 
	   
	  
	  bis ris copy pop 
      is
      0
      cf cs readline pop 
      {       ic exch get exec 
              add 
              } forall 
	  pop pop 
	  ris gis copy pop 
	  dup is exch 
	  
      cf cs readline pop 
      {       ic exch get exec 
              add 
              } forall 
	  pop pop
	  gis bis copy pop 
	  dup add is exch 
	  
      cf cs readline pop 
      {       ic exch get exec 
              add 
              } forall 
      pop 
      
      } bind def
/rip4 { 
	   
	  
	  kis cis copy pop 
      is
      0
      cf cs readline pop 
      {       ic exch get exec 
              add 
              } forall 
	  pop pop 
	  cis mis copy pop 
	  dup is exch 
	  
      cf cs readline pop 
      {       ic exch get exec 
              add 
              } forall 
	  pop pop
	  mis yis copy pop 
	  dup dup add is exch 
	  
      cf cs readline pop 
      {       ic exch get exec 
              add 
              } forall 
	  pop pop
	  yis kis copy pop 
	  3 mul is exch 
	  
      cf cs readline pop 
      {       ic exch get exec 
              add 
              } forall 
      pop 
      
      } bind def
/wh { 
	/len exch def 
	/pos exch def 
	ws 0 len getinterval im pos len getinterval copy pop
	pos len 
	} bind def
/bl { 
	/len exch def 
	/pos exch def 
	bs 0 len getinterval im pos len getinterval copy pop
	pos len 
	} bind def
/s1 1 string def
/fl { 
	/len exch def 
	/pos exch def 
	/val cf s1 readhexstring pop 0 get def
	pos 1 pos len add 1 sub {im exch val put} for
	pos len 
	} bind def
/hx { 
	3 copy getinterval 
	cf exch readhexstring pop pop 
	} bind def
/wbytes { 
      dup dup
      8 gt { pop 8 idiv mul }
      { 8 eq {pop} {1 eq {7 add 8 idiv} {3 add 4 idiv} ifelse} ifelse } ifelse
	} bind def
/BEGINBITMAPBWc { 
	1 {} COMMONBITMAPc
	} bind def
/BEGINBITMAPGRAYc { 
	8 {} COMMONBITMAPc
	} bind def
/BEGINBITMAP2BITc { 
	2 {} COMMONBITMAPc
	} bind def
/COMMONBITMAPc { 
		 
	/cvtProc exch def
	/depth exch def
	gsave
	
	3 index 2 div add exch	
	4 index 2 div add exch	
	translate		
	rotate			
	1 index 2 div neg	
	1 index 2 div neg	
	translate		
	scale			
	/height exch def /width exch def
	/lb width depth wbytes def 
	sl lb lt {lb ms} if 
	/bitmapsave save def 
	cvtProc                
	/is im 0 lb getinterval def 
	ws 0 lb getinterval is copy pop 
	/cf currentfile def 
	width height depth [width 0 0 height neg 0 height] 
	{ip} image 
	bitmapsave restore 
	grestore
	} bind def
/BEGINBITMAPBW { 
	1 {} COMMONBITMAP
	} bind def
/BEGINBITMAPGRAY { 
	8 {} COMMONBITMAP
	} bind def
/BEGINBITMAP2BIT { 
	2 {} COMMONBITMAP
	} bind def
/COMMONBITMAP { 
	/cvtProc exch def
	/depth exch def
	gsave
	
	3 index 2 div add exch	
	4 index 2 div add exch	
	translate		
	rotate			
	1 index 2 div neg	
	1 index 2 div neg	
	translate		
	scale			
	/height exch def /width exch def
	/bitmapsave save def 
	cvtProc              
	/is width depth wbytes string def
	/cf currentfile def 
	width height depth [width 0 0 height neg 0 height] 
	{cf is readhexstring pop} image
	bitmapsave restore 
	grestore
	} bind def
/ngrayt 256 array def
/nredt 256 array def
/nbluet 256 array def
/ngreent 256 array def
fMLevel1 {
/colorsetup {
	currentcolortransfer
	/gryt exch def
	/blut exch def
	/grnt exch def
	/redt exch def
	0 1 255 {
		/indx exch def
		/cynu 1 red indx get 255 div sub def
		/magu 1 green indx get 255 div sub def
		/yelu 1 blue indx get 255 div sub def
		/kk cynu magu min yelu min def
		/u kk currentundercolorremoval exec def
%		/u 0 def
		nredt indx 1 0 cynu u sub max sub redt exec put
		ngreent indx 1 0 magu u sub max sub grnt exec put
		nbluet indx 1 0 yelu u sub max sub blut exec put
		ngrayt indx 1 kk currentblackgeneration exec sub gryt exec put
	} for
	{255 mul cvi nredt exch get}
	{255 mul cvi ngreent exch get}
	{255 mul cvi nbluet exch get}
	{255 mul cvi ngrayt exch get}
	setcolortransfer
	{pop 0} setundercolorremoval
	{} setblackgeneration
	} bind def
}
{
/colorSetup2 {
	[ /Indexed /DeviceRGB 255 
		{dup red exch get 255 div 
		 exch dup green exch get 255 div 
		 exch blue exch get 255 div}
	] setcolorspace
} bind def
} ifelse
/fakecolorsetup {
	/tran 256 string def
	0 1 255 {/indx exch def 
		tran indx
		red indx get 77 mul
		green indx get 151 mul
		blue indx get 28 mul
		add add 256 idiv put} for
	currenttransfer
	{255 mul cvi tran exch get 255.0 div}
	exch fmConcatProcs settransfer
} bind def
/BITMAPCOLOR { 
	/depth 8 def
	gsave
	
	3 index 2 div add exch	
	4 index 2 div add exch	
	translate		
	rotate			
	1 index 2 div neg	
	1 index 2 div neg	
	translate		
	scale			
	/height exch def /width exch def
	/bitmapsave save def
	fMLevel1 {	
		colorsetup
		/is width depth wbytes string def
		/cf currentfile def 
		width height depth [width 0 0 height neg 0 height] 
		{cf is readhexstring pop} {is} {is} true 3 colorimage 
	} {
		colorSetup2
		/is width depth wbytes string def
		/cf currentfile def 
		7 dict dup begin
			/ImageType 1 def
			/Width width def
			/Height height def
			/ImageMatrix [width 0 0 height neg 0 height] def
			/DataSource {cf is readhexstring pop} bind def
			/BitsPerComponent depth def
			/Decode [0 255] def
		end image	
	} ifelse
	bitmapsave restore 
	grestore
	} bind def
/BITMAPCOLORc { 
	/depth 8 def
	gsave
	
	3 index 2 div add exch	
	4 index 2 div add exch	
	translate		
	rotate			
	1 index 2 div neg	
	1 index 2 div neg	
	translate		
	scale			
	/height exch def /width exch def
	/lb width depth wbytes def 
	sl lb lt {lb ms} if 
	/bitmapsave save def 
	fMLevel1 {	
		colorsetup
		/is im 0 lb getinterval def 
		ws 0 lb getinterval is copy pop 
		/cf currentfile def 
		width height depth [width 0 0 height neg 0 height] 
		{ip} {is} {is} true 3 colorimage
	} {
		colorSetup2
		/is im 0 lb getinterval def 
		ws 0 lb getinterval is copy pop 
		/cf currentfile def 
		7 dict dup begin
			/ImageType 1 def
			/Width width def
			/Height height def
			/ImageMatrix [width 0 0 height neg 0 height] def
			/DataSource {ip} bind def
			/BitsPerComponent depth def
			/Decode [0 255] def
		end image	
	} ifelse
	bitmapsave restore 
	grestore
	} bind def
/BITMAPTRUECOLORc { 
	/depth 24 def
        gsave
 	
	3 index 2 div add exch	
	4 index 2 div add exch	
	translate		
	rotate			
	1 index 2 div neg	
	1 index 2 div neg	
	translate		
	scale			
	/height exch def /width exch def
	/lb width depth wbytes def 
	sl lb lt {lb ms} if 
	/bitmapsave save def 
        
	/is im 0 lb getinterval def	
	/ris im 0 width getinterval def	
	/gis im width width getinterval def	
	/bis im width 2 mul width getinterval def 
        
	ws 0 lb getinterval is copy pop 
	/cf currentfile def 
	width height 8 [width 0 0 height neg 0 height] 
	{width rip pop ris} {gis} {bis} true 3 colorimage
	bitmapsave restore 
	grestore
	} bind def
/BITMAPCMYKc { 
	/depth 32 def
        gsave
 	
	3 index 2 div add exch	
	4 index 2 div add exch	
	translate		
	rotate			
	1 index 2 div neg	
	1 index 2 div neg	
	translate		
	scale			
	/height exch def /width exch def
	/lb width depth wbytes def 
	sl lb lt {lb ms} if 
	/bitmapsave save def 
        
	/is im 0 lb getinterval def	
	/cis im 0 width getinterval def	
	/mis im width width getinterval def	
	/yis im width 2 mul width getinterval def 
	/kis im width 3 mul width getinterval def 
        
	ws 0 lb getinterval is copy pop 
	/cf currentfile def 
	width height 8 [width 0 0 height neg 0 height] 
	{width rip4 pop cis} {mis} {yis} {kis} true 4 colorimage
	bitmapsave restore 
	grestore
	} bind def
/BITMAPTRUECOLOR { 
        gsave
		
		3 index 2 div add exch	
		4 index 2 div add exch	
		translate		
		rotate			
		1 index 2 div neg	
		1 index 2 div neg	
		translate		
		scale			
		/height exch def /width exch def
        /bitmapsave save def 
        /is width string def
        /gis width string def
        /bis width string def
        /cf currentfile def 
        width height 8 [width 0 0 height neg 0 height] 
        { cf is readhexstring pop } 
        { cf gis readhexstring pop } 
        { cf bis readhexstring pop } 
        true 3 colorimage 
        bitmapsave restore 
        grestore
        } bind def
/BITMAPCMYK { 
        gsave
		
		3 index 2 div add exch	
		4 index 2 div add exch	
		translate		
		rotate			
		1 index 2 div neg	
		1 index 2 div neg	
		translate		
		scale			
		/height exch def /width exch def
        /bitmapsave save def 
        /is width string def
        /mis width string def
        /yis width string def
        /kis width string def
        /cf currentfile def 
        width height 8 [width 0 0 height neg 0 height] 
        { cf is readhexstring pop } 
        { cf mis readhexstring pop } 
        { cf yis readhexstring pop } 
        { cf kis readhexstring pop } 
        true 4 colorimage 
        bitmapsave restore 
        grestore
        } bind def
/BITMAPTRUEGRAYc { 
	/depth 24 def
        gsave
	
	3 index 2 div add exch	
	4 index 2 div add exch	
	translate		
	rotate			
	1 index 2 div neg	
	1 index 2 div neg	
	translate		
	scale			
	/height exch def /width exch def
	/lb width depth wbytes def 
	sl lb lt {lb ms} if 
        /bitmapsave save def 
        
	/is im 0 lb getinterval def	
	/ris im 0 width getinterval def	
	/gis im width width getinterval def	
	/bis im width 2 mul width getinterval def 
        ws 0 lb getinterval is copy pop 
        /cf currentfile def 
        width height 8 [width 0 0 height neg 0 height] 
        {width rip pop ris gis bis width gray} image
        bitmapsave restore 
        grestore
        } bind def
/BITMAPCMYKGRAYc { 
	/depth 32 def
        gsave
	
	3 index 2 div add exch	
	4 index 2 div add exch	
	translate		
	rotate			
	1 index 2 div neg	
	1 index 2 div neg	
	translate		
	scale			
	/height exch def /width exch def
	/lb width depth wbytes def 
	sl lb lt {lb ms} if 
        /bitmapsave save def 
        
	/is im 0 lb getinterval def	
	/cis im 0 width getinterval def	
	/mis im width width getinterval def	
	/yis im width 2 mul width getinterval def 
	/kis im width 3 mul width getinterval def 
        ws 0 lb getinterval is copy pop 
        /cf currentfile def 
        width height 8 [width 0 0 height neg 0 height] 
        {width rip pop cis mis yis kis width cgray} image
        bitmapsave restore 
        grestore
        } bind def
/cgray { 
        /ww exch def
        /k exch def
        /y exch def
        /m exch def
        /c exch def
        0 1 ww 1 sub { /i exch def c i get m i get y i get k i get CMYKtoRGB
				.144 mul 3 1 roll .587 mul 3 1 roll .299 mul add add
				c i 3 -1 roll floor cvi put } for
        c
 		} bind def
/gray { 
        /ww exch def
        /b exch def
        /g exch def
        /r exch def
        0 1 ww 1 sub { /i exch def r i get .299 mul g i get .587 mul
			b i get .114 mul add add r i 3 -1 roll floor cvi put } for
        r
        } bind def
/BITMAPTRUEGRAY { 
        gsave
		
		3 index 2 div add exch	
		4 index 2 div add exch	
		translate		
		rotate			
		1 index 2 div neg	
		1 index 2 div neg	
		translate		
		scale			
		/height exch def /width exch def
        /bitmapsave save def 
        /is width string def
        /gis width string def
        /bis width string def
        /cf currentfile def 
        width height 8 [width 0 0 height neg 0 height] 
        { cf is readhexstring pop 
          cf gis readhexstring pop 
          cf bis readhexstring pop width gray}  image
        bitmapsave restore 
        grestore
        } bind def
/BITMAPCMYKGRAY { 
        gsave
		
		3 index 2 div add exch	
		4 index 2 div add exch	
		translate		
		rotate			
		1 index 2 div neg	
		1 index 2 div neg	
		translate		
		scale			
		/height exch def /width exch def
        /bitmapsave save def 
        /is width string def
        /yis width string def
        /mis width string def
        /kis width string def
        /cf currentfile def 
        width height 8 [width 0 0 height neg 0 height] 
        { cf is readhexstring pop 
          cf mis readhexstring pop 
          cf yis readhexstring pop 
          cf kis readhexstring pop width cgray}  image
        bitmapsave restore 
        grestore
        } bind def
/BITMAPGRAY { 
	8 {fakecolorsetup} COMMONBITMAP
	} bind def
/BITMAPGRAYc { 
	8 {fakecolorsetup} COMMONBITMAPc
	} bind def
/ENDBITMAP {
	} bind def
end 
	/ALDmatrix matrix def ALDmatrix currentmatrix pop
/StartALD {
	/ALDsave save def
	 savematrix
	 ALDmatrix setmatrix
	} bind def
/InALD {
	 restorematrix
	} bind def
/DoneALD {
	 ALDsave restore
	} bind def
/I { setdash } bind def
/J { [] 0 setdash } bind def
%%EndProlog
%%BeginSetup
(5.0) FMVERSION
1 1 0 0 612 792 0 1 10 FMDOCUMENT
0 0 /Helvetica FMFONTDEFINE
1 0 /NewCenturySchlbk-Roman FMFONTDEFINE
2 0 /Helvetica-Bold FMFONTDEFINE
3 1 /ZapfDingbats FMFONTDEFINE
4 0 /NewCenturySchlbk-Italic FMFONTDEFINE
5 0 /Helvetica-Narrow-Bold FMFONTDEFINE
6 0 /Courier FMFONTDEFINE
32 FMFILLS
0 0 FMFILL
1 0.1 FMFILL
2 0.3 FMFILL
3 0.5 FMFILL
4 0.7 FMFILL
5 0.9 FMFILL
6 0.97 FMFILL
7 1 FMFILL
8 <0f1e3c78f0e1c387> FMFILL
9 <0f87c3e1f0783c1e> FMFILL
10 <cccccccccccccccc> FMFILL
11 <ffff0000ffff0000> FMFILL
12 <8142241818244281> FMFILL
13 <03060c183060c081> FMFILL
14 <8040201008040201> FMFILL
16 1 FMFILL
17 0.9 FMFILL
18 0.7 FMFILL
19 0.5 FMFILL
20 0.3 FMFILL
21 0.1 FMFILL
22 0.03 FMFILL
23 0 FMFILL
24 <f0e1c3870f1e3c78> FMFILL
25 <f0783c1e0f87c3e1> FMFILL
26 <3333333333333333> FMFILL
27 <0000ffff0000ffff> FMFILL
28 <7ebddbe7e7dbbd7e> FMFILL
29 <fcf9f3e7cf9f3f7e> FMFILL
30 <7fbfdfeff7fbfdfe> FMFILL
%%EndSetup
%%Page: "mini" 1
%%BeginPaperSize: Letter
%%EndPaperSize
612 792 1 FMBEGINPAGE
[0 0 0 1 0 0 0]
[ 0 1 1 0 1 0 0]
[ 1 0 1 0 0 1 0]
[ 1 1 0 0 0 0 1]
[ 1 0 0 0 0 1 1]
[ 0 1 0 0 1 0 1]
[ 0 0 1 0 1 1 0]
[ 1 0.6 0 0.06 0 0.18 0.6]
[ 0 0 0 0.2 0.8 0.8 0.8]
[ 0.91 0.43 0 0 0.07 0.38 0.78]
[ 0 1 0.65 0 0.78 0 0.24]
[ 0 0.28 1 0 0.89 0.44 0]
 12 FrameSetSepColors
FrameNoSep
0 0 0 1 0 0 0 K
J
400.5 264.7 765 707.3 C
0 0 0 1 0 0 0 K
0 4.34 Q
0 X
0 0 0 1 0 0 0 K
1.74 (PURIFY USER\325S GUIDE) 511.15 683.43 S
1 0.6 0 0.06 0 0.18 0.6 K
504.64 713.81 504.64 612.27 2 L
0.36 H
0 Z
1 0.6 0 0.06 0 0.18 0.6 K
N
439.55 612.27 504.64 612.27 2 L
N
0 0 0 1 0 0 0 K
0 5.06 Q
0 0 0 1 0 0 0 K
(xi) 728.8 285.67 T
0 0 0 1 0 0 0 K
0 0 0 1 0 0 0 K
1 0.6 0 0.06 0 0.18 0.6 K
0 11.57 Q
1 0.6 0 0.06 0 0.18 0.6 K
(W) 511.15 622.78 T
(elcome to Pur) 521.73 622.78 T
(ify) 593.29 622.78 T
0 0 0 1 0 0 0 K
1 7.23 Q
0 0 0 1 0 0 0 K
(This guide documents the features and capabilities of Purify) 511.15 585.32 T
(release 4.1. It can help you quic) 511.15 575.92 T
(kly master the basics of using) 616.65 575.92 T
(Purify and move on to using Purify\325) 511.15 566.52 T
(s more specialized features) 629.51 566.52 T
(.) 719.46 566.52 T
1 0.6 0 0.06 0 0.18 0.6 K
2 8.68 Q
1 0.6 0 0.06 0 0.18 0.6 K
(Getting star) 439.55 544.58 T
(ted) 488.43 544.58 T
0 0 0 1 0 0 0 K
1 7.23 Q
0 0 0 1 0 0 0 K
(Chapter 1, \322Introducing Purify\323  provides an overview of how and) 511.15 529.63 T
-0.2 (when to use Purify in order to get the most out of it, inc) 511.15 520.23 P
-0.2 (luding how) 693.74 520.23 P
(to use Purify with other Rational Softw) 511.15 510.83 T
(are products) 642.42 510.83 T
(.) 684.02 510.83 T
(It also contains a discussion of the importance of \336nding various) 511.15 496.22 T
(types of memory access errors and memory leaks) 511.15 486.82 T
(.) 674.37 486.82 T
1 0.6 0 0.06 0 0.18 0.6 K
2 8.68 Q
1 0.6 0 0.06 0 0.18 0.6 K
(Mastering the basics) 439.55 464.88 T
0 0 0 1 0 0 0 K
1 7.23 Q
0 0 0 1 0 0 0 K
(Three tutorial c) 511.15 449.94 T
(hapters help you begin successfully using Purify:) 563.47 449.94 T
1 0.6 0 0.06 0 0.18 0.6 K
3 3.47 Q
1 0.6 0 0.06 0 0.18 0.6 K
(n) 511.15 437.06 T
0 0 0 1 0 0 0 K
1 7.23 Q
0 0 0 1 0 0 0 K
(Chapter 2, \322F) 517.66 435.33 T
(inding Errors in Hello W) 562.73 435.33 T
(orld\323  shows you the) 645.19 435.33 T
(basics of how to use Purify and the messages it generates) 517.66 425.93 T
(.) 709.02 425.93 T
1 0.6 0 0.06 0 0.18 0.6 K
3 3.47 Q
1 0.6 0 0.06 0 0.18 0.6 K
(n) 511.15 415.66 T
0 0 0 1 0 0 0 K
1 7.23 Q
0 0 0 1 0 0 0 K
(Chapter 3, \322Memory Access Errors\323  explains how Purify \336nds) 517.66 413.92 T
(memory access errors and shows you how to correct them.) 517.66 404.52 T
1 0.6 0 0.06 0 0.18 0.6 K
3 3.47 Q
1 0.6 0 0.06 0 0.18 0.6 K
(n) 511.15 394.25 T
0 0 0 1 0 0 0 K
1 7.23 Q
0 0 0 1 0 0 0 K
(Chapter 4, \322Memory Leaks\323  describes how Purify reports) 517.66 392.51 T
(memory leaks and shows you how correct them.) 517.66 383.11 T
1 0.6 0 0.06 0 0.18 0.6 K
2 8.68 Q
1 0.6 0 0.06 0 0.18 0.6 K
(Learning to use special f) 439.55 361.17 T
(eatures) 541.23 361.17 T
0 0 0 1 0 0 0 K
1 7.23 Q
0 0 0 1 0 0 0 K
(These c) 511.15 346.23 T
(hapters help you take advantage of Purify\325) 536.15 346.23 T
(s special) 678.08 346.23 T
(features:) 511.15 336.83 T
1 0.6 0 0.06 0 0.18 0.6 K
3 3.47 Q
1 0.6 0 0.06 0 0.18 0.6 K
(n) 511.15 323.95 T
0 0 0 1 0 0 0 K
1 7.23 Q
0 0 0 1 0 0 0 K
(Chapter 5, \322) 517.66 322.22 T
(Analyzing F) 557.45 322.22 T
(ile Descriptors\323  describes how Purify) 598.09 322.22 T
(reports the \336le descriptors that are open when your application) 517.66 312.82 T
(exits) 517.66 303.42 T
(.) 533.42 303.42 T
0 0 0 1 0 0 0 K
FMENDPAGE
%%EndPage: "mini" 1
%%Page: "mini" 2
612 792 1 FMBEGINPAGE
[0 0 0 1 0 0 0]
[ 0 1 1 0 1 0 0]
[ 1 0 1 0 0 1 0]
[ 1 1 0 0 0 0 1]
[ 1 0 0 0 0 1 1]
[ 0 1 0 0 1 0 1]
[ 0 0 1 0 1 1 0]
[ 1 0.6 0 0.06 0 0.18 0.6]
[ 0 0 0 0.2 0.8 0.8 0.8]
[ 0.91 0.43 0 0 0.07 0.38 0.78]
[ 0 1 0.65 0 0.78 0 0.24]
[ 0 0.28 1 0 0.89 0.44 0]
 12 FrameSetSepColors
FrameNoSep
27 264.7 391.5 707.3 C
0 0 0 1 0 0 0 K
0 5.06 Q
0 X
0 0 0 1 0 0 0 K
(xii  Purify User\325s Guide) 59.55 285.67 T
0 0 0 1 0 0 0 K
0 0 0 1 0 0 0 K
1 0.6 0 0.06 0 0.18 0.6 K
3 3.47 Q
1 0.6 0 0.06 0 0.18 0.6 K
(n) 131.14 652.14 T
0 0 0 1 0 0 0 K
1 7.23 Q
0 0 0 1 0 0 0 K
(Chapter 6, \322Customizing Purify\323  explains how to customize) 137.65 650.41 T
(Purify\325) 137.65 641.01 T
(s V) 159.97 641.01 T
(iewer messages and scripts) 170.42 641.01 T
(, sa) 261.18 641.01 T
(ve output to log \336les) 272.5 641.01 T
(and) 137.65 631.6 T
4 F
(view \336les) 152.25 631.6 T
1 F
(, and enable just-in-time debugging) 182.33 631.6 T
(.) 300.69 631.6 T
1 0.6 0 0.06 0 0.18 0.6 K
3 3.47 Q
1 0.6 0 0.06 0 0.18 0.6 K
(n) 131.14 621.34 T
0 0 0 1 0 0 0 K
1 7.23 Q
0 0 0 1 0 0 0 K
(Chapter 7, \322Suppressing Purify Messages\323  describes how to) 137.65 619.6 T
(prevent Purify messages from being displa) 137.65 610.2 T
(yed.) 280.09 610.2 T
1 0.6 0 0.06 0 0.18 0.6 K
3 3.47 Q
1 0.6 0 0.06 0 0.18 0.6 K
(n) 131.14 599.93 T
0 0 0 1 0 0 0 K
1 7.23 Q
0 0 0 1 0 0 0 K
(Chapter 8, \322Setting W) 137.65 598.19 T
(atc) 210.91 598.19 T
(hpoints\323  describes how to use) 220.91 598.19 T
(w) 137.65 588.79 T
(atc) 143.15 588.79 T
(hpoints to monitor memory reads) 153.14 588.79 T
(, writes) 264.39 588.79 T
(, allocations) 289.13 588.79 T
(,) 328.87 588.79 T
(and frees) 137.65 579.39 T
(.) 168.27 579.39 T
1 0.6 0 0.06 0 0.18 0.6 K
3 3.47 Q
1 0.6 0 0.06 0 0.18 0.6 K
(n) 131.14 569.12 T
0 0 0 1 0 0 0 K
1 7.23 Q
0 0 0 1 0 0 0 K
(Chapter 9, \322Custom Memory Managers\323  describes Purify\325) 137.65 567.39 T
(s) 330.73 567.39 T
(support for special-purpose or custom memory allocators) 137.65 557.98 T
(.) 326.57 557.98 T
1 0.6 0 0.06 0 0.18 0.6 K
2 8.68 Q
1 0.6 0 0.06 0 0.18 0.6 K
(Using the ref) 59.55 536.05 T
(erence c) 112.5 536.05 T
(hapter) 147.63 536.05 T
(s) 174.02 536.05 T
0 0 0 1 0 0 0 K
1 7.23 Q
0 0 0 1 0 0 0 K
(These reference c) 131.14 521.1 T
(hapters provide a complete resource for your) 189.07 521.1 T
(ongoing use of Purify) 131.14 511.7 T
(.) 200.82 511.7 T
1 0.6 0 0.06 0 0.18 0.6 K
3 3.47 Q
1 0.6 0 0.06 0 0.18 0.6 K
(n) 131.14 498.83 T
0 0 0 1 0 0 0 K
1 7.23 Q
0 0 0 1 0 0 0 K
(Chapter 10, \322Purify Messages Reference\323  describes eac) 137.65 497.09 T
(h of the) 322.42 497.09 T
(messages generated by Purify) 137.65 487.69 T
(.) 236.67 487.69 T
1 0.6 0 0.06 0 0.18 0.6 K
3 3.47 Q
1 0.6 0 0.06 0 0.18 0.6 K
(n) 131.14 477.42 T
0 0 0 1 0 0 0 K
1 7.23 Q
0 0 0 1 0 0 0 K
-0.25 (Chapter 11, \322Using Purify Options and API Functions\323  explains) 137.65 475.68 P
(how to specify Purify options and API functions) 137.65 466.28 T
(.) 296.31 466.28 T
1 0.6 0 0.06 0 0.18 0.6 K
3 3.47 Q
1 0.6 0 0.06 0 0.18 0.6 K
(n) 131.14 456.01 T
0 0 0 1 0 0 0 K
1 7.23 Q
0 0 0 1 0 0 0 K
(Chapter 12, \322Purify Options and API Reference\323  provides a) 137.65 454.28 T
(complete reference of all Purify options and API functions) 137.65 444.87 T
(.) 330.59 444.87 T
1 0.6 0 0.06 0 0.18 0.6 K
3 3.47 Q
1 0.6 0 0.06 0 0.18 0.6 K
(n) 131.14 434.6 T
0 0 0 1 0 0 0 K
1 7.23 Q
0 0 0 1 0 0 0 K
-0.09 (Chapter 13, \322Common Questions\323  contains answers to the most) 137.65 432.87 P
(frequently asked questions about Purify) 137.65 423.47 T
(.) 270.69 423.47 T
1 0.6 0 0.06 0 0.18 0.6 K
2 8.68 Q
1 0.6 0 0.06 0 0.18 0.6 K
(Using online Help) 59.55 401.53 T
0 0 0 1 0 0 0 K
1 7.23 Q
0 0 0 1 0 0 0 K
(Purify provides online Help through the Help menu in the Purify) 131.14 386.58 T
-0.21 (V) 131.14 377.18 P
-0.21 (iewer) 136.24 377.18 P
-0.21 (. T) 153.86 377.18 P
-0.21 (o get online Help) 162.1 377.18 P
-0.21 (, c) 218 377.18 P
-0.21 (lic) 224.98 377.18 P
-0.21 (k any item in the Help menu. If you) 232.69 377.18 P
(c) 131.14 367.78 T
(lic) 134.3 367.78 T
(k) 142.02 367.78 T
5 F
(On Conte) 148.32 367.78 T
(xt) 174.93 367.78 T
1 F
( in the Help menu, the cursor becomes a question) 180.2 367.78 T
(mark \050?\051. Clic) 131.14 358.38 T
(k on any component of the window for speci\336c) 176.09 358.38 T
(information about that component.) 131.14 348.98 T
0 0 0 1 0 0 0 K
400.5 264.7 765 707.3 C
0 0 0 1 0 0 0 K
0 5.06 Q
0 X
0 0 0 1 0 0 0 K
(Welcome to Purify  xiii) 682.66 285.67 T
0 0 0 1 0 0 0 K
0 0 0 1 0 0 0 K
1 0.6 0 0.06 0 0.18 0.6 K
2 8.68 Q
1 0.6 0 0.06 0 0.18 0.6 K
(Con) 439.55 649.44 T
(ventions used in this guide) 456.08 649.44 T
0 0 0 1 0 0 0 K
1 0.6 0 0.06 0 0.18 0.6 K
3 3.47 Q
(n) 511.15 636.23 T
0 0 0 1 0 0 0 K
6 6.51 Q
0 0 0 1 0 0 0 K
(<purifyhome>) 517.66 634.5 T
1 7.23 Q
( refers to the directory where Purify is installed.) 564.53 634.5 T
(T) 517.66 625.1 T
(o \336nd the Purify directory on your system, type:) 522.09 625.1 T
6 5.79 Q
(% purify -printhomedir) 517.66 614.06 T
1 0.6 0 0.06 0 0.18 0.6 K
3 3.47 Q
1 0.6 0 0.06 0 0.18 0.6 K
(n) 511.15 600.36 T
0 0 0 1 0 0 0 K
6 6.51 Q
0 0 0 1 0 0 0 K
(Courier) 517.66 598.63 T
1 7.23 Q
( font indicates source code) 545 598.63 T
(, program names or output,) 632.32 598.63 T
(\336le names) 517.66 589.23 T
(, and commands that you enter) 551.64 589.23 T
(.) 654.85 589.23 T
1 0.6 0 0.06 0 0.18 0.6 K
3 3.47 Q
1 0.6 0 0.06 0 0.18 0.6 K
(n) 511.15 578.96 T
0 0 0 1 0 0 0 K
1 7.23 Q
0 0 0 1 0 0 0 K
(Angle brac) 517.66 577.22 T
(kets) 553.5 577.22 T
6 6.51 Q
(<) 569.58 577.22 T
(>) 575.5 577.22 T
1 7.23 Q
( indicate variables) 579.4 577.22 T
(.) 640.71 577.22 T
1 0.6 0 0.06 0 0.18 0.6 K
3 3.47 Q
1 0.6 0 0.06 0 0.18 0.6 K
(n) 511.15 566.95 T
0 0 0 1 0 0 0 K
4 7.23 Q
0 0 0 1 0 0 0 K
(Italics) 517.66 565.21 T
1 F
( introduce new terms and show emphasis) 538.54 565.21 T
(.) 676.45 565.21 T
1 0.6 0 0.06 0 0.18 0.6 K
3 3.47 Q
1 0.6 0 0.06 0 0.18 0.6 K
(n) 511.15 554.95 T
0 0 0 1 0 0 0 K
1 7.23 Q
0 0 0 1 0 0 0 K
(This icon appears next to instructions for the Sun SP) 517.66 553.21 T
(ARC) 694.46 553.21 T
(SunOS 4 operating system.) 517.66 543.81 T
1 0.6 0 0.06 0 0.18 0.6 K
3 3.47 Q
1 0.6 0 0.06 0 0.18 0.6 K
(n) 511.15 533.54 T
0 0 0 1 0 0 0 K
1 7.23 Q
0 0 0 1 0 0 0 K
(This icon appears next to instructions for the Sun SP) 517.66 531.8 T
(ARC) 694.46 531.8 T
(Solaris 2 operating system, also referred to as SunOS 5.) 517.66 522.4 T
1 0.6 0 0.06 0 0.18 0.6 K
3 3.47 Q
1 0.6 0 0.06 0 0.18 0.6 K
(n) 511.15 512.13 T
0 0 0 1 0 0 0 K
1 7.23 Q
0 0 0 1 0 0 0 K
(This icon appears next to instructions for the HP-UX operating) 517.66 510.4 T
(system.) 517.66 500.99 T
1 0.6 0 0.06 0 0.18 0.6 K
3 3.47 Q
1 0.6 0 0.06 0 0.18 0.6 K
(n) 511.15 490.73 T
0 0 0 1 0 0 0 K
1 7.23 Q
0 0 0 1 0 0 0 K
(This icon appears next to instructions for the Silicon Graphics) 517.66 488.99 T
(IRIX) 517.66 479.59 T
(operating system.) 535.67 479.59 T
1 0.6 0 0.06 0 0.18 0.6 K
2 8.68 Q
1 0.6 0 0.06 0 0.18 0.6 K
(Displa) 439.55 457.65 T
(ying the release notes) 465.43 457.65 T
0 0 0 1 0 0 0 K
1 7.23 Q
0 0 0 1 0 0 0 K
(The Purify) 511.15 442.7 T
6 6.51 Q
(README) 549.06 442.7 T
1 7.23 Q
( \336le is located in the) 572.49 442.7 T
6 6.51 Q
(<purifyhome>) 641.74 442.7 T
1 7.23 Q
( directory) 688.6 442.7 T
(.) 719.7 442.7 T
(Y) 511.15 433.3 T
(ou can open it from the Purify V) 515.52 433.3 T
(iewer by selecting) 622.8 433.3 T
5 F
(Release Notes) 684.55 433.3 T
1 F
(from the Help menu. The) 511.15 423.9 T
6 6.51 Q
(README) 597.54 423.9 T
1 7.23 Q
( \336le contains the latest) 620.97 423.9 T
(information about this release of Purify) 511.15 414.5 T
(, inc) 642.31 414.5 T
(luding hardw) 656.19 414.5 T
(are and) 700.93 414.5 T
(softw) 511.15 405.1 T
(are supported, and notes about speci\336c operating systems) 528.84 405.1 T
(.) 721.39 405.1 T
1 0.6 0 0.06 0 0.18 0.6 K
2 8.68 Q
1 0.6 0 0.06 0 0.18 0.6 K
(Installing Purify) 439.55 383.16 T
0 0 0 1 0 0 0 K
1 7.23 Q
0 0 0 1 0 0 0 K
(F) 511.15 368.21 T
(or information about licensing and installing Purify) 515.58 368.21 T
(, refer to the) 687.33 368.21 T
4 F
(Installation & Licensing Guide) 511.15 358.81 T
1 F
(, part number 800-009921-000.) 614.52 358.81 T
487.76 546.9 503.58 562.56 C
0 0 0 1 0 0 0 K
0 0 0 1 0 0 0 K
1 0.6 0 0.06 0 0.18 0.6 K
488.73 554.82 495.94 561.94 502.84 555.13 495.63 548.01 4 Y
0.36 H
2 Z
0 X
1 0.6 0 0.06 0 0.18 0.6 K
N
0 4.34 Q
-0.22 (Sun) 492.1 555.3 S
-0.3 (OS4) 491.75 552.05 S
1 1 0 0 0 0 1 K
0 0 0 1 0 0 0 K
400.5 264.7 765 707.3 C
1 1 0 0 0 0 1 K
489.14 524.51 504.09 539.45 C
0 0 0 1 0 0 0 K
1 1 0 0 0 0 1 K
1 0.6 0 0.06 0 0.18 0.6 K
489.87 525.43 503.51 539.08 6.82 RR
7 X
1 0.6 0 0.06 0 0.18 0.6 K
V
0.36 H
0 Z
0 X
N
0 4.34 Q
-0.26 (Solar) 490.61 530.84 S
-0.26 (is) 499.5 530.84 S
0 0 0 1 0 0 0 K
1 0.6 0 0.06 0 0.18 0.6 K
1 1 0 0 0 0 1 K
400.5 264.7 765 707.3 C
489.03 507.77 504.7 516.52 C
0 0 0 1 0 0 0 K
1 1 0 0 0 0 1 K
1 0.6 0 0.06 0 0.18 0.6 K
489.58 508.75 504.05 515.43 3.34 RR
0.36 H
0 Z
0 X
1 0.6 0 0.06 0 0.18 0.6 K
N
0 4.34 Q
-0.22 (HPUX) 491.01 510.35 S
1 1 0 0 0 0 1 K
400.5 264.7 765 707.3 C
0 0 0 1 0 0 0 K
490.32 483.35 504.18 496.93 C
0 0 0 1 0 0 0 K
0 0 0 1 0 0 0 K
1 0.6 0 0.06 0 0.18 0.6 K
497.07 496.31 491.26 492.86 491.26 487.11 497.24 483.83 503.38 487.28 503.38 493.02 6 Y
0.36 H
2 Z
0 X
1 0.6 0 0.06 0 0.18 0.6 K
N
0 4.34 Q
-0.09 (IRIX) 493.05 488.53 S
0 0 0 1 0 0 0 K
400.5 264.7 765 707.3 C
0 0 0 1 0 0 0 K
FMENDPAGE
%%EndPage: "mini" 2
%%Page: "mini" 3
612 792 1 FMBEGINPAGE
[0 0 0 1 0 0 0]
[ 0 1 1 0 1 0 0]
[ 1 0 1 0 0 1 0]
[ 1 1 0 0 0 0 1]
[ 1 0 0 0 0 1 1]
[ 0 1 0 0 1 0 1]
[ 0 0 1 0 1 1 0]
[ 1 0.6 0 0.06 0 0.18 0.6]
[ 0 0 0 0.2 0.8 0.8 0.8]
[ 0.91 0.43 0 0 0.07 0.38 0.78]
[ 0 1 0.65 0 0.78 0 0.24]
[ 0 0.28 1 0 0.89 0.44 0]
 12 FrameSetSepColors
FrameNoSep
27 264.7 391.5 707.3 C
0 0 0 1 0 0 0 K
0 5.06 Q
0 X
0 0 0 1 0 0 0 K
(xiv  Purify User\325s Guide) 59.55 285.67 T
0 0 0 1 0 0 0 K
0 0 0 1 0 0 0 K
1 0.6 0 0.06 0 0.18 0.6 K
2 8.68 Q
1 0.6 0 0.06 0 0.18 0.6 K
(Contacting tec) 59.55 649.44 T
(hnical suppor) 119.73 649.44 T
(t) 176.81 649.44 T
0 0 0 1 0 0 0 K
1 7.23 Q
0 0 0 1 0 0 0 K
(If you ha) 131.14 634.5 T
(ve a tec) 160.8 634.5 T
(hnical problem and you can\325t \336nd the solution in) 185.93 634.5 T
(this guide) 131.14 625.1 T
(, contact Rational Softw) 164.23 625.1 T
(are T) 243.93 625.1 T
(ec) 261.22 625.1 T
(hnical Support. See the) 268 625.1 T
(bac) 131.14 615.7 T
(k cover of this guide for addresses and phone numbers of) 142.35 615.7 T
(tec) 131.14 606.29 T
(hnical support centers) 140.73 606.29 T
(.) 215.14 606.29 T
(Note the sequence of events that led to the problem and any) 131.14 591.68 T
(program messages you see) 131.14 582.28 T
(. If possible) 219.68 582.28 T
(, ha) 257.59 582.28 T
(ve the product running) 269.98 582.28 T
(on your computer when you call.) 131.14 572.88 T
(F) 131.14 558.27 T
(or tec) 135.57 558.27 T
(hnical information about Purify) 154 558.27 T
(, answers to common) 259.17 558.27 T
(questions) 131.14 548.87 T
(, and information about other Rational Softw) 162.84 548.87 T
(are) 313.14 548.87 T
(products) 131.14 539.47 T
(, visit the Rational Softw) 159.88 539.47 T
(are W) 242.94 539.47 T
(orld W) 262.46 539.47 T
(ide W) 284.7 539.47 T
(eb site at) 303.41 539.47 T
6 6.51 Q
(http://www.rational.com) 131.14 530.07 T
1 7.23 Q
(. T) 220.97 530.07 T
(o contact tec) 229.41 530.07 T
(hnical support directly) 270.74 530.07 T
(,) 345.64 530.07 T
(use) 131.14 520.67 T
6 6.51 Q
(http://www.rational.com/support) 144.54 520.67 T
1 7.23 Q
(.) 265.6 520.67 T
0 0 0 1 0 0 0 K
FMENDPAGE
%%EndPage: "mini" 3
%%Trailer
%%BoundingBox: 0 0 612 792
%%PageOrder: Ascend
%%Pages: 3
%%DocumentFonts: Helvetica
%%+ NewCenturySchlbk-Roman
%%+ Helvetica-Bold
%%+ ZapfDingbats
%%+ NewCenturySchlbk-Italic
%%+ Helvetica-Narrow-Bold
%%+ Courier
%%EOF
