SIMPLE  =                    T / Fits standard                                 
BITPIX  =                   32 / Bits per pixel                                
NAXIS   =                    0 / Number of Data Axes                           
EXTEND  =                    T / FITS dataset may contain extensions           
COMMENT                                                                        
COMMENT   --- Concise Data Information ---                                     
COMMENT   --------------------------------                                     
INSTRUME= 'FLAMINGOS-2'        / Instrument Name                               
OBJECT  = 'CDF-8s  '           / Name of the object observed                   
OBSTYPE = 'image   '           / Image | spectrum | flat | dark                
GEMPRGID= 'GS-2002B-DS'        / Gemini Science Program ID                     
OBSID   = 'GS-2002B-DS-1'      / Gemini Observation ID                         
DATALAB = 'GS-2002B-DS-1-52'   / Gemini DHS Data Label                         
OBSERVER= 'Eikenberry, Raines, Elston, Ledlow' / Gemini Observers              
SSA     = 'Grashuis'           / Gemini SSAs                                   
OBSERVAT= 'Gemini-South'       / Observatory where data taken                  
TELESCOP= 'Gemini-South'       / Telescope where data taken                    
COMMENT                                                                        
COMMENT   --- TCS Date and Time Information During Observation ---             
COMMENT   --------------------------------------------------------             
DATE-OBS= '2001-10-17T08:44:03.1' / UT at exposure start YYYY-MM-DDTHH:MM:SS.S 
DATE-EON= '2001-10-17'         / UT Date (YYYY-MM-DD) at End of Night          
LOCTIME = '04:44:03.1'         / Local time (HH:MM:SS.S) at start of exposure  
LST     = '05:44:47.3'         / Siderial Time at start (HH:MM:SS.S)           
UTSTART = '08:44:03.1'         / UTC time at start of exposure (HH:MM:SS.S)    
UTEND   = '08:45:03.1'         / UTC time at end   of exposure (HH:MM:SS.S)    
UTCDATE = '2001-10-17'         / UTC date at start of exposure (YYYY-MM-DD)    
MJD     =         52199.363925 / Modified Julian Date at start of observation  
COMMENT                                                                        
COMMENT   --- TCS Telescope Positional Information During Observation ---      
COMMENT   ---------------------------------------------------------------      
AIRMASS =                1.100 / Mean Airmass of Object during exposure        
AM-START=                1.000 / Airmass of Object at start of exposure        
AM-END  =                1.200 / Airmass of Object at end of exposure          
HA      =               4.9893 / Hour Angle at start of exposure               
ZD      =              -0.0029 / Zenith Distance at start of exposure (deg)    
XOFFSET =                0.321 / Telescope offset in x in arcsec at start      
YOFFSET =                0.123 / Telescope offset in y in arcsec at start      
ROTATOR =             -107.546 / Rotator mechanical angle (deg) at start       
ROTERROR=               -0.003 / Rotator mechanical angle error (deg) at start 
INSTRAA =               359.13 / Instrument alignment angle (deg) during obs   
INSTRPA =               180.00 / Instrument PA (deg) during observation        
RAOFFSET=                9.011 / Telescope Offset in RA from base  (arcsec)    
DECOFFSE=               -7.515 / Telescope Offset in Dec from base (arcsec)    
RA_BASE =          11.33206250 / Target's Base RA  (deg)                       
DEC_BASE=         -33.49151667 / Target's Base DEC (deg)                       
EPOCH   =               2000.0 / Target Coordinate Epoch (years)               
EQUINOX =               2000.0 / Equinox of Coordinate System (years)          
TELFOCUS=                0.250 / Focus Position Absolute (mm) at start         
USRFOC  =               -0.025 / User's offset from nominal focus (mm)         
AZIMUTH = '-109:01:03.27'      / Azimuth (deg:min:sec) at start                
AZERROR = '-05:30:44.68'       / Azimuth error (deg:min:sec) at start          
EL      = '+90:00:10.39'       / Elevation (deg:min:sec) at start              
ELERROR = '-62:04:06.71'       / Elevation error (deg:min:sec) at start        
RA_TEL  = '00:45:20.296'       / Telescope's RA  pointing origin (hh:mm:ss.ss) 
DEC_TEL = '-33:29:36.97'       / Telescope's Dec pointing origin (hh:mm:ss.ss) 
RA_BASE =          11.33456667 / Telescope's RA  pointing origin (deg)         
DEC_BASE=         -33.49360278 / Telescope's Dec pointing origin (deg)         
TARGFRM = 'FK5     '           / Target's coord frame (FK4;FK5;AAPT;AZEL_TOPO) 
TARGSYS = 'FK5     '           / Target's FITS coord frame (FK4;FK5;GAPPT)     
BEAM    = 'A       '           / Nod beam (A | B | C)                          
FRAMEPA = 'Unavailable'        / Reference frame of instrument PA              
M2BAFFLE= 'Near IR '           / Position of M2 baffle                         
M2CENBAF= 'Open    '           / Position of the M2 central hole baffle        
SFROT   =               179.55 / Science Fold Rotation Angle (deg)             
SFTILE  =                45.32 / Science Fold Tilt Angle (deg)                 
SFLINEAR=                -3.09 / Science Fold Linear Position (mm)             
COMMENT                                                                        
COMMENT   --- Gemini Data Assessment ---                                       
COMMENT   ------------------------------                                       
RAWIQ   = 'Any     '           / Raw Image Quality                             
RAWCC   = 'Any     '           / Raw Image Cloud Cover                         
RAWWV   = 'Any     '           / Raw Image Water Vapour/Transparency           
RAWBG   = 'Any     '           / Raw Image Background                          
RAWPIREQ= 'YES     '           / PI Requirements Met                           
RAWGEMQA= 'USABLE  '           / Gemini Quality Assessment                     
HUMID   =                 92.1 / Humidity (% rel) at start of exposure         
COMMENT                                                                        
COMMENT   F-2 Instrument Keywords                                              
COMMENT   -------------------------------------------------------------------- 
COMMENT                                                                        
COMMENT   --- Observing Parameters ---                                         
COMMENT   ----------------------------                                         
BEAMMODE= 'f/16    '           / f/16 or MCAO                                  
CAMMODE = 'imaging '           / Imaging or spectroscopy                       
OBSMODE = 'stare   '           / Stare or nod --- not too sure need this       
COMMENT                                                                        
COMMENT   --- Acquisition Parameters ---                                       
COMMENT   ------------------------------                                       
EXPTIME =                  3.0 / Exposure time in Seconds                      
NREADS  =                    1 / Number of reads to perform if not doing CDS   
COMMENT                                                                        
COMMENT   --- Optical Configuration ----                                       
COMMENT   ------------------------------                                       
WINDOW  = 'OPEN    '           / Named Window Cover Position                   
DECKER  = 'OPEN    '           / Named Decker position                         
MOSPOSNM= 'OPEN    '           / Named Mos position                            
BARCODE =             12345678 / Mosplate barcode id, 8 digit integer          
MASKNAME= 'MDF-based name string upto 39 char-----' / MDF Name String          
MOSTYPE = 'rectangular'        / Type of Mosplate < none|rectangular|circular >
SLITWITH= 'none    '           / Slit width name if not on an open or mosplate 
FILTER  = 'J       '           / Named Filter position                         
LYOT    = 'f/16    '           / Named Lyot position                           
GRISM   = 'OPEN    '           / Named Grism position                          
DETPOSN = 'f/16    '           / Detector Focus Postion Name < f/16 | MCAO >   
COMMENT                                                                        
COMMENT   --- Observation Progress ---                                         
COMMENT   ----------------------------                                         
NODBEAM = 'A       '           / Telescope beam                                
COMMENT                                                                        
COMMENT   --- Instrument Status ---                                            
COMMENT   -------------------------                                            
INHEALTH= 'GOOD    '           / Instrument Health                             
INPORT  =                    1 / ISS Port number on which it is installed      
INSTATE = 'IDLE    '           / Instrument State                              
COMMENT                                                                        
COMMENT   ---- WCS INFO ------                                                 
COMMENT   --------------------                                                 
PIXSCALE=               0.1879 / Plate scale at detector; arcsec/pixel         
WCSDIM  =                    2 / Number of dimensions                          
CYTPE1  = 'RA---TAN'           / X-axis type (or DEC--TAN or TBD)              
CTYPE2  = 'DEC--TAN'           / Y-axis type (or RA---TAN or TBD)              
CRVAL1  =          11.33456667 / Ref pixel value in degrees or dispersion units
CRVAL2  =         -33.49360278 / Ref pixel value in degrees or dispersoin units
CRPIX1  =               1024.5 / Pixel at which reference applies              
CRPIX2  =               1024.5 / Pixel at which reference applies              
CD1_1   =          -5.2194E-05 / CD matrix element (1, 1) (deg/pix)            
CD1_2   =                  0.0 / CD matrix element (1, 2) (deg/pix)            
CD2_1   =                  0.0 / CD matrix element (2, 1) (deg/pix)            
CD2_2   =          -5.2194E-05 / CD matrix element (2, 2) (deg/pix)            
COMMENT                                                                        
COMMENT   --- Detector Configuration ---                                       
COMMENT   ------------------------------                                       
PRERSETS=                   10 / Number of pre-resets                          
PSTRSETS=                 1000 / Number of post-resets                         
PBC     =                   10 / Pixel base clock period                       
EDTIMOUT=                   30 / Number of seconds before EDT card timesout    
LUTIMOUT=                   30 / Number of seconds before LUT apply timesout   
CYCLETYP=                   20 / Clocking Pattern Reference Number             
TIMER   = 'S       '           / Clocking Timer Units < mS | S >               
DACVAL01=                  192 / Pream DAC value for Channel 1                 
DACVAL02=                  192 / Pream DAC value for Channel 2                 
DACVAL03=                  192 / Pream DAC value for Channel 3                 
DACVAL04=                  192 / Pream DAC value for Channel 4                 
DACVAL05=                  192 / Pream DAC value for Channel 5                 
DACVAL06=                  192 / Pream DAC value for Channel 6                 
DACVAL07=                  192 / Pream DAC value for Channel 7                 
DACVAL08=                  192 / Pream DAC value for Channel 8                 
DACVAL09=                  192 / Pream DAC value for Channel 9                 
DACVAL10=                  192 / Pream DAC value for Channel 10                
DACVAL11=                  192 / Pream DAC value for Channel 11                
DACVAL12=                  192 / Pream DAC value for Channel 12                
DACVAL13=                  192 / Pream DAC value for Channel 13                
DACVAL14=                  192 / Pream DAC value for Channel 14                
DACVAL15=                  192 / Pream DAC value for Channel 15                
DACVAL16=                  192 / Pream DAC value for Channel 16                
DACVAL17=                  192 / Pream DAC value for Channel 17                
DACVAL18=                  192 / Pream DAC value for Channel 18                
DACVAL19=                  192 / Pream DAC value for Channel 19                
DACVAL20=                  192 / Pream DAC value for Channel 20                
DACVAL21=                  192 / Pream DAC value for Channel 21                
DACVAL22=                  192 / Pream DAC value for Channel 22                
DACVAL23=                  192 / Pream DAC value for Channel 23                
DACVAL24=                  192 / Pream DAC value for Channel 24                
DACVAL25=                  192 / Pream DAC value for Channel 25                
DACVAL26=                  192 / Pream DAC value for Channel 26                
DACVAL27=                  192 / Pream DAC value for Channel 27                
DACVAL28=                  192 / Pream DAC value for Channel 28                
DACVAL29=                  192 / Pream DAC value for Channel 29                
DACVAL30=                  192 / Pream DAC value for Channel 30                
DACVAL31=                  192 / Pream DAC value for Channel 31                
DACVAL32=                  192 / Pream DAC value for Channel 32                
COMMENT                                                                        
COMMENT   --- Readout Status ----                                              
COMMENT   -----------------------                                              
BUNIT   = 'ADU     '           / Raw data units                                
COMMENT                                                                        
COMMENT   --- Detector Bias Values ---                                         
COMMENT   ----------------------------                                         
BIAS    =                  1.0 / Applied bias in Volts                         
COMMENT                                                                        
COMMENT   --- Detector Controller Status ---                                   
COMMENT   ----------------------------------                                   
DETTYPE = 'Hawaii-II'          / Detector Type (Rockwell; HgCdTe)              
DETECTOR= 'Engineering '       / Detector Name < Engineering | Science >       
DETSER  = 'Serial Number 28 '  / Rockwell Serial Number                        
DETID   = '9-307R  '           / Rockwell Detector ID Number                   
MUXID   = 'L3W16C2 '           / Rockwell Multiplexer ID Number                
DETINSTA= '2004-01-01'         / Date of first cooldown                        
DCHEALTH= 'GOOD    '           / MCE4 health                                   
DCNAME  = 'MCE4 version'       / Put MCE4 code version number here             
DCSTATE = 'IDLE    '           / MCE4 state                                    
COMMENT                                                                        
COMMENT   --- Component Controller ---                                         
COMMENT   ----------------------------                                         
CCHEALTH= 'GOOD    '           / Component Controller health                   
CCNAME  = 'dont know'          / Components Controller name                    
CCSTATE = 'IDLE    '           / Components Controller state                   
WFSBEAM = 'dont know'          / Wavefront sensor status                       
WINDOENG=                 1000 / Window Mechanism Position in Steps            
DECKRENG=                 2000 / Decker Wheel Position in Steps                
MOSENG  =                 3000 / Mos Wheel Position in Steps                   
FLTR1ENG=                 4100 / Filter Wheel 1 Position in Steps              
FLTR2ENG=                 4200 / Filter Wheel 2 Position in Steps              
LYOTENG =                 5000 / Lyot Wheel Position in Steps                  
GRISMENG=                 6000 / Grism Wheel Postion in Steps                  
DETPENG =                 7000 / Detector Mechanism Position in Steps          
COMMENT                                                                        
COMMENT   --- Instrument Temperatures and Pressures ---                        
COMMENT   ---------------------------------------------                        
TSMOS   =                77.20 / Mos dewar coldhead temperature                
TSMOSWS =                77.20 / Mos dewar work surface temperature            
TSMOSPAR=                77.20 / Mos dewar spare temperature                   
TSCAM   =                77.20 / Camera dewar coldhead temperature             
TSCAMWS1=                77.20 / Camera dewar 1st work surface temperature     
TSCAMWS2=                77.20 / Camera dewar 2nd work surface temperature     
TSDETFAN=                77.20 / Detector fanout board temperature             
TSCAMSPR=                77.20 / Camera dewar spare temperature sensor         
MOSPRES =               1.0E-8 / Mos dewar pressure in Torr                    
CAMPRES =               1.0E-8 / Camera dewar pressure in Torr                 
COMMENT                                                                        
COMMENT   --- Environment Controller ---                                       
COMMENT   ------------------------------                                       
ECHEALTH= 'GOOD    '           / Environment controller health                 
ECNAME  = 'dont know'          / Environment controller name                   
ECSTATE = 'IDLE    '           / Environment controller state                  
COMMENT                                                                        
COMMENT   --- OIWFS Target Information ---                                     
COMMENT   --------------------------------                                     
OIARA   =          12.08456667 / RA of OIWFS guide star                        
OIARV   =                   0. / OIWFS heliocentric radial relocity            
OIAWAVEL=                 0.85 / OIWFS effective target wavelength (micron)    
OIADEC  =         -33.49360278 / Declination OIWFS guide star                  
OIAEPOCH=                2000. / Epoch of OIWFS guide star coordinates         
OIAEQUIN=                2000. / Equinox of OIWFS guide star coordinates       
OIAFRAME= 'FK5     '           / OIWFS guide star coordinate system            
OIAOBJEC= 'S1101330390'        / Object Name of OIWFS guide star               
OIAPMDEC=                   0. / OIWFS proper motion in Declination            
OIAPMRA =                   0. / OIWFS proper motion in RA                     
OIAPARAL=                   0. / OIWFS parallax of guide star target           
                                                                               
                                                                               
                                                                               
                                                                               
                                                                               
                                                                               
                                                                               
                                                                               
                                                                               
                                                                               
                                                                               
                                                                               
                                                                               
                                                                               
                                                                               
                                                                               
                                                                               
                                                                               
                                                                               
                                                                               
                                                                               
                                                                               
                                                                               
                                                                               
                                                                               
                                                                               
                                                                               
                                                                               
                                                                               
                                                                               
                                                                               
                                                                               
                                                                               
                                                                               
                                                                               
                                                                               
                                                                               
                                                                               
                                                                               
                                                                               
                                                                               
                                                                               
                                                                               
                                                                               
                                                                               
                                                                               
                                                                               
END                                                                            
XTENSION= 'IMAGE   '           / IMAGE extension                               
BITPIX  =                   32 / number of bits per data pixel                 
NAXIS   =                    2 / number of data axes                           
NAXIS1  =                 2048 / Axis length                                   
NAXIS2  =                 2048 / Axis length                                   
PCOUNT  =                    0 / Must = 0 for IMAGE extension                  
GCOUNT  =                    1 / Must = 1 for IMAGE extension                  
INHERIT =                    T / Image extension inherits global keywords      
AXISLAB1= 'Xaxis   '           / Axis label                                    
AXISLAB2= 'Yaxis   '           / Axis label                                    
EXTNAME = 'sci     '           / Extension Name                                
EXTVER  =                    1 / Number assigned to a FITS extension.          
FRMENAME= 'S20021017S0052:0'   / Name of Frame                                 
FRAMEID = '0       '           / Frame Identifier                              
                                                                               
                                                                               
                                                                               
                                                                               
                                                                               
                                                                               
                                                                               
                                                                               
                                                                               
                                                                               
                                                                               
                                                                               
                                                                               
                                                                               
                                                                               
                                                                               
                                                                               
                                                                               
                                                                               
                                                                               
                                                                               
END                                                                            