[symbol2]
bbox 32 96 416 480
uniq 149
[tools]
[attributes]
[layers]
<symbol>
l 100 0 0 144 128 trecsIsApplyC
r 0 32 96 416 480
[comments]
RCS: $Name:  $ $Id: trecsApplyC.sym,v 0.1 2003/02/15 03:02:14 trecs beta $
