%!PS-Adobe-2.0 EPSF-1.2
%%DocumentFonts: Helvetica Helvetica-Bold New-Century-Bold
%%Pages: 1
%%BoundingBox: 115 215 356 456
%%EndComments

50 dict begin

/arrowHeight 8 def
/arrowWidth 4 def
/none null def
/numGraphicParameters 17 def
/stringLimit 65535 def

/Begin {
save
numGraphicParameters dict begin
} def

/End {
end
restore
} def

/SetB {
dup type /nulltype eq {
pop
false /brushRightArrow idef
false /brushLeftArrow idef
true /brushNone idef
} {
/brushDashOffset idef
/brushDashArray idef
0 ne /brushRightArrow idef
0 ne /brushLeftArrow idef
/brushWidth idef
false /brushNone idef
} ifelse
} def

/SetCFg {
/fgblue idef
/fggreen idef
/fgred idef
} def

/SetCBg {
/bgblue idef
/bggreen idef
/bgred idef
} def

/SetF {
/printSize idef
/printFont idef
} def

/SetP {
dup type /nulltype eq {
pop true /patternNone idef
} {
/patternGrayLevel idef
patternGrayLevel -1 eq {
/patternString idef
} if
false /patternNone idef
} ifelse
} def

/BSpl {
0 begin
storexyn
newpath
n 1 gt {
0 0 0 0 0 0 1 1 true subspline
n 2 gt {
0 0 0 0 1 1 2 2 false subspline
1 1 n 3 sub {
/i exch def
i 1 sub dup i dup i 1 add dup i 2 add dup false subspline
} for
n 3 sub dup n 2 sub dup n 1 sub dup 2 copy false subspline
} if
n 2 sub dup n 1 sub dup 2 copy 2 copy false subspline
patternNone not brushLeftArrow not brushRightArrow not and and { ifill } if
brushNone not { istroke } if
0 0 1 1 leftarrow
n 2 sub dup n 1 sub dup rightarrow
} if
end
} dup 0 4 dict put def

/Circ {
newpath
0 360 arc
patternNone not { ifill } if
brushNone not { istroke } if
} def

/CBSpl {
0 begin
dup 2 gt {
storexyn
newpath
n 1 sub dup 0 0 1 1 2 2 true subspline
1 1 n 3 sub {
/i exch def
i 1 sub dup i dup i 1 add dup i 2 add dup false subspline
} for
n 3 sub dup n 2 sub dup n 1 sub dup 0 0 false subspline
n 2 sub dup n 1 sub dup 0 0 1 1 false subspline
patternNone not { ifill } if
brushNone not { istroke } if
} {
Poly
} ifelse
end
} dup 0 4 dict put def

/Elli {
0 begin
newpath
4 2 roll
translate
scale
0 0 1 0 360 arc
patternNone not { ifill } if
brushNone not { istroke } if
end
} dup 0 1 dict put def

/Line {
0 begin
2 storexyn
newpath
x 0 get y 0 get moveto
x 1 get y 1 get lineto
brushNone not { istroke } if
0 0 1 1 leftarrow
0 0 1 1 rightarrow
end
} dup 0 4 dict put def

/MLine {
0 begin
storexyn
newpath
n 1 gt {
x 0 get y 0 get moveto
1 1 n 1 sub {
/i exch def
x i get y i get lineto
} for
patternNone not brushLeftArrow not brushRightArrow not and and { ifill } if
brushNone not { istroke } if
0 0 1 1 leftarrow
n 2 sub dup n 1 sub dup rightarrow
} if
end
} dup 0 4 dict put def

/Poly {
3 1 roll
newpath
moveto
-1 add
{ lineto } repeat
closepath
patternNone not { ifill } if
brushNone not { istroke } if
} def

/Rect {
0 begin
/t exch def
/r exch def
/b exch def
/l exch def
newpath
l b moveto
l t lineto
r t lineto
r b lineto
closepath
patternNone not { ifill } if
brushNone not { istroke } if
end
} dup 0 4 dict put def

/Text {
ishow
} def

/idef {
dup where { pop pop pop } { exch def } ifelse
} def

/ifill {
0 begin
gsave
patternGrayLevel -1 ne {
fgred bgred fgred sub patternGrayLevel mul add
fggreen bggreen fggreen sub patternGrayLevel mul add
fgblue bgblue fgblue sub patternGrayLevel mul add setrgbcolor
eofill
} {
eoclip
originalCTM setmatrix
pathbbox /t exch def /r exch def /b exch def /l exch def
/w r l sub ceiling cvi def
/h t b sub ceiling cvi def
/imageByteWidth w 8 div ceiling cvi def
/imageHeight h def
bgred bggreen bgblue setrgbcolor
eofill
fgred fggreen fgblue setrgbcolor
w 0 gt h 0 gt and {
l b translate w h scale
w h true [w 0 0 h neg 0 h] { patternproc } imagemask
} if
} ifelse
grestore
end
} dup 0 8 dict put def

/istroke {
gsave
brushDashOffset -1 eq {
[] 0 setdash
1 setgray
} {
brushDashArray brushDashOffset setdash
fgred fggreen fgblue setrgbcolor
} ifelse
brushWidth setlinewidth
originalCTM setmatrix
stroke
grestore
} def

/ishow {
0 begin
gsave
fgred fggreen fgblue setrgbcolor
/fontDict printFont findfont printSize scalefont dup setfont def
/descender fontDict begin 0 [FontBBox] 1 get FontMatrix end
transform exch pop def
/vertoffset 0 descender sub printSize sub printFont /Courier ne
printFont /Courier-Bold ne and { 1 add } if def {
0 vertoffset moveto show
/vertoffset vertoffset printSize sub def
} forall
grestore
end
} dup 0 3 dict put def

/patternproc {
0 begin
/patternByteLength patternString length def
/patternHeight patternByteLength 8 mul sqrt cvi def
/patternWidth patternHeight def
/patternByteWidth patternWidth 8 idiv def
/imageByteMaxLength imageByteWidth imageHeight mul
stringLimit patternByteWidth sub min def
/imageMaxHeight imageByteMaxLength imageByteWidth idiv patternHeight idiv
patternHeight mul patternHeight max def
/imageHeight imageHeight imageMaxHeight sub store
/imageString imageByteWidth imageMaxHeight mul patternByteWidth add string def
0 1 imageMaxHeight 1 sub {
/y exch def
/patternRow y patternByteWidth mul patternByteLength mod def
/patternRowString patternString patternRow patternByteWidth getinterval def
/imageRow y imageByteWidth mul def
0 patternByteWidth imageByteWidth 1 sub {
/x exch def
imageString imageRow x add patternRowString putinterval
} for
} for
imageString
end
} dup 0 12 dict put def

/min {
dup 3 2 roll dup 4 3 roll lt { exch } if pop
} def

/max {
dup 3 2 roll dup 4 3 roll gt { exch } if pop
} def

/arrowhead {
0 begin
transform originalCTM itransform
/taily exch def
/tailx exch def
transform originalCTM itransform
/tipy exch def
/tipx exch def
/dy tipy taily sub def
/dx tipx tailx sub def
/angle dx 0 ne dy 0 ne or { dy dx atan } { 90 } ifelse def
gsave
originalCTM setmatrix
tipx tipy translate
angle rotate
newpath
0 0 moveto
arrowHeight neg arrowWidth 2 div lineto
arrowHeight neg arrowWidth 2 div neg lineto
closepath
patternNone not {
originalCTM setmatrix
/padtip arrowHeight 2 exp 0.25 arrowWidth 2 exp mul add sqrt brushWidth mul
arrowWidth div def
/padtail brushWidth 2 div def
tipx tipy translate
angle rotate
padtip 0 translate
arrowHeight padtip add padtail add arrowHeight div dup scale
arrowheadpath
ifill
} if
brushNone not {
originalCTM setmatrix
tipx tipy translate
angle rotate
arrowheadpath
istroke
} if
grestore
end
} dup 0 9 dict put def

/arrowheadpath {
newpath
0 0 moveto
arrowHeight neg arrowWidth 2 div lineto
arrowHeight neg arrowWidth 2 div neg lineto
closepath
} def

/leftarrow {
0 begin
y exch get /taily exch def
x exch get /tailx exch def
y exch get /tipy exch def
x exch get /tipx exch def
brushLeftArrow { tipx tipy tailx taily arrowhead } if
end
} dup 0 4 dict put def

/rightarrow {
0 begin
y exch get /tipy exch def
x exch get /tipx exch def
y exch get /taily exch def
x exch get /tailx exch def
brushRightArrow { tipx tipy tailx taily arrowhead } if
end
} dup 0 4 dict put def

/midpoint {
0 begin
/y1 exch def
/x1 exch def
/y0 exch def
/x0 exch def
x0 x1 add 2 div
y0 y1 add 2 div
end
} dup 0 4 dict put def

/thirdpoint {
0 begin
/y1 exch def
/x1 exch def
/y0 exch def
/x0 exch def
x0 2 mul x1 add 3 div
y0 2 mul y1 add 3 div
end
} dup 0 4 dict put def

/subspline {
0 begin
/movetoNeeded exch def
y exch get /y3 exch def
x exch get /x3 exch def
y exch get /y2 exch def
x exch get /x2 exch def
y exch get /y1 exch def
x exch get /x1 exch def
y exch get /y0 exch def
x exch get /x0 exch def
x1 y1 x2 y2 thirdpoint
/p1y exch def
/p1x exch def
x2 y2 x1 y1 thirdpoint
/p2y exch def
/p2x exch def
x1 y1 x0 y0 thirdpoint
p1x p1y midpoint
/p0y exch def
/p0x exch def
x2 y2 x3 y3 thirdpoint
p2x p2y midpoint
/p3y exch def
/p3x exch def
movetoNeeded { p0x p0y moveto } if
p1x p1y p2x p2y p3x p3y curveto
end
} dup 0 17 dict put def

/storexyn {
/n exch def
/y n array def
/x n array def
n 1 sub -1 0 {
/i exch def
y i 3 2 roll put
x i 3 2 roll put
} for
} def

%%EndProlog

%I Idraw 7 Grid 4.80467 

%%Page: 1 1

Begin
%I b u
%I cfg u
%I cbg u
%I f u
%I p u
%I t
[ 0.8 0 0 0.8 0 0 ] concat
/originalCTM matrix currentmatrix def

Begin %I Line
%I b 65535
1 0 0 [] 0 SetB
%I cfg Black
0 0 0 SetCFg
%I cbg White
1 1 1 SetCBg
%I p
0 SetP
%I t
[ 1 0 0 1 -112 227 ] concat
%I
259 193 555 193 Line
End

Begin %I Line
%I b 65535
1 0 0 [] 0 SetB
%I cfg Black
0 0 0 SetCFg
%I cbg White
1 1 1 SetCBg
%I p
0 SetP
%I t
[ 0 -1 1 0 102 827 ] concat
%I
259 193 555 193 Line
End

Begin %I Pict static
%I b u
%I cfg u
%I cbg u
%I f u
%I p u
%I t
[ 1 0 0 1 77 -255 ] concat

Begin %I Pict
%I b u
%I cfg u
%I cbg u
%I f u
%I p u
%I t
[ 1 0 0 1 -152 354 ] concat

Begin %I Elli
%I b 65535
1 0 0 [] 0 SetB
%I cfg Black
0 0 0 SetCFg
%I cbg White
1 1 1 SetCBg
%I p
0 SetP
%I t
[ 1.0388 0 0 1.0388 -11.2396 43.6404 ] concat
%I
367 267 98 98 Elli
End

Begin %I Elli
%I b 65535
2 0 0 [] 0 SetB
%I cfg White
1 1 1 SetCFg
%I cbg LtGray
0.762951 0.762951 0.762951 SetCBg
%I p
1 SetP
%I t
[ 1 0 0 1 3 54 ] concat
%I
367 267 98 98 Elli
End

Begin %I Pict
%I b u
%I cfg u
%I cbg u
%I f u
%I p u
%I t
[ 1 0 0 1 0 -0.0186462 ] concat

Begin %I Pict
%I b u
%I cfg u
%I cbg u
%I f u
%I p u
%I t
[ 1 0 0 1 94 -7.98132 ] concat

Begin %I Elli
%I b 65535
1 0 0 [] 0 SetB
%I cfg Black
0 0 0 SetCFg
%I cbg White
1 1 1 SetCBg
%I p
1 SetP
%I t
[ 1 0 0 1 -123 191 ] concat
%I
308 138 3 3 Elli
End

Begin %I Line
%I b 65535
1 0 0 [] 0 SetB
%I cfg Black
0 0 0 SetCFg
%I cbg White
1 1 1 SetCBg
%I p
1 SetP
%I t
[ 1 0 0 0.352941 -66 238.824 ] concat
%I
251 263 251 247 Line
End

End %I eop

Begin %I Pict
%I b u
%I cfg u
%I cbg u
%I f u
%I p u
%I t
[ 1 0 0 1 276 -7.98132 ] concat

Begin %I Elli
%I b 65535
1 0 0 [] 0 SetB
%I cfg Black
0 0 0 SetCFg
%I cbg White
1 1 1 SetCBg
%I p
1 SetP
%I t
[ 1 0 0 1 -123 191 ] concat
%I
308 138 3 3 Elli
End

Begin %I Line
%I b 65535
1 0 0 [] 0 SetB
%I cfg Black
0 0 0 SetCFg
%I cbg White
1 1 1 SetCBg
%I p
1 SetP
%I t
[ 1 0 0 0.352941 -66 238.824 ] concat
%I
251 263 251 247 Line
End

End %I eop

Begin %I Pict
%I b u
%I cfg u
%I cbg u
%I f u
%I p u
%I t
[ 1 0 0 1 185 -98.4813 ] concat

Begin %I Elli
%I b 65535
1 0 0 [] 0 SetB
%I cfg Black
0 0 0 SetCFg
%I cbg White
1 1 1 SetCBg
%I p
1 SetP
%I t
[ 1 0 0 1 -123 191 ] concat
%I
308 138 3 3 Elli
End

Begin %I Line
%I b 65535
1 0 0 [] 0 SetB
%I cfg Black
0 0 0 SetCFg
%I cbg White
1 1 1 SetCBg
%I p
1 SetP
%I t
[ 1 0 0 0.352941 -66 238.824 ] concat
%I
251 263 251 247 Line
End

End %I eop

Begin %I Pict
%I b u
%I cfg u
%I cbg u
%I f u
%I p u
%I t
[ 1 0 0 1 185 82.5187 ] concat

Begin %I Elli
%I b 65535
1 0 0 [] 0 SetB
%I cfg Black
0 0 0 SetCFg
%I cbg White
1 1 1 SetCBg
%I p
1 SetP
%I t
[ 1 0 0 1 -123 191 ] concat
%I
308 138 3 3 Elli
End

Begin %I Line
%I b 65535
1 0 0 [] 0 SetB
%I cfg Black
0 0 0 SetCFg
%I cbg White
1 1 1 SetCBg
%I p
1 SetP
%I t
[ 1 0 0 0.352941 -66 238.824 ] concat
%I
251 263 251 247 Line
End

End %I eop

End %I eop

Begin %I Elli
%I b 65535
2 0 0 [] 0 SetB
%I cfg Black
0 0 0 SetCFg
%I cbg White
1 1 1 SetCBg
%I p
1 SetP
%I t
[ 0.85 0 0 0.85 58.05 94.05 ] concat
%I
367 267 98 98 Elli
End

End %I eop

Begin %I Pict
%I b u
%I cfg u
%I cbg u
%I f u
%I p u
%I t
[ 1 0 0 1 -152 354 ] concat

Begin %I Line
%I b 65535
2 0 0 [] 0 SetB
%I cfg Black
0 0 0 SetCFg
%I cbg Black
0 0 0 SetCBg
%I p
1 SetP
%I t
[ 0.552112 -0.318763 0.628149 1.08799 -313.953 -229.946 ] concat
%I
497 719 497 585 Line
End

Begin %I Line
%I b 65535
2 0 0 [] 0 SetB
%I cfg Black
0 0 0 SetCFg
%I cbg Black
0 0 0 SetCBg
%I p
1 SetP
%I t
[ 0.318763 -0.552112 1.08799 0.628149 -497.789 185.844 ] concat
%I
497 719 497 585 Line
End

Begin %I Line
%I b 65535
2 0 0 [] 0 SetB
%I cfg Black
0 0 0 SetCFg
%I cbg Black
0 0 0 SetCBg
%I p
1 SetP
%I t
[ 0 -0.637527 1.2563 0 -449.106 637.848 ] concat
%I
497 719 497 585 Line
End

Begin %I Line
%I b 65535
2 0 0 [] 0 SetB
%I cfg Black
0 0 0 SetCFg
%I cbg Black
0 0 0 SetCBg
%I p
1 SetP
%I t
[ -0.552112 -0.318763 0.628149 -1.08799 234.848 1188.79 ] concat
%I
497 719 497 585 Line
End

Begin %I Line
%I b 65535
2 0 0 [] 0 SetB
%I cfg Black
0 0 0 SetCFg
%I cbg Black
0 0 0 SetCBg
%I p
1 SetP
%I t
[ -0.318763 -0.552112 1.08799 -0.628149 -180.941 1004.95 ] concat
%I
497 719 497 585 Line
End

Begin %I Line
%I b 65535
2 0 0 [] 0 SetB
%I cfg Black
0 0 0 SetCFg
%I cbg Black
0 0 0 SetCBg
%I p
1 SetP
%I t
[ -0.637527 0 0 -1.2563 687.851 1140.11 ] concat
%I
497 719 497 585 Line
End

Begin %I Line
%I b 65535
1 0 0 [] 0 SetB
%I cfg Black
0 0 0 SetCFg
%I cbg Black
0 0 0 SetCBg
%I p
1 SetP
%I t
[ 0.0663958 -0.631711 1.24485 0.130838 -474.633 549.649 ] concat
%I
497 719 497 585 Line
End

Begin %I Line
%I b 65535
1 0 0 [] 0 SetB
%I cfg Black
0 0 0 SetCFg
%I cbg Black
0 0 0 SetCBg
%I p
1 SetP
%I t
[ 0.132064 -0.62131 1.22435 0.260243 -493.906 460.11 ] concat
%I
497 719 497 585 Line
End

Begin %I Line
%I b 65535
1 0 0 [] 0 SetB
%I cfg Black
0 0 0 SetCFg
%I cbg Black
0 0 0 SetCBg
%I p
1 SetP
%I t
[ 0.196285 -0.604104 1.19044 0.386797 -503.716 369.045 ] concat
%I
497 719 497 585 Line
End

Begin %I Line
%I b 65535
1 0 0 [] 0 SetB
%I cfg Black
0 0 0 SetCFg
%I cbg Black
0 0 0 SetCBg
%I p
1 SetP
%I t
[ 0.258356 -0.580276 1.14349 0.509112 -503.949 277.453 ] concat
%I
497 719 497 585 Line
End

Begin %I Line
%I b 65535
1 0 0 [] 0 SetB
%I cfg Black
0 0 0 SetCFg
%I cbg Black
0 0 0 SetCBg
%I p
1 SetP
%I t
[ 0.373356 -0.513881 1.01265 0.735733 -475.8 96.6986 ] concat
%I
497 719 497 585 Line
End

Begin %I Line
%I b 65535
1 0 0 [] 0 SetB
%I cfg Black
0 0 0 SetCFg
%I cbg Black
0 0 0 SetCBg
%I p
1 SetP
%I t
[ 0.425026 -0.472039 0.930197 0.837549 -447.721 9.51682 ] concat
%I
497 719 497 585 Line
End

Begin %I Line
%I b 65535
1 0 0 [] 0 SetB
%I cfg Black
0 0 0 SetCFg
%I cbg Black
0 0 0 SetCBg
%I p
1 SetP
%I t
[ 0.472039 -0.425026 0.837549 0.930197 -410.681 -74.2525 ] concat
%I
497 719 497 585 Line
End

Begin %I Line
%I b 65535
1 0 0 [] 0 SetB
%I cfg Black
0 0 0 SetCFg
%I cbg Black
0 0 0 SetCBg
%I p
1 SetP
%I t
[ 0.513881 -0.373356 0.735733 1.01265 -365.093 -153.691 ] concat
%I
497 719 497 585 Line
End

Begin %I Line
%I b 65535
1 0 0 [] 0 SetB
%I cfg Black
0 0 0 SetCFg
%I cbg Black
0 0 0 SetCBg
%I p
1 SetP
%I t
[ -0.0663958 -0.631711 1.24485 -0.130838 -408.64 720.266 ] concat
%I
497 719 497 585 Line
End

Begin %I Line
%I b 65535
1 0 0 [] 0 SetB
%I cfg Black
0 0 0 SetCFg
%I cbg Black
0 0 0 SetCBg
%I p
1 SetP
%I t
[ -0.132064 -0.621315 1.22435 -0.260243 -362.639 799.467 ] concat
%I
497 719 497 585 Line
End

Begin %I Line
%I b 65535
1 0 0 [] 0 SetB
%I cfg Black
0 0 0 SetCFg
%I cbg Black
0 0 0 SetCBg
%I p
1 SetP
%I t
[ -0.196286 -0.604104 1.19044 -0.386796 -308.611 873.427 ] concat
%I
497 719 497 585 Line
End

Begin %I Line
%I b 65535
1 0 0 [] 0 SetB
%I cfg Black
0 0 0 SetCFg
%I cbg Black
0 0 0 SetCBg
%I p
1 SetP
%I t
[ -0.258356 -0.580276 1.14349 -0.509112 -247.148 941.338 ] concat
%I
497 719 497 585 Line
End

Begin %I Line
%I b 65535
1 0 0 [] 0 SetB
%I cfg Black
0 0 0 SetCFg
%I cbg Black
0 0 0 SetCBg
%I p
1 SetP
%I t
[ -0.373357 -0.513881 1.01265 -0.735733 -104.685 1056.09 ] concat
%I
497 719 497 585 Line
End

Begin %I Line
%I b 65535
1 0 0 [] 0 SetB
%I cfg Black
0 0 0 SetCFg
%I cbg Black
0 0 0 SetCBg
%I p
1 SetP
%I t
[ -0.425027 -0.47204 0.930197 -0.837549 -25.2469 1101.68 ] concat
%I
497 719 497 585 Line
End

Begin %I Line
%I b 65535
1 0 0 [] 0 SetB
%I cfg Black
0 0 0 SetCFg
%I cbg Black
0 0 0 SetCBg
%I p
1 SetP
%I t
[ -0.47204 -0.425027 0.837549 -0.930197 58.5224 1138.72 ] concat
%I
497 719 497 585 Line
End

Begin %I Line
%I b 65535
1 0 0 [] 0 SetB
%I cfg Black
0 0 0 SetCFg
%I cbg Black
0 0 0 SetCBg
%I p
1 SetP
%I t
[ -0.513881 -0.373357 0.735733 -1.01265 145.704 1166.8 ] concat
%I
497 719 497 585 Line
End

Begin %I Line
%I b 65535
1 0 0 [] 0 SetB
%I cfg Black
0 0 0 SetCFg
%I cbg Black
0 0 0 SetCBg
%I p
1 SetP
%I t
[ -0.580276 -0.258356 0.509112 -1.14349 326.458 1194.95 ] concat
%I
497 719 497 585 Line
End

Begin %I Line
%I b 65535
1 0 0 [] 0 SetB
%I cfg Black
0 0 0 SetCFg
%I cbg Black
0 0 0 SetCBg
%I p
1 SetP
%I t
[ -0.604104 -0.196286 0.386796 -1.19044 418.05 1194.72 ] concat
%I
497 719 497 585 Line
End

Begin %I Line
%I b 65535
1 0 0 [] 0 SetB
%I cfg Black
0 0 0 SetCFg
%I cbg Black
0 0 0 SetCBg
%I p
1 SetP
%I t
[ -0.621315 -0.132064 0.260243 -1.22435 509.115 1184.91 ] concat
%I
497 719 497 585 Line
End

Begin %I Line
%I b 65535
1 0 0 [] 0 SetB
%I cfg Black
0 0 0 SetCFg
%I cbg Black
0 0 0 SetCBg
%I p
1 SetP
%I t
[ -0.631711 -0.0663958 0.130838 -1.24485 598.656 1165.63 ] concat
%I
497 719 497 585 Line
End

Begin %I Line
%I b 65535
1 0 0 [] 0 SetB
%I cfg Black
0 0 0 SetCFg
%I cbg Black
0 0 0 SetCBg
%I p
1 SetP
%I t
[ -0.631711 0.0663958 -0.130838 -1.24485 769.268 1099.64 ] concat
%I
497 719 497 585 Line
End

Begin %I Line
%I b 65535
1 0 0 [] 0 SetB
%I cfg Black
0 0 0 SetCFg
%I cbg Black
0 0 0 SetCBg
%I p
1 SetP
%I t
[ 0.580276 -0.258356 0.509112 1.14349 -250.337 -296.151 ] concat
%I
497 719 497 585 Line
End

Begin %I Line
%I b 65535
1 0 0 [] 0 SetB
%I cfg Black
0 0 0 SetCFg
%I cbg Black
0 0 0 SetCBg
%I p
1 SetP
%I t
[ 0.604104 -0.196286 0.386797 1.19044 -182.43 -357.613 ] concat
%I
497 719 497 585 Line
End

Begin %I Line
%I b 65535
1 0 0 [] 0 SetB
%I cfg Black
0 0 0 SetCFg
%I cbg Black
0 0 0 SetCBg
%I p
1 SetP
%I t
[ 0.621315 -0.132064 0.260243 1.22435 -108.469 -411.641 ] concat
%I
497 719 497 585 Line
End

Begin %I Elli
none SetB %I b n
%I cfg Black
0 0 0 SetCFg
%I cbg White
1 1 1 SetCBg
%I p
1 SetP
%I t
[ 0.765 0 0 0.765 89.245 116.745 ] concat
%I
367 267 98 98 Elli
End

End %I eop

Begin %I Pict
%I b u
%I cfg u
%I cbg u
%I f u
%I p u
%I t
[ 1 0 0 1 -152 354 ] concat

Begin %I Text
%I cfg Black
0 0 0 SetCFg
%I f -adobe-helvetica-medium-r-*-*-12-*-75-75-*-*-*-*
/Helvetica 12 SetF
%I t
[ 1 0 0 1 331 382 ] concat
%I
[
(11)
] Text
End

Begin %I Text
%I cfg Black
0 0 0 SetCFg
%I f -adobe-helvetica-medium-r-*-*-12-*-75-75-*-*-*-*
/Helvetica 12 SetF
%I t
[ 1 0 0 1 401 382 ] concat
%I
[
(1)
] Text
End

Begin %I Text
%I cfg Black
0 0 0 SetCFg
%I f -adobe-helvetica-bold-r-*-*-14-*-75-75-*-*-*-*
/Helvetica-Bold 14 SetF
%I t
[ 1 0 0 1 363 394 ] concat
%I
[
(12)
] Text
End

Begin %I Text
%I cfg Black
0 0 0 SetCFg
%I f -adobe-helvetica-medium-r-*-*-12-*-75-75-*-*-*-*
/Helvetica 12 SetF
%I t
[ 1 0 0 1 426 359 ] concat
%I
[
(2)
] Text
End

Begin %I Text
%I cfg Black
0 0 0 SetCFg
%I f -adobe-helvetica-bold-r-*-*-14-*-75-75-*-*-*-*
/Helvetica-Bold 14 SetF
%I t
[ 1 0 0 1 435.491 325.998 ] concat
%I
[
(3)
] Text
End

Begin %I Text
%I cfg Black
0 0 0 SetCFg
%I f -adobe-helvetica-medium-r-*-*-12-*-75-75-*-*-*-*
/Helvetica 12 SetF
%I t
[ 1 0 0 1 426 292 ] concat
%I
[
(4)
] Text
End

Begin %I Text
%I cfg Black
0 0 0 SetCFg
%I f -adobe-helvetica-bold-r-*-*-14-*-75-75-*-*-*-*
/Helvetica-Bold 14 SetF
%I t
[ 1 0 0 1 299 325.998 ] concat
%I
[
(9)
] Text
End

Begin %I Text
%I cfg Black
0 0 0 SetCFg
%I f -adobe-helvetica-bold-r-*-*-14-*-75-75-*-*-*-*
/Helvetica-Bold 14 SetF
%I t
[ 1 0 0 1 367 259.019 ] concat
%I
[
(6)
] Text
End

Begin %I Text
%I cfg Black
0 0 0 SetCFg
%I f -adobe-helvetica-medium-r-*-*-12-*-75-75-*-*-*-*
/Helvetica 12 SetF
%I t
[ 1 0 0 1 401 267.509 ] concat
%I
[
(5)
] Text
End

Begin %I Text
%I cfg Black
0 0 0 SetCFg
%I f -adobe-helvetica-medium-r-*-*-12-*-75-75-*-*-*-*
/Helvetica 12 SetF
%I t
[ 1 0 0 1 331 267.509 ] concat
%I
[
(7)
] Text
End

Begin %I Text
%I cfg Black
0 0 0 SetCFg
%I f -adobe-helvetica-medium-r-*-*-12-*-75-75-*-*-*-*
/Helvetica 12 SetF
%I t
[ 1 0 0 1 309 292 ] concat
%I
[
(8)
] Text
End

Begin %I Text
%I cfg Black
0 0 0 SetCFg
%I f -adobe-helvetica-medium-r-*-*-12-*-75-75-*-*-*-*
/Helvetica 12 SetF
%I t
[ 1 0 0 1 309 359 ] concat
%I
[
(10)
] Text
End

End %I eop

Begin %I Elli
%I b 65535
2 0 0 [] 0 SetB
%I cfg LtGray
0.762951 0.762951 0.762951 SetCFg
%I cbg Black
0 0 0 SetCBg
%I p
1 SetP
%I t
[ 0.5 0 0 0.5 120 538.5 ] concat
%I
196 273 10 10 Elli
End

Begin %I Text
%I cfg DkGray
0.503548 0.503548 0.503548 SetCFg
%I f -adobe-new*century*schoolbook-bold-r-*-*-12-*-75-75-*-*-*-*
/New-Century-Bold 12 SetF
%I t
[ 1 0 0 1 187 720 ] concat
%I
[
(TAE Plus)
] Text
End

End %I eop

Begin %I Rect pivot1
%I b 65535
1 0 0 [] 0 SetB
%I cfg Yellow
1 1 0 SetCFg
%I cbg White
1 1 1 SetCBg
%I p
0 SetP
%I t
[ 1 0 0 1 -38 -216 ] concat
%I
333 636 348 643 Rect
End

Begin %I Rect pivot2
%I b 65535
1 0 0 [] 0 SetB
%I cfg Yellow
1 1 0 SetCFg
%I cbg White
1 1 1 SetCBg
%I p
0 SetP
%I t
[ 1 0 0 1 -38.5 -216.5 ] concat
%I
333 636 348 643 Rect
End

Begin %I Pict dynamic2
%I b u
%I cfg Black
0 0 0 SetCFg
%I cbg u
%I f u
%I p u
%I t
[ 0.738462 0 0 1.81017 185.708 -344.702 ] concat

Begin %I Poly
%I b 65535
2 0 0 [] 0 SetB
%I cfg Black
0 0 0 SetCFg
%I cbg White
1 1 1 SetCBg
%I p
0 SetP
%I t
[ -1 0 0 -1 367 907 ] concat
%I 3
219 484
219 438
215 470
3 Poly
End

Begin %I Poly
%I b 65535
2 0 0 [] 0 SetB
%I cfg Black
0 0 0 SetCFg
%I cbg White
1 1 1 SetCBg
%I p
0 SetP
%I t
[ 1 0 0 -1 -71 907 ] concat
%I 3
219 484
219 438
215 470
3 Poly
End

End %I eop

Begin %I Pict dynamic1
%I b u
%I cfg u
%I cbg u
%I f u
%I p u
%I t
[ 0.738462 0 0 1.2 185.708 -86.5999 ] concat

Begin %I Poly
%I b 65535
2 0 0 [] 0 SetB
%I cfg Black
0 0 0 SetCFg
%I cbg White
1 1 1 SetCBg
%I p
0 SetP
%I t
[ -1 0 0 -1 367 907 ] concat
%I 3
219 484
219 438
215 470
3 Poly
End

Begin %I Poly
%I b 65535
2 0 0 [] 0 SetB
%I cfg Black
0 0 0 SetCFg
%I cbg White
1 1 1 SetCBg
%I p
0 SetP
%I t
[ 1 0 0 -1 -71 907 ] concat
%I 3
219 484
219 438
215 470
3 Poly
End

End %I eop

Begin %I Line dynamic3
%I b 65535
1 0 0 [] 0 SetB
%I cfg Blue
0 0 1 SetCFg
%I cbg White
1 1 1 SetCBg
%I p
0 SetP
%I t
[ 0.5 0 0 0.474432 236 350.673 ] concat
%I
117 149 117 314 Line
End

Begin %I Rect pivot3
%I b 65535
1 0 0 [] 0 SetB
%I cfg Yellow
1 1 0 SetCFg
%I cbg White
1 1 1 SetCBg
%I p
0 SetP
%I t
[ 1 0 0 1 -38.5 -216.5 ] concat
%I
333 636 348 643 Rect
End

End %I eop

showpage

%%Trailer

end
