%!PS-Adobe-2.0 EPSF-1.2
%%DocumentFonts: Helvetica
%%Pages: 1
%%BoundingBox: 141 385 386 630
%%EndComments

50 dict begin

/arrowHeight 8 def
/arrowWidth 4 def
/none null def
/numGraphicParameters 17 def
/stringLimit 65535 def

/Begin {
save
numGraphicParameters dict begin
} def

/End {
end
restore
} def

/SetB {
dup type /nulltype eq {
pop
false /brushRightArrow idef
false /brushLeftArrow idef
true /brushNone idef
} {
/brushDashOffset idef
/brushDashArray idef
0 ne /brushRightArrow idef
0 ne /brushLeftArrow idef
/brushWidth idef
false /brushNone idef
} ifelse
} def

/SetCFg {
/fgblue idef
/fggreen idef
/fgred idef
} def

/SetCBg {
/bgblue idef
/bggreen idef
/bgred idef
} def

/SetF {
/printSize idef
/printFont idef
} def

/SetP {
dup type /nulltype eq {
pop true /patternNone idef
} {
/patternGrayLevel idef
patternGrayLevel -1 eq {
/patternString idef
} if
false /patternNone idef
} ifelse
} def

/BSpl {
0 begin
storexyn
newpath
n 1 gt {
0 0 0 0 0 0 1 1 true subspline
n 2 gt {
0 0 0 0 1 1 2 2 false subspline
1 1 n 3 sub {
/i exch def
i 1 sub dup i dup i 1 add dup i 2 add dup false subspline
} for
n 3 sub dup n 2 sub dup n 1 sub dup 2 copy false subspline
} if
n 2 sub dup n 1 sub dup 2 copy 2 copy false subspline
patternNone not brushLeftArrow not brushRightArrow not and and { ifill } if
brushNone not { istroke } if
0 0 1 1 leftarrow
n 2 sub dup n 1 sub dup rightarrow
} if
end
} dup 0 4 dict put def

/Circ {
newpath
0 360 arc
patternNone not { ifill } if
brushNone not { istroke } if
} def

/CBSpl {
0 begin
dup 2 gt {
storexyn
newpath
n 1 sub dup 0 0 1 1 2 2 true subspline
1 1 n 3 sub {
/i exch def
i 1 sub dup i dup i 1 add dup i 2 add dup false subspline
} for
n 3 sub dup n 2 sub dup n 1 sub dup 0 0 false subspline
n 2 sub dup n 1 sub dup 0 0 1 1 false subspline
patternNone not { ifill } if
brushNone not { istroke } if
} {
Poly
} ifelse
end
} dup 0 4 dict put def

/Elli {
0 begin
newpath
4 2 roll
translate
scale
0 0 1 0 360 arc
patternNone not { ifill } if
brushNone not { istroke } if
end
} dup 0 1 dict put def

/Line {
0 begin
2 storexyn
newpath
x 0 get y 0 get moveto
x 1 get y 1 get lineto
brushNone not { istroke } if
0 0 1 1 leftarrow
0 0 1 1 rightarrow
end
} dup 0 4 dict put def

/MLine {
0 begin
storexyn
newpath
n 1 gt {
x 0 get y 0 get moveto
1 1 n 1 sub {
/i exch def
x i get y i get lineto
} for
patternNone not brushLeftArrow not brushRightArrow not and and { ifill } if
brushNone not { istroke } if
0 0 1 1 leftarrow
n 2 sub dup n 1 sub dup rightarrow
} if
end
} dup 0 4 dict put def

/Poly {
3 1 roll
newpath
moveto
-1 add
{ lineto } repeat
closepath
patternNone not { ifill } if
brushNone not { istroke } if
} def

/Rect {
0 begin
/t exch def
/r exch def
/b exch def
/l exch def
newpath
l b moveto
l t lineto
r t lineto
r b lineto
closepath
patternNone not { ifill } if
brushNone not { istroke } if
end
} dup 0 4 dict put def

/Text {
ishow
} def

/idef {
dup where { pop pop pop } { exch def } ifelse
} def

/ifill {
0 begin
gsave
patternGrayLevel -1 ne {
fgred bgred fgred sub patternGrayLevel mul add
fggreen bggreen fggreen sub patternGrayLevel mul add
fgblue bgblue fgblue sub patternGrayLevel mul add setrgbcolor
eofill
} {
eoclip
originalCTM setmatrix
pathbbox /t exch def /r exch def /b exch def /l exch def
/w r l sub ceiling cvi def
/h t b sub ceiling cvi def
/imageByteWidth w 8 div ceiling cvi def
/imageHeight h def
bgred bggreen bgblue setrgbcolor
eofill
fgred fggreen fgblue setrgbcolor
w 0 gt h 0 gt and {
l b translate w h scale
w h true [w 0 0 h neg 0 h] { patternproc } imagemask
} if
} ifelse
grestore
end
} dup 0 8 dict put def

/istroke {
gsave
brushDashOffset -1 eq {
[] 0 setdash
1 setgray
} {
brushDashArray brushDashOffset setdash
fgred fggreen fgblue setrgbcolor
} ifelse
brushWidth setlinewidth
originalCTM setmatrix
stroke
grestore
} def

/ishow {
0 begin
gsave
printFont findfont printSize scalefont setfont
fgred fggreen fgblue setrgbcolor
/vertoffset printSize neg def {
0 vertoffset moveto show
/vertoffset vertoffset printSize sub def
} forall
grestore
end
} dup 0 3 dict put def

/patternproc {
0 begin
/patternByteLength patternString length def
/patternHeight patternByteLength 8 mul sqrt cvi def
/patternWidth patternHeight def
/patternByteWidth patternWidth 8 idiv def
/imageByteMaxLength imageByteWidth imageHeight mul
stringLimit patternByteWidth sub min def
/imageMaxHeight imageByteMaxLength imageByteWidth idiv patternHeight idiv
patternHeight mul patternHeight max def
/imageHeight imageHeight imageMaxHeight sub store
/imageString imageByteWidth imageMaxHeight mul patternByteWidth add string def
0 1 imageMaxHeight 1 sub {
/y exch def
/patternRow y patternByteWidth mul patternByteLength mod def
/patternRowString patternString patternRow patternByteWidth getinterval def
/imageRow y imageByteWidth mul def
0 patternByteWidth imageByteWidth 1 sub {
/x exch def
imageString imageRow x add patternRowString putinterval
} for
} for
imageString
end
} dup 0 12 dict put def

/min {
dup 3 2 roll dup 4 3 roll lt { exch } if pop
} def

/max {
dup 3 2 roll dup 4 3 roll gt { exch } if pop
} def

/arrowhead {
0 begin
transform originalCTM itransform
/taily exch def
/tailx exch def
transform originalCTM itransform
/tipy exch def
/tipx exch def
/dy tipy taily sub def
/dx tipx tailx sub def
/angle dx 0 ne dy 0 ne or { dy dx atan } { 90 } ifelse def
gsave
originalCTM setmatrix
tipx tipy translate
angle rotate
newpath
0 0 moveto
arrowHeight neg arrowWidth 2 div lineto
arrowHeight neg arrowWidth 2 div neg lineto
closepath
patternNone not {
originalCTM setmatrix
/padtip arrowHeight 2 exp 0.25 arrowWidth 2 exp mul add sqrt brushWidth mul
arrowWidth div def
/padtail brushWidth 2 div def
tipx tipy translate
angle rotate
padtip 0 translate
arrowHeight padtip add padtail add arrowHeight div dup scale
arrowheadpath
ifill
} if
brushNone not {
originalCTM setmatrix
tipx tipy translate
angle rotate
arrowheadpath
istroke
} if
grestore
end
} dup 0 9 dict put def

/arrowheadpath {
newpath
0 0 moveto
arrowHeight neg arrowWidth 2 div lineto
arrowHeight neg arrowWidth 2 div neg lineto
closepath
} def

/leftarrow {
0 begin
y exch get /taily exch def
x exch get /tailx exch def
y exch get /tipy exch def
x exch get /tipx exch def
brushLeftArrow { tipx tipy tailx taily arrowhead } if
end
} dup 0 4 dict put def

/rightarrow {
0 begin
y exch get /tipy exch def
x exch get /tipx exch def
y exch get /taily exch def
x exch get /tailx exch def
brushRightArrow { tipx tipy tailx taily arrowhead } if
end
} dup 0 4 dict put def

/midpoint {
0 begin
/y1 exch def
/x1 exch def
/y0 exch def
/x0 exch def
x0 x1 add 2 div
y0 y1 add 2 div
end
} dup 0 4 dict put def

/thirdpoint {
0 begin
/y1 exch def
/x1 exch def
/y0 exch def
/x0 exch def
x0 2 mul x1 add 3 div
y0 2 mul y1 add 3 div
end
} dup 0 4 dict put def

/subspline {
0 begin
/movetoNeeded exch def
y exch get /y3 exch def
x exch get /x3 exch def
y exch get /y2 exch def
x exch get /x2 exch def
y exch get /y1 exch def
x exch get /x1 exch def
y exch get /y0 exch def
x exch get /x0 exch def
x1 y1 x2 y2 thirdpoint
/p1y exch def
/p1x exch def
x2 y2 x1 y1 thirdpoint
/p2y exch def
/p2x exch def
x1 y1 x0 y0 thirdpoint
p1x p1y midpoint
/p0y exch def
/p0x exch def
x2 y2 x3 y3 thirdpoint
p2x p2y midpoint
/p3y exch def
/p3x exch def
movetoNeeded { p0x p0y moveto } if
p1x p1y p2x p2y p3x p3y curveto
end
} dup 0 17 dict put def

/storexyn {
/n exch def
/y n array def
/x n array def
n 1 sub -1 0 {
/i exch def
y i 3 2 roll put
x i 3 2 roll put
} for
} def

%%EndProlog

%I Idraw 5 Grid 4.80467

%%Page: 1 1

Begin
%I b u
%I cfg u
%I cbg u
%I f u
%I p u
%I t
[ .8 0 0 .8 0 0 ] concat
/originalCTM matrix currentmatrix def

Begin %I Pict static
%I b u
%I cfg u
%I cbg u
%I f u
%I p u
%I t u

Begin %I Elli
%I b 65535
2 0 0 [] 0 SetB
%I cfg White
1 1 1 SetCFg
%I cbg White
1 1 1 SetCBg
%I p
1 SetP
%I t
[ .743062 0 0 .739002 153.151 103.658 ] concat
%I
238 719 203 203 Elli
End

Begin %I Pict
%I b u
%I cfg Black
0 0 0 SetCFg
%I cbg Black
0 0 0 SetCBg
%I f u
%I p u
%I t
[ .69088 0 0 .69088 147.224 194.219 ] concat

Begin %I Line
%I b 65535
2 0 0 [] 0 SetB
%I cfg Blue
0 0 .996109 SetCFg
%I cbg White
1 1 1 SetCBg
%I p
1 SetP
%I t
[ .639394 -1.10746 2.18235 1.25998 -1474.67 366.901 ] concat
%I
497 719 497 585 Line
End

Begin %I Line
%I b 65535
2 0 0 [] 0 SetB
%I cfg Blue
0 0 .996109 SetCFg
%I cbg White
1 1 1 SetCBg
%I p
1 SetP
%I t
[ 1.10746 -.639394 1.25998 2.18235 -1105.92 -467.115 ] concat
%I
497 719 497 585 Line
End

Begin %I Line
%I b 65535
2 0 0 [] 0 SetB
%I cfg Blue
0 0 .996109 SetCFg
%I cbg White
1 1 1 SetCBg
%I p
1 SetP
%I t
[ 0 -1.27879 2.51996 -3.43862e-08 -1377.02 1273.56 ] concat
%I
497 719 497 585 Line
End

Begin %I Line
%I b 65535
2 0 0 [] 0 SetB
%I cfg Blue
0 0 .996109 SetCFg
%I cbg White
1 1 1 SetCBg
%I p
1 SetP
%I t
[ -1.10746 -.639395 1.25998 -2.18235 -5.10303 2378.67 ] concat
%I
497 719 497 585 Line
End

Begin %I Line
%I b 65535
2 0 0 [] 0 SetB
%I cfg Blue
0 0 .996109 SetCFg
%I cbg White
1 1 1 SetCBg
%I p
1 SetP
%I t
[ -.639395 -1.10746 2.18235 -1.25998 -839.118 2009.92 ] concat
%I
497 719 497 585 Line
End

Begin %I Line
%I b 65535
2 0 0 [] 0 SetB
%I cfg Blue
0 0 .996109 SetCFg
%I cbg White
1 1 1 SetCBg
%I p
1 SetP
%I t
[ -1.27879 -1.55603e-08 -3.72346e-09 -2.51996 901.553 2281.02 ] concat
%I
497 719 497 585 Line
End

End %I eop

Begin %I Pict
%I b u
%I cfg Black
0 0 0 SetCFg
%I cbg Black
0 0 0 SetCBg
%I f u
%I p u
%I t
[ .605749 0 0 .605749 169.87 248.533 ] concat

Begin %I Line
%I b 65535
2 0 0 [] 0 SetB
%I cfg Red
.996109 0 0 SetCFg
%I cbg White
1 1 1 SetCBg
%I p
1 SetP
%I t
[ .13367 -1.27178 2.50616 .263408 -1434.45 1098.33 ] concat
%I
497 719 497 585 Line
End

Begin %I Line
%I b 65535
2 0 0 [] 0 SetB
%I cfg Red
.996109 0 0 SetCFg
%I cbg White
1 1 1 SetCBg
%I p
1 SetP
%I t
[ .265875 -1.25084 2.4649 .52393 -1473.25 918.067 ] concat
%I
497 719 497 585 Line
End

Begin %I Line
%I b 65535
2 0 0 [] 0 SetB
%I cfg Red
.996109 0 0 SetCFg
%I cbg White
1 1 1 SetCBg
%I p
1 SetP
%I t
[ .395167 -1.2162 2.39663 .778711 -1493 734.731 ] concat
%I
497 719 497 585 Line
End

Begin %I Line
%I b 65535
2 0 0 [] 0 SetB
%I cfg Red
.996109 0 0 SetCFg
%I cbg White
1 1 1 SetCBg
%I p
1 SetP
%I t
[ .52013 -1.16823 2.3021 1.02496 -1493.47 550.336 ] concat
%I
497 719 497 585 Line
End

Begin %I Line
%I b 65535
2 0 0 [] 0 SetB
%I cfg Red
.996109 0 0 SetCFg
%I cbg White
1 1 1 SetCBg
%I p
1 SetP
%I t
[ .751652 -1.03456 2.03869 1.4812 -1436.8 186.436 ] concat
%I
497 719 497 585 Line
End

Begin %I Line
%I b 65535
2 0 0 [] 0 SetB
%I cfg Red
.996109 0 0 SetCFg
%I cbg White
1 1 1 SetCBg
%I p
1 SetP
%I t
[ .855676 -.950324 1.8727 1.68618 -1380.27 10.9189 ] concat
%I
497 719 497 585 Line
End

Begin %I Line
%I b 65535
2 0 0 [] 0 SetB
%I cfg Red
.996109 0 0 SetCFg
%I cbg White
1 1 1 SetCBg
%I p
1 SetP
%I t
[ .950324 -.855676 1.68618 1.8727 -1305.7 -157.728 ] concat
%I
497 719 497 585 Line
End

Begin %I Line
%I b 65535
2 0 0 [] 0 SetB
%I cfg Red
.996109 0 0 SetCFg
%I cbg White
1 1 1 SetCBg
%I p
1 SetP
%I t
[ 1.03456 -.751652 1.4812 2.03869 -1213.92 -317.656 ] concat
%I
497 719 497 585 Line
End

Begin %I Line
%I b 65535
2 0 0 [] 0 SetB
%I cfg Red
.996109 0 0 SetCFg
%I cbg White
1 1 1 SetCBg
%I p
1 SetP
%I t
[ -.13367 -1.27178 2.50616 -.263408 -1301.59 1441.82 ] concat
%I
497 719 497 585 Line
End

Begin %I Line
%I b 65535
2 0 0 [] 0 SetB
%I cfg Red
.996109 0 0 SetCFg
%I cbg White
1 1 1 SetCBg
%I p
1 SetP
%I t
[ -.265875 -1.25085 2.46489 -.523929 -1208.98 1601.27 ] concat
%I
497 719 497 585 Line
End

Begin %I Line
%I b 65535
2 0 0 [] 0 SetB
%I cfg Red
.996109 0 0 SetCFg
%I cbg White
1 1 1 SetCBg
%I p
1 SetP
%I t
[ -.395168 -1.2162 2.39662 -.77871 -1100.21 1750.17 ] concat
%I
497 719 497 585 Line
End

Begin %I Line
%I b 65535
2 0 0 [] 0 SetB
%I cfg Red
.996109 0 0 SetCFg
%I cbg White
1 1 1 SetCBg
%I p
1 SetP
%I t
[ -.520131 -1.16823 2.3021 -1.02496 -976.469 1886.89 ] concat
%I
497 719 497 585 Line
End

Begin %I Line
%I b 65535
2 0 0 [] 0 SetB
%I cfg Red
.996109 0 0 SetCFg
%I cbg White
1 1 1 SetCBg
%I p
1 SetP
%I t
[ -.751654 -1.03456 2.03869 -1.4812 -689.66 2117.92 ] concat
%I
497 719 497 585 Line
End

Begin %I Line
%I b 65535
2 0 0 [] 0 SetB
%I cfg Red
.996109 0 0 SetCFg
%I cbg White
1 1 1 SetCBg
%I p
1 SetP
%I t
[ -.855677 -.950326 1.8727 -1.68618 -529.732 2209.7 ] concat
%I
497 719 497 585 Line
End

Begin %I Line
%I b 65535
2 0 0 [] 0 SetB
%I cfg Red
.996109 0 0 SetCFg
%I cbg White
1 1 1 SetCBg
%I p
1 SetP
%I t
[ -.950326 -.855677 1.68618 -1.8727 -361.085 2284.27 ] concat
%I
497 719 497 585 Line
End

Begin %I Line
%I b 65535
2 0 0 [] 0 SetB
%I cfg Red
.996109 0 0 SetCFg
%I cbg White
1 1 1 SetCBg
%I p
1 SetP
%I t
[ -1.03456 -.751654 1.4812 -2.03869 -185.568 2340.8 ] concat
%I
497 719 497 585 Line
End

Begin %I Line
%I b 65535
2 0 0 [] 0 SetB
%I cfg Red
.996109 0 0 SetCFg
%I cbg White
1 1 1 SetCBg
%I p
1 SetP
%I t
[ -1.16823 -.520131 1.02496 -2.3021 178.332 2397.47 ] concat
%I
497 719 497 585 Line
End

Begin %I Line
%I b 65535
2 0 0 [] 0 SetB
%I cfg Red
.996109 0 0 SetCFg
%I cbg White
1 1 1 SetCBg
%I p
1 SetP
%I t
[ -1.2162 -.395168 .77871 -2.39662 362.727 2397 ] concat
%I
497 719 497 585 Line
End

Begin %I Line
%I b 65535
2 0 0 [] 0 SetB
%I cfg Red
.996109 0 0 SetCFg
%I cbg White
1 1 1 SetCBg
%I p
1 SetP
%I t
[ -1.25085 -.265875 .523929 -2.46489 546.062 2377.25 ] concat
%I
497 719 497 585 Line
End

Begin %I Line
%I b 65535
2 0 0 [] 0 SetB
%I cfg Red
.996109 0 0 SetCFg
%I cbg White
1 1 1 SetCBg
%I p
1 SetP
%I t
[ -1.27178 -.13367 .263408 -2.50616 726.329 2338.45 ] concat
%I
497 719 497 585 Line
End

Begin %I Line
%I b 65535
2 0 0 [] 0 SetB
%I cfg Red
.996109 0 0 SetCFg
%I cbg White
1 1 1 SetCBg
%I p
1 SetP
%I t
[ -1.27178 .13367 -.263408 -2.50616 1069.81 2205.58 ] concat
%I
497 719 497 585 Line
End

Begin %I Line
%I b 65535
2 0 0 [] 0 SetB
%I cfg Red
.996109 0 0 SetCFg
%I cbg White
1 1 1 SetCBg
%I p
1 SetP
%I t
[ 1.16823 -.520131 1.02496 2.3021 -982.891 -604.461 ] concat
%I
497 719 497 585 Line
End

Begin %I Line
%I b 65535
2 0 0 [] 0 SetB
%I cfg Red
.996109 0 0 SetCFg
%I cbg White
1 1 1 SetCBg
%I p
1 SetP
%I t
[ 1.2162 -.395168 .778711 2.39662 -846.177 -728.199 ] concat
%I
497 719 497 585 Line
End

Begin %I Line
%I b 65535
2 0 0 [] 0 SetB
%I cfg Red
.996109 0 0 SetCFg
%I cbg White
1 1 1 SetCBg
%I p
1 SetP
%I t
[ 1.25085 -.265875 .523929 2.46489 -697.278 -836.969 ] concat
%I
497 719 497 585 Line
End

End %I eop

Begin %I Poly
none SetB %I b n
%I cfg White
1 1 1 SetCFg
%I cbg White
1 1 1 SetCBg
%I p
1 SetP
%I t
[ .712185 0 0 .712185 66.7792 321.145 ] concat
%I 5
371 425
274 257
468 257
371 425
371 425
5 Poly
End

Begin %I Elli
%I b 65535
2 0 0 [] 0 SetB
%I cfg White
1 1 1 SetCFg
%I cbg White
1 1 1 SetCBg
%I p
1 SetP
%I t
[ .458867 0 0 .456359 221.79 306.878 ] concat
%I
238 719 203 203 Elli
End

Begin %I Line
%I b 65535
2 0 0 [] 0 SetB
%I cfg White
1 1 1 SetCFg
%I cbg Black
0 0 0 SetCBg
%I p
1 SetP
%I t
[ .793578 0 0 .793578 104.243 113.945 ] concat
%I
505 552 505 552 Line
End

Begin %I Text
%I cfg Black
0 0 0 SetCFg
%I f -adobe-helvetica-medium-r-*-*-14-*-75-75-*-*-*-*
/Helvetica 14 SetF
%I t
[ 1 0 0 1 264 535 ] concat
%I
[
(0)
] Text
End

Begin %I Text
%I cfg Black
0 0 0 SetCFg
%I f -adobe-helvetica-medium-r-*-*-14-*-75-75-*-*-*-*
/Helvetica 14 SetF
%I t
[ 1 0 0 1 207 582 ] concat
%I
[
(10)
] Text
End

Begin %I Text
%I cfg Black
0 0 0 SetCFg
%I f -adobe-helvetica-medium-r-*-*-14-*-75-75-*-*-*-*
/Helvetica 14 SetF
%I t
[ 1 0 0 1 192 644 ] concat
%I
[
(20)
] Text
End

Begin %I Text
%I cfg Black
0 0 0 SetCFg
%I f -adobe-helvetica-medium-r-*-*-14-*-75-75-*-*-*-*
/Helvetica 14 SetF
%I t
[ 1 0 0 1 209 706 ] concat
%I
[
(30)
] Text
End

Begin %I Text
%I cfg Black
0 0 0 SetCFg
%I f -adobe-helvetica-medium-r-*-*-14-*-75-75-*-*-*-*
/Helvetica 14 SetF
%I t
[ 1 0 0 1 258 756 ] concat
%I
[
(40)
] Text
End

Begin %I Text
%I cfg Black
0 0 0 SetCFg
%I f -adobe-helvetica-medium-r-*-*-14-*-75-75-*-*-*-*
/Helvetica 14 SetF
%I t
[ 1 0 0 1 324 772 ] concat
%I
[
(50)
] Text
End

Begin %I Text
%I cfg Black
0 0 0 SetCFg
%I f -adobe-helvetica-medium-r-*-*-14-*-75-75-*-*-*-*
/Helvetica 14 SetF
%I t
[ 1 0 0 1 388 756 ] concat
%I
[
(60)
] Text
End

Begin %I Text
%I cfg Black
0 0 0 SetCFg
%I f -adobe-helvetica-medium-r-*-*-14-*-75-75-*-*-*-*
/Helvetica 14 SetF
%I t
[ 1 0 0 1 437 703 ] concat
%I
[
(70)
] Text
End

Begin %I Text
%I cfg Black
0 0 0 SetCFg
%I f -adobe-helvetica-medium-r-*-*-14-*-75-75-*-*-*-*
/Helvetica 14 SetF
%I t
[ 1 0 0 1 452 645 ] concat
%I
[
(80)
] Text
End

Begin %I Text
%I cfg Black
0 0 0 SetCFg
%I f -adobe-helvetica-medium-r-*-*-14-*-75-75-*-*-*-*
/Helvetica 14 SetF
%I t
[ 1 0 0 1 437 582 ] concat
%I
[
(90)
] Text
End

Begin %I Text
%I cfg Black
0 0 0 SetCFg
%I f -adobe-helvetica-medium-r-*-*-14-*-75-75-*-*-*-*
/Helvetica 14 SetF
%I t
[ 1 0 0 1 387 533 ] concat
%I
[
(100)
] Text
End

End %I eop

Begin %I Pict dynamic
%I b u
%I cfg Black
0 0 0 SetCFg
%I cbg White
1 1 1 SetCBg
%I f u
%I p u
%I t
[ .396789 .687259 -.687259 .396789 449.335 385.326 ] concat

Begin %I Pict
%I b u
%I cfg u
%I cbg u
%I f u
%I p u
%I t
[ 1 0 0 1 -7 1 ] concat

Begin %I Pict
%I b u
%I cfg u
%I cbg u
%I f u
%I p u
%I t
[ .914062 1.42027e-08 0 1 -109.753 -4.49994 ] concat

Begin %I Rect
none SetB %I b n
%I cfg Black
0 0 0 SetCFg
%I cbg White
1 1 1 SetCBg
none SetP %I p n
%I t
[ .614469 0 0 1 189.458 -54 ] concat
%I
228 339 458 348 Rect
End

Begin %I Rect
%I b 65535
2 0 0 [] 0 SetB
%I cfg Black
0 0 0 SetCFg
%I cbg White
1 1 1 SetCBg
%I p
1 SetP
%I t
[ .336107 0 0 1 253.607 -54 ] concat
%I
228 339 458 348 Rect
End

End %I eop

Begin %I Rect
%I b 65535
2 0 0 [] 0 SetB
%I cfg Black
0 0 0 SetCFg
%I cbg White
1 1 1 SetCBg
%I p
0 SetP
%I t
[ .454504 7.06206e-09 0 1 -2.82333 -58.4999 ] concat
%I
228 339 458 348 Rect
End

End %I eop

Begin %I Poly
%I b 65535
2 0 0 [] 0 SetB
%I cfg Black
0 0 0 SetCFg
%I cbg White
1 1 1 SetCBg
%I p
0 SetP
%I t
[ .689589 1.07148e-08 0 .979021 -7.4944 132.794 ] concat
%I 5
146 152
130 157
146 162
146 153
146 153
5 Poly
End

End %I eop

Begin %I Rect start
%I b 65535
1 0 0 [] 0 SetB
%I cfg Black
0 0 0 SetCFg
%I cbg White
1 1 1 SetCBg
%I p
0 SetP
%I t u
%I
285 556 305 566 Rect
End

Begin %I Rect stop
%I b 65535
1 0 0 [] 0 SetB
%I cfg Black
0 0 0 SetCFg
%I cbg White
1 1 1 SetCBg
%I p
0 SetP
%I t u
%I
378 555 387 561 Rect
End

Begin %I Rect pivot
%I b 65535
1 0 0 [] 0 SetB
%I cfg Black
0 0 0 SetCFg
%I cbg White
1 1 1 SetCBg
%I p
0 SetP
%I t
[ 1 0 0 1 -1 0 ] concat
%I
333 636 348 643 Rect
End

End %I eop

showpage

%%Trailer

end
