%!PS-Adobe-2.0 EPSF-1.2
%%DocumentFonts:
%%Pages: 1
%%BoundingBox: 133 321 404 602
%%EndComments

50 dict begin

/arrowHeight 8 def
/arrowWidth 4 def
/none null def
/numGraphicParameters 17 def
/stringLimit 65535 def

/Begin {
save
numGraphicParameters dict begin
} def

/End {
end
restore
} def

/SetB {
dup type /nulltype eq {
pop
false /brushRightArrow idef
false /brushLeftArrow idef
true /brushNone idef
} {
/brushDashOffset idef
/brushDashArray idef
0 ne /brushRightArrow idef
0 ne /brushLeftArrow idef
/brushWidth idef
false /brushNone idef
} ifelse
} def

/SetCFg {
/fgblue idef
/fggreen idef
/fgred idef
} def

/SetCBg {
/bgblue idef
/bggreen idef
/bgred idef
} def

/SetF {
/printSize idef
/printFont idef
} def

/SetP {
dup type /nulltype eq {
pop true /patternNone idef
} {
/patternGrayLevel idef
patternGrayLevel -1 eq {
/patternString idef
} if
false /patternNone idef
} ifelse
} def

/BSpl {
0 begin
storexyn
newpath
n 1 gt {
0 0 0 0 0 0 1 1 true subspline
n 2 gt {
0 0 0 0 1 1 2 2 false subspline
1 1 n 3 sub {
/i exch def
i 1 sub dup i dup i 1 add dup i 2 add dup false subspline
} for
n 3 sub dup n 2 sub dup n 1 sub dup 2 copy false subspline
} if
n 2 sub dup n 1 sub dup 2 copy 2 copy false subspline
patternNone not brushLeftArrow not brushRightArrow not and and { ifill } if
brushNone not { istroke } if
0 0 1 1 leftarrow
n 2 sub dup n 1 sub dup rightarrow
} if
end
} dup 0 4 dict put def

/Circ {
newpath
0 360 arc
patternNone not { ifill } if
brushNone not { istroke } if
} def

/CBSpl {
0 begin
dup 2 gt {
storexyn
newpath
n 1 sub dup 0 0 1 1 2 2 true subspline
1 1 n 3 sub {
/i exch def
i 1 sub dup i dup i 1 add dup i 2 add dup false subspline
} for
n 3 sub dup n 2 sub dup n 1 sub dup 0 0 false subspline
n 2 sub dup n 1 sub dup 0 0 1 1 false subspline
patternNone not { ifill } if
brushNone not { istroke } if
} {
Poly
} ifelse
end
} dup 0 4 dict put def

/Elli {
0 begin
newpath
4 2 roll
translate
scale
0 0 1 0 360 arc
patternNone not { ifill } if
brushNone not { istroke } if
end
} dup 0 1 dict put def

/Line {
0 begin
2 storexyn
newpath
x 0 get y 0 get moveto
x 1 get y 1 get lineto
brushNone not { istroke } if
0 0 1 1 leftarrow
0 0 1 1 rightarrow
end
} dup 0 4 dict put def

/MLine {
0 begin
storexyn
newpath
n 1 gt {
x 0 get y 0 get moveto
1 1 n 1 sub {
/i exch def
x i get y i get lineto
} for
patternNone not brushLeftArrow not brushRightArrow not and and { ifill } if
brushNone not { istroke } if
0 0 1 1 leftarrow
n 2 sub dup n 1 sub dup rightarrow
} if
end
} dup 0 4 dict put def

/Poly {
3 1 roll
newpath
moveto
-1 add
{ lineto } repeat
closepath
patternNone not { ifill } if
brushNone not { istroke } if
} def

/Rect {
0 begin
/t exch def
/r exch def
/b exch def
/l exch def
newpath
l b moveto
l t lineto
r t lineto
r b lineto
closepath
patternNone not { ifill } if
brushNone not { istroke } if
end
} dup 0 4 dict put def

/Text {
ishow
} def

/idef {
dup where { pop pop pop } { exch def } ifelse
} def

/ifill {
0 begin
gsave
patternGrayLevel -1 ne {
fgred bgred fgred sub patternGrayLevel mul add
fggreen bggreen fggreen sub patternGrayLevel mul add
fgblue bgblue fgblue sub patternGrayLevel mul add setrgbcolor
eofill
} {
eoclip
originalCTM setmatrix
pathbbox /t exch def /r exch def /b exch def /l exch def
/w r l sub ceiling cvi def
/h t b sub ceiling cvi def
/imageByteWidth w 8 div ceiling cvi def
/imageHeight h def
bgred bggreen bgblue setrgbcolor
eofill
fgred fggreen fgblue setrgbcolor
w 0 gt h 0 gt and {
l b translate w h scale
w h true [w 0 0 h neg 0 h] { patternproc } imagemask
} if
} ifelse
grestore
end
} dup 0 8 dict put def

/istroke {
gsave
brushDashOffset -1 eq {
[] 0 setdash
1 setgray
} {
brushDashArray brushDashOffset setdash
fgred fggreen fgblue setrgbcolor
} ifelse
brushWidth setlinewidth
originalCTM setmatrix
stroke
grestore
} def

/ishow {
0 begin
gsave
printFont findfont printSize scalefont setfont
fgred fggreen fgblue setrgbcolor
/vertoffset printSize neg def {
0 vertoffset moveto show
/vertoffset vertoffset printSize sub def
} forall
grestore
end
} dup 0 3 dict put def

/patternproc {
0 begin
/patternByteLength patternString length def
/patternHeight patternByteLength 8 mul sqrt cvi def
/patternWidth patternHeight def
/patternByteWidth patternWidth 8 idiv def
/imageByteMaxLength imageByteWidth imageHeight mul
stringLimit patternByteWidth sub min def
/imageMaxHeight imageByteMaxLength imageByteWidth idiv patternHeight idiv
patternHeight mul patternHeight max def
/imageHeight imageHeight imageMaxHeight sub store
/imageString imageByteWidth imageMaxHeight mul patternByteWidth add string def
0 1 imageMaxHeight 1 sub {
/y exch def
/patternRow y patternByteWidth mul patternByteLength mod def
/patternRowString patternString patternRow patternByteWidth getinterval def
/imageRow y imageByteWidth mul def
0 patternByteWidth imageByteWidth 1 sub {
/x exch def
imageString imageRow x add patternRowString putinterval
} for
} for
imageString
end
} dup 0 12 dict put def

/min {
dup 3 2 roll dup 4 3 roll lt { exch } if pop
} def

/max {
dup 3 2 roll dup 4 3 roll gt { exch } if pop
} def

/arrowhead {
0 begin
transform originalCTM itransform
/taily exch def
/tailx exch def
transform originalCTM itransform
/tipy exch def
/tipx exch def
/dy tipy taily sub def
/dx tipx tailx sub def
/angle dx 0 ne dy 0 ne or { dy dx atan } { 90 } ifelse def
gsave
originalCTM setmatrix
tipx tipy translate
angle rotate
newpath
0 0 moveto
arrowHeight neg arrowWidth 2 div lineto
arrowHeight neg arrowWidth 2 div neg lineto
closepath
patternNone not {
originalCTM setmatrix
/padtip arrowHeight 2 exp 0.25 arrowWidth 2 exp mul add sqrt brushWidth mul
arrowWidth div def
/padtail brushWidth 2 div def
tipx tipy translate
angle rotate
padtip 0 translate
arrowHeight padtip add padtail add arrowHeight div dup scale
arrowheadpath
ifill
} if
brushNone not {
originalCTM setmatrix
tipx tipy translate
angle rotate
arrowheadpath
istroke
} if
grestore
end
} dup 0 9 dict put def

/arrowheadpath {
newpath
0 0 moveto
arrowHeight neg arrowWidth 2 div lineto
arrowHeight neg arrowWidth 2 div neg lineto
closepath
} def

/leftarrow {
0 begin
y exch get /taily exch def
x exch get /tailx exch def
y exch get /tipy exch def
x exch get /tipx exch def
brushLeftArrow { tipx tipy tailx taily arrowhead } if
end
} dup 0 4 dict put def

/rightarrow {
0 begin
y exch get /tipy exch def
x exch get /tipx exch def
y exch get /taily exch def
x exch get /tailx exch def
brushRightArrow { tipx tipy tailx taily arrowhead } if
end
} dup 0 4 dict put def

/midpoint {
0 begin
/y1 exch def
/x1 exch def
/y0 exch def
/x0 exch def
x0 x1 add 2 div
y0 y1 add 2 div
end
} dup 0 4 dict put def

/thirdpoint {
0 begin
/y1 exch def
/x1 exch def
/y0 exch def
/x0 exch def
x0 2 mul x1 add 3 div
y0 2 mul y1 add 3 div
end
} dup 0 4 dict put def

/subspline {
0 begin
/movetoNeeded exch def
y exch get /y3 exch def
x exch get /x3 exch def
y exch get /y2 exch def
x exch get /x2 exch def
y exch get /y1 exch def
x exch get /x1 exch def
y exch get /y0 exch def
x exch get /x0 exch def
x1 y1 x2 y2 thirdpoint
/p1y exch def
/p1x exch def
x2 y2 x1 y1 thirdpoint
/p2y exch def
/p2x exch def
x1 y1 x0 y0 thirdpoint
p1x p1y midpoint
/p0y exch def
/p0x exch def
x2 y2 x3 y3 thirdpoint
p2x p2y midpoint
/p3y exch def
/p3x exch def
movetoNeeded { p0x p0y moveto } if
p1x p1y p2x p2y p3x p3y curveto
end
} dup 0 17 dict put def

/storexyn {
/n exch def
/y n array def
/x n array def
n 1 sub -1 0 {
/i exch def
y i 3 2 roll put
x i 3 2 roll put
} for
} def

%%EndProlog

%I Idraw 5 Grid 4.80467

%%Page: 1 1

Begin
%I b u
%I cfg u
%I cbg u
%I f u
%I p u
%I t
[ .8 0 0 .8 0 0 ] concat
/originalCTM matrix currentmatrix def

Begin %I Pict neutral
%I b u
%I cfg u
%I cbg u
%I f u
%I p u
%I t u

Begin %I Pict
%I b u
%I cfg u
%I cbg u
%I f u
%I p u
%I t u

Begin %I Pict
%I b u
%I cfg u
%I cbg u
%I f u
%I p u
%I t
[ 1 0 0 1 6 -197 ] concat

Begin %I Elli
%I b 65535
1 0 0 [] 0 SetB
%I cfg Brown
.644541 .164065 .164065 SetCFg
%I cbg White
1 1 1 SetCBg
%I p
.5 SetP
%I t
[ 1 0 0 1 32.5 -47 ] concat
%I
214 723 66 76 Elli
End

Begin %I Pict
%I b u
%I cfg u
%I cbg u
%I f u
%I p u
%I t u

Begin %I Pict
%I b u
%I cfg u
%I cbg u
%I f u
%I p u
%I t u

Begin %I Elli
%I b 65535
1 0 0 [] 0 SetB
%I cfg Brown
.644541 .164065 .164065 SetCFg
%I cbg White
1 1 1 SetCBg
%I p
1 SetP
%I t
[ 1 0 0 1 15 -17 ] concat
%I
203 710 13 7 Elli
End

Begin %I Elli
%I b 65535
1 0 0 [] 0 SetB
%I cfg Brown
.644541 .164065 .164065 SetCFg
%I cbg White
1 1 1 SetCBg
%I p
1 SetP
%I t
[ 1 0 0 1 69 -17 ] concat
%I
203 710 13 7 Elli
End

End %I eop

Begin %I Pict
%I b u
%I cfg u
%I cbg u
%I f u
%I p u
%I t u

Begin %I Elli
%I b 65535
1 0 0 [] 0 SetB
%I cfg Black
0 0 0 SetCFg
%I cbg Blue
0 0 .996109 SetCBg
%I p
< 77 bb ee dd 77 bb ee dd > -1 SetP
%I t
[ 1 0 0 1 -1 -1 ] concat
%I
273 694 5 5 Elli
End

Begin %I Elli
%I b 65535
1 0 0 [] 0 SetB
%I cfg Black
0 0 0 SetCFg
%I cbg Blue
0 0 .996109 SetCBg
%I p
< 77 bb ee dd 77 bb ee dd > -1 SetP
%I t
[ 1 0 0 1 -55 -1 ] concat
%I
273 694 5 5 Elli
End

End %I eop

End %I eop

Begin %I CBSpl
%I b 65535
1 0 0 [] 0 SetB
%I cfg Brown
.644541 .164065 .164065 SetCFg
%I cbg White
1 1 1 SetCBg
%I p
.25 SetP
%I t u
%I 25
245 683
240 681
240 673
239 669
238 664
235 661
234 658
239 656
242 655
246 655
251 655
252 656
257 658
259 660
256 661
254 664
254 668
253 673
252 677
252 678
251 681
249 683
246 684
244 683
246 683
25 CBSpl
End

End %I eop

Begin %I Poly
none SetB %I b n
%I cfg Yellow
.996109 .996109 0 SetCFg
%I cbg Brown
.644541 .164065 .164065 SetCBg
%I p
< 88 44 22 11 88 44 22 11 > -1 SetP
%I t
[ 1 0 0 1 6 -197 ] concat
%I 23
206 736
212 730
216 729
230 726
237 732
242 720
244 725
248 719
252 728
259 724
264 731
270 727
273 731
280 731
293 731
279 743
270 749
258 751
247 752
234 751
222 747
216 743
216 743
23 Poly
End

Begin %I CBSpl
%I b 65535
1 0 0 [] 0 SetB
%I cfg Brown
.644541 .164065 .164065 SetCFg
%I cbg White
1 1 1 SetCBg
%I p
.5 SetP
%I t
[ 1 0 0 1 5 -204 ] concat
%I 23
312 689
313 690
314 691
315 692
317 693
319 694
322 693
323 693
325 691
325 688
325 685
324 678
323 676
322 673
320 670
319 667
317 665
315 664
312 665
312 666
313 676
312 680
312 685
23 CBSpl
End

Begin %I CBSpl
%I b 65535
1 0 0 [] 0 SetB
%I cfg Brown
.644541 .164065 .164065 SetCFg
%I cbg White
1 1 1 SetCBg
%I p
.5 SetP
%I t
[ -1 0 0 1 499 -204 ] concat
%I 23
312 689
313 690
314 691
315 692
317 693
319 694
322 693
323 693
325 691
325 688
325 685
324 678
323 676
322 673
320 670
319 667
317 665
315 664
312 665
312 666
313 676
312 680
312 685
23 CBSpl
End

End %I eop

Begin %I Pict
%I b u
%I cfg u
%I cbg u
%I f u
%I p u
%I t
[ 1 0 0 1 -177 -201 ] concat

Begin %I CBSpl
%I b 65535
1 0 0 [] 0 SetB
%I cfg Black
0 0 0 SetCFg
%I cbg White
1 1 1 SetCBg
%I p
.25 SetP
%I t
[ .972398 -.233329 .233329 .972398 25.0952 76.7305 ] concat
%I 32
206 703
206 702
205 701
207 701
211 701
213 702
215 703
218 704
222 705
224 706
227 707
229 707
230 707
231 708
232 709
233 711
234 713
232 713
230 713
228 712
225 709
222 709
218 708
216 707
213 706
212 706
210 705
209 705
208 704
207 704
207 704
206 703
32 CBSpl
End

Begin %I CBSpl
%I b 65535
1 0 0 [] 0 SetB
%I cfg Black
0 0 0 SetCFg
%I cbg White
1 1 1 SetCBg
%I p
.25 SetP
%I t
[ -.945615 .325288 -.325288 -.945615 894.041 1309.15 ] concat
%I 32
206 703
206 702
205 701
207 701
211 701
213 702
215 703
218 704
222 705
224 706
227 707
229 707
230 707
231 708
232 709
233 711
234 713
232 713
230 713
228 712
225 709
222 709
218 708
216 707
213 706
212 706
210 705
209 705
208 704
207 704
207 704
206 703
32 CBSpl
End

Begin %I CBSpl
%I b 65535
1 0 0 [] 0 SetB
%I cfg Brown
.644541 .164065 .164065 SetCFg
%I cbg White
1 1 1 SetCBg
%I p
.25 SetP
%I t
[ 1 0 0 1 0 -4 ] concat
%I 49
404 641
404 643
405 645
405 645
408 644
412 643
415 644
417 644
420 643
424 645
426 643
430 645
435 643
441 645
443 643
448 643
450 644
453 644
455 644
456 644
458 644
460 644
463 643
463 643
461 641
460 641
457 641
454 641
452 641
449 641
447 641
444 641
441 641
437 641
434 641
432 638
425 641
419 641
416 641
415 641
412 641
409 640
407 641
405 641
405 641
403 642
403 642
404 642
405 643
49 CBSpl
End

End %I eop

End %I eop

Begin %I Pict happy
%I b u
%I cfg u
%I cbg u
%I f u
%I p u
%I t u

Begin %I Pict
%I b u
%I cfg u
%I cbg u
%I f u
%I p u
%I t u

Begin %I Pict
%I b u
%I cfg u
%I cbg u
%I f u
%I p u
%I t
[ 1 0 0 1 180 -2 ] concat

Begin %I Elli
%I b 65535
1 0 0 [] 0 SetB
%I cfg Brown
.644541 .164065 .164065 SetCFg
%I cbg White
1 1 1 SetCBg
%I p
.5 SetP
%I t
[ 1 0 0 1 32.5 -47 ] concat
%I
214 723 66 76 Elli
End

Begin %I Pict
%I b u
%I cfg u
%I cbg u
%I f u
%I p u
%I t u

Begin %I Pict
%I b u
%I cfg u
%I cbg u
%I f u
%I p u
%I t u

Begin %I Elli
%I b 65535
1 0 0 [] 0 SetB
%I cfg Brown
.644541 .164065 .164065 SetCFg
%I cbg White
1 1 1 SetCBg
%I p
1 SetP
%I t
[ 1 0 0 1 15 -17 ] concat
%I
203 710 13 7 Elli
End

Begin %I Elli
%I b 65535
1 0 0 [] 0 SetB
%I cfg Brown
.644541 .164065 .164065 SetCFg
%I cbg White
1 1 1 SetCBg
%I p
1 SetP
%I t
[ 1 0 0 1 69 -17 ] concat
%I
203 710 13 7 Elli
End

End %I eop

Begin %I Pict
%I b u
%I cfg u
%I cbg u
%I f u
%I p u
%I t u

Begin %I Elli
%I b 65535
1 0 0 [] 0 SetB
%I cfg Black
0 0 0 SetCFg
%I cbg Blue
0 0 .996109 SetCBg
%I p
< 77 bb ee dd 77 bb ee dd > -1 SetP
%I t
[ 1 0 0 1 -1 -1 ] concat
%I
273 694 5 5 Elli
End

Begin %I Elli
%I b 65535
1 0 0 [] 0 SetB
%I cfg Black
0 0 0 SetCFg
%I cbg Blue
0 0 .996109 SetCBg
%I p
< 77 bb ee dd 77 bb ee dd > -1 SetP
%I t
[ 1 0 0 1 -55 -1 ] concat
%I
273 694 5 5 Elli
End

End %I eop

End %I eop

Begin %I CBSpl
%I b 65535
1 0 0 [] 0 SetB
%I cfg Brown
.644541 .164065 .164065 SetCFg
%I cbg White
1 1 1 SetCBg
%I p
.25 SetP
%I t u
%I 25
245 683
240 681
240 673
239 669
238 664
235 661
234 658
239 656
242 655
246 655
251 655
252 656
257 658
259 660
256 661
254 664
254 668
253 673
252 677
252 678
251 681
249 683
246 684
244 683
246 683
25 CBSpl
End

End %I eop

Begin %I Poly
none SetB %I b n
%I cfg Yellow
.996109 .996109 0 SetCFg
%I cbg Brown
.644541 .164065 .164065 SetCBg
%I p
< 88 44 22 11 88 44 22 11 > -1 SetP
%I t
[ 1 0 0 1 180 -2 ] concat
%I 23
206 736
212 730
216 729
230 726
237 732
242 720
244 725
248 719
252 728
259 724
264 731
270 727
273 731
280 731
293 731
279 743
270 749
258 751
247 752
234 751
222 747
216 743
216 743
23 Poly
End

Begin %I CBSpl
%I b 65535
1 0 0 [] 0 SetB
%I cfg Brown
.644541 .164065 .164065 SetCFg
%I cbg White
1 1 1 SetCBg
%I p
.5 SetP
%I t
[ 1 0 0 1 179 -9 ] concat
%I 23
312 689
313 690
314 691
315 692
317 693
319 694
322 693
323 693
325 691
325 688
325 685
324 678
323 676
322 673
320 670
319 667
317 665
315 664
312 665
312 666
313 676
312 680
312 685
23 CBSpl
End

Begin %I CBSpl
%I b 65535
1 0 0 [] 0 SetB
%I cfg Brown
.644541 .164065 .164065 SetCFg
%I cbg White
1 1 1 SetCBg
%I p
.5 SetP
%I t
[ -1 0 0 1 673 -9 ] concat
%I 23
312 689
313 690
314 691
315 692
317 693
319 694
322 693
323 693
325 691
325 688
325 685
324 678
323 676
322 673
320 670
319 667
317 665
315 664
312 665
312 666
313 676
312 680
312 685
23 CBSpl
End

End %I eop

Begin %I Pict
%I b u
%I cfg u
%I cbg u
%I f u
%I p u
%I t
[ 1 0 0 1 -177.777 -7.31122 ] concat

Begin %I CBSpl
%I b 65535
1 0 0 [] 0 SetB
%I cfg Brown
.644541 .164065 .164065 SetCFg
%I cbg White
1 1 1 SetCBg
%I p
.25 SetP
%I t
[ -1 2.43359e-08 -2.43359e-08 -1 851 1267 ] concat
%I 57
215 625
218 626
219 628
222 630
229 634
232 636
235 637
240 638
242 638
248 639
249 639
252 639
256 638
260 637
263 636
266 635
268 634
272 631
274 630
276 627
277 626
278 625
278 623
278 622
277 621
275 622
274 623
272 625
270 629
267 631
266 631
266 632
260 634
259 634
254 635
252 636
249 636
244 636
242 636
240 636
237 635
232 633
232 633
229 632
228 630
226 628
224 627
222 625
220 624
218 621
217 621
215 620
213 621
212 622
213 622
214 622
214 622
57 CBSpl
End

Begin %I CBSpl
%I b 65535
1 0 0 [] 0 SetB
%I cfg Black
0 0 0 SetCFg
%I cbg White
1 1 1 SetCBg
%I p
.25 SetP
%I t
[ -.969196 -.246291 .246291 -.969196 615.111 1458.28 ] concat
%I 32
206 703
206 702
205 701
207 701
211 701
213 702
215 703
218 704
222 705
224 706
227 707
229 707
230 707
231 708
232 709
233 711
234 713
232 713
230 713
228 712
225 709
222 709
218 708
216 707
213 706
212 706
210 705
209 705
208 704
207 704
207 704
206 703
32 CBSpl
End

Begin %I CBSpl
%I b 65535
1 0 0 [] 0 SetB
%I cfg Black
0 0 0 SetCFg
%I cbg White
1 1 1 SetCBg
%I p
.25 SetP
%I t
[ .467677 -.883899 .883899 .467677 -93.072 582.368 ] concat
%I 32
206 703
206 702
205 701
207 701
211 701
213 702
215 703
218 704
222 705
224 706
227 707
229 707
230 707
231 708
232 709
233 711
234 713
232 713
230 713
228 712
225 709
222 709
218 708
216 707
213 706
212 706
210 705
209 705
208 704
207 704
207 704
206 703
32 CBSpl
End

End %I eop

End %I eop

Begin %I Pict sad
%I b u
%I cfg u
%I cbg u
%I f u
%I p u
%I t u

Begin %I Pict
%I b u
%I cfg u
%I cbg u
%I f u
%I p u
%I t u

Begin %I Pict
%I b u
%I cfg u
%I cbg u
%I f u
%I p u
%I t u

Begin %I Elli
%I b 65535
1 0 0 [] 0 SetB
%I cfg Brown
.644541 .164065 .164065 SetCFg
%I cbg White
1 1 1 SetCBg
%I p
.5 SetP
%I t
[ 1 0 0 1 32.5 -47 ] concat
%I
214 723 66 76 Elli
End

Begin %I Pict
%I b u
%I cfg u
%I cbg u
%I f u
%I p u
%I t u

Begin %I Pict
%I b u
%I cfg u
%I cbg u
%I f u
%I p u
%I t u

Begin %I Elli
%I b 65535
1 0 0 [] 0 SetB
%I cfg Brown
.644541 .164065 .164065 SetCFg
%I cbg White
1 1 1 SetCBg
%I p
1 SetP
%I t
[ 1 0 0 1 15 -17 ] concat
%I
203 710 13 7 Elli
End

Begin %I Elli
%I b 65535
1 0 0 [] 0 SetB
%I cfg Brown
.644541 .164065 .164065 SetCFg
%I cbg White
1 1 1 SetCBg
%I p
1 SetP
%I t
[ 1 0 0 1 69 -17 ] concat
%I
203 710 13 7 Elli
End

End %I eop

Begin %I Pict
%I b u
%I cfg u
%I cbg u
%I f u
%I p u
%I t u

Begin %I Elli
%I b 65535
1 0 0 [] 0 SetB
%I cfg Black
0 0 0 SetCFg
%I cbg Blue
0 0 .996109 SetCBg
%I p
< 77 bb ee dd 77 bb ee dd > -1 SetP
%I t
[ 1 0 0 1 -1 -1 ] concat
%I
273 694 5 5 Elli
End

Begin %I Elli
%I b 65535
1 0 0 [] 0 SetB
%I cfg Black
0 0 0 SetCFg
%I cbg Blue
0 0 .996109 SetCBg
%I p
< 77 bb ee dd 77 bb ee dd > -1 SetP
%I t
[ 1 0 0 1 -55 -1 ] concat
%I
273 694 5 5 Elli
End

End %I eop

End %I eop

Begin %I CBSpl
%I b 65535
1 0 0 [] 0 SetB
%I cfg Brown
.644541 .164065 .164065 SetCFg
%I cbg White
1 1 1 SetCBg
%I p
.25 SetP
%I t u
%I 25
245 683
240 681
240 673
239 669
238 664
235 661
234 658
239 656
242 655
246 655
251 655
252 656
257 658
259 660
256 661
254 664
254 668
253 673
252 677
252 678
251 681
249 683
246 684
244 683
246 683
25 CBSpl
End

End %I eop

Begin %I Poly
none SetB %I b n
%I cfg Yellow
.996109 .996109 0 SetCFg
%I cbg Brown
.644541 .164065 .164065 SetCBg
%I p
< 88 44 22 11 88 44 22 11 > -1 SetP
%I t u
%I 23
206 736
212 730
216 729
230 726
237 732
242 720
244 725
248 719
252 728
259 724
264 731
270 727
273 731
280 731
293 731
279 743
270 749
258 751
247 752
234 751
222 747
216 743
216 743
23 Poly
End

Begin %I CBSpl
%I b 65535
1 0 0 [] 0 SetB
%I cfg Brown
.644541 .164065 .164065 SetCFg
%I cbg White
1 1 1 SetCBg
%I p
.5 SetP
%I t
[ 1 0 0 1 -1 -7 ] concat
%I 23
312 689
313 690
314 691
315 692
317 693
319 694
322 693
323 693
325 691
325 688
325 685
324 678
323 676
322 673
320 670
319 667
317 665
315 664
312 665
312 666
313 676
312 680
312 685
23 CBSpl
End

Begin %I CBSpl
%I b 65535
1 0 0 [] 0 SetB
%I cfg Brown
.644541 .164065 .164065 SetCFg
%I cbg White
1 1 1 SetCBg
%I p
.5 SetP
%I t
[ -1 0 0 1 493 -7 ] concat
%I 23
312 689
313 690
314 691
315 692
317 693
319 694
322 693
323 693
325 691
325 688
325 685
324 678
323 676
322 673
320 670
319 667
317 665
315 664
312 665
312 666
313 676
312 680
312 685
23 CBSpl
End

End %I eop

Begin %I Pict
%I b u
%I cfg u
%I cbg u
%I f u
%I p u
%I t
[ 1 0 0 1 -0.0955658 5.85913 ] concat

Begin %I CBSpl
%I b 65535
1 0 0 [] 0 SetB
%I cfg Brown
.644541 .164065 .164065 SetCFg
%I cbg White
1 1 1 SetCBg
%I p
.25 SetP
%I t
[ 1 0 0 1 1 0 ] concat
%I 57
215 625
218 626
219 628
222 630
229 634
232 636
235 637
240 638
242 638
248 639
249 639
252 639
256 638
260 637
263 636
266 635
268 634
272 631
274 630
276 627
277 626
278 625
278 623
278 622
277 621
275 622
274 623
272 625
270 629
267 631
266 631
266 632
260 634
259 634
254 635
252 636
249 636
244 636
242 636
240 636
237 635
232 633
232 633
229 632
228 630
226 628
224 627
222 625
220 624
218 621
217 621
215 620
213 621
212 622
213 622
214 622
214 622
57 CBSpl
End

Begin %I CBSpl
%I b 65535
1 0 0 [] 0 SetB
%I cfg Black
0 0 0 SetCFg
%I cbg White
1 1 1 SetCBg
%I p
.25 SetP
%I t u
%I 32
206 703
206 702
205 701
207 701
211 701
213 702
215 703
218 704
222 705
224 706
227 707
229 707
230 707
231 708
232 709
233 711
234 713
232 713
230 713
228 712
225 709
222 709
218 708
216 707
213 706
212 706
210 705
209 705
208 704
207 704
207 704
206 703
32 CBSpl
End

Begin %I CBSpl
%I b 65535
1 0 0 [] 0 SetB
%I cfg Black
0 0 0 SetCFg
%I cbg White
1 1 1 SetCBg
%I p
.25 SetP
%I t
[ -.730657 .682745 -.682745 -.730657 915.58 1072.71 ] concat
%I 32
206 703
206 702
205 701
207 701
211 701
213 702
215 703
218 704
222 705
224 706
227 707
229 707
230 707
231 708
232 709
233 711
234 713
232 713
230 713
228 712
225 709
222 709
218 708
216 707
213 706
212 706
210 705
209 705
208 704
207 704
207 704
206 703
32 CBSpl
End

End %I eop

End %I eop

End %I eop

showpage

%%Trailer

end
