%!PS-Adobe-2.0 EPSF-1.2
%%DocumentFonts: Helvetica-Bold
%%Pages: 1
%%BoundingBox: 29 155 332 637
%%EndComments

50 dict begin

/arrowHeight 8 def
/arrowWidth 4 def
/none null def
/numGraphicParameters 17 def
/stringLimit 65535 def

/Begin {
save
numGraphicParameters dict begin
} def

/End {
end
restore
} def

/SetB {
dup type /nulltype eq {
pop
false /brushRightArrow idef
false /brushLeftArrow idef
true /brushNone idef
} {
/brushDashOffset idef
/brushDashArray idef
0 ne /brushRightArrow idef
0 ne /brushLeftArrow idef
/brushWidth idef
false /brushNone idef
} ifelse
} def

/SetCFg {
/fgblue idef
/fggreen idef
/fgred idef
} def

/SetCBg {
/bgblue idef
/bggreen idef
/bgred idef
} def

/SetF {
/printSize idef
/printFont idef
} def

/SetP {
dup type /nulltype eq {
pop true /patternNone idef
} {
/patternGrayLevel idef
patternGrayLevel -1 eq {
/patternString idef
} if
false /patternNone idef
} ifelse
} def

/BSpl {
0 begin
storexyn
newpath
n 1 gt {
0 0 0 0 0 0 1 1 true subspline
n 2 gt {
0 0 0 0 1 1 2 2 false subspline
1 1 n 3 sub {
/i exch def
i 1 sub dup i dup i 1 add dup i 2 add dup false subspline
} for
n 3 sub dup n 2 sub dup n 1 sub dup 2 copy false subspline
} if
n 2 sub dup n 1 sub dup 2 copy 2 copy false subspline
patternNone not brushLeftArrow not brushRightArrow not and and { ifill } if
brushNone not { istroke } if
0 0 1 1 leftarrow
n 2 sub dup n 1 sub dup rightarrow
} if
end
} dup 0 4 dict put def

/Circ {
newpath
0 360 arc
patternNone not { ifill } if
brushNone not { istroke } if
} def

/CBSpl {
0 begin
dup 2 gt {
storexyn
newpath
n 1 sub dup 0 0 1 1 2 2 true subspline
1 1 n 3 sub {
/i exch def
i 1 sub dup i dup i 1 add dup i 2 add dup false subspline
} for
n 3 sub dup n 2 sub dup n 1 sub dup 0 0 false subspline
n 2 sub dup n 1 sub dup 0 0 1 1 false subspline
patternNone not { ifill } if
brushNone not { istroke } if
} {
Poly
} ifelse
end
} dup 0 4 dict put def

/Elli {
0 begin
newpath
4 2 roll
translate
scale
0 0 1 0 360 arc
patternNone not { ifill } if
brushNone not { istroke } if
end
} dup 0 1 dict put def

/Line {
0 begin
2 storexyn
newpath
x 0 get y 0 get moveto
x 1 get y 1 get lineto
brushNone not { istroke } if
0 0 1 1 leftarrow
0 0 1 1 rightarrow
end
} dup 0 4 dict put def

/MLine {
0 begin
storexyn
newpath
n 1 gt {
x 0 get y 0 get moveto
1 1 n 1 sub {
/i exch def
x i get y i get lineto
} for
patternNone not brushLeftArrow not brushRightArrow not and and { ifill } if
brushNone not { istroke } if
0 0 1 1 leftarrow
n 2 sub dup n 1 sub dup rightarrow
} if
end
} dup 0 4 dict put def

/Poly {
3 1 roll
newpath
moveto
-1 add
{ lineto } repeat
closepath
patternNone not { ifill } if
brushNone not { istroke } if
} def

/Rect {
0 begin
/t exch def
/r exch def
/b exch def
/l exch def
newpath
l b moveto
l t lineto
r t lineto
r b lineto
closepath
patternNone not { ifill } if
brushNone not { istroke } if
end
} dup 0 4 dict put def

/Text {
ishow
} def

/idef {
dup where { pop pop pop } { exch def } ifelse
} def

/ifill {
0 begin
gsave
patternGrayLevel -1 ne {
fgred bgred fgred sub patternGrayLevel mul add
fggreen bggreen fggreen sub patternGrayLevel mul add
fgblue bgblue fgblue sub patternGrayLevel mul add setrgbcolor
eofill
} {
eoclip
originalCTM setmatrix
pathbbox /t exch def /r exch def /b exch def /l exch def
/w r l sub ceiling cvi def
/h t b sub ceiling cvi def
/imageByteWidth w 8 div ceiling cvi def
/imageHeight h def
bgred bggreen bgblue setrgbcolor
eofill
fgred fggreen fgblue setrgbcolor
w 0 gt h 0 gt and {
l b translate w h scale
w h true [w 0 0 h neg 0 h] { patternproc } imagemask
} if
} ifelse
grestore
end
} dup 0 8 dict put def

/istroke {
gsave
brushDashOffset -1 eq {
[] 0 setdash
1 setgray
} {
brushDashArray brushDashOffset setdash
fgred fggreen fgblue setrgbcolor
} ifelse
brushWidth setlinewidth
originalCTM setmatrix
stroke
grestore
} def

/ishow {
0 begin
gsave
fgred fggreen fgblue setrgbcolor
/fontDict printFont findfont printSize scalefont dup setfont def
/descender fontDict begin 0 [FontBBox] 1 get FontMatrix end
transform exch pop def
/vertoffset 0 descender sub printSize sub printFont /Courier ne
printFont /Courier-Bold ne and { 1 add } if def {
0 vertoffset moveto show
/vertoffset vertoffset printSize sub def
} forall
grestore
end
} dup 0 3 dict put def

/patternproc {
0 begin
/patternByteLength patternString length def
/patternHeight patternByteLength 8 mul sqrt cvi def
/patternWidth patternHeight def
/patternByteWidth patternWidth 8 idiv def
/imageByteMaxLength imageByteWidth imageHeight mul
stringLimit patternByteWidth sub min def
/imageMaxHeight imageByteMaxLength imageByteWidth idiv patternHeight idiv
patternHeight mul patternHeight max def
/imageHeight imageHeight imageMaxHeight sub store
/imageString imageByteWidth imageMaxHeight mul patternByteWidth add string def
0 1 imageMaxHeight 1 sub {
/y exch def
/patternRow y patternByteWidth mul patternByteLength mod def
/patternRowString patternString patternRow patternByteWidth getinterval def
/imageRow y imageByteWidth mul def
0 patternByteWidth imageByteWidth 1 sub {
/x exch def
imageString imageRow x add patternRowString putinterval
} for
} for
imageString
end
} dup 0 12 dict put def

/min {
dup 3 2 roll dup 4 3 roll lt { exch } if pop
} def

/max {
dup 3 2 roll dup 4 3 roll gt { exch } if pop
} def

/arrowhead {
0 begin
transform originalCTM itransform
/taily exch def
/tailx exch def
transform originalCTM itransform
/tipy exch def
/tipx exch def
/dy tipy taily sub def
/dx tipx tailx sub def
/angle dx 0 ne dy 0 ne or { dy dx atan } { 90 } ifelse def
gsave
originalCTM setmatrix
tipx tipy translate
angle rotate
newpath
0 0 moveto
arrowHeight neg arrowWidth 2 div lineto
arrowHeight neg arrowWidth 2 div neg lineto
closepath
patternNone not {
originalCTM setmatrix
/padtip arrowHeight 2 exp 0.25 arrowWidth 2 exp mul add sqrt brushWidth mul
arrowWidth div def
/padtail brushWidth 2 div def
tipx tipy translate
angle rotate
padtip 0 translate
arrowHeight padtip add padtail add arrowHeight div dup scale
arrowheadpath
ifill
} if
brushNone not {
originalCTM setmatrix
tipx tipy translate
angle rotate
arrowheadpath
istroke
} if
grestore
end
} dup 0 9 dict put def

/arrowheadpath {
newpath
0 0 moveto
arrowHeight neg arrowWidth 2 div lineto
arrowHeight neg arrowWidth 2 div neg lineto
closepath
} def

/leftarrow {
0 begin
y exch get /taily exch def
x exch get /tailx exch def
y exch get /tipy exch def
x exch get /tipx exch def
brushLeftArrow { tipx tipy tailx taily arrowhead } if
end
} dup 0 4 dict put def

/rightarrow {
0 begin
y exch get /tipy exch def
x exch get /tipx exch def
y exch get /taily exch def
x exch get /tailx exch def
brushRightArrow { tipx tipy tailx taily arrowhead } if
end
} dup 0 4 dict put def

/midpoint {
0 begin
/y1 exch def
/x1 exch def
/y0 exch def
/x0 exch def
x0 x1 add 2 div
y0 y1 add 2 div
end
} dup 0 4 dict put def

/thirdpoint {
0 begin
/y1 exch def
/x1 exch def
/y0 exch def
/x0 exch def
x0 2 mul x1 add 3 div
y0 2 mul y1 add 3 div
end
} dup 0 4 dict put def

/subspline {
0 begin
/movetoNeeded exch def
y exch get /y3 exch def
x exch get /x3 exch def
y exch get /y2 exch def
x exch get /x2 exch def
y exch get /y1 exch def
x exch get /x1 exch def
y exch get /y0 exch def
x exch get /x0 exch def
x1 y1 x2 y2 thirdpoint
/p1y exch def
/p1x exch def
x2 y2 x1 y1 thirdpoint
/p2y exch def
/p2x exch def
x1 y1 x0 y0 thirdpoint
p1x p1y midpoint
/p0y exch def
/p0x exch def
x2 y2 x3 y3 thirdpoint
p2x p2y midpoint
/p3y exch def
/p3x exch def
movetoNeeded { p0x p0y moveto } if
p1x p1y p2x p2y p3x p3y curveto
end
} dup 0 17 dict put def

/storexyn {
/n exch def
/y n array def
/x n array def
n 1 sub -1 0 {
/i exch def
y i 3 2 roll put
x i 3 2 roll put
} for
} def

%%EndProlog

%I Idraw 7 Grid 8 

%%Page: 1 1

Begin
%I b u
%I cfg u
%I cbg u
%I f u
%I p u
%I t
[ 0.8 0 0 0.8 0 0 ] concat
/originalCTM matrix currentmatrix def

Begin %I Rect
none SetB %I b n
%I cfg DkGray
0.503548 0.503548 0.503548 SetCFg
%I cbg LtGray
0.762951 0.762951 0.762951 SetCBg
none SetP %I p n
%I t
[ 1 0 0 1 -240 140 ] concat
%I
452 83 653 654 Rect
End

Begin %I Pict static
%I b u
%I cfg u
%I cbg u
%I f u
%I p u
%I t
[ 1 0 0 1 0 -1 ] concat

Begin %I Rect
none SetB %I b n
%I cfg Red
1 0 0 SetCFg
%I cbg Red
1 0 0 SetCBg
%I p
0 SetP
%I t
[ 0 -0.845 0.779412 0 42.011 935.078 ] concat
%I
225 313 248 380 Rect
End

Begin %I Rect
none SetB %I b n
%I cfg Red
1 0 0 SetCFg
%I cbg Orange
1 0.647059 0 SetCBg
%I p
0.5 SetP
%I t
[ 0 -0.845 0.779412 0 42.011 894.518 ] concat
%I
225 313 248 380 Rect
End

Begin %I Rect
none SetB %I b n
%I cfg Orange
1 0.647059 0 SetCFg
%I cbg Red
1 0 0 SetCBg
%I p
0.75 SetP
%I t
[ 0 -0.845 0.779412 0 42.011 914.798 ] concat
%I
225 313 248 380 Rect
End

Begin %I Rect
none SetB %I b n
%I cfg Red
1 0 0 SetCFg
%I cbg Orange
1 0.647059 0 SetCBg
%I p
0.75 SetP
%I t
[ 0 -0.845 0.779412 0 42.011 874.238 ] concat
%I
225 313 248 380 Rect
End

Begin %I Rect
none SetB %I b n
%I cfg Orange
1 0.647059 0 SetCFg
%I cbg Orange
1 0.647059 0 SetCBg
%I p
0 SetP
%I t
[ 0 -0.845 0.779412 0 42.011 853.958 ] concat
%I
225 313 248 380 Rect
End

Begin %I Rect
none SetB %I b n
%I cfg Orange
1 0.647059 0 SetCFg
%I cbg Yellow
1 1 0 SetCBg
%I p
0.5 SetP
%I t
[ 0 -0.845 0.779412 0 42.011 813.398 ] concat
%I
225 313 248 380 Rect
End

Begin %I Rect
none SetB %I b n
%I cfg Orange
1 0.647059 0 SetCFg
%I cbg Yellow
1 1 0 SetCBg
%I p
0.25 SetP
%I t
[ 0 -0.845 0.779412 0 42.011 833.678 ] concat
%I
225 313 248 380 Rect
End

Begin %I Rect
none SetB %I b n
%I cfg Orange
1 0.647059 0 SetCFg
%I cbg Yellow
1 1 0 SetCBg
%I p
0.75 SetP
%I t
[ 0 -0.845 0.779412 0 42.011 793.118 ] concat
%I
225 313 248 380 Rect
End

Begin %I Rect
none SetB %I b n
%I cfg Yellow
1 1 0 SetCFg
%I cbg Yellow
1 1 0 SetCBg
%I p
0 SetP
%I t
[ 0 -0.845 0.779412 0 42.011 772.838 ] concat
%I
225 313 248 380 Rect
End

Begin %I Rect
none SetB %I b n
%I cfg Yellow
1 1 0 SetCFg
%I cbg Green
0 1 0 SetCBg
%I p
0.5 SetP
%I t
[ 0 -0.845 0.779412 0 42.011 732.278 ] concat
%I
225 313 248 380 Rect
End

Begin %I Rect
none SetB %I b n
%I cfg Yellow
1 1 0 SetCFg
%I cbg Green
0 1 0 SetCBg
%I p
0.25 SetP
%I t
[ 0 -0.845 0.779412 0 42.011 752.558 ] concat
%I
225 313 248 380 Rect
End

Begin %I Rect
none SetB %I b n
%I cfg Yellow
1 1 0 SetCFg
%I cbg Green
0 1 0 SetCBg
%I p
0.75 SetP
%I t
[ 0 -0.845 0.779412 0 42.011 711.998 ] concat
%I
225 313 248 380 Rect
End

Begin %I Rect
none SetB %I b n
%I cfg Green
0 1 0 SetCFg
%I cbg Blue
0 0 1 SetCBg
%I p
0 SetP
%I t
[ 0 -0.845 0.779412 0 42.011 691.718 ] concat
%I
225 313 248 380 Rect
End

Begin %I Rect
none SetB %I b n
%I cfg Green
0 1 0 SetCFg
%I cbg Blue
0 0 1 SetCBg
%I p
0.5 SetP
%I t
[ 0 -0.845 0.779412 0 42.011 651.158 ] concat
%I
225 313 248 380 Rect
End

Begin %I Rect
none SetB %I b n
%I cfg Green
0 1 0 SetCFg
%I cbg Blue
0 0 1 SetCBg
%I p
0.25 SetP
%I t
[ 0 -0.845 0.779412 0 42.011 671.438 ] concat
%I
225 313 248 380 Rect
End

Begin %I Rect
none SetB %I b n
%I cfg Green
0 1 0 SetCFg
%I cbg Blue
0 0 1 SetCBg
%I p
0.75 SetP
%I t
[ 0 -0.845 0.779412 0 42.011 630.878 ] concat
%I
225 313 248 380 Rect
End

Begin %I Rect
none SetB %I b n
%I cfg Blue
0 0 1 SetCFg
%I cbg Indigo
0.746105 0 0.996109 SetCBg
%I p
0 SetP
%I t
[ 0 -0.845 0.779412 0 42.011 610.598 ] concat
%I
225 313 248 380 Rect
End

Begin %I Rect
none SetB %I b n
%I cfg Blue
0 0 1 SetCFg
%I cbg Indigo
0.746105 0 0.996109 SetCBg
%I p
0.5 SetP
%I t
[ 0 -0.845 0.779412 0 42.011 570.038 ] concat
%I
225 313 248 380 Rect
End

Begin %I Rect
none SetB %I b n
%I cfg Blue
0 0 1 SetCFg
%I cbg Indigo
0.746105 0 0.996109 SetCBg
%I p
0.25 SetP
%I t
[ 0 -0.845 0.779412 0 42.011 590.318 ] concat
%I
225 313 248 380 Rect
End

Begin %I Rect
none SetB %I b n
%I cfg Blue
0 0 1 SetCFg
%I cbg Indigo
0.746105 0 0.996109 SetCBg
%I p
0.75 SetP
%I t
[ 0 -0.845 0.779412 0 42.011 549.758 ] concat
%I
225 313 248 380 Rect
End

Begin %I Rect
none SetB %I b n
%I cfg Indigo
0.746105 0 0.996109 SetCFg
%I cbg Violet
0.308598 0.183597 0.308598 SetCBg
%I p
0 SetP
%I t
[ 0 -0.845 0.779412 0 42.011 529.478 ] concat
%I
225 313 248 380 Rect
End

Begin %I Rect
none SetB %I b n
%I cfg Indigo
0.746105 0 0.996109 SetCFg
%I cbg Violet
0.308598 0.183597 0.308598 SetCBg
%I p
0.5 SetP
%I t
[ 0 -0.845 0.779412 0 42.011 488.918 ] concat
%I
225 313 248 380 Rect
End

Begin %I Rect
none SetB %I b n
%I cfg Indigo
0.746105 0 0.996109 SetCFg
%I cbg Violet
0.308598 0.183597 0.308598 SetCBg
%I p
0.25 SetP
%I t
[ 0 -0.845 0.779412 0 42.011 509.198 ] concat
%I
225 313 248 380 Rect
End

Begin %I Rect
none SetB %I b n
%I cfg Indigo
0.746105 0 0.996109 SetCFg
%I cbg Violet
0.308598 0.183597 0.308598 SetCBg
%I p
0.75 SetP
%I t
[ 0 -0.845 0.779412 0 42.011 468.638 ] concat
%I
225 313 248 380 Rect
End

Begin %I Rect
none SetB %I b n
%I cfg Violet
0.308598 0.183597 0.308598 SetCFg
%I cbg Violet
0.308598 0.183597 0.308598 SetCBg
%I p
0 SetP
%I t
[ 0 -0.845 0.779412 0 42.011 448.358 ] concat
%I
225 313 248 380 Rect
End

End %I eop

Begin %I Text
%I cfg Violet
0.308598 0.183597 0.308598 SetCFg
%I f -adobe-helvetica-bold-r-*-*-14-*-75-75-*-*-*-*
/Helvetica-Bold 14 SetF
%I t
[ 1 0 0 1 257 775.601 ] concat
%I
[
(Color Spectrum)
] Text
End

Begin %I Pict dynamic
%I b u
%I cfg u
%I cbg u
%I f u
%I p u
%I t
[ 0 1 -1 0 784.59 108.157 ] concat

Begin %I Rect
%I b 65535
2 0 0 [] 0 SetB
%I cfg DkGray
0.503548 0.503548 0.503548 SetCFg
%I cbg Black
0 0 0 SetCBg
%I p
0 SetP
%I t
[ 2.03704 0 0 1.29807 -445.931 91.7988 ] concat
%I
283 259 292 271 Rect
End

Begin %I Rect
%I b 65535
2 0 0 [] 0 SetB
%I cfg DkGray
0.503548 0.503548 0.503548 SetCFg
%I cbg Black
0 0 0 SetCBg
%I p
0 SetP
%I t
[ 2.03704 0 0 1.21694 -445.931 185.961 ] concat
%I
283 259 292 271 Rect
End

Begin %I Pict
%I b u
%I cfg White
1 1 1 SetCFg
%I cbg u
%I f u
%I p u
%I t
[ 1 0 0 1 -188.783 136.902 ] concat

Begin %I Rect
%I b 65535
2 0 0 [] 0 SetB
%I cfg Black
0 0 0 SetCFg
%I cbg Black
0 0 0 SetCBg
none SetP %I p n
%I t
[ 2.03704 0 0 4.50528 -257.148 -858.439 ] concat
%I
283 259 292 271 Rect
End

Begin %I Line
%I b 65535
2 0 0 [] 0 SetB
%I cfg Black
0 0 0 SetCFg
%I cbg Black
0 0 0 SetCBg
%I p
0 SetP
%I t
[ 1.28042 0 0 2.92101 103.147 -835.864 ] concat
%I
176 410 176 392 Line
End

End %I eop

End %I eop

Begin %I Rect
none SetB %I b n
%I cfg Black
0 0 0 SetCFg
%I cbg Black
0 0 0 SetCBg
%I p
0 SetP
%I t
[ 0 -0.845 1.35294 0 -383.504 405.838 ] concat
%I
225 313 248 380 Rect
End

End %I eop

showpage

%%Trailer

end
