%!PS-Adobe-2.0 EPSF-1.2
%%DocumentFonts: New-Century-Bold Times-Roman
%%Pages: 1
%%BoundingBox: 146 471 280 608
%%EndComments

50 dict begin

/arrowHeight 8 def
/arrowWidth 4 def
/none null def
/numGraphicParameters 17 def
/stringLimit 65535 def

/Begin {
save
numGraphicParameters dict begin
} def

/End {
end
restore
} def

/SetB {
dup type /nulltype eq {
pop
false /brushRightArrow idef
false /brushLeftArrow idef
true /brushNone idef
} {
/brushDashOffset idef
/brushDashArray idef
0 ne /brushRightArrow idef
0 ne /brushLeftArrow idef
/brushWidth idef
false /brushNone idef
} ifelse
} def

/SetCFg {
/fgblue idef
/fggreen idef
/fgred idef
} def

/SetCBg {
/bgblue idef
/bggreen idef
/bgred idef
} def

/SetF {
/printSize idef
/printFont idef
} def

/SetP {
dup type /nulltype eq {
pop true /patternNone idef
} {
/patternGrayLevel idef
patternGrayLevel -1 eq {
/patternString idef
} if
false /patternNone idef
} ifelse
} def

/BSpl {
0 begin
storexyn
newpath
n 1 gt {
0 0 0 0 0 0 1 1 true subspline
n 2 gt {
0 0 0 0 1 1 2 2 false subspline
1 1 n 3 sub {
/i exch def
i 1 sub dup i dup i 1 add dup i 2 add dup false subspline
} for
n 3 sub dup n 2 sub dup n 1 sub dup 2 copy false subspline
} if
n 2 sub dup n 1 sub dup 2 copy 2 copy false subspline
patternNone not brushLeftArrow not brushRightArrow not and and { ifill } if
brushNone not { istroke } if
0 0 1 1 leftarrow
n 2 sub dup n 1 sub dup rightarrow
} if
end
} dup 0 4 dict put def

/Circ {
newpath
0 360 arc
patternNone not { ifill } if
brushNone not { istroke } if
} def

/CBSpl {
0 begin
dup 2 gt {
storexyn
newpath
n 1 sub dup 0 0 1 1 2 2 true subspline
1 1 n 3 sub {
/i exch def
i 1 sub dup i dup i 1 add dup i 2 add dup false subspline
} for
n 3 sub dup n 2 sub dup n 1 sub dup 0 0 false subspline
n 2 sub dup n 1 sub dup 0 0 1 1 false subspline
patternNone not { ifill } if
brushNone not { istroke } if
} {
Poly
} ifelse
end
} dup 0 4 dict put def

/Elli {
0 begin
newpath
4 2 roll
translate
scale
0 0 1 0 360 arc
patternNone not { ifill } if
brushNone not { istroke } if
end
} dup 0 1 dict put def

/Line {
0 begin
2 storexyn
newpath
x 0 get y 0 get moveto
x 1 get y 1 get lineto
brushNone not { istroke } if
0 0 1 1 leftarrow
0 0 1 1 rightarrow
end
} dup 0 4 dict put def

/MLine {
0 begin
storexyn
newpath
n 1 gt {
x 0 get y 0 get moveto
1 1 n 1 sub {
/i exch def
x i get y i get lineto
} for
patternNone not brushLeftArrow not brushRightArrow not and and { ifill } if
brushNone not { istroke } if
0 0 1 1 leftarrow
n 2 sub dup n 1 sub dup rightarrow
} if
end
} dup 0 4 dict put def

/Poly {
3 1 roll
newpath
moveto
-1 add
{ lineto } repeat
closepath
patternNone not { ifill } if
brushNone not { istroke } if
} def

/Rect {
0 begin
/t exch def
/r exch def
/b exch def
/l exch def
newpath
l b moveto
l t lineto
r t lineto
r b lineto
closepath
patternNone not { ifill } if
brushNone not { istroke } if
end
} dup 0 4 dict put def

/Text {
ishow
} def

/idef {
dup where { pop pop pop } { exch def } ifelse
} def

/ifill {
0 begin
gsave
patternGrayLevel -1 ne {
fgred bgred fgred sub patternGrayLevel mul add
fggreen bggreen fggreen sub patternGrayLevel mul add
fgblue bgblue fgblue sub patternGrayLevel mul add setrgbcolor
eofill
} {
eoclip
originalCTM setmatrix
pathbbox /t exch def /r exch def /b exch def /l exch def
/w r l sub ceiling cvi def
/h t b sub ceiling cvi def
/imageByteWidth w 8 div ceiling cvi def
/imageHeight h def
bgred bggreen bgblue setrgbcolor
eofill
fgred fggreen fgblue setrgbcolor
w 0 gt h 0 gt and {
l b translate w h scale
w h true [w 0 0 h neg 0 h] { patternproc } imagemask
} if
} ifelse
grestore
end
} dup 0 8 dict put def

/istroke {
gsave
brushDashOffset -1 eq {
[] 0 setdash
1 setgray
} {
brushDashArray brushDashOffset setdash
fgred fggreen fgblue setrgbcolor
} ifelse
brushWidth setlinewidth
originalCTM setmatrix
stroke
grestore
} def

/ishow {
0 begin
gsave
printFont findfont printSize scalefont setfont
fgred fggreen fgblue setrgbcolor
/vertoffset printSize neg def {
0 vertoffset moveto show
/vertoffset vertoffset printSize sub def
} forall
grestore
end
} dup 0 3 dict put def

/patternproc {
0 begin
/patternByteLength patternString length def
/patternHeight patternByteLength 8 mul sqrt cvi def
/patternWidth patternHeight def
/patternByteWidth patternWidth 8 idiv def
/imageByteMaxLength imageByteWidth imageHeight mul
stringLimit patternByteWidth sub min def
/imageMaxHeight imageByteMaxLength imageByteWidth idiv patternHeight idiv
patternHeight mul patternHeight max def
/imageHeight imageHeight imageMaxHeight sub store
/imageString imageByteWidth imageMaxHeight mul patternByteWidth add string def
0 1 imageMaxHeight 1 sub {
/y exch def
/patternRow y patternByteWidth mul patternByteLength mod def
/patternRowString patternString patternRow patternByteWidth getinterval def
/imageRow y imageByteWidth mul def
0 patternByteWidth imageByteWidth 1 sub {
/x exch def
imageString imageRow x add patternRowString putinterval
} for
} for
imageString
end
} dup 0 12 dict put def

/min {
dup 3 2 roll dup 4 3 roll lt { exch } if pop
} def

/max {
dup 3 2 roll dup 4 3 roll gt { exch } if pop
} def

/arrowhead {
0 begin
transform originalCTM itransform
/taily exch def
/tailx exch def
transform originalCTM itransform
/tipy exch def
/tipx exch def
/dy tipy taily sub def
/dx tipx tailx sub def
/angle dx 0 ne dy 0 ne or { dy dx atan } { 90 } ifelse def
gsave
originalCTM setmatrix
tipx tipy translate
angle rotate
newpath
0 0 moveto
arrowHeight neg arrowWidth 2 div lineto
arrowHeight neg arrowWidth 2 div neg lineto
closepath
patternNone not {
originalCTM setmatrix
/padtip arrowHeight 2 exp 0.25 arrowWidth 2 exp mul add sqrt brushWidth mul
arrowWidth div def
/padtail brushWidth 2 div def
tipx tipy translate
angle rotate
padtip 0 translate
arrowHeight padtip add padtail add arrowHeight div dup scale
arrowheadpath
ifill
} if
brushNone not {
originalCTM setmatrix
tipx tipy translate
angle rotate
arrowheadpath
istroke
} if
grestore
end
} dup 0 9 dict put def

/arrowheadpath {
newpath
0 0 moveto
arrowHeight neg arrowWidth 2 div lineto
arrowHeight neg arrowWidth 2 div neg lineto
closepath
} def

/leftarrow {
0 begin
y exch get /taily exch def
x exch get /tailx exch def
y exch get /tipy exch def
x exch get /tipx exch def
brushLeftArrow { tipx tipy tailx taily arrowhead } if
end
} dup 0 4 dict put def

/rightarrow {
0 begin
y exch get /tipy exch def
x exch get /tipx exch def
y exch get /taily exch def
x exch get /tailx exch def
brushRightArrow { tipx tipy tailx taily arrowhead } if
end
} dup 0 4 dict put def

/midpoint {
0 begin
/y1 exch def
/x1 exch def
/y0 exch def
/x0 exch def
x0 x1 add 2 div
y0 y1 add 2 div
end
} dup 0 4 dict put def

/thirdpoint {
0 begin
/y1 exch def
/x1 exch def
/y0 exch def
/x0 exch def
x0 2 mul x1 add 3 div
y0 2 mul y1 add 3 div
end
} dup 0 4 dict put def

/subspline {
0 begin
/movetoNeeded exch def
y exch get /y3 exch def
x exch get /x3 exch def
y exch get /y2 exch def
x exch get /x2 exch def
y exch get /y1 exch def
x exch get /x1 exch def
y exch get /y0 exch def
x exch get /x0 exch def
x1 y1 x2 y2 thirdpoint
/p1y exch def
/p1x exch def
x2 y2 x1 y1 thirdpoint
/p2y exch def
/p2x exch def
x1 y1 x0 y0 thirdpoint
p1x p1y midpoint
/p0y exch def
/p0x exch def
x2 y2 x3 y3 thirdpoint
p2x p2y midpoint
/p3y exch def
/p3x exch def
movetoNeeded { p0x p0y moveto } if
p1x p1y p2x p2y p3x p3y curveto
end
} dup 0 17 dict put def

/storexyn {
/n exch def
/y n array def
/x n array def
n 1 sub -1 0 {
/i exch def
y i 3 2 roll put
x i 3 2 roll put
} for
} def

%%EndProlog

%I Idraw 5 Grid 4.80467

%%Page: 1 1

Begin
%I b u
%I cfg u
%I cbg u
%I f u
%I p u
%I t
[ .8 0 0 .8 0 0 ] concat
/originalCTM matrix currentmatrix def

Begin %I Pict static
%I b u
%I cfg u
%I cbg u
%I f u
%I p u
%I t u

Begin %I Pict static
%I b u
%I cfg u
%I cbg u
%I f u
%I p u
%I t u

Begin %I Pict
none SetB %I b n
%I cfg u
%I cbg Black
0 0 0 SetCBg
%I f u
%I p u
%I t
[ 1 0 0 1 -135 -156 ] concat

Begin %I Rect
none SetB %I b n
%I cfg Black
0 0 0 SetCFg
%I cbg Green
0 .996109 0 SetCBg
%I p
.25 SetP
%I t
[ 1 0 0 1 237 72 ] concat
%I
90 676 246 832 Rect
End

Begin %I Poly
none SetB %I b n
%I cfg Black
0 0 0 SetCFg
%I cbg White
1 1 1 SetCBg
%I p
.25 SetP
%I t
[ 1 0 0 1 237 72 ] concat
%I 6
83 686
90 676
90 686
83 686
83 686
83 686
6 Poly
End

Begin %I Poly
%I b 65535
1 0 0 [] 0 SetB
%I cfg Black
0 0 0 SetCFg
%I cbg White
1 1 1 SetCBg
%I p
.25 SetP
%I t
[ 1 0 0 1 237 72 ] concat
%I 6
239 842
239 832
246 832
239 842
239 842
239 842
6 Poly
End

End %I eop

Begin %I Rect
%I b 65535
2 0 0 [] 0 SetB
%I cfg Black
0 0 0 SetCFg
%I cbg Cyan
0 .996109 .996109 SetCBg
%I p
.5 SetP
%I t
[ 1 0 0 1 95 -74 ] concat
%I
90 676 246 832 Rect
End

Begin %I Line
%I b 65535
1 0 0 [] 0 SetB
%I cfg Black
0 0 0 SetCFg
%I cbg White
1 1 1 SetCBg
%I p
.25 SetP
%I t
[ 1 0 0 1 103 -85 ] concat
%I
238 687 245 677 Line
End

Begin %I Pict
%I b u
%I cfg u
%I cbg u
%I f u
%I p u
%I t
[ 1 0 0 1.07207 0 -45.1892 ] concat

Begin %I Elli
%I b 65535
1 0 0 [] 0 SetB
%I cfg Black
0 0 0 SetCFg
%I cbg Black
0 0 0 SetCBg
%I p
.75 SetP
%I t
[ 1 0 0 1 -141 -95 ] concat
%I
400 780 54 53 Elli
End

Begin %I Elli
%I b 65535
1 0 0 [] 0 SetB
%I cfg Gray
.750011 .750011 .750011 SetCFg
%I cbg White
1 1 1 SetCBg
%I p
< ff 88 88 88 ff 88 88 88 > -1 SetP
%I t
[ 1 0 0 1 -135 -100 ] concat
%I
400 780 54 53 Elli
End

End %I eop

Begin %I Poly
none SetB %I b n
%I cfg Black
0 0 0 SetCFg
%I cbg Cyan
0 .996109 .996109 SetCBg
%I p
.5 SetP
%I t
[ 1 0 0 1 -207 -110 ] concat
%I 4
414 729
402 793
539 793
524 729
4 Poly
End

Begin %I Pict
%I b u
%I cfg Black
0 0 0 SetCFg
%I cbg White
1 1 1 SetCBg
%I f u
%I p u
%I t
[ 1 0 0 1 -206 -105 ] concat

Begin %I Elli
%I b 65535
2 0 0 [] 0 SetB
%I cfg Black
0 0 0 SetCFg
%I cbg White
1 1 1 SetCBg
%I p
.25 SetP
%I t
[ 1 0 0 1 311 11 ] concat
%I
155 732 9 9 Elli
End

Begin %I Line
%I b 65535
2 0 0 [] 0 SetB
%I cfg Black
0 0 0 SetCFg
%I cbg White
1 1 1 SetCBg
%I p
0 SetP
%I t
[ 1 0 0 1 303 16 ] concat
%I
157 734 169 720 Line
End

End %I eop

Begin %I Line
%I b 65535
1 0 0 [] 0 SetB
%I cfg Black
0 0 0 SetCFg
%I cbg White
1 1 1 SetCBg
%I p
.25 SetP
%I t
[ 1 0 0 1 103 -85 ] concat
%I
238 687 245 677 Line
End

Begin %I Line
%I b 65535
2 0 0 [] 0 SetB
%I cfg Black
0 0 0 SetCFg
%I cbg White
1 1 1 SetCBg
%I p
.5 SetP
%I t
[ 1 0 0 1 142 -122 ] concat
%I
187 733 187 733 Line
End

Begin %I Pict
%I b u
%I cfg u
%I cbg u
%I f u
%I p u
%I t
[ 1 0 0 1 144 -122 ] concat

Begin %I Elli
%I b 65535
2 0 0 [] 0 SetB
%I cfg Black
0 0 0 SetCFg
%I cbg White
1 1 1 SetCBg
%I p
.5 SetP
%I t
[ 1 0 0 1 10 -9 ] concat
%I
177 742 6 6 Elli
End

Begin %I Line
%I b 65535
2 0 0 [] 0 SetB
%I cfg Black
0 0 0 SetCFg
%I cbg White
1 1 1 SetCBg
%I p
.5 SetP
%I t u
%I
183 728 191 738 Line
End

End %I eop

Begin %I Line
%I b 65535
2 0 0 [] 0 SetB
%I cfg Black
0 0 0 SetCFg
%I cbg White
1 1 1 SetCBg
%I p
.5 SetP
%I t
[ 1 0 0 1 144 -122 ] concat
%I
213 729 213 729 Line
End

Begin %I Pict
%I b u
%I cfg u
%I cbg u
%I f u
%I p u
%I t
[ 1 0 0 1 143 16 ] concat

Begin %I Elli
%I b 65535
2 0 0 [] 0 SetB
%I cfg Black
0 0 0 SetCFg
%I cbg White
1 1 1 SetCBg
%I p
.5 SetP
%I t
[ 1 0 0 1 10 -9 ] concat
%I
177 742 6 6 Elli
End

Begin %I Line
%I b 65535
2 0 0 [] 0 SetB
%I cfg Black
0 0 0 SetCFg
%I cbg White
1 1 1 SetCBg
%I p
.5 SetP
%I t u
%I
183 728 191 738 Line
End

End %I eop

Begin %I Pict
%I b u
%I cfg u
%I cbg White
1 1 1 SetCBg
%I f u
%I p u
%I t
[ 1 0 0 1 8 15 ] concat

Begin %I Elli
%I b 65535
2 0 0 [] 0 SetB
%I cfg Black
0 0 0 SetCFg
%I cbg White
1 1 1 SetCBg
%I p
.5 SetP
%I t
[ 1 0 0 1 10 -9 ] concat
%I
177 742 6 6 Elli
End

Begin %I Line
%I b 65535
2 0 0 [] 0 SetB
%I cfg Black
0 0 0 SetCFg
%I cbg White
1 1 1 SetCBg
%I p
.5 SetP
%I t u
%I
183 728 191 738 Line
End

End %I eop

Begin %I Pict
%I b u
%I cfg u
%I cbg u
%I f u
%I p u
%I t
[ 1 0 0 1 7 -121 ] concat

Begin %I Elli
%I b 65535
2 0 0 [] 0 SetB
%I cfg Black
0 0 0 SetCFg
%I cbg White
1 1 1 SetCBg
%I p
.5 SetP
%I t
[ 1 0 0 1 10 -9 ] concat
%I
177 742 6 6 Elli
End

Begin %I Line
%I b 65535
2 0 0 [] 0 SetB
%I cfg Black
0 0 0 SetCFg
%I cbg White
1 1 1 SetCBg
%I p
.5 SetP
%I t u
%I
183 728 191 738 Line
End

End %I eop

Begin %I Rect
%I b 65535
2 0 0 [] 0 SetB
%I cfg White
1 1 1 SetCFg
%I cbg White
1 1 1 SetCBg
%I p
0 SetP
%I t
[ .499399 0 0 .823529 96.0852 212.833 ] concat
%I
189 550 238 565 Rect
End

Begin %I Rect
%I b 65535
2 0 0 [] 0 SetB
%I cfg White
1 1 1 SetCFg
%I cbg White
1 1 1 SetCBg
%I p
0 SetP
%I t
[ .499399 0 0 .823529 216.085 212.833 ] concat
%I
189 550 238 565 Rect
End

End %I eop

Begin %I Elli
%I b 65535
1 0 0 [] 0 SetB
%I cfg Black
0 0 0 SetCFg
%I cbg LtGray
.762951 .762951 .762951 SetCBg
%I p
1 SetP
%I t
[ 1 0 0 1 21.5 -7 ] concat
%I
239 672 29 12 Elli
End

End %I eop

Begin %I Line dynamic
%I b 65535
2 0 0 [] 0 SetB
%I cfg Blue
0 0 .996109 SetCFg
%I cbg White
1 1 1 SetCBg
%I p
0 SetP
%I t u
%I
214 687 261 687 Line
End

Begin %I Text minLabel
%I cfg Blue
0 0 .996109 SetCFg
%I f -adobe-courier-bold-r-*-*-12-*-75-75-*-*-*-*
/Courier-Bold 12 SetF
%I t
[ 1 0 0 1 194 680 ] concat
%I
[
(%.0f)
] Text
End

Begin %I Text maxLabel
%I cfg Red
.996109 0 0 SetCFg
%I f -adobe-courier-bold-r-*-*-12-*-75-75-*-*-*-*
/Courier-Bold 12 SetF
%I t
[ 1 0 0 1 312 680 ] concat
%I
[
(%.0f)
] Text
End

Begin %I Text value
%I cfg White
1 1 1 SetCFg
%I f -adobe-times-medium-r-*-*-18-*-75-75-*-*-*-*
/Times-Roman 18 SetF
%I t
[ 1 0 0 1 241 674 ] concat
%I
[
(%4.2f)
] Text
End

End %I eop

showpage

%%Trailer

end
