%!PS-Adobe-2.0 EPSF-1.2
%%DocumentFonts:
%%Pages: 1
%%BoundingBox: -135 45 541 775
%%EndComments

50 dict begin

/arrowHeight 8 def
/arrowWidth 4 def
/none null def
/numGraphicParameters 17 def
/stringLimit 65535 def

/Begin {
save
numGraphicParameters dict begin
} def

/End {
end
restore
} def

/SetB {
dup type /nulltype eq {
pop
false /brushRightArrow idef
false /brushLeftArrow idef
true /brushNone idef
} {
/brushDashOffset idef
/brushDashArray idef
0 ne /brushRightArrow idef
0 ne /brushLeftArrow idef
/brushWidth idef
false /brushNone idef
} ifelse
} def

/SetCFg {
/fgblue idef
/fggreen idef
/fgred idef
} def

/SetCBg {
/bgblue idef
/bggreen idef
/bgred idef
} def

/SetF {
/printSize idef
/printFont idef
} def

/SetP {
dup type /nulltype eq {
pop true /patternNone idef
} {
/patternGrayLevel idef
patternGrayLevel -1 eq {
/patternString idef
} if
false /patternNone idef
} ifelse
} def

/BSpl {
0 begin
storexyn
newpath
n 1 gt {
0 0 0 0 0 0 1 1 true subspline
n 2 gt {
0 0 0 0 1 1 2 2 false subspline
1 1 n 3 sub {
/i exch def
i 1 sub dup i dup i 1 add dup i 2 add dup false subspline
} for
n 3 sub dup n 2 sub dup n 1 sub dup 2 copy false subspline
} if
n 2 sub dup n 1 sub dup 2 copy 2 copy false subspline
patternNone not brushLeftArrow not brushRightArrow not and and { ifill } if
brushNone not { istroke } if
0 0 1 1 leftarrow
n 2 sub dup n 1 sub dup rightarrow
} if
end
} dup 0 4 dict put def

/Circ {
newpath
0 360 arc
patternNone not { ifill } if
brushNone not { istroke } if
} def

/CBSpl {
0 begin
dup 2 gt {
storexyn
newpath
n 1 sub dup 0 0 1 1 2 2 true subspline
1 1 n 3 sub {
/i exch def
i 1 sub dup i dup i 1 add dup i 2 add dup false subspline
} for
n 3 sub dup n 2 sub dup n 1 sub dup 0 0 false subspline
n 2 sub dup n 1 sub dup 0 0 1 1 false subspline
patternNone not { ifill } if
brushNone not { istroke } if
} {
Poly
} ifelse
end
} dup 0 4 dict put def

/Elli {
0 begin
newpath
4 2 roll
translate
scale
0 0 1 0 360 arc
patternNone not { ifill } if
brushNone not { istroke } if
end
} dup 0 1 dict put def

/Line {
0 begin
2 storexyn
newpath
x 0 get y 0 get moveto
x 1 get y 1 get lineto
brushNone not { istroke } if
0 0 1 1 leftarrow
0 0 1 1 rightarrow
end
} dup 0 4 dict put def

/MLine {
0 begin
storexyn
newpath
n 1 gt {
x 0 get y 0 get moveto
1 1 n 1 sub {
/i exch def
x i get y i get lineto
} for
patternNone not brushLeftArrow not brushRightArrow not and and { ifill } if
brushNone not { istroke } if
0 0 1 1 leftarrow
n 2 sub dup n 1 sub dup rightarrow
} if
end
} dup 0 4 dict put def

/Poly {
3 1 roll
newpath
moveto
-1 add
{ lineto } repeat
closepath
patternNone not { ifill } if
brushNone not { istroke } if
} def

/Rect {
0 begin
/t exch def
/r exch def
/b exch def
/l exch def
newpath
l b moveto
l t lineto
r t lineto
r b lineto
closepath
patternNone not { ifill } if
brushNone not { istroke } if
end
} dup 0 4 dict put def

/Text {
ishow
} def

/idef {
dup where { pop pop pop } { exch def } ifelse
} def

/ifill {
0 begin
gsave
patternGrayLevel -1 ne {
fgred bgred fgred sub patternGrayLevel mul add
fggreen bggreen fggreen sub patternGrayLevel mul add
fgblue bgblue fgblue sub patternGrayLevel mul add setrgbcolor
eofill
} {
eoclip
originalCTM setmatrix
pathbbox /t exch def /r exch def /b exch def /l exch def
/w r l sub ceiling cvi def
/h t b sub ceiling cvi def
/imageByteWidth w 8 div ceiling cvi def
/imageHeight h def
bgred bggreen bgblue setrgbcolor
eofill
fgred fggreen fgblue setrgbcolor
w 0 gt h 0 gt and {
l b translate w h scale
w h true [w 0 0 h neg 0 h] { patternproc } imagemask
} if
} ifelse
grestore
end
} dup 0 8 dict put def

/istroke {
gsave
brushDashOffset -1 eq {
[] 0 setdash
1 setgray
} {
brushDashArray brushDashOffset setdash
fgred fggreen fgblue setrgbcolor
} ifelse
brushWidth setlinewidth
originalCTM setmatrix
stroke
grestore
} def

/ishow {
0 begin
gsave
fgred fggreen fgblue setrgbcolor
/fontDict printFont findfont printSize scalefont dup setfont def
/descender fontDict begin 0 [FontBBox] 1 get FontMatrix end
transform exch pop def
/vertoffset 0 descender sub printSize sub printFont /Courier ne
printFont /Courier-Bold ne and { 1 add } if def {
0 vertoffset moveto show
/vertoffset vertoffset printSize sub def
} forall
grestore
end
} dup 0 3 dict put def

/patternproc {
0 begin
/patternByteLength patternString length def
/patternHeight patternByteLength 8 mul sqrt cvi def
/patternWidth patternHeight def
/patternByteWidth patternWidth 8 idiv def
/imageByteMaxLength imageByteWidth imageHeight mul
stringLimit patternByteWidth sub min def
/imageMaxHeight imageByteMaxLength imageByteWidth idiv patternHeight idiv
patternHeight mul patternHeight max def
/imageHeight imageHeight imageMaxHeight sub store
/imageString imageByteWidth imageMaxHeight mul patternByteWidth add string def
0 1 imageMaxHeight 1 sub {
/y exch def
/patternRow y patternByteWidth mul patternByteLength mod def
/patternRowString patternString patternRow patternByteWidth getinterval def
/imageRow y imageByteWidth mul def
0 patternByteWidth imageByteWidth 1 sub {
/x exch def
imageString imageRow x add patternRowString putinterval
} for
} for
imageString
end
} dup 0 12 dict put def

/min {
dup 3 2 roll dup 4 3 roll lt { exch } if pop
} def

/max {
dup 3 2 roll dup 4 3 roll gt { exch } if pop
} def

/arrowhead {
0 begin
transform originalCTM itransform
/taily exch def
/tailx exch def
transform originalCTM itransform
/tipy exch def
/tipx exch def
/dy tipy taily sub def
/dx tipx tailx sub def
/angle dx 0 ne dy 0 ne or { dy dx atan } { 90 } ifelse def
gsave
originalCTM setmatrix
tipx tipy translate
angle rotate
newpath
0 0 moveto
arrowHeight neg arrowWidth 2 div lineto
arrowHeight neg arrowWidth 2 div neg lineto
closepath
patternNone not {
originalCTM setmatrix
/padtip arrowHeight 2 exp 0.25 arrowWidth 2 exp mul add sqrt brushWidth mul
arrowWidth div def
/padtail brushWidth 2 div def
tipx tipy translate
angle rotate
padtip 0 translate
arrowHeight padtip add padtail add arrowHeight div dup scale
arrowheadpath
ifill
} if
brushNone not {
originalCTM setmatrix
tipx tipy translate
angle rotate
arrowheadpath
istroke
} if
grestore
end
} dup 0 9 dict put def

/arrowheadpath {
newpath
0 0 moveto
arrowHeight neg arrowWidth 2 div lineto
arrowHeight neg arrowWidth 2 div neg lineto
closepath
} def

/leftarrow {
0 begin
y exch get /taily exch def
x exch get /tailx exch def
y exch get /tipy exch def
x exch get /tipx exch def
brushLeftArrow { tipx tipy tailx taily arrowhead } if
end
} dup 0 4 dict put def

/rightarrow {
0 begin
y exch get /tipy exch def
x exch get /tipx exch def
y exch get /taily exch def
x exch get /tailx exch def
brushRightArrow { tipx tipy tailx taily arrowhead } if
end
} dup 0 4 dict put def

/midpoint {
0 begin
/y1 exch def
/x1 exch def
/y0 exch def
/x0 exch def
x0 x1 add 2 div
y0 y1 add 2 div
end
} dup 0 4 dict put def

/thirdpoint {
0 begin
/y1 exch def
/x1 exch def
/y0 exch def
/x0 exch def
x0 2 mul x1 add 3 div
y0 2 mul y1 add 3 div
end
} dup 0 4 dict put def

/subspline {
0 begin
/movetoNeeded exch def
y exch get /y3 exch def
x exch get /x3 exch def
y exch get /y2 exch def
x exch get /x2 exch def
y exch get /y1 exch def
x exch get /x1 exch def
y exch get /y0 exch def
x exch get /x0 exch def
x1 y1 x2 y2 thirdpoint
/p1y exch def
/p1x exch def
x2 y2 x1 y1 thirdpoint
/p2y exch def
/p2x exch def
x1 y1 x0 y0 thirdpoint
p1x p1y midpoint
/p0y exch def
/p0x exch def
x2 y2 x3 y3 thirdpoint
p2x p2y midpoint
/p3y exch def
/p3x exch def
movetoNeeded { p0x p0y moveto } if
p1x p1y p2x p2y p3x p3y curveto
end
} dup 0 17 dict put def

/storexyn {
/n exch def
/y n array def
/x n array def
n 1 sub -1 0 {
/i exch def
y i 3 2 roll put
x i 3 2 roll put
} for
} def

%%EndProlog

%I Idraw 7 Grid 8 

%%Page: 1 1

Begin
%I b u
%I cfg u
%I cbg u
%I f u
%I p u
%I t
[ 0.8 0 0 0.8 0 0 ] concat
/originalCTM matrix currentmatrix def

Begin %I Rect
%I b 65535
1 0 0 [] 0 SetB
%I cfg Black
0 0 0 SetCFg
%I cbg Blue
0 0 1 SetCBg
%I p
1 SetP
%I t
[ 0.5 0 0 0.594103 64.5 489.202 ] concat
%I
8 9 613 805 Rect
End

Begin %I Pict shuttle 2
%I b u
%I cfg u
%I cbg u
%I f u
%I p u
%I t u

Begin %I Pict
%I b u
%I cfg u
%I cbg u
%I f u
%I p u
%I t
[ 1 0 0 0.996273 0 1.43475 ] concat

Begin %I BSpl
none SetB %I b n
%I cfg Black
0 0 0 SetCFg
%I cbg White
1 1 1 SetCBg
%I p
1 SetP
%I t
[ 0.5 0 0 0.5 378 519 ] concat
%I 24
42 132
42 192
47 223
57 244
75 263
114 296
188 360
193 370
270 726
283 769
295 792
309 804
324 804
333 797
321 0
315 1
311 0
306 78
284 96
239 82
238 104
247 116
42 131
42 131
24 BSpl
End

Begin %I BSpl
none SetB %I b n
%I cfg Black
0 0 0 SetCFg
%I cbg White
1 1 1 SetCBg
%I p
1 SetP
%I t
[ -0.5 0 0 0.5 695 519 ] concat
%I 24
42 132
42 192
47 223
57 244
75 263
114 296
188 360
193 370
270 726
283 769
295 792
309 804
324 804
333 797
321 0
315 1
311 0
306 78
284 96
239 82
238 104
247 116
42 131
42 131
24 BSpl
End

End %I eop

Begin %I Pict
%I b u
%I cfg u
%I cbg u
%I f u
%I p u
%I t
[ 1 0 0 1 0 -1.24872 ] concat

Begin %I Pict Shuttle 2
%I b u
%I cfg u
%I cbg u
%I f u
%I p u
%I t
[ 1 0 0 1 -0.0829468 -1.50024 ] concat

Begin %I Pict
%I b u
%I cfg u
%I cbg u
%I f u
%I p u
%I t
[ 1 0 0 1 148 244 ] concat

Begin %I MLine
%I b 65535
2 0 0 [] 0 SetB
%I cfg Black
0 0 0 SetCFg
%I cbg White
1 1 1 SetCBg
none SetP %I p n
%I t
[ 0.5 0 0 0.5 147.5 220.5 ] concat
%I 9
417 733
367 483
364 475
359 467
237 359
231 351
225 343
219 329
214 299
9 MLine
End

Begin %I BSpl
%I b 65535
1 0 0 [] 0 SetB
%I cfg Black
0 0 0 SetCFg
%I cbg White
1 1 1 SetCBg
none SetP %I p n
%I t
[ 1 0 0 1.061 -71.433 119.413 ] concat
%I 5
425 439
442 518
460 530
478 518
493 440
5 BSpl
End

Begin %I BSpl
%I b 65535
1 0 0 [] 0 SetB
%I cfg Black
0 0 0 SetCFg
%I cbg White
1 1 1 SetCBg
none SetP %I p n
%I t
[ -0.5 0 0 0.5305 602.6 295.539 ] concat
%I 9
362 548
333 433
301 302
299 302
249 265
191 214
175 204
157 176
153 142
9 BSpl
End

Begin %I MLine
%I b 65535
2 0 0 [] 0 SetB
%I cfg Black
0 0 0 SetCFg
%I cbg White
1 1 1 SetCBg
none SetP %I p n
%I t
[ -0.5 0 0 0.5 630 220.5 ] concat
%I 9
423 732
366 483
363 475
358 467
236 361
230 351
224 343
218 329
215 298
9 MLine
End

Begin %I BSpl
%I b 65535
1 0 0 [] 0 SetB
%I cfg Black
0 0 0 SetCFg
%I cbg White
1 1 1 SetCBg
none SetP %I p n
%I t
[ 0.5 0 0 0.5305 174 295.539 ] concat
%I 9
358 545
335 433
303 302
301 302
251 263
193 212
177 203
159 178
155 144
9 BSpl
End

End %I eop

Begin %I Pict
%I b u
%I cfg u
%I cbg u
%I f u
%I p u
%I t
[ 1 0 0 1 182 254 ] concat

Begin %I Pict
%I b u
%I cfg u
%I cbg u
%I f u
%I p u
%I t
[ 1 0 0 1.061 0 -32.4814 ] concat

Begin %I Rect
%I b 65535
1 0 0 [] 0 SetB
%I cfg Black
0 0 0 SetCFg
%I cbg White
1 1 1 SetCBg
%I p
0 SetP
%I t
[ 1 0 0 1 -101 134 ] concat
%I
442 446 453 452 Rect
End

Begin %I Rect
%I b 65535
1 0 0 [] 0 SetB
%I cfg Black
0 0 0 SetCFg
%I cbg White
1 1 1 SetCBg
%I p
0 SetP
%I t
[ 1 0 0 1 -86 134 ] concat
%I
442 446 453 452 Rect
End

Begin %I Rect
%I b 65535
1 0 0 [] 0 SetB
%I cfg Black
0 0 0 SetCFg
%I cbg White
1 1 1 SetCBg
%I p
0 SetP
%I t
[ 0.809524 0 0 0.857143 -15.8857 195.714 ] concat
%I
447 467 467 480 Rect
End

Begin %I Rect
%I b 65535
1 0 0 [] 0 SetB
%I cfg Black
0 0 0 SetCFg
%I cbg White
1 1 1 SetCBg
%I p
0 SetP
%I t
[ 0.707107 0.707107 -0.707107 0.707107 406.283 129.749 ] concat
%I
278 378 284 383 Rect
End

Begin %I Poly
%I b 65535
1 0 0 [] 0 SetB
%I cfg Black
0 0 0 SetCFg
%I cbg White
1 1 1 SetCBg
%I p
0 SetP
%I t
[ 0.4 0 0 0.4 178.926 374.15 ] concat
%I 5
408 578
412 570
406 564
398 571
407 579
5 Poly
End

Begin %I Rect
%I b 65535
1 0 0 [] 0 SetB
%I cfg Black
0 0 0 SetCFg
%I cbg White
1 1 1 SetCBg
%I p
0 SetP
%I t
[ -0.707107 0.707107 0.707107 0.707107 301.85 129.749 ] concat
%I
278 378 284 383 Rect
End

Begin %I Poly
%I b 65535
1 0 0 [] 0 SetB
%I cfg Black
0 0 0 SetCFg
%I cbg White
1 1 1 SetCBg
%I p
0 SetP
%I t
[ -0.4 0 0 0.4 529.207 374.15 ] concat
%I 5
408 578
412 570
406 564
398 571
407 579
5 Poly
End

End %I eop

Begin %I Pict
%I b u
%I cfg u
%I cbg u
%I f u
%I p u
%I t
[ 1 0 0 1.061 0 -28.5175 ] concat

Begin %I Rect
%I b 65535
1 0 0 [] 0 SetB
%I cfg Black
0 0 0 SetCFg
%I cbg White
1 1 1 SetCBg
%I p
0 SetP
%I t
[ 0.719577 0 0 0.5 25.2869 393.68 ] concat
%I
447 467 467 480 Rect
End

Begin %I Poly
%I b 65535
1 0 0 [] 0 SetB
%I cfg Black
0 0 0 SetCFg
%I cbg White
1 1 1 SetCBg
%I p
0 SetP
%I t
[ 0.5 0 0 0.512782 139.067 443.151 ] concat
%I 11
415 377
445 377
445 382
457 382
452 393
444 403
430 406
418 403
411 394
403 382
414 382
11 Poly
End

End %I eop

Begin %I BSpl
%I b 65535
2 0 0 [] 0 SetB
%I cfg Black
0 0 0 SetCFg
%I cbg White
1 1 1 SetCBg
none SetP %I p n
%I t
[ 0.282076 0 0 0.299282 253.443 467.666 ] concat
%I 3
277 536
359 558
440 536
3 BSpl
End

End %I eop

Begin %I Pict
%I b u
%I cfg u
%I cbg u
%I f u
%I p u
%I t
[ 1 0 0 1 152 250 ] concat

Begin %I Line
%I b 65535
2 0 0 [] 0 SetB
%I cfg Black
0 0 0 SetCFg
%I cbg White
1 1 1 SetCBg
none SetP %I p n
%I t
[ 1 0 0 1.061 -6.5 65.6675 ] concat
%I
384 245 388 190 Line
End

Begin %I Pict
%I b u
%I cfg u
%I cbg u
%I f u
%I p u
%I t u

Begin %I Line
%I b 65535
1 0 0 [] 0 SetB
%I cfg Black
0 0 0 SetCFg
%I cbg White
1 1 1 SetCBg
%I p
0 SetP
%I t
[ 1 0 0 1.79044 4.06671 139.208 ] concat
%I
298 121 298 107 Line
End

Begin %I MLine
%I b 65535
1 0 0 [] 0 SetB
%I cfg Black
0 0 0 SetCFg
%I cbg White
1 1 1 SetCBg
none SetP %I p n
%I t
[ 1 0 0 1.061 -5.9333 153.119 ] concat
%I 4
360 222
354 213
352 205
350 193
4 MLine
End

Begin %I MLine
%I b 65535
1 0 0 [] 0 SetB
%I cfg Black
0 0 0 SetCFg
%I cbg White
1 1 1 SetCBg
none SetP %I p n
%I t
[ 1 0 0 1.061 -6 153.73 ] concat
%I 6
380 222
383 212
385 200
386 183
385 162
350 162
6 MLine
End

Begin %I Rect
%I b 65535
1 0 0 [] 0 SetB
%I cfg Black
0 0 0 SetCFg
%I cbg White
1 1 1 SetCBg
%I p
0 SetP
%I t
[ 1.04255 0 0 1.061 -15.6567 218.319 ] concat
%I
252 121 345 138 Rect
End

Begin %I MLine
%I b 65535
1 0 0 [] 0 SetB
%I cfg Black
0 0 0 SetCFg
%I cbg White
1 1 1 SetCBg
none SetP %I p n
%I t
[ 1.04082 0 0 1.061 -210.852 215.136 ] concat
%I 5
440 124
440 113
532 105
532 114
533 124
5 MLine
End

Begin %I Poly
%I b 65535
2 0 0 [] 0 SetB
%I cfg Black
0 0 0 SetCFg
%I cbg Black
0 0 0 SetCBg
%I p
0 SetP
%I t
[ 0.5 0 0 0.5305 205.5 288.478 ] concat
%I 3
339 187
342 176
346 190
3 Poly
End

End %I eop

Begin %I Pict
%I b u
%I cfg u
%I cbg u
%I f u
%I p u
%I t
[ 1 0 0 1 -4 -6 ] concat

Begin %I Poly
%I b 65535
1 0 0 [] 0 SetB
%I cfg Black
0 0 0 SetCFg
%I cbg Black
0 0 0 SetCBg
%I p
0 SetP
%I t
[ 0.868 0 0 0.7427 125.316 192.806 ] concat
%I 8
265 187
265 179
262 171
277 165
278 159
294 154
297 159
297 187
8 Poly
End

Begin %I Pict
%I b u
%I cfg u
%I cbg u
%I f u
%I p u
%I t
[ 1 0 0 1.061 -199.5 5.72367 ] concat

Begin %I Elli
%I b 65535
1 0 0 [] 0 SetB
%I cfg White
1 1 1 SetCFg
%I cbg Black
0 0 0 SetCBg
%I p
0 SetP
%I t
[ 0.939693 -0.217649 0.34202 0.597986 206.207 259.351 ] concat
%I
313 173 8 2 Elli
End

Begin %I Elli
%I b 65535
1 0 0 [] 0 SetB
%I cfg Black
0 0 0 SetCFg
%I cbg Black
0 0 0 SetCBg
none SetP %I p n
%I t
[ 0.939693 -0.217649 0.34202 0.597986 206.207 259.351 ] concat
%I
313 173 8 2 Elli
End

End %I eop

Begin %I Pict
%I b u
%I cfg u
%I cbg u
%I f u
%I p u
%I t
[ 1 0 0 1.061 -185.5 -3.29484 ] concat

Begin %I Elli
%I b 65535
1 0 0 [] 0 SetB
%I cfg White
1 1 1 SetCFg
%I cbg Black
0 0 0 SetCBg
%I p
0 SetP
%I t
[ 0.939693 -0.217649 0.34202 0.597986 206.207 259.351 ] concat
%I
313 173 8 2 Elli
End

Begin %I Elli
%I b 65535
1 0 0 [] 0 SetB
%I cfg Black
0 0 0 SetCFg
%I cbg Black
0 0 0 SetCBg
none SetP %I p n
%I t
[ 0.939693 -0.217649 0.34202 0.597986 206.207 259.351 ] concat
%I
313 173 8 2 Elli
End

End %I eop

Begin %I Poly
%I b 65535
1 0 0 [] 0 SetB
%I cfg Black
0 0 0 SetCFg
%I cbg White
1 1 1 SetCBg
none SetP %I p n
%I t
[ 0.35 0 0 0.37135 252.8 260.685 ] concat
%I 4
271 191
281 155
292 171
292 191
4 Poly
End

Begin %I Poly
%I b 65535
2 0 0 [] 0 SetB
%I cfg Black
0 0 0 SetCFg
%I cbg Black
0 0 0 SetCBg
%I p
0 SetP
%I t
[ -0.5 0 0 -0.5305 552 430.816 ] concat
%I 3
339 187
340 179
345 192
3 Poly
End

End %I eop

End %I eop

Begin %I Pict
%I b u
%I cfg u
%I cbg u
%I f u
%I p u
%I t
[ 1 0 0 1 152 250 ] concat

Begin %I Line
%I b 65535
2 0 0 [] 0 SetB
%I cfg Black
0 0 0 SetCFg
%I cbg White
1 1 1 SetCBg
none SetP %I p n
%I t
[ -1 0 0 1.061 775.066 65.6675 ] concat
%I
384 245 388 190 Line
End

Begin %I Pict
%I b u
%I cfg u
%I cbg u
%I f u
%I p u
%I t u

Begin %I Line
%I b 65535
1 0 0 [] 0 SetB
%I cfg Black
0 0 0 SetCFg
%I cbg White
1 1 1 SetCBg
%I p
0 SetP
%I t
[ -1 0 0 1.5915 764.499 160.494 ] concat
%I
298 121 298 107 Line
End

Begin %I MLine
%I b 65535
1 0 0 [] 0 SetB
%I cfg Black
0 0 0 SetCFg
%I cbg White
1 1 1 SetCBg
none SetP %I p n
%I t
[ -1 0 0 1.061 774.499 153.119 ] concat
%I 4
360 222
354 213
352 205
350 193
4 MLine
End

Begin %I MLine
%I b 65535
1 0 0 [] 0 SetB
%I cfg Black
0 0 0 SetCFg
%I cbg White
1 1 1 SetCBg
none SetP %I p n
%I t
[ -1 0 0 1.061 774.566 153.73 ] concat
%I 6
380 222
383 212
385 200
386 183
385 162
350 162
6 MLine
End

Begin %I Rect
%I b 65535
1 0 0 [] 0 SetB
%I cfg Black
0 0 0 SetCFg
%I cbg White
1 1 1 SetCBg
%I p
0 SetP
%I t
[ -1.04255 0 0 1.061 784.223 218.319 ] concat
%I
252 121 345 138 Rect
End

Begin %I MLine
%I b 65535
1 0 0 [] 0 SetB
%I cfg Black
0 0 0 SetCFg
%I cbg White
1 1 1 SetCBg
none SetP %I p n
%I t
[ -1.04082 0 0 1.061 979.418 215.136 ] concat
%I 5
440 124
440 113
532 105
532 114
533 124
5 MLine
End

Begin %I Poly
%I b 65535
2 0 0 [] 0 SetB
%I cfg Black
0 0 0 SetCFg
%I cbg Black
0 0 0 SetCBg
%I p
0 SetP
%I t
[ -0.5 0 0 0.5305 563.066 288.478 ] concat
%I 3
339 187
342 176
346 190
3 Poly
End

End %I eop

Begin %I Pict
%I b u
%I cfg u
%I cbg u
%I f u
%I p u
%I t
[ 1 0 0 1 -4 -6 ] concat

Begin %I Poly
%I b 65535
1 0 0 [] 0 SetB
%I cfg Black
0 0 0 SetCFg
%I cbg Black
0 0 0 SetCBg
%I p
0 SetP
%I t
[ -0.868 0 0 0.7427 651.25 192.806 ] concat
%I 8
265 187
265 179
262 171
277 165
278 159
294 154
297 159
297 187
8 Poly
End

Begin %I Pict
%I b u
%I cfg u
%I cbg u
%I f u
%I p u
%I t
[ -1 0 0 1.061 976.066 5.72367 ] concat

Begin %I Elli
%I b 65535
1 0 0 [] 0 SetB
%I cfg White
1 1 1 SetCFg
%I cbg Black
0 0 0 SetCBg
%I p
0 SetP
%I t
[ 0.939693 -0.217649 0.34202 0.597986 206.207 259.351 ] concat
%I
313 173 8 2 Elli
End

Begin %I Elli
%I b 65535
1 0 0 [] 0 SetB
%I cfg Black
0 0 0 SetCFg
%I cbg Black
0 0 0 SetCBg
none SetP %I p n
%I t
[ 0.939693 -0.217649 0.34202 0.597986 206.207 259.351 ] concat
%I
313 173 8 2 Elli
End

End %I eop

Begin %I Pict
%I b u
%I cfg u
%I cbg u
%I f u
%I p u
%I t
[ -1 0 0 1.061 962.066 -3.29484 ] concat

Begin %I Elli
%I b 65535
1 0 0 [] 0 SetB
%I cfg White
1 1 1 SetCFg
%I cbg Black
0 0 0 SetCBg
%I p
0 SetP
%I t
[ 0.939693 -0.217649 0.34202 0.597986 206.207 259.351 ] concat
%I
313 173 8 2 Elli
End

Begin %I Elli
%I b 65535
1 0 0 [] 0 SetB
%I cfg Black
0 0 0 SetCFg
%I cbg Black
0 0 0 SetCBg
none SetP %I p n
%I t
[ 0.939693 -0.217649 0.34202 0.597986 206.207 259.351 ] concat
%I
313 173 8 2 Elli
End

End %I eop

Begin %I Poly
%I b 65535
1 0 0 [] 0 SetB
%I cfg Black
0 0 0 SetCFg
%I cbg White
1 1 1 SetCBg
none SetP %I p n
%I t
[ -0.35 0 0 0.37135 523.766 260.685 ] concat
%I 4
271 191
281 155
292 171
292 191
4 Poly
End

Begin %I Poly
%I b 65535
2 0 0 [] 0 SetB
%I cfg Black
0 0 0 SetCFg
%I cbg Black
0 0 0 SetCBg
%I p
0 SetP
%I t
[ 0.5 0 0 -0.5305 224.566 430.816 ] concat
%I 3
339 187
340 179
345 192
3 Poly
End

End %I eop

End %I eop

Begin %I Pict
%I b u
%I cfg u
%I cbg u
%I f u
%I p u
%I t u

Begin %I Pict
%I b u
%I cfg u
%I cbg u
%I f u
%I p u
%I t
[ 1 0 0 1 330 436 ] concat

Begin %I Rect
%I b 65535
1 0 0 [] 0 SetB
%I cfg Black
0 0 0 SetCFg
%I cbg White
1 1 1 SetCBg
%I p
0 SetP
%I t
[ 1 0 0 1.23783 -184.933 -71.9612 ] concat
%I
360 221 421 226 Rect
End

Begin %I BSpl
%I b 65535
2 0 0 [] 0 SetB
%I cfg Black
0 0 0 SetCFg
%I cbg White
1 1 1 SetCBg
none SetP %I p n
%I t
[ 0.300001 0 0 0.397875 98.0163 180.926 ] concat
%I 3
277 536
360 548
440 536
3 BSpl
End

Begin %I Pict
%I b u
%I cfg u
%I cbg u
%I f u
%I p u
%I t
[ 1 0 0 1 -14 -434 ] concat

Begin %I Elli
%I b 65535
1 0 0 [] 0 SetB
%I cfg Black
0 0 0 SetCFg
%I cbg White
1 1 1 SetCBg
%I p
0 SetP
%I t
[ 0.5 0 0 0.5 101 552 ] concat
%I
176 463 1 7 Elli
End

Begin %I Elli
%I b 65535
1 0 0 [] 0 SetB
%I cfg Black
0 0 0 SetCFg
%I cbg White
1 1 1 SetCBg
%I p
0 SetP
%I t
[ 0.5 0 0 0.5 163.267 552 ] concat
%I
176 463 1 7 Elli
End

Begin %I Elli
%I b 65535
1 0 0 [] 0 SetB
%I cfg Black
0 0 0 SetCFg
%I cbg White
1 1 1 SetCBg
%I p
0 SetP
%I t
[ 0.5 0 0 0.5 101 452.374 ] concat
%I
176 463 1 7 Elli
End

Begin %I Elli
%I b 65535
1 0 0 [] 0 SetB
%I cfg Black
0 0 0 SetCFg
%I cbg White
1 1 1 SetCBg
%I p
0 SetP
%I t
[ 0.5 0 0 0.5 163.267 452.374 ] concat
%I
176 463 1 7 Elli
End

End %I eop

Begin %I BSpl
%I b 65535
2 0 0 [] 0 SetB
%I cfg Black
0 0 0 SetCFg
%I cbg White
1 1 1 SetCBg
%I p
0 SetP
%I t
[ 0.375 0 0 0.397875 72.129 -6.07401 ] concat
%I 3
277 536
360 548
440 536
3 BSpl
End

End %I eop

Begin %I Pict
%I b u
%I cfg u
%I cbg u
%I f u
%I p u
%I t u

Begin %I Pict
%I b u
%I cfg u
%I cbg u
%I f u
%I p u
%I t
[ 1 0 0 1 316 0.132172 ] concat

Begin %I Line
%I b 65535
1 0 0 [] 0 SetB
%I cfg Black
0 0 0 SetCFg
%I cbg White
1 1 1 SetCBg
none SetP %I p n
%I t
[ 0.347826 0 0 1.05735 60.6988 401.529 ] concat
%I
390 407 390 232 Line
End

Begin %I Poly
none SetB %I b n
%I cfg White
1 1 1 SetCFg
%I cbg Blue
0 0 1 SetCBg
%I p
0 SetP
%I t
[ 0.200785 0 0 0.5 110.874 536.368 ] concat
%I 5
409 218
409 588
416 590
424 590
423 223
5 Poly
End

Begin %I Poly
none SetB %I b n
%I cfg LtGray
0.762951 0.762951 0.762951 SetCFg
%I cbg White
1 1 1 SetCBg
%I p
0.75 SetP
%I t
[ 0.0959013 0 0 0.506631 149.063 540.597 ] concat
%I 6
424 198
424 565
435 567
441 568
457 570
457 209
6 Poly
End

Begin %I Line
%I b 65535
1 0 0 [] 0 SetB
%I cfg Black
0 0 0 SetCFg
%I cbg White
1 1 1 SetCBg
none SetP %I p n
%I t
[ 0.347826 0 0 1.07811 53.7487 388.226 ] concat
%I
390 407 390 232 Line
End

Begin %I MLine
%I b 65535
2 0 0 [] 0 SetB
%I cfg Black
0 0 0 SetCFg
%I cbg Blue
0 0 1 SetCBg
none SetP %I p n
%I t
[ 0.173913 0 0 0.5 121.378 348.359 ] concat
%I 4
393 587
405 593
420 597
430 597
4 MLine
End

Begin %I MLine
%I b 65535
2 0 0 [] 0 SetB
%I cfg Black
0 0 0 SetCFg
%I cbg Blue
0 0 1 SetCBg
none SetP %I p n
%I t
[ 0.173913 0 0 0.5 121.378 533.026 ] concat
%I 4
393 587
405 593
420 597
430 597
4 MLine
End

End %I eop

Begin %I Pict
%I b u
%I cfg u
%I cbg u
%I f u
%I p u
%I t
[ 1 0 0 1 315 3.13199 ] concat

Begin %I Poly
none SetB %I b n
%I cfg White
1 1 1 SetCFg
%I cbg Blue
0 0 1 SetCBg
%I p
0 SetP
%I t
[ -0.200785 0 0 0.5 330 533.368 ] concat
%I 5
409 218
409 588
416 590
424 590
423 223
5 Poly
End

Begin %I Poly
none SetB %I b n
%I cfg LtGray
0.762951 0.762951 0.762951 SetCFg
%I cbg White
1 1 1 SetCBg
%I p
0.75 SetP
%I t
[ -0.0548007 0 0 0.506631 274.028 537.597 ] concat
%I 6
424 198
424 565
435 567
441 568
457 570
457 209
6 Poly
End

Begin %I Line
%I b 65535
1 0 0 [] 0 SetB
%I cfg Black
0 0 0 SetCFg
%I cbg White
1 1 1 SetCBg
none SetP %I p n
%I t
[ -0.347826 0 0 1.07811 387.126 385.226 ] concat
%I
390 407 390 232 Line
End

Begin %I MLine
%I b 65535
2 0 0 [] 0 SetB
%I cfg Black
0 0 0 SetCFg
%I cbg Blue
0 0 1 SetCBg
none SetP %I p n
%I t
[ -0.173913 0 0 0.5 319.497 345.359 ] concat
%I 4
393 587
405 593
420 597
430 597
4 MLine
End

Begin %I MLine
%I b 65535
2 0 0 [] 0 SetB
%I cfg Black
0 0 0 SetCFg
%I cbg Blue
0 0 1 SetCBg
none SetP %I p n
%I t
[ -0.173913 0 0 0.5 319.497 530.026 ] concat
%I 4
393 587
405 593
420 597
430 597
4 MLine
End

Begin %I Line
%I b 65535
1 0 0 [] 0 SetB
%I cfg Black
0 0 0 SetCFg
%I cbg White
1 1 1 SetCBg
none SetP %I p n
%I t
[ -0.347826 0 0 1.05735 380.176 398.529 ] concat
%I
390 407 390 232 Line
End

End %I eop

End %I eop

End %I eop

End %I eop

Begin %I Poly
%I b 65535
1 0 0 [] 0 SetB
%I cfg LtGray
0.762951 0.762951 0.762951 SetCFg
%I cbg LtGray
0.762951 0.762951 0.762951 SetCBg
%I p
0.75 SetP
%I t
[ 0.401786 0 0 0.496146 474.238 639.479 ] concat
%I 11
99 380
126 383
155 385
187 383
210 379
210 12
174 16
134 17
110 13
100 11
100 383
11 Poly
End

Begin %I Rect
%I b 65535
1 0 0 [] 0 SetB
%I cfg Red
1 0 0 SetCFg
%I cbg LtGray
0.762951 0.762951 0.762951 SetCBg
%I p
< ff 88 88 88 ff 88 88 88 > -1 SetP
%I t
[ 0.435187 0 0 0.489333 469.146 642.607 ] concat
%I
103 271 208 375 Rect
End

Begin %I Rect
%I b 65535
1 0 0 [] 0 SetB
%I cfg Blue
0 0 1 SetCFg
%I cbg LtGray
0.762951 0.762951 0.762951 SetCBg
%I p
< 88 88 88 88 88 88 88 88 > -1 SetP
%I t
[ 0.525824 0 0 0.489333 453.479 639.607 ] concat
%I
117 23 199 264 Rect
End

End %I eop

End %I eop

Begin %I Pict shuttle 1
%I b u
%I cfg u
%I cbg u
%I f u
%I p u
%I t u

Begin %I Pict
%I b u
%I cfg u
%I cbg u
%I f u
%I p u
%I t
[ 1 0 0 0.996273 -308 3.68347 ] concat

Begin %I BSpl
none SetB %I b n
%I cfg Black
0 0 0 SetCFg
%I cbg White
1 1 1 SetCBg
%I p
1 SetP
%I t
[ 0.5 0 0 0.5 378 519 ] concat
%I 24
42 132
42 192
47 223
57 244
75 263
114 296
188 360
193 370
270 726
283 769
295 792
309 804
324 804
333 797
321 0
315 1
311 0
306 78
284 96
239 82
238 104
247 116
42 131
42 131
24 BSpl
End

Begin %I BSpl
none SetB %I b n
%I cfg Black
0 0 0 SetCFg
%I cbg White
1 1 1 SetCBg
%I p
1 SetP
%I t
[ -0.5 0 0 0.5 695 519 ] concat
%I 24
42 132
42 192
47 223
57 244
75 263
114 296
188 360
193 370
270 726
283 769
295 792
309 804
324 804
333 797
321 0
315 1
311 0
306 78
284 96
239 82
238 104
247 116
42 131
42 131
24 BSpl
End

End %I eop

Begin %I Pict Shuttle 1
%I b u
%I cfg u
%I cbg u
%I f u
%I p u
%I t
[ 1 0 0 1 -0.0829315 -0.500244 ] concat

Begin %I Pict Shuttle 1
%I b u
%I cfg u
%I cbg u
%I f u
%I p u
%I t u

Begin %I Pict
%I b u
%I cfg u
%I cbg u
%I f u
%I p u
%I t
[ 1 0 0 1 -126 254 ] concat

Begin %I Pict
%I b u
%I cfg u
%I cbg u
%I f u
%I p u
%I t
[ 1 0 0 1.061 0 -32.4814 ] concat

Begin %I Rect
%I b 65535
1 0 0 [] 0 SetB
%I cfg Black
0 0 0 SetCFg
%I cbg White
1 1 1 SetCBg
%I p
0 SetP
%I t
[ 1 0 0 1 -101 134 ] concat
%I
442 446 453 452 Rect
End

Begin %I Rect
%I b 65535
1 0 0 [] 0 SetB
%I cfg Black
0 0 0 SetCFg
%I cbg White
1 1 1 SetCBg
%I p
0 SetP
%I t
[ 1 0 0 1 -86 134 ] concat
%I
442 446 453 452 Rect
End

Begin %I Rect
%I b 65535
1 0 0 [] 0 SetB
%I cfg Black
0 0 0 SetCFg
%I cbg White
1 1 1 SetCBg
%I p
0 SetP
%I t
[ 0.809524 0 0 0.857143 -15.8857 195.714 ] concat
%I
447 467 467 480 Rect
End

Begin %I Rect
%I b 65535
1 0 0 [] 0 SetB
%I cfg Black
0 0 0 SetCFg
%I cbg White
1 1 1 SetCBg
%I p
0 SetP
%I t
[ 0.707107 0.707107 -0.707107 0.707107 406.283 129.749 ] concat
%I
278 378 284 383 Rect
End

Begin %I Poly
%I b 65535
1 0 0 [] 0 SetB
%I cfg Black
0 0 0 SetCFg
%I cbg White
1 1 1 SetCBg
%I p
0 SetP
%I t
[ 0.4 0 0 0.4 178.926 374.15 ] concat
%I 5
408 578
412 570
406 564
398 571
407 579
5 Poly
End

Begin %I Rect
%I b 65535
1 0 0 [] 0 SetB
%I cfg Black
0 0 0 SetCFg
%I cbg White
1 1 1 SetCBg
%I p
0 SetP
%I t
[ -0.707107 0.707107 0.707107 0.707107 301.85 129.749 ] concat
%I
278 378 284 383 Rect
End

Begin %I Poly
%I b 65535
1 0 0 [] 0 SetB
%I cfg Black
0 0 0 SetCFg
%I cbg White
1 1 1 SetCBg
%I p
0 SetP
%I t
[ -0.4 0 0 0.4 529.207 374.15 ] concat
%I 5
408 578
412 570
406 564
398 571
407 579
5 Poly
End

End %I eop

Begin %I Pict
%I b u
%I cfg u
%I cbg u
%I f u
%I p u
%I t
[ 1 0 0 1.061 0 -28.5175 ] concat

Begin %I Rect
%I b 65535
1 0 0 [] 0 SetB
%I cfg Black
0 0 0 SetCFg
%I cbg White
1 1 1 SetCBg
%I p
0 SetP
%I t
[ 0.719577 0 0 0.5 25.2869 393.68 ] concat
%I
447 467 467 480 Rect
End

Begin %I Poly
%I b 65535
1 0 0 [] 0 SetB
%I cfg Black
0 0 0 SetCFg
%I cbg White
1 1 1 SetCBg
%I p
0 SetP
%I t
[ 0.5 0 0 0.512782 139.067 443.151 ] concat
%I 11
415 377
445 377
445 382
457 382
452 393
444 403
430 406
418 403
411 394
403 382
414 382
11 Poly
End

End %I eop

Begin %I BSpl
%I b 65535
2 0 0 [] 0 SetB
%I cfg Black
0 0 0 SetCFg
%I cbg White
1 1 1 SetCBg
none SetP %I p n
%I t
[ 0.282076 0 0 0.299282 253.443 467.666 ] concat
%I 3
277 536
359 558
440 536
3 BSpl
End

End %I eop

Begin %I Pict
%I b u
%I cfg u
%I cbg u
%I f u
%I p u
%I t
[ 1 0 0 1 -156 250 ] concat

Begin %I Line
%I b 65535
2 0 0 [] 0 SetB
%I cfg Black
0 0 0 SetCFg
%I cbg White
1 1 1 SetCBg
none SetP %I p n
%I t
[ 1 0 0 1.061 -6.5 65.6675 ] concat
%I
384 245 388 190 Line
End

Begin %I Pict
%I b u
%I cfg u
%I cbg u
%I f u
%I p u
%I t u

Begin %I Line
%I b 65535
1 0 0 [] 0 SetB
%I cfg Black
0 0 0 SetCFg
%I cbg White
1 1 1 SetCBg
%I p
0 SetP
%I t
[ 1 0 0 1.79044 4.06671 139.208 ] concat
%I
298 121 298 107 Line
End

Begin %I MLine
%I b 65535
1 0 0 [] 0 SetB
%I cfg Black
0 0 0 SetCFg
%I cbg White
1 1 1 SetCBg
none SetP %I p n
%I t
[ 1 0 0 1.061 -5.9333 153.119 ] concat
%I 4
360 222
354 213
352 205
350 193
4 MLine
End

Begin %I MLine
%I b 65535
1 0 0 [] 0 SetB
%I cfg Black
0 0 0 SetCFg
%I cbg White
1 1 1 SetCBg
none SetP %I p n
%I t
[ 1 0 0 1.061 -6 153.73 ] concat
%I 6
380 222
383 212
385 200
386 183
385 162
350 162
6 MLine
End

Begin %I Rect
%I b 65535
1 0 0 [] 0 SetB
%I cfg Black
0 0 0 SetCFg
%I cbg White
1 1 1 SetCBg
%I p
0 SetP
%I t
[ 1.04255 0 0 1.061 -15.6567 218.319 ] concat
%I
252 121 345 138 Rect
End

Begin %I MLine
%I b 65535
1 0 0 [] 0 SetB
%I cfg Black
0 0 0 SetCFg
%I cbg White
1 1 1 SetCBg
none SetP %I p n
%I t
[ 1.04082 0 0 1.061 -210.852 215.136 ] concat
%I 5
440 124
440 113
532 105
532 114
533 124
5 MLine
End

Begin %I Poly
%I b 65535
2 0 0 [] 0 SetB
%I cfg Black
0 0 0 SetCFg
%I cbg Black
0 0 0 SetCBg
%I p
0 SetP
%I t
[ 0.5 0 0 0.5305 205.5 288.478 ] concat
%I 3
339 187
342 176
346 190
3 Poly
End

End %I eop

Begin %I Pict
%I b u
%I cfg u
%I cbg u
%I f u
%I p u
%I t
[ 1 0 0 1 -4 -6 ] concat

Begin %I Poly
%I b 65535
1 0 0 [] 0 SetB
%I cfg Black
0 0 0 SetCFg
%I cbg Black
0 0 0 SetCBg
%I p
0 SetP
%I t
[ 0.868 0 0 0.7427 125.316 192.806 ] concat
%I 8
265 187
265 179
262 171
277 165
278 159
294 154
297 159
297 187
8 Poly
End

Begin %I Pict
%I b u
%I cfg u
%I cbg u
%I f u
%I p u
%I t
[ 1 0 0 1.061 -199.5 5.72367 ] concat

Begin %I Elli
%I b 65535
1 0 0 [] 0 SetB
%I cfg White
1 1 1 SetCFg
%I cbg Black
0 0 0 SetCBg
%I p
0 SetP
%I t
[ 0.939693 -0.217649 0.34202 0.597986 206.207 259.351 ] concat
%I
313 173 8 2 Elli
End

Begin %I Elli
%I b 65535
1 0 0 [] 0 SetB
%I cfg Black
0 0 0 SetCFg
%I cbg Black
0 0 0 SetCBg
none SetP %I p n
%I t
[ 0.939693 -0.217649 0.34202 0.597986 206.207 259.351 ] concat
%I
313 173 8 2 Elli
End

End %I eop

Begin %I Pict
%I b u
%I cfg u
%I cbg u
%I f u
%I p u
%I t
[ 1 0 0 1.061 -185.5 -3.29484 ] concat

Begin %I Elli
%I b 65535
1 0 0 [] 0 SetB
%I cfg White
1 1 1 SetCFg
%I cbg Black
0 0 0 SetCBg
%I p
0 SetP
%I t
[ 0.939693 -0.217649 0.34202 0.597986 206.207 259.351 ] concat
%I
313 173 8 2 Elli
End

Begin %I Elli
%I b 65535
1 0 0 [] 0 SetB
%I cfg Black
0 0 0 SetCFg
%I cbg Black
0 0 0 SetCBg
none SetP %I p n
%I t
[ 0.939693 -0.217649 0.34202 0.597986 206.207 259.351 ] concat
%I
313 173 8 2 Elli
End

End %I eop

Begin %I Poly
%I b 65535
1 0 0 [] 0 SetB
%I cfg Black
0 0 0 SetCFg
%I cbg White
1 1 1 SetCBg
none SetP %I p n
%I t
[ 0.35 0 0 0.37135 252.8 260.685 ] concat
%I 4
271 191
281 155
292 171
292 191
4 Poly
End

Begin %I Poly
%I b 65535
2 0 0 [] 0 SetB
%I cfg Black
0 0 0 SetCFg
%I cbg Black
0 0 0 SetCBg
%I p
0 SetP
%I t
[ -0.5 0 0 -0.5305 552 430.816 ] concat
%I 3
339 187
340 179
345 192
3 Poly
End

End %I eop

End %I eop

Begin %I Pict
%I b u
%I cfg u
%I cbg u
%I f u
%I p u
%I t
[ 1 0 0 1 -156 250 ] concat

Begin %I Line
%I b 65535
2 0 0 [] 0 SetB
%I cfg Black
0 0 0 SetCFg
%I cbg White
1 1 1 SetCBg
none SetP %I p n
%I t
[ -1 0 0 1.061 775.066 65.6675 ] concat
%I
384 245 388 190 Line
End

Begin %I Pict
%I b u
%I cfg u
%I cbg u
%I f u
%I p u
%I t u

Begin %I Line
%I b 65535
1 0 0 [] 0 SetB
%I cfg Black
0 0 0 SetCFg
%I cbg White
1 1 1 SetCBg
%I p
0 SetP
%I t
[ -1 0 0 1.5915 764.499 160.494 ] concat
%I
298 121 298 107 Line
End

Begin %I MLine
%I b 65535
1 0 0 [] 0 SetB
%I cfg Black
0 0 0 SetCFg
%I cbg White
1 1 1 SetCBg
none SetP %I p n
%I t
[ -1 0 0 1.061 774.499 153.119 ] concat
%I 4
360 222
354 213
352 205
350 193
4 MLine
End

Begin %I MLine
%I b 65535
1 0 0 [] 0 SetB
%I cfg Black
0 0 0 SetCFg
%I cbg White
1 1 1 SetCBg
none SetP %I p n
%I t
[ -1 0 0 1.061 774.566 153.73 ] concat
%I 6
380 222
383 212
385 200
386 183
385 162
350 162
6 MLine
End

Begin %I Rect
%I b 65535
1 0 0 [] 0 SetB
%I cfg Black
0 0 0 SetCFg
%I cbg White
1 1 1 SetCBg
%I p
0 SetP
%I t
[ -1.04255 0 0 1.061 784.223 218.319 ] concat
%I
252 121 345 138 Rect
End

Begin %I MLine
%I b 65535
1 0 0 [] 0 SetB
%I cfg Black
0 0 0 SetCFg
%I cbg White
1 1 1 SetCBg
none SetP %I p n
%I t
[ -1.04082 0 0 1.061 979.418 215.136 ] concat
%I 5
440 124
440 113
532 105
532 114
533 124
5 MLine
End

Begin %I Poly
%I b 65535
2 0 0 [] 0 SetB
%I cfg Black
0 0 0 SetCFg
%I cbg Black
0 0 0 SetCBg
%I p
0 SetP
%I t
[ -0.5 0 0 0.5305 563.066 288.478 ] concat
%I 3
339 187
342 176
346 190
3 Poly
End

End %I eop

Begin %I Pict
%I b u
%I cfg u
%I cbg u
%I f u
%I p u
%I t
[ 1 0 0 1 -4 -6 ] concat

Begin %I Poly
%I b 65535
1 0 0 [] 0 SetB
%I cfg Black
0 0 0 SetCFg
%I cbg Black
0 0 0 SetCBg
%I p
0 SetP
%I t
[ -0.868 0 0 0.7427 651.25 192.806 ] concat
%I 8
265 187
265 179
262 171
277 165
278 159
294 154
297 159
297 187
8 Poly
End

Begin %I Pict
%I b u
%I cfg u
%I cbg u
%I f u
%I p u
%I t
[ -1 0 0 1.061 976.066 5.72367 ] concat

Begin %I Elli
%I b 65535
1 0 0 [] 0 SetB
%I cfg White
1 1 1 SetCFg
%I cbg Black
0 0 0 SetCBg
%I p
0 SetP
%I t
[ 0.939693 -0.217649 0.34202 0.597986 206.207 259.351 ] concat
%I
313 173 8 2 Elli
End

Begin %I Elli
%I b 65535
1 0 0 [] 0 SetB
%I cfg Black
0 0 0 SetCFg
%I cbg Black
0 0 0 SetCBg
none SetP %I p n
%I t
[ 0.939693 -0.217649 0.34202 0.597986 206.207 259.351 ] concat
%I
313 173 8 2 Elli
End

End %I eop

Begin %I Pict
%I b u
%I cfg u
%I cbg u
%I f u
%I p u
%I t
[ -1 0 0 1.061 962.066 -3.29484 ] concat

Begin %I Elli
%I b 65535
1 0 0 [] 0 SetB
%I cfg White
1 1 1 SetCFg
%I cbg Black
0 0 0 SetCBg
%I p
0 SetP
%I t
[ 0.939693 -0.217649 0.34202 0.597986 206.207 259.351 ] concat
%I
313 173 8 2 Elli
End

Begin %I Elli
%I b 65535
1 0 0 [] 0 SetB
%I cfg Black
0 0 0 SetCFg
%I cbg Black
0 0 0 SetCBg
none SetP %I p n
%I t
[ 0.939693 -0.217649 0.34202 0.597986 206.207 259.351 ] concat
%I
313 173 8 2 Elli
End

End %I eop

Begin %I Poly
%I b 65535
1 0 0 [] 0 SetB
%I cfg Black
0 0 0 SetCFg
%I cbg White
1 1 1 SetCBg
none SetP %I p n
%I t
[ -0.35 0 0 0.37135 523.766 260.685 ] concat
%I 4
271 191
281 155
292 171
292 191
4 Poly
End

Begin %I Poly
%I b 65535
2 0 0 [] 0 SetB
%I cfg Black
0 0 0 SetCFg
%I cbg Black
0 0 0 SetCBg
%I p
0 SetP
%I t
[ 0.5 0 0 -0.5305 224.566 430.816 ] concat
%I 3
339 187
340 179
345 192
3 Poly
End

End %I eop

End %I eop

Begin %I Pict
%I b u
%I cfg u
%I cbg u
%I f u
%I p u
%I t
[ 1 0 0 1 -160 244 ] concat

Begin %I MLine
%I b 65535
2 0 0 [] 0 SetB
%I cfg Black
0 0 0 SetCFg
%I cbg White
1 1 1 SetCBg
none SetP %I p n
%I t
[ 0.5 0 0 0.5 147.5 220.5 ] concat
%I 9
417 733
367 483
364 475
359 467
237 359
231 351
225 343
219 329
214 299
9 MLine
End

Begin %I BSpl
%I b 65535
1 0 0 [] 0 SetB
%I cfg Black
0 0 0 SetCFg
%I cbg White
1 1 1 SetCBg
none SetP %I p n
%I t
[ 1 0 0 1.061 -71.433 119.413 ] concat
%I 5
425 439
442 518
460 530
478 518
493 440
5 BSpl
End

Begin %I BSpl
%I b 65535
1 0 0 [] 0 SetB
%I cfg Black
0 0 0 SetCFg
%I cbg White
1 1 1 SetCBg
none SetP %I p n
%I t
[ -0.5 0 0 0.5305 602.6 295.539 ] concat
%I 9
362 548
333 433
301 302
299 302
249 265
191 214
175 204
157 176
153 142
9 BSpl
End

Begin %I MLine
%I b 65535
2 0 0 [] 0 SetB
%I cfg Black
0 0 0 SetCFg
%I cbg White
1 1 1 SetCBg
none SetP %I p n
%I t
[ -0.5 0 0 0.5 630 220.5 ] concat
%I 9
423 732
366 483
363 475
358 467
236 361
230 351
224 343
218 329
215 298
9 MLine
End

Begin %I BSpl
%I b 65535
1 0 0 [] 0 SetB
%I cfg Black
0 0 0 SetCFg
%I cbg White
1 1 1 SetCBg
none SetP %I p n
%I t
[ 0.5 0 0 0.5305 174 295.539 ] concat
%I 9
358 545
335 433
303 302
301 302
251 263
193 212
177 203
159 178
155 144
9 BSpl
End

End %I eop

Begin %I Pict
%I b u
%I cfg u
%I cbg u
%I f u
%I p u
%I t u

Begin %I Pict
%I b u
%I cfg u
%I cbg u
%I f u
%I p u
%I t u

Begin %I BSpl
%I b 65535
2 0 0 [] 0 SetB
%I cfg Black
0 0 0 SetCFg
%I cbg White
1 1 1 SetCBg
none SetP %I p n
%I t
[ 0.225 0 0 0.397875 146.904 616.926 ] concat
%I 3
277 536
360 548
440 536
3 BSpl
End

Begin %I BSpl
%I b 65535
2 0 0 [] 0 SetB
%I cfg Black
0 0 0 SetCFg
%I cbg White
1 1 1 SetCBg
%I p
0 SetP
%I t
[ 0.375 0 0 0.397875 94.129 430.063 ] concat
%I 3
277 536
360 548
440 536
3 BSpl
End

Begin %I Pict
%I b u
%I cfg u
%I cbg u
%I f u
%I p u
%I t
[ 1 0 0 1 8 2 ] concat

Begin %I Elli
%I b 65535
1 0 0 [] 0 SetB
%I cfg Black
0 0 0 SetCFg
%I cbg White
1 1 1 SetCBg
%I p
0 SetP
%I t
[ 0.5 0 0 0.5 101 552 ] concat
%I
176 463 1 7 Elli
End

Begin %I Elli
%I b 65535
1 0 0 [] 0 SetB
%I cfg Black
0 0 0 SetCFg
%I cbg White
1 1 1 SetCBg
%I p
0 SetP
%I t
[ 0.5 0 0 0.5 163.267 552 ] concat
%I
176 463 1 7 Elli
End

Begin %I Elli
%I b 65535
1 0 0 [] 0 SetB
%I cfg Black
0 0 0 SetCFg
%I cbg White
1 1 1 SetCBg
%I p
0 SetP
%I t
[ 0.5 0 0 0.5 101 452.374 ] concat
%I
176 463 1 7 Elli
End

Begin %I Elli
%I b 65535
1 0 0 [] 0 SetB
%I cfg Black
0 0 0 SetCFg
%I cbg White
1 1 1 SetCBg
%I p
0 SetP
%I t
[ 0.5 0 0 0.5 163.267 452.374 ] concat
%I
176 463 1 7 Elli
End

End %I eop

Begin %I Rect
%I b 65535
1 0 0 [] 0 SetB
%I cfg Black
0 0 0 SetCFg
%I cbg White
1 1 1 SetCBg
%I p
0 SetP
%I t
[ 1 0 0 1.34099 -162.933 340.421 ] concat
%I
360 221 421 226 Rect
End

End %I eop

Begin %I Pict
%I b u
%I cfg u
%I cbg u
%I f u
%I p u
%I t
[ 1 0 0 1 -326 436 ] concat

Begin %I Pict
%I b u
%I cfg u
%I cbg u
%I f u
%I p u
%I t
[ 1 0 0 1 334 -434.623 ] concat

Begin %I Poly
none SetB %I b n
%I cfg LtGray
0.762951 0.762951 0.762951 SetCFg
%I cbg White
1 1 1 SetCBg
%I p
0.75 SetP
%I t
[ -0.322266 0 0 0.506631 386.274 541.22 ] concat
%I 6
424 198
424 565
435 567
441 568
457 570
457 209
6 Poly
End

Begin %I Poly
none SetB %I b n
%I cfg White
1 1 1 SetCFg
%I cbg Blue
0 0 1 SetCBg
%I p
0 SetP
%I t
[ -0.633333 0 0 0.5 499.267 536.991 ] concat
%I 5
409 218
409 588
416 590
424 590
423 223
5 Poly
End

Begin %I Line
%I b 65535
1 0 0 [] 0 SetB
%I cfg Black
0 0 0 SetCFg
%I cbg White
1 1 1 SetCBg
none SetP %I p n
%I t
[ -1 0 0 1.07811 640.567 388.849 ] concat
%I
390 407 390 232 Line
End

Begin %I MLine
%I b 65535
2 0 0 [] 0 SetB
%I cfg Black
0 0 0 SetCFg
%I cbg Blue
0 0 1 SetCBg
none SetP %I p n
%I t
[ -0.5 0 0 0.5 446.134 348.981 ] concat
%I 4
393 587
405 593
420 597
430 597
4 MLine
End

Begin %I MLine
%I b 65535
2 0 0 [] 0 SetB
%I cfg Black
0 0 0 SetCFg
%I cbg Blue
0 0 1 SetCBg
none SetP %I p n
%I t
[ -0.5 0 0 0.5 446.134 533.649 ] concat
%I 4
393 587
405 593
420 597
430 597
4 MLine
End

Begin %I Line
%I b 65535
1 0 0 [] 0 SetB
%I cfg Black
0 0 0 SetCFg
%I cbg White
1 1 1 SetCBg
none SetP %I p n
%I t
[ -1 0 0 1.05735 620.586 402.151 ] concat
%I
390 407 390 232 Line
End

End %I eop

Begin %I Pict
%I b u
%I cfg u
%I cbg u
%I f u
%I p u
%I t
[ 1 0 0 1 334 -434.623 ] concat

Begin %I Poly
none SetB %I b n
%I cfg LtGray
0.762951 0.762951 0.762951 SetCFg
%I cbg White
1 1 1 SetCBg
%I p
0.75 SetP
%I t
[ 0.322266 0 0 0.506631 53.3594 541.22 ] concat
%I 6
424 198
424 565
435 567
441 568
457 570
457 209
6 Poly
End

Begin %I Poly
none SetB %I b n
%I cfg White
1 1 1 SetCFg
%I cbg Blue
0 0 1 SetCBg
%I p
0 SetP
%I t
[ 0.633333 0 0 0.5 -59.6334 536.991 ] concat
%I 5
409 218
409 588
416 590
424 590
423 223
5 Poly
End

Begin %I Line
%I b 65535
1 0 0 [] 0 SetB
%I cfg Black
0 0 0 SetCFg
%I cbg White
1 1 1 SetCBg
none SetP %I p n
%I t
[ 1 0 0 1.07811 -200.933 388.849 ] concat
%I
390 407 390 232 Line
End

Begin %I MLine
%I b 65535
2 0 0 [] 0 SetB
%I cfg Black
0 0 0 SetCFg
%I cbg Blue
0 0 1 SetCBg
none SetP %I p n
%I t
[ 0.5 0 0 0.5 -6.5 348.981 ] concat
%I 4
393 587
405 593
420 597
430 597
4 MLine
End

Begin %I MLine
%I b 65535
2 0 0 [] 0 SetB
%I cfg Black
0 0 0 SetCFg
%I cbg Blue
0 0 1 SetCBg
none SetP %I p n
%I t
[ 0.5 0 0 0.5 -6.5 533.649 ] concat
%I 4
393 587
405 593
420 597
430 597
4 MLine
End

Begin %I Line
%I b 65535
1 0 0 [] 0 SetB
%I cfg Black
0 0 0 SetCFg
%I cbg White
1 1 1 SetCBg
none SetP %I p n
%I t
[ 1 0 0 1.05735 -180.952 402.151 ] concat
%I
390 407 390 232 Line
End

End %I eop

End %I eop

End %I eop

End %I eop

Begin %I Poly
%I b 65535
1 0 0 [] 0 SetB
%I cfg LtGray
0.762951 0.762951 0.762951 SetCFg
%I cbg LtGray
0.762951 0.762951 0.762951 SetCBg
%I p
0.75 SetP
%I t
[ 0.161337 0 0 0.493333 203.028 643.067 ] concat
%I 11
99 380
126 383
155 385
187 383
210 379
210 12
174 16
134 17
110 13
100 11
100 383
11 Poly
End

Begin %I Rect
%I b 65535
1 0 0 [] 0 SetB
%I cfg Red
1 0 0 SetCFg
%I cbg LtGray
0.762951 0.762951 0.762951 SetCBg
%I p
< ff 88 88 88 ff 88 88 88 > -1 SetP
%I t
[ 0.165457 0 0 0.5 201.458 641 ] concat
%I
103 271 208 375 Rect
End

Begin %I Rect
%I b 65535
1 0 0 [] 0 SetB
%I cfg Blue
0 0 1 SetCFg
%I cbg LtGray
0.762951 0.762951 0.762951 SetCBg
%I p
< 88 88 88 88 88 88 88 88 > -1 SetP
%I t
[ 0.222892 0 0 0.5 192.422 638 ] concat
%I
117 23 199 264 Rect
End

End %I eop

End %I eop

Begin %I Pict shuttle 3
%I b u
%I cfg u
%I cbg u
%I f u
%I p u
%I t u

Begin %I Pict
%I b u
%I cfg u
%I cbg u
%I f u
%I p u
%I t
[ 1 0 0 0.996273 -308.5 -452.817 ] concat

Begin %I BSpl
none SetB %I b n
%I cfg Black
0 0 0 SetCFg
%I cbg White
1 1 1 SetCBg
%I p
1 SetP
%I t
[ 0.5 0 0 0.5 378 519 ] concat
%I 24
42 132
42 192
47 223
57 244
75 263
114 296
188 360
193 370
270 726
283 769
295 792
309 804
324 804
333 797
321 0
315 1
311 0
306 78
284 96
239 82
238 104
247 116
42 131
42 131
24 BSpl
End

Begin %I BSpl
none SetB %I b n
%I cfg Black
0 0 0 SetCFg
%I cbg White
1 1 1 SetCBg
%I p
1 SetP
%I t
[ -0.5 0 0 0.5 695 519 ] concat
%I 24
42 132
42 192
47 223
57 244
75 263
114 296
188 360
193 370
270 726
283 769
295 792
309 804
324 804
333 797
321 0
315 1
311 0
306 78
284 96
239 82
238 104
247 116
42 131
42 131
24 BSpl
End

End %I eop

Begin %I Pict Shuttle 3
%I b u
%I cfg u
%I cbg u
%I f u
%I p u
%I t
[ 1 0 0 1 -0.582932 -1.00076 ] concat

Begin %I Pict
%I b u
%I cfg u
%I cbg u
%I f u
%I p u
%I t u

Begin %I Pict
%I b u
%I cfg u
%I cbg u
%I f u
%I p u
%I t
[ 1 0 0 1 -160 -212 ] concat

Begin %I MLine
%I b 65535
2 0 0 [] 0 SetB
%I cfg Black
0 0 0 SetCFg
%I cbg White
1 1 1 SetCBg
none SetP %I p n
%I t
[ 0.5 0 0 0.5 147.5 220.5 ] concat
%I 9
417 733
367 483
364 475
359 467
237 359
231 351
225 343
219 329
214 299
9 MLine
End

Begin %I BSpl
%I b 65535
1 0 0 [] 0 SetB
%I cfg Black
0 0 0 SetCFg
%I cbg White
1 1 1 SetCBg
none SetP %I p n
%I t
[ 1 0 0 1.061 -71.433 119.413 ] concat
%I 5
425 439
442 518
460 530
478 518
493 440
5 BSpl
End

Begin %I BSpl
%I b 65535
1 0 0 [] 0 SetB
%I cfg Black
0 0 0 SetCFg
%I cbg White
1 1 1 SetCBg
none SetP %I p n
%I t
[ -0.5 0 0 0.5305 602.6 295.539 ] concat
%I 9
362 548
333 433
301 302
299 302
249 265
191 214
175 204
157 176
153 142
9 BSpl
End

Begin %I MLine
%I b 65535
2 0 0 [] 0 SetB
%I cfg Black
0 0 0 SetCFg
%I cbg White
1 1 1 SetCBg
none SetP %I p n
%I t
[ -0.5 0 0 0.5 630 220.5 ] concat
%I 9
423 732
366 483
363 475
358 467
236 361
230 351
224 343
218 329
215 298
9 MLine
End

Begin %I BSpl
%I b 65535
1 0 0 [] 0 SetB
%I cfg Black
0 0 0 SetCFg
%I cbg White
1 1 1 SetCBg
none SetP %I p n
%I t
[ 0.5 0 0 0.5305 174 295.539 ] concat
%I 9
358 545
335 433
303 302
301 302
251 263
193 212
177 203
159 178
155 144
9 BSpl
End

End %I eop

Begin %I Pict
%I b u
%I cfg u
%I cbg u
%I f u
%I p u
%I t
[ 1 0 0 1 -126 -202 ] concat

Begin %I Pict
%I b u
%I cfg u
%I cbg u
%I f u
%I p u
%I t
[ 1 0 0 1.061 0 -32.4814 ] concat

Begin %I Rect
%I b 65535
1 0 0 [] 0 SetB
%I cfg Black
0 0 0 SetCFg
%I cbg White
1 1 1 SetCBg
%I p
0 SetP
%I t
[ 1 0 0 1 -101 134 ] concat
%I
442 446 453 452 Rect
End

Begin %I Rect
%I b 65535
1 0 0 [] 0 SetB
%I cfg Black
0 0 0 SetCFg
%I cbg White
1 1 1 SetCBg
%I p
0 SetP
%I t
[ 1 0 0 1 -86 134 ] concat
%I
442 446 453 452 Rect
End

Begin %I Rect
%I b 65535
1 0 0 [] 0 SetB
%I cfg Black
0 0 0 SetCFg
%I cbg White
1 1 1 SetCBg
%I p
0 SetP
%I t
[ 0.809524 0 0 0.857143 -15.8857 195.714 ] concat
%I
447 467 467 480 Rect
End

Begin %I Rect
%I b 65535
1 0 0 [] 0 SetB
%I cfg Black
0 0 0 SetCFg
%I cbg White
1 1 1 SetCBg
%I p
0 SetP
%I t
[ 0.707107 0.707107 -0.707107 0.707107 406.283 129.749 ] concat
%I
278 378 284 383 Rect
End

Begin %I Poly
%I b 65535
1 0 0 [] 0 SetB
%I cfg Black
0 0 0 SetCFg
%I cbg White
1 1 1 SetCBg
%I p
0 SetP
%I t
[ 0.4 0 0 0.4 178.926 374.15 ] concat
%I 5
408 578
412 570
406 564
398 571
407 579
5 Poly
End

Begin %I Rect
%I b 65535
1 0 0 [] 0 SetB
%I cfg Black
0 0 0 SetCFg
%I cbg White
1 1 1 SetCBg
%I p
0 SetP
%I t
[ -0.707107 0.707107 0.707107 0.707107 301.85 129.749 ] concat
%I
278 378 284 383 Rect
End

Begin %I Poly
%I b 65535
1 0 0 [] 0 SetB
%I cfg Black
0 0 0 SetCFg
%I cbg White
1 1 1 SetCBg
%I p
0 SetP
%I t
[ -0.4 0 0 0.4 529.207 374.15 ] concat
%I 5
408 578
412 570
406 564
398 571
407 579
5 Poly
End

End %I eop

Begin %I Pict
%I b u
%I cfg u
%I cbg u
%I f u
%I p u
%I t
[ 1 0 0 1.061 0 -28.5175 ] concat

Begin %I Rect
%I b 65535
1 0 0 [] 0 SetB
%I cfg Black
0 0 0 SetCFg
%I cbg White
1 1 1 SetCBg
%I p
0 SetP
%I t
[ 0.719577 0 0 0.5 25.2869 393.68 ] concat
%I
447 467 467 480 Rect
End

Begin %I Poly
%I b 65535
1 0 0 [] 0 SetB
%I cfg Black
0 0 0 SetCFg
%I cbg White
1 1 1 SetCBg
%I p
0 SetP
%I t
[ 0.5 0 0 0.512782 139.067 443.151 ] concat
%I 11
415 377
445 377
445 382
457 382
452 393
444 403
430 406
418 403
411 394
403 382
414 382
11 Poly
End

End %I eop

Begin %I BSpl
%I b 65535
2 0 0 [] 0 SetB
%I cfg Black
0 0 0 SetCFg
%I cbg White
1 1 1 SetCBg
none SetP %I p n
%I t
[ 0.282076 0 0 0.299282 253.443 467.666 ] concat
%I 3
277 536
359 558
440 536
3 BSpl
End

End %I eop

Begin %I Pict
%I b u
%I cfg u
%I cbg u
%I f u
%I p u
%I t
[ 1 0 0 1 -156 -206 ] concat

Begin %I Line
%I b 65535
2 0 0 [] 0 SetB
%I cfg Black
0 0 0 SetCFg
%I cbg White
1 1 1 SetCBg
none SetP %I p n
%I t
[ 1 0 0 1.061 -6.5 65.6675 ] concat
%I
384 245 388 190 Line
End

Begin %I Pict
%I b u
%I cfg u
%I cbg u
%I f u
%I p u
%I t u

Begin %I Line
%I b 65535
1 0 0 [] 0 SetB
%I cfg Black
0 0 0 SetCFg
%I cbg White
1 1 1 SetCBg
%I p
0 SetP
%I t
[ 1 0 0 1.79044 4.06671 139.208 ] concat
%I
298 121 298 107 Line
End

Begin %I MLine
%I b 65535
1 0 0 [] 0 SetB
%I cfg Black
0 0 0 SetCFg
%I cbg White
1 1 1 SetCBg
none SetP %I p n
%I t
[ 1 0 0 1.061 -5.9333 153.119 ] concat
%I 4
360 222
354 213
352 205
350 193
4 MLine
End

Begin %I MLine
%I b 65535
1 0 0 [] 0 SetB
%I cfg Black
0 0 0 SetCFg
%I cbg White
1 1 1 SetCBg
none SetP %I p n
%I t
[ 1 0 0 1.061 -6 153.73 ] concat
%I 6
380 222
383 212
385 200
386 183
385 162
350 162
6 MLine
End

Begin %I Rect
%I b 65535
1 0 0 [] 0 SetB
%I cfg Black
0 0 0 SetCFg
%I cbg White
1 1 1 SetCBg
%I p
0 SetP
%I t
[ 1.04255 0 0 1.061 -15.6567 218.319 ] concat
%I
252 121 345 138 Rect
End

Begin %I MLine
%I b 65535
1 0 0 [] 0 SetB
%I cfg Black
0 0 0 SetCFg
%I cbg White
1 1 1 SetCBg
none SetP %I p n
%I t
[ 1.04082 0 0 1.061 -210.852 215.136 ] concat
%I 5
440 124
440 113
532 105
532 114
533 124
5 MLine
End

Begin %I Poly
%I b 65535
2 0 0 [] 0 SetB
%I cfg Black
0 0 0 SetCFg
%I cbg Black
0 0 0 SetCBg
%I p
0 SetP
%I t
[ 0.5 0 0 0.5305 205.5 288.478 ] concat
%I 3
339 187
342 176
346 190
3 Poly
End

End %I eop

Begin %I Pict
%I b u
%I cfg u
%I cbg u
%I f u
%I p u
%I t
[ 1 0 0 1 -4 -6 ] concat

Begin %I Poly
%I b 65535
1 0 0 [] 0 SetB
%I cfg Black
0 0 0 SetCFg
%I cbg Black
0 0 0 SetCBg
%I p
0 SetP
%I t
[ 0.868 0 0 0.7427 125.316 192.806 ] concat
%I 8
265 187
265 179
262 171
277 165
278 159
294 154
297 159
297 187
8 Poly
End

Begin %I Pict
%I b u
%I cfg u
%I cbg u
%I f u
%I p u
%I t
[ 1 0 0 1.061 -199.5 5.72367 ] concat

Begin %I Elli
%I b 65535
1 0 0 [] 0 SetB
%I cfg White
1 1 1 SetCFg
%I cbg Black
0 0 0 SetCBg
%I p
0 SetP
%I t
[ 0.939693 -0.217649 0.34202 0.597986 206.207 259.351 ] concat
%I
313 173 8 2 Elli
End

Begin %I Elli
%I b 65535
1 0 0 [] 0 SetB
%I cfg Black
0 0 0 SetCFg
%I cbg Black
0 0 0 SetCBg
none SetP %I p n
%I t
[ 0.939693 -0.217649 0.34202 0.597986 206.207 259.351 ] concat
%I
313 173 8 2 Elli
End

End %I eop

Begin %I Pict
%I b u
%I cfg u
%I cbg u
%I f u
%I p u
%I t
[ 1 0 0 1.061 -185.5 -3.29484 ] concat

Begin %I Elli
%I b 65535
1 0 0 [] 0 SetB
%I cfg White
1 1 1 SetCFg
%I cbg Black
0 0 0 SetCBg
%I p
0 SetP
%I t
[ 0.939693 -0.217649 0.34202 0.597986 206.207 259.351 ] concat
%I
313 173 8 2 Elli
End

Begin %I Elli
%I b 65535
1 0 0 [] 0 SetB
%I cfg Black
0 0 0 SetCFg
%I cbg Black
0 0 0 SetCBg
none SetP %I p n
%I t
[ 0.939693 -0.217649 0.34202 0.597986 206.207 259.351 ] concat
%I
313 173 8 2 Elli
End

End %I eop

Begin %I Poly
%I b 65535
1 0 0 [] 0 SetB
%I cfg Black
0 0 0 SetCFg
%I cbg White
1 1 1 SetCBg
none SetP %I p n
%I t
[ 0.35 0 0 0.37135 252.8 260.685 ] concat
%I 4
271 191
281 155
292 171
292 191
4 Poly
End

Begin %I Poly
%I b 65535
2 0 0 [] 0 SetB
%I cfg Black
0 0 0 SetCFg
%I cbg Black
0 0 0 SetCBg
%I p
0 SetP
%I t
[ -0.5 0 0 -0.5305 552 430.816 ] concat
%I 3
339 187
340 179
345 192
3 Poly
End

End %I eop

End %I eop

Begin %I Pict
%I b u
%I cfg u
%I cbg u
%I f u
%I p u
%I t
[ 1 0 0 1 -156 -206 ] concat

Begin %I Line
%I b 65535
2 0 0 [] 0 SetB
%I cfg Black
0 0 0 SetCFg
%I cbg White
1 1 1 SetCBg
none SetP %I p n
%I t
[ -1 0 0 1.061 775.066 65.6675 ] concat
%I
384 245 388 190 Line
End

Begin %I Pict
%I b u
%I cfg u
%I cbg u
%I f u
%I p u
%I t u

Begin %I Line
%I b 65535
1 0 0 [] 0 SetB
%I cfg Black
0 0 0 SetCFg
%I cbg White
1 1 1 SetCBg
%I p
0 SetP
%I t
[ -1 0 0 1.5915 764.499 160.494 ] concat
%I
298 121 298 107 Line
End

Begin %I MLine
%I b 65535
1 0 0 [] 0 SetB
%I cfg Black
0 0 0 SetCFg
%I cbg White
1 1 1 SetCBg
none SetP %I p n
%I t
[ -1 0 0 1.061 774.499 153.119 ] concat
%I 4
360 222
354 213
352 205
350 193
4 MLine
End

Begin %I MLine
%I b 65535
1 0 0 [] 0 SetB
%I cfg Black
0 0 0 SetCFg
%I cbg White
1 1 1 SetCBg
none SetP %I p n
%I t
[ -1 0 0 1.061 774.566 153.73 ] concat
%I 6
380 222
383 212
385 200
386 183
385 162
350 162
6 MLine
End

Begin %I Rect
%I b 65535
1 0 0 [] 0 SetB
%I cfg Black
0 0 0 SetCFg
%I cbg White
1 1 1 SetCBg
%I p
0 SetP
%I t
[ -1.04255 0 0 1.061 784.223 218.319 ] concat
%I
252 121 345 138 Rect
End

Begin %I MLine
%I b 65535
1 0 0 [] 0 SetB
%I cfg Black
0 0 0 SetCFg
%I cbg White
1 1 1 SetCBg
none SetP %I p n
%I t
[ -1.04082 0 0 1.061 979.418 215.136 ] concat
%I 5
440 124
440 113
532 105
532 114
533 124
5 MLine
End

Begin %I Poly
%I b 65535
2 0 0 [] 0 SetB
%I cfg Black
0 0 0 SetCFg
%I cbg Black
0 0 0 SetCBg
%I p
0 SetP
%I t
[ -0.5 0 0 0.5305 563.066 288.478 ] concat
%I 3
339 187
342 176
346 190
3 Poly
End

End %I eop

Begin %I Pict
%I b u
%I cfg u
%I cbg u
%I f u
%I p u
%I t
[ 1 0 0 1 -4 -6 ] concat

Begin %I Poly
%I b 65535
1 0 0 [] 0 SetB
%I cfg Black
0 0 0 SetCFg
%I cbg Black
0 0 0 SetCBg
%I p
0 SetP
%I t
[ -0.868 0 0 0.7427 651.25 192.806 ] concat
%I 8
265 187
265 179
262 171
277 165
278 159
294 154
297 159
297 187
8 Poly
End

Begin %I Pict
%I b u
%I cfg u
%I cbg u
%I f u
%I p u
%I t
[ -1 0 0 1.061 976.066 5.72367 ] concat

Begin %I Elli
%I b 65535
1 0 0 [] 0 SetB
%I cfg White
1 1 1 SetCFg
%I cbg Black
0 0 0 SetCBg
%I p
0 SetP
%I t
[ 0.939693 -0.217649 0.34202 0.597986 206.207 259.351 ] concat
%I
313 173 8 2 Elli
End

Begin %I Elli
%I b 65535
1 0 0 [] 0 SetB
%I cfg Black
0 0 0 SetCFg
%I cbg Black
0 0 0 SetCBg
none SetP %I p n
%I t
[ 0.939693 -0.217649 0.34202 0.597986 206.207 259.351 ] concat
%I
313 173 8 2 Elli
End

End %I eop

Begin %I Pict
%I b u
%I cfg u
%I cbg u
%I f u
%I p u
%I t
[ -1 0 0 1.061 962.066 -3.29484 ] concat

Begin %I Elli
%I b 65535
1 0 0 [] 0 SetB
%I cfg White
1 1 1 SetCFg
%I cbg Black
0 0 0 SetCBg
%I p
0 SetP
%I t
[ 0.939693 -0.217649 0.34202 0.597986 206.207 259.351 ] concat
%I
313 173 8 2 Elli
End

Begin %I Elli
%I b 65535
1 0 0 [] 0 SetB
%I cfg Black
0 0 0 SetCFg
%I cbg Black
0 0 0 SetCBg
none SetP %I p n
%I t
[ 0.939693 -0.217649 0.34202 0.597986 206.207 259.351 ] concat
%I
313 173 8 2 Elli
End

End %I eop

Begin %I Poly
%I b 65535
1 0 0 [] 0 SetB
%I cfg Black
0 0 0 SetCFg
%I cbg White
1 1 1 SetCBg
none SetP %I p n
%I t
[ -0.35 0 0 0.37135 523.766 260.685 ] concat
%I 4
271 191
281 155
292 171
292 191
4 Poly
End

Begin %I Poly
%I b 65535
2 0 0 [] 0 SetB
%I cfg Black
0 0 0 SetCFg
%I cbg Black
0 0 0 SetCBg
%I p
0 SetP
%I t
[ 0.5 0 0 -0.5305 224.566 430.816 ] concat
%I 3
339 187
340 179
345 192
3 Poly
End

End %I eop

End %I eop

Begin %I Pict
%I b u
%I cfg u
%I cbg u
%I f u
%I p u
%I t
[ 1 0 0 1 -164 -238 ] concat

Begin %I Pict
%I b u
%I cfg u
%I cbg u
%I f u
%I p u
%I t
[ 1 0 0 1 186 -216 ] concat

Begin %I Poly
none SetB %I b n
%I cfg LtGray
0.762951 0.762951 0.762951 SetCFg
%I cbg White
1 1 1 SetCBg
%I p
0.75 SetP
%I t
[ 0.322266 0 0 -0.506631 26.2915 929.69 ] concat
%I 6
424 203
424 565
435 567
441 568
457 570
457 206
6 Poly
End

Begin %I Poly
none SetB %I b n
%I cfg White
1 1 1 SetCFg
%I cbg Blue
0 0 1 SetCBg
%I p
0 SetP
%I t
[ -0.633333 0 0 -0.5 423.2 940.368 ] concat
%I 5
409 227
409 593
416 590
424 585
424 220
5 Poly
End

Begin %I Line
%I b 65535
1 0 0 [] 0 SetB
%I cfg Black
0 0 0 SetCFg
%I cbg White
1 1 1 SetCBg
none SetP %I p n
%I t
[ -1 0 0 1.05735 544.519 401.529 ] concat
%I
390 407 390 232 Line
End

Begin %I MLine
%I b 65535
2 0 0 [] 0 SetB
%I cfg Black
0 0 0 SetCFg
%I cbg Blue
0 0 1 SetCBg
none SetP %I p n
%I t
[ 0.5 0 0 -0.5 -41.4331 940.359 ] concat
%I 4
393 587
405 593
420 597
430 597
4 MLine
End

Begin %I MLine
%I b 65535
2 0 0 [] 0 SetB
%I cfg Black
0 0 0 SetCFg
%I cbg Blue
0 0 1 SetCBg
none SetP %I p n
%I t
[ 0.5 0 0 -0.5 -41.4331 1125.03 ] concat
%I 4
393 587
405 593
420 597
430 597
4 MLine
End

Begin %I Line
%I b 65535
1 0 0 [] 0 SetB
%I cfg Black
0 0 0 SetCFg
%I cbg White
1 1 1 SetCBg
none SetP %I p n
%I t
[ -1 0 0 1.07811 564.5 388.226 ] concat
%I
390 407 390 232 Line
End

End %I eop

Begin %I Pict
%I b u
%I cfg u
%I cbg u
%I f u
%I p u
%I t
[ -1 0 0 1 598.399 -216 ] concat

Begin %I Poly
none SetB %I b n
%I cfg LtGray
0.762951 0.762951 0.762951 SetCFg
%I cbg White
1 1 1 SetCBg
%I p
0.75 SetP
%I t
[ 0.322266 0 0 -0.506631 26.2915 929.69 ] concat
%I 6
424 203
424 565
435 567
441 568
457 570
457 206
6 Poly
End

Begin %I Poly
none SetB %I b n
%I cfg White
1 1 1 SetCFg
%I cbg Blue
0 0 1 SetCBg
%I p
0 SetP
%I t
[ -0.633333 0 0 -0.5 423.2 940.368 ] concat
%I 5
409 227
409 593
416 590
424 585
424 220
5 Poly
End

Begin %I Line
%I b 65535
1 0 0 [] 0 SetB
%I cfg Black
0 0 0 SetCFg
%I cbg White
1 1 1 SetCBg
none SetP %I p n
%I t
[ -1 0 0 1.05735 544.519 401.529 ] concat
%I
390 407 390 232 Line
End

Begin %I MLine
%I b 65535
2 0 0 [] 0 SetB
%I cfg Black
0 0 0 SetCFg
%I cbg Blue
0 0 1 SetCBg
none SetP %I p n
%I t
[ 0.5 0 0 -0.5 -41.4331 940.359 ] concat
%I 4
393 587
405 593
420 597
430 597
4 MLine
End

Begin %I MLine
%I b 65535
2 0 0 [] 0 SetB
%I cfg Black
0 0 0 SetCFg
%I cbg Blue
0 0 1 SetCBg
none SetP %I p n
%I t
[ 0.5 0 0 -0.5 -41.4331 1125.03 ] concat
%I 4
393 587
405 593
420 597
430 597
4 MLine
End

Begin %I Line
%I b 65535
1 0 0 [] 0 SetB
%I cfg Black
0 0 0 SetCFg
%I cbg White
1 1 1 SetCBg
none SetP %I p n
%I t
[ -1 0 0 1.07811 564.5 388.226 ] concat
%I
390 407 390 232 Line
End

End %I eop

End %I eop

Begin %I BSpl
%I b 65535
2 0 0 [] 0 SetB
%I cfg Black
0 0 0 SetCFg
%I cbg Blue
0 0 1 SetCBg
none SetP %I p n
%I t
[ 0.375007 0 0 0.397875 93.1263 160.926 ] concat
%I 3
277 536
360 548
440 536
3 BSpl
End

Begin %I BSpl
%I b 65535
2 0 0 [] 0 SetB
%I cfg Black
0 0 0 SetCFg
%I cbg Blue
0 0 1 SetCBg
%I p
0 SetP
%I t
[ 0.375 0 0 0.397875 94.129 -26.074 ] concat
%I 3
277 536
360 548
440 536
3 BSpl
End

Begin %I Line
%I b 65535
2 0 0 [] 0 SetB
%I cfg Black
0 0 0 SetCFg
%I cbg Blue
0 0 1 SetCBg
%I p
0 SetP
%I t
[ 1 0 0 1 -302.5 -110 ] concat
%I
502 484 502 296 Line
End

Begin %I Line
%I b 65535
2 0 0 [] 0 SetB
%I cfg Black
0 0 0 SetCFg
%I cbg Blue
0 0 1 SetCBg
%I p
0 SetP
%I t
[ 1 0 0 1 -244.592 -110 ] concat
%I
502 484 502 296 Line
End

Begin %I Pict
%I b u
%I cfg Black
0 0 0 SetCFg
%I cbg Blue
0 0 1 SetCBg
%I f u
%I p u
%I t
[ 1 0 0 1 -164 -238 ] concat

Begin %I Elli
%I b 65535
1 0 0 [] 0 SetB
%I cfg Black
0 0 0 SetCFg
%I cbg White
1 1 1 SetCBg
%I p
0 SetP
%I t
[ 0.5 0 0 0.5 273 336 ] concat
%I
176 463 1 7 Elli
End

Begin %I Elli
%I b 65535
1 0 0 [] 0 SetB
%I cfg Black
0 0 0 SetCFg
%I cbg White
1 1 1 SetCBg
%I p
0 SetP
%I t
[ 0.5 0 0 0.5 273 236.374 ] concat
%I
176 463 1 7 Elli
End

Begin %I Elli
%I b 65535
1 0 0 [] 0 SetB
%I cfg Black
0 0 0 SetCFg
%I cbg White
1 1 1 SetCBg
%I p
0 SetP
%I t
[ 0.5 0 0 -0.5 335.142 799 ] concat
%I
176 463 1 7 Elli
End

Begin %I Elli
%I b 65535
1 0 0 [] 0 SetB
%I cfg Black
0 0 0 SetCFg
%I cbg White
1 1 1 SetCBg
%I p
0 SetP
%I t
[ -0.5 0 0 0.5 511.141 236.374 ] concat
%I
176 463 1 7 Elli
End

End %I eop

Begin %I Rect
%I b 65535
1 0 0 [] 0 SetB
%I cfg Black
0 0 0 SetCFg
%I cbg Blue
0 0 1 SetCBg
%I p
0 SetP
%I t
[ 1 0 0 1.41467 -162.933 -131.926 ] concat
%I
360 221 421 226 Rect
End

End %I eop

Begin %I Pict
%I b u
%I cfg u
%I cbg u
%I f u
%I p u
%I t u

Begin %I Poly
%I b 65535
1 0 0 [] 0 SetB
%I cfg LtGray
0.762951 0.762951 0.762951 SetCFg
%I cbg LtGray
0.762951 0.762951 0.762951 SetCBg
%I p
0.75 SetP
%I t
[ 0.5 0 0 0.5 151 184 ] concat
%I 11
99 380
126 383
155 385
187 383
210 379
210 12
174 16
134 17
110 13
100 11
100 383
11 Poly
End

Begin %I Rect
%I b 65535
1 0 0 [] 0 SetB
%I cfg Red
1 0 0 SetCFg
%I cbg LtGray
0.762951 0.762951 0.762951 SetCBg
%I p
< ff 88 88 88 ff 88 88 88 > -1 SetP
%I t
[ 0.5 0 0 0.5 151 184 ] concat
%I
103 271 208 375 Rect
End

Begin %I Rect
%I b 65535
1 0 0 [] 0 SetB
%I cfg Blue
0 0 1 SetCFg
%I cbg LtGray
0.762951 0.762951 0.762951 SetCBg
%I p
< 88 88 88 88 88 88 88 88 > -1 SetP
%I t
[ 0.5 0 0 0.5 151 184 ] concat
%I
117 23 199 264 Rect
End

End %I eop

End %I eop

End %I eop

Begin %I Pict shuttle 4
%I b u
%I cfg u
%I cbg u
%I f u
%I p u
%I t u

Begin %I Pict
%I b u
%I cfg u
%I cbg u
%I f u
%I p u
%I t
[ 1 0 0 0.996273 -1 -454.317 ] concat

Begin %I BSpl
none SetB %I b n
%I cfg Black
0 0 0 SetCFg
%I cbg White
1 1 1 SetCBg
%I p
1 SetP
%I t
[ 0.5 0 0 0.5 378 519 ] concat
%I 24
42 132
42 192
47 223
57 244
75 263
114 296
188 360
193 370
270 726
283 769
295 792
309 804
324 804
333 797
321 0
315 1
311 0
306 78
284 96
239 82
238 104
247 116
42 131
42 131
24 BSpl
End

Begin %I BSpl
none SetB %I b n
%I cfg Black
0 0 0 SetCFg
%I cbg White
1 1 1 SetCBg
%I p
1 SetP
%I t
[ -0.5 0 0 0.5 695 519 ] concat
%I 24
42 132
42 192
47 223
57 244
75 263
114 296
188 360
193 370
270 726
283 769
295 792
309 804
324 804
333 797
321 0
315 1
311 0
306 78
284 96
239 82
238 104
247 116
42 131
42 131
24 BSpl
End

End %I eop

Begin %I Pict Shuttle 4
%I b u
%I cfg u
%I cbg u
%I f u
%I p u
%I t
[ 1 0 0 1 -1.08295 -2.36075 ] concat

Begin %I Pict
%I b u
%I cfg u
%I cbg u
%I f u
%I p u
%I t
[ 1 0 0 1 0 -0.140015 ] concat

Begin %I Pict
%I b u
%I cfg u
%I cbg u
%I f u
%I p u
%I t
[ 1 0 0 1 148 -212 ] concat

Begin %I MLine
%I b 65535
2 0 0 [] 0 SetB
%I cfg Black
0 0 0 SetCFg
%I cbg White
1 1 1 SetCBg
none SetP %I p n
%I t
[ 0.5 0 0 0.5 147.5 220.5 ] concat
%I 9
417 733
367 483
364 475
359 467
237 359
231 351
225 343
219 329
214 299
9 MLine
End

Begin %I BSpl
%I b 65535
1 0 0 [] 0 SetB
%I cfg Black
0 0 0 SetCFg
%I cbg White
1 1 1 SetCBg
none SetP %I p n
%I t
[ 1 0 0 1.061 -71.433 119.413 ] concat
%I 5
425 439
442 518
460 530
478 518
493 440
5 BSpl
End

Begin %I BSpl
%I b 65535
1 0 0 [] 0 SetB
%I cfg Black
0 0 0 SetCFg
%I cbg White
1 1 1 SetCBg
none SetP %I p n
%I t
[ -0.5 0 0 0.5305 602.6 295.539 ] concat
%I 9
362 548
333 433
301 302
299 302
249 265
191 214
175 204
157 176
153 142
9 BSpl
End

Begin %I MLine
%I b 65535
2 0 0 [] 0 SetB
%I cfg Black
0 0 0 SetCFg
%I cbg White
1 1 1 SetCBg
none SetP %I p n
%I t
[ -0.5 0 0 0.5 630 220.5 ] concat
%I 9
423 732
366 483
363 475
358 467
236 361
230 351
224 343
218 329
215 298
9 MLine
End

Begin %I BSpl
%I b 65535
1 0 0 [] 0 SetB
%I cfg Black
0 0 0 SetCFg
%I cbg White
1 1 1 SetCBg
none SetP %I p n
%I t
[ 0.5 0 0 0.5305 174 295.539 ] concat
%I 9
358 545
335 433
303 302
301 302
251 263
193 212
177 203
159 178
155 144
9 BSpl
End

End %I eop

Begin %I Pict
%I b u
%I cfg u
%I cbg u
%I f u
%I p u
%I t
[ 1 0 0 1 182 -202 ] concat

Begin %I Pict
%I b u
%I cfg u
%I cbg u
%I f u
%I p u
%I t
[ 1 0 0 1.061 0 -32.4814 ] concat

Begin %I Rect
%I b 65535
1 0 0 [] 0 SetB
%I cfg Black
0 0 0 SetCFg
%I cbg White
1 1 1 SetCBg
%I p
0 SetP
%I t
[ 1 0 0 1 -101 134 ] concat
%I
442 446 453 452 Rect
End

Begin %I Rect
%I b 65535
1 0 0 [] 0 SetB
%I cfg Black
0 0 0 SetCFg
%I cbg White
1 1 1 SetCBg
%I p
0 SetP
%I t
[ 1 0 0 1 -86 134 ] concat
%I
442 446 453 452 Rect
End

Begin %I Rect
%I b 65535
1 0 0 [] 0 SetB
%I cfg Black
0 0 0 SetCFg
%I cbg White
1 1 1 SetCBg
%I p
0 SetP
%I t
[ 0.809524 0 0 0.857143 -15.8857 195.714 ] concat
%I
447 467 467 480 Rect
End

Begin %I Rect
%I b 65535
1 0 0 [] 0 SetB
%I cfg Black
0 0 0 SetCFg
%I cbg White
1 1 1 SetCBg
%I p
0 SetP
%I t
[ 0.707107 0.707107 -0.707107 0.707107 406.283 129.749 ] concat
%I
278 378 284 383 Rect
End

Begin %I Poly
%I b 65535
1 0 0 [] 0 SetB
%I cfg Black
0 0 0 SetCFg
%I cbg White
1 1 1 SetCBg
%I p
0 SetP
%I t
[ 0.4 0 0 0.4 178.926 374.15 ] concat
%I 5
408 578
412 570
406 564
398 571
407 579
5 Poly
End

Begin %I Rect
%I b 65535
1 0 0 [] 0 SetB
%I cfg Black
0 0 0 SetCFg
%I cbg White
1 1 1 SetCBg
%I p
0 SetP
%I t
[ -0.707107 0.707107 0.707107 0.707107 301.85 129.749 ] concat
%I
278 378 284 383 Rect
End

Begin %I Poly
%I b 65535
1 0 0 [] 0 SetB
%I cfg Black
0 0 0 SetCFg
%I cbg White
1 1 1 SetCBg
%I p
0 SetP
%I t
[ -0.4 0 0 0.4 529.207 374.15 ] concat
%I 5
408 578
412 570
406 564
398 571
407 579
5 Poly
End

End %I eop

Begin %I Pict
%I b u
%I cfg u
%I cbg u
%I f u
%I p u
%I t
[ 1 0 0 1.061 0 -28.5175 ] concat

Begin %I Rect
%I b 65535
1 0 0 [] 0 SetB
%I cfg Black
0 0 0 SetCFg
%I cbg White
1 1 1 SetCBg
%I p
0 SetP
%I t
[ 0.719577 0 0 0.5 25.2869 393.68 ] concat
%I
447 467 467 480 Rect
End

Begin %I Poly
%I b 65535
1 0 0 [] 0 SetB
%I cfg Black
0 0 0 SetCFg
%I cbg White
1 1 1 SetCBg
%I p
0 SetP
%I t
[ 0.5 0 0 0.512782 139.067 443.151 ] concat
%I 11
415 377
445 377
445 382
457 382
452 393
444 403
430 406
418 403
411 394
403 382
414 382
11 Poly
End

End %I eop

Begin %I BSpl
%I b 65535
2 0 0 [] 0 SetB
%I cfg Black
0 0 0 SetCFg
%I cbg White
1 1 1 SetCBg
none SetP %I p n
%I t
[ 0.282076 0 0 0.299282 253.443 467.666 ] concat
%I 3
277 536
359 558
440 536
3 BSpl
End

End %I eop

Begin %I Pict
%I b u
%I cfg u
%I cbg u
%I f u
%I p u
%I t
[ 1 0 0 1 152 -206 ] concat

Begin %I Line
%I b 65535
2 0 0 [] 0 SetB
%I cfg Black
0 0 0 SetCFg
%I cbg White
1 1 1 SetCBg
none SetP %I p n
%I t
[ 1 0 0 1.061 -6.5 65.6675 ] concat
%I
384 245 388 190 Line
End

Begin %I Pict
%I b u
%I cfg u
%I cbg u
%I f u
%I p u
%I t u

Begin %I Line
%I b 65535
1 0 0 [] 0 SetB
%I cfg Black
0 0 0 SetCFg
%I cbg White
1 1 1 SetCBg
%I p
0 SetP
%I t
[ 1 0 0 1.79044 4.06671 139.208 ] concat
%I
298 121 298 107 Line
End

Begin %I MLine
%I b 65535
1 0 0 [] 0 SetB
%I cfg Black
0 0 0 SetCFg
%I cbg White
1 1 1 SetCBg
none SetP %I p n
%I t
[ 1 0 0 1.061 -5.9333 153.119 ] concat
%I 4
360 222
354 213
352 205
350 193
4 MLine
End

Begin %I MLine
%I b 65535
1 0 0 [] 0 SetB
%I cfg Black
0 0 0 SetCFg
%I cbg White
1 1 1 SetCBg
none SetP %I p n
%I t
[ 1 0 0 1.061 -6 153.73 ] concat
%I 6
380 222
383 212
385 200
386 183
385 162
350 162
6 MLine
End

Begin %I Rect
%I b 65535
1 0 0 [] 0 SetB
%I cfg Black
0 0 0 SetCFg
%I cbg White
1 1 1 SetCBg
%I p
0 SetP
%I t
[ 1.04255 0 0 1.061 -15.6567 218.319 ] concat
%I
252 121 345 138 Rect
End

Begin %I MLine
%I b 65535
1 0 0 [] 0 SetB
%I cfg Black
0 0 0 SetCFg
%I cbg White
1 1 1 SetCBg
none SetP %I p n
%I t
[ 1.04082 0 0 1.061 -210.852 215.136 ] concat
%I 5
440 124
440 113
532 105
532 114
533 124
5 MLine
End

Begin %I Poly
%I b 65535
2 0 0 [] 0 SetB
%I cfg Black
0 0 0 SetCFg
%I cbg Black
0 0 0 SetCBg
%I p
0 SetP
%I t
[ 0.5 0 0 0.5305 205.5 288.478 ] concat
%I 3
339 187
342 176
346 190
3 Poly
End

End %I eop

Begin %I Pict
%I b u
%I cfg u
%I cbg u
%I f u
%I p u
%I t
[ 1 0 0 1 -4 -6 ] concat

Begin %I Poly
%I b 65535
1 0 0 [] 0 SetB
%I cfg Black
0 0 0 SetCFg
%I cbg Black
0 0 0 SetCBg
%I p
0 SetP
%I t
[ 0.868 0 0 0.7427 125.316 192.806 ] concat
%I 8
265 187
265 179
262 171
277 165
278 159
294 154
297 159
297 187
8 Poly
End

Begin %I Pict
%I b u
%I cfg u
%I cbg u
%I f u
%I p u
%I t
[ 1 0 0 1.061 -199.5 5.72367 ] concat

Begin %I Elli
%I b 65535
1 0 0 [] 0 SetB
%I cfg White
1 1 1 SetCFg
%I cbg Black
0 0 0 SetCBg
%I p
0 SetP
%I t
[ 0.939693 -0.217649 0.34202 0.597986 206.207 259.351 ] concat
%I
313 173 8 2 Elli
End

Begin %I Elli
%I b 65535
1 0 0 [] 0 SetB
%I cfg Black
0 0 0 SetCFg
%I cbg Black
0 0 0 SetCBg
none SetP %I p n
%I t
[ 0.939693 -0.217649 0.34202 0.597986 206.207 259.351 ] concat
%I
313 173 8 2 Elli
End

End %I eop

Begin %I Pict
%I b u
%I cfg u
%I cbg u
%I f u
%I p u
%I t
[ 1 0 0 1.061 -185.5 -3.29484 ] concat

Begin %I Elli
%I b 65535
1 0 0 [] 0 SetB
%I cfg White
1 1 1 SetCFg
%I cbg Black
0 0 0 SetCBg
%I p
0 SetP
%I t
[ 0.939693 -0.217649 0.34202 0.597986 206.207 259.351 ] concat
%I
313 173 8 2 Elli
End

Begin %I Elli
%I b 65535
1 0 0 [] 0 SetB
%I cfg Black
0 0 0 SetCFg
%I cbg Black
0 0 0 SetCBg
none SetP %I p n
%I t
[ 0.939693 -0.217649 0.34202 0.597986 206.207 259.351 ] concat
%I
313 173 8 2 Elli
End

End %I eop

Begin %I Poly
%I b 65535
1 0 0 [] 0 SetB
%I cfg Black
0 0 0 SetCFg
%I cbg White
1 1 1 SetCBg
none SetP %I p n
%I t
[ 0.35 0 0 0.37135 252.8 260.685 ] concat
%I 4
271 191
281 155
292 171
292 191
4 Poly
End

Begin %I Poly
%I b 65535
2 0 0 [] 0 SetB
%I cfg Black
0 0 0 SetCFg
%I cbg Black
0 0 0 SetCBg
%I p
0 SetP
%I t
[ -0.5 0 0 -0.5305 552 430.816 ] concat
%I 3
339 187
340 179
345 192
3 Poly
End

End %I eop

End %I eop

Begin %I Pict
%I b u
%I cfg u
%I cbg u
%I f u
%I p u
%I t
[ 1 0 0 1 152 -206 ] concat

Begin %I Line
%I b 65535
2 0 0 [] 0 SetB
%I cfg Black
0 0 0 SetCFg
%I cbg White
1 1 1 SetCBg
none SetP %I p n
%I t
[ -1 0 0 1.061 775.066 65.6675 ] concat
%I
384 245 388 190 Line
End

Begin %I Pict
%I b u
%I cfg u
%I cbg u
%I f u
%I p u
%I t u

Begin %I Line
%I b 65535
1 0 0 [] 0 SetB
%I cfg Black
0 0 0 SetCFg
%I cbg White
1 1 1 SetCBg
%I p
0 SetP
%I t
[ -1 0 0 1.5915 764.499 160.494 ] concat
%I
298 121 298 107 Line
End

Begin %I MLine
%I b 65535
1 0 0 [] 0 SetB
%I cfg Black
0 0 0 SetCFg
%I cbg White
1 1 1 SetCBg
none SetP %I p n
%I t
[ -1 0 0 1.061 774.499 153.119 ] concat
%I 4
360 222
354 213
352 205
350 193
4 MLine
End

Begin %I MLine
%I b 65535
1 0 0 [] 0 SetB
%I cfg Black
0 0 0 SetCFg
%I cbg White
1 1 1 SetCBg
none SetP %I p n
%I t
[ -1 0 0 1.061 774.566 153.73 ] concat
%I 6
380 222
383 212
385 200
386 183
385 162
350 162
6 MLine
End

Begin %I Rect
%I b 65535
1 0 0 [] 0 SetB
%I cfg Black
0 0 0 SetCFg
%I cbg White
1 1 1 SetCBg
%I p
0 SetP
%I t
[ -1.04255 0 0 1.061 784.223 218.319 ] concat
%I
252 121 345 138 Rect
End

Begin %I MLine
%I b 65535
1 0 0 [] 0 SetB
%I cfg Black
0 0 0 SetCFg
%I cbg White
1 1 1 SetCBg
none SetP %I p n
%I t
[ -1.04082 0 0 1.061 979.418 215.136 ] concat
%I 5
440 124
440 113
532 105
532 114
533 124
5 MLine
End

Begin %I Poly
%I b 65535
2 0 0 [] 0 SetB
%I cfg Black
0 0 0 SetCFg
%I cbg Black
0 0 0 SetCBg
%I p
0 SetP
%I t
[ -0.5 0 0 0.5305 563.066 288.478 ] concat
%I 3
339 187
342 176
346 190
3 Poly
End

End %I eop

Begin %I Pict
%I b u
%I cfg u
%I cbg u
%I f u
%I p u
%I t
[ 1 0 0 1 -4 -6 ] concat

Begin %I Poly
%I b 65535
1 0 0 [] 0 SetB
%I cfg Black
0 0 0 SetCFg
%I cbg Black
0 0 0 SetCBg
%I p
0 SetP
%I t
[ -0.868 0 0 0.7427 651.25 192.806 ] concat
%I 8
265 187
265 179
262 171
277 165
278 159
294 154
297 159
297 187
8 Poly
End

Begin %I Pict
%I b u
%I cfg u
%I cbg u
%I f u
%I p u
%I t
[ -1 0 0 1.061 976.066 5.72367 ] concat

Begin %I Elli
%I b 65535
1 0 0 [] 0 SetB
%I cfg White
1 1 1 SetCFg
%I cbg Black
0 0 0 SetCBg
%I p
0 SetP
%I t
[ 0.939693 -0.217649 0.34202 0.597986 206.207 259.351 ] concat
%I
313 173 8 2 Elli
End

Begin %I Elli
%I b 65535
1 0 0 [] 0 SetB
%I cfg Black
0 0 0 SetCFg
%I cbg Black
0 0 0 SetCBg
none SetP %I p n
%I t
[ 0.939693 -0.217649 0.34202 0.597986 206.207 259.351 ] concat
%I
313 173 8 2 Elli
End

End %I eop

Begin %I Pict
%I b u
%I cfg u
%I cbg u
%I f u
%I p u
%I t
[ -1 0 0 1.061 962.066 -3.29484 ] concat

Begin %I Elli
%I b 65535
1 0 0 [] 0 SetB
%I cfg White
1 1 1 SetCFg
%I cbg Black
0 0 0 SetCBg
%I p
0 SetP
%I t
[ 0.939693 -0.217649 0.34202 0.597986 206.207 259.351 ] concat
%I
313 173 8 2 Elli
End

Begin %I Elli
%I b 65535
1 0 0 [] 0 SetB
%I cfg Black
0 0 0 SetCFg
%I cbg Black
0 0 0 SetCBg
none SetP %I p n
%I t
[ 0.939693 -0.217649 0.34202 0.597986 206.207 259.351 ] concat
%I
313 173 8 2 Elli
End

End %I eop

Begin %I Poly
%I b 65535
1 0 0 [] 0 SetB
%I cfg Black
0 0 0 SetCFg
%I cbg White
1 1 1 SetCBg
none SetP %I p n
%I t
[ -0.35 0 0 0.37135 523.766 260.685 ] concat
%I 4
271 191
281 155
292 171
292 191
4 Poly
End

Begin %I Poly
%I b 65535
2 0 0 [] 0 SetB
%I cfg Black
0 0 0 SetCFg
%I cbg Black
0 0 0 SetCBg
%I p
0 SetP
%I t
[ 0.5 0 0 -0.5305 224.566 430.816 ] concat
%I 3
339 187
340 179
345 192
3 Poly
End

End %I eop

End %I eop

Begin %I Pict
%I b u
%I cfg u
%I cbg u
%I f u
%I p u
%I t u

Begin %I Pict
%I b u
%I cfg u
%I cbg u
%I f u
%I p u
%I t u

Begin %I BSpl
%I b 65535
2 0 0 [] 0 SetB
%I cfg Black
0 0 0 SetCFg
%I cbg White
1 1 1 SetCBg
none SetP %I p n
%I t
[ 0.375007 0 0 0.397875 401.134 160.926 ] concat
%I 3
277 536
360 548
440 536
3 BSpl
End

Begin %I Rect
%I b 65535
1 0 0 [] 0 SetB
%I cfg Black
0 0 0 SetCFg
%I cbg White
1 1 1 SetCBg
%I p
0 SetP
%I t
[ 1 0 0 1.50898 145.075 -151.884 ] concat
%I
360 221 421 226 Rect
End

Begin %I BSpl
%I b 65535
2 0 0 [] 0 SetB
%I cfg Black
0 0 0 SetCFg
%I cbg White
1 1 1 SetCBg
%I p
0 SetP
%I t
[ 0.375 0 0 0.397875 402.137 -26.4678 ] concat
%I 3
277 536
360 548
440 536
3 BSpl
End

Begin %I Pict
%I b u
%I cfg u
%I cbg u
%I f u
%I p u
%I t
[ 1 0 0 1 330.008 -454 ] concat

Begin %I Elli
%I b 65535
1 0 0 [] 0 SetB
%I cfg Black
0 0 0 SetCFg
%I cbg White
1 1 1 SetCBg
%I p
0 SetP
%I t
[ 0.5 0 0 0.5 87 552 ] concat
%I
176 463 1 7 Elli
End

Begin %I Elli
%I b 65535
1 0 0 [] 0 SetB
%I cfg Black
0 0 0 SetCFg
%I cbg White
1 1 1 SetCBg
%I p
0 SetP
%I t
[ 0.5 0 0 0.5 87 452.374 ] concat
%I
176 463 1 7 Elli
End

End %I eop

Begin %I Line
%I b 65535
2 0 0 [] 0 SetB
%I cfg Black
0 0 0 SetCFg
%I cbg White
1 1 1 SetCBg
%I p
0 SetP
%I t
[ 1 0 0 1 5.50766 -110 ] concat
%I
502 484 502 296 Line
End

Begin %I Line
%I b 65535
2 0 0 [] 0 SetB
%I cfg Black
0 0 0 SetCFg
%I cbg White
1 1 1 SetCBg
%I p
0 SetP
%I t
[ 1 0 0 1 63.4156 -110 ] concat
%I
502 484 502 296 Line
End

Begin %I Pict
%I b u
%I cfg u
%I cbg u
%I f u
%I p u
%I t
[ 1 0 0 1 329.883 -454 ] concat

Begin %I Elli
%I b 65535
1 0 0 [] 0 SetB
%I cfg Black
0 0 0 SetCFg
%I cbg White
1 1 1 SetCBg
%I p
0 SetP
%I t
[ 0.5 0 0 -0.5 149.267 1015 ] concat
%I
176 463 1 7 Elli
End

Begin %I Elli
%I b 65535
1 0 0 [] 0 SetB
%I cfg Black
0 0 0 SetCFg
%I cbg White
1 1 1 SetCBg
%I p
0 SetP
%I t
[ -0.5 0 0 0.5 325.266 452.374 ] concat
%I
176 463 1 7 Elli
End

End %I eop

End %I eop

Begin %I Pict
%I b u
%I cfg u
%I cbg u
%I f u
%I p u
%I t u

Begin %I Pict
%I b u
%I cfg u
%I cbg u
%I f u
%I p u
%I t
[ 1 0 0 1 330 -454 ] concat

Begin %I Poly
none SetB %I b n
%I cfg LtGray
0.762951 0.762951 0.762951 SetCFg
%I cbg White
1 1 1 SetCBg
%I p
0.75 SetP
%I t
[ -0.472587 0 0 -0.506631 454.385 929.69 ] concat
%I 6
424 203
424 565
435 567
441 568
457 570
457 206
6 Poly
End

Begin %I Poly
none SetB %I b n
%I cfg White
1 1 1 SetCFg
%I cbg Blue
0 0 1 SetCBg
%I p
0 SetP
%I t
[ 0.928752 0 0 -0.5 -127.661 940.368 ] concat
%I 5
409 227
409 593
416 590
424 585
424 220
5 Poly
End

Begin %I Line
%I b 65535
1 0 0 [] 0 SetB
%I cfg Black
0 0 0 SetCFg
%I cbg White
1 1 1 SetCBg
none SetP %I p n
%I t
[ 1.46645 0 0 1.05735 -305.57 401.529 ] concat
%I
390 407 390 232 Line
End

Begin %I MLine
%I b 65535
2 0 0 [] 0 SetB
%I cfg Black
0 0 0 SetCFg
%I cbg Blue
0 0 1 SetCBg
none SetP %I p n
%I t
[ -0.733225 0 0 -0.5 553.7 940.359 ] concat
%I 4
393 587
405 593
420 597
430 597
4 MLine
End

Begin %I MLine
%I b 65535
2 0 0 [] 0 SetB
%I cfg Black
0 0 0 SetCFg
%I cbg Blue
0 0 1 SetCBg
none SetP %I p n
%I t
[ -0.733225 0 0 -0.5 553.7 1125.03 ] concat
%I 4
393 587
405 593
420 597
430 597
4 MLine
End

Begin %I Line
%I b 65535
1 0 0 [] 0 SetB
%I cfg Black
0 0 0 SetCFg
%I cbg White
1 1 1 SetCBg
none SetP %I p n
%I t
[ 1.46645 0 0 1.05814 -334.871 396.352 ] concat
%I
390 407 390 232 Line
End

End %I eop

Begin %I Pict
%I b u
%I cfg u
%I cbg u
%I f u
%I p u
%I t
[ 1 0 0 1 330 -454 ] concat

Begin %I Poly
none SetB %I b n
%I cfg LtGray
0.762951 0.762951 0.762951 SetCFg
%I cbg White
1 1 1 SetCBg
%I p
0.75 SetP
%I t
[ 0.502135 0 0 -0.506631 -55.4633 929.69 ] concat
%I 6
424 203
424 565
435 567
441 568
457 570
457 206
6 Poly
End

Begin %I Poly
none SetB %I b n
%I cfg White
1 1 1 SetCFg
%I cbg Blue
0 0 1 SetCBg
%I p
0 SetP
%I t
[ -0.986821 0 0 -0.5 561.73 940.368 ] concat
%I 5
409 227
409 593
416 590
424 585
424 220
5 Poly
End

Begin %I Line
%I b 65535
1 0 0 [] 0 SetB
%I cfg Black
0 0 0 SetCFg
%I cbg White
1 1 1 SetCBg
none SetP %I p n
%I t
[ -1.55814 0 0 1.05735 750.762 401.529 ] concat
%I
390 407 390 232 Line
End

Begin %I Line
%I b 65535
1 0 0 [] 0 SetB
%I cfg Black
0 0 0 SetCFg
%I cbg White
1 1 1 SetCBg
none SetP %I p n
%I t
[ -1.55814 0 0 1.05244 781.901 398.673 ] concat
%I
390 407 390 232 Line
End

Begin %I MLine
%I b 65535
2 0 0 [] 0 SetB
%I cfg Black
0 0 0 SetCFg
%I cbg Blue
0 0 1 SetCBg
none SetP %I p n
%I t
[ 0.852108 0 0 -0.5 -190.843 940.359 ] concat
%I 4
393 587
405 593
420 597
430 597
4 MLine
End

Begin %I MLine
%I b 65535
2 0 0 [] 0 SetB
%I cfg Black
0 0 0 SetCFg
%I cbg Blue
0 0 1 SetCBg
none SetP %I p n
%I t
[ 0.827762 0 0 -0.5 -181.306 1125.03 ] concat
%I 4
393 587
405 593
420 597
430 597
4 MLine
End

End %I eop

End %I eop

End %I eop

End %I eop

Begin %I Pict
%I b u
%I cfg u
%I cbg u
%I f u
%I p u
%I t
[ 1 0 0 1 309 -0.5 ] concat

Begin %I Poly
%I b 65535
1 0 0 [] 0 SetB
%I cfg LtGray
0.762951 0.762951 0.762951 SetCFg
%I cbg LtGray
0.762951 0.762951 0.762951 SetCBg
%I p
0.75 SetP
%I t
[ 0.5 0 0 0.5 151 184 ] concat
%I 11
99 380
126 383
155 385
187 383
210 379
210 12
174 16
134 17
110 13
100 11
100 383
11 Poly
End

Begin %I Rect
%I b 65535
1 0 0 [] 0 SetB
%I cfg Red
1 0 0 SetCFg
%I cbg LtGray
0.762951 0.762951 0.762951 SetCBg
%I p
< ff 88 88 88 ff 88 88 88 > -1 SetP
%I t
[ 0.5 0 0 0.5 151 184 ] concat
%I
103 271 208 375 Rect
End

Begin %I Rect
%I b 65535
1 0 0 [] 0 SetB
%I cfg Blue
0 0 1 SetCFg
%I cbg LtGray
0.762951 0.762951 0.762951 SetCBg
%I p
< 88 88 88 88 88 88 88 88 > -1 SetP
%I t
[ 0.5 0 0 0.5 151 184 ] concat
%I
117 23 199 264 Rect
End

End %I eop

End %I eop

End %I eop

Begin %I Pict shuttle 0
%I b u
%I cfg u
%I cbg u
%I f u
%I p u
%I t u

Begin %I Pict
%I b u
%I cfg u
%I cbg u
%I f u
%I p u
%I t
[ 1 0 0 0.996273 -566 -293.565 ] concat

Begin %I BSpl
none SetB %I b n
%I cfg Black
0 0 0 SetCFg
%I cbg White
1 1 1 SetCBg
%I p
1 SetP
%I t
[ 0.5 0 0 0.5 378 519 ] concat
%I 24
42 132
42 192
47 223
57 244
75 263
114 296
188 360
193 370
270 726
283 769
295 792
309 804
324 804
333 797
321 0
315 1
311 0
306 78
284 96
239 82
238 104
247 116
42 131
42 131
24 BSpl
End

Begin %I BSpl
none SetB %I b n
%I cfg Black
0 0 0 SetCFg
%I cbg White
1 1 1 SetCBg
%I p
1 SetP
%I t
[ -0.5 0 0 0.5 695 519 ] concat
%I 24
42 132
42 192
47 223
57 244
75 263
114 296
188 360
193 370
270 726
283 769
295 792
309 804
324 804
333 797
321 0
315 1
311 0
306 78
284 96
239 82
238 104
247 116
42 131
42 131
24 BSpl
End

End %I eop

Begin %I Pict
%I b u
%I cfg u
%I cbg u
%I f u
%I p u
%I t
[ 1 0 0 1 44.9171 -229.749 ] concat

Begin %I Pict
%I b u
%I cfg u
%I cbg u
%I f u
%I p u
%I t
[ 1 0 0 1.061 -429 153.519 ] concat

Begin %I Rect
%I b 65535
1 0 0 [] 0 SetB
%I cfg Black
0 0 0 SetCFg
%I cbg White
1 1 1 SetCBg
%I p
0 SetP
%I t
[ 1 0 0 1 -101 134 ] concat
%I
442 446 453 452 Rect
End

Begin %I Rect
%I b 65535
1 0 0 [] 0 SetB
%I cfg Black
0 0 0 SetCFg
%I cbg White
1 1 1 SetCBg
%I p
0 SetP
%I t
[ 1 0 0 1 -86 134 ] concat
%I
442 446 453 452 Rect
End

Begin %I Rect
%I b 65535
1 0 0 [] 0 SetB
%I cfg Black
0 0 0 SetCFg
%I cbg White
1 1 1 SetCBg
%I p
0 SetP
%I t
[ 0.809524 0 0 0.857143 -15.8857 195.714 ] concat
%I
447 467 467 480 Rect
End

Begin %I Rect
%I b 65535
1 0 0 [] 0 SetB
%I cfg Black
0 0 0 SetCFg
%I cbg White
1 1 1 SetCBg
%I p
0 SetP
%I t
[ 0.707107 0.707107 -0.707107 0.707107 406.283 129.749 ] concat
%I
278 378 284 383 Rect
End

Begin %I Poly
%I b 65535
1 0 0 [] 0 SetB
%I cfg Black
0 0 0 SetCFg
%I cbg White
1 1 1 SetCBg
%I p
0 SetP
%I t
[ 0.4 0 0 0.4 178.926 374.15 ] concat
%I 5
408 578
412 570
406 564
398 571
407 579
5 Poly
End

Begin %I Rect
%I b 65535
1 0 0 [] 0 SetB
%I cfg Black
0 0 0 SetCFg
%I cbg White
1 1 1 SetCBg
%I p
0 SetP
%I t
[ -0.707107 0.707107 0.707107 0.707107 301.85 129.749 ] concat
%I
278 378 284 383 Rect
End

Begin %I Poly
%I b 65535
1 0 0 [] 0 SetB
%I cfg Black
0 0 0 SetCFg
%I cbg White
1 1 1 SetCBg
%I p
0 SetP
%I t
[ -0.4 0 0 0.4 529.207 374.15 ] concat
%I 5
408 578
412 570
406 564
398 571
407 579
5 Poly
End

End %I eop

Begin %I Pict
%I b u
%I cfg u
%I cbg u
%I f u
%I p u
%I t
[ 1 0 0 1.061 -429 157.482 ] concat

Begin %I Rect
%I b 65535
1 0 0 [] 0 SetB
%I cfg Black
0 0 0 SetCFg
%I cbg White
1 1 1 SetCBg
%I p
0 SetP
%I t
[ 0.719577 0 0 0.5 25.2869 393.68 ] concat
%I
447 467 467 480 Rect
End

Begin %I Poly
%I b 65535
1 0 0 [] 0 SetB
%I cfg Black
0 0 0 SetCFg
%I cbg White
1 1 1 SetCBg
%I p
0 SetP
%I t
[ 0.5 0 0 0.512782 139.067 443.151 ] concat
%I 11
415 377
445 377
445 382
457 382
452 393
444 403
430 406
418 403
411 394
403 382
414 382
11 Poly
End

End %I eop

Begin %I BSpl
%I b 65535
2 0 0 [] 0 SetB
%I cfg Black
0 0 0 SetCFg
%I cbg White
1 1 1 SetCBg
none SetP %I p n
%I t
[ 0.282076 0 0 0.299282 -175.557 653.666 ] concat
%I 3
277 536
359 558
440 536
3 BSpl
End

Begin %I Line
%I b 65535
2 0 0 [] 0 SetB
%I cfg Black
0 0 0 SetCFg
%I cbg White
1 1 1 SetCBg
none SetP %I p n
%I t
[ 1 0 0 1.061 -465.5 247.668 ] concat
%I
384 245 388 190 Line
End

Begin %I Pict
%I b u
%I cfg u
%I cbg u
%I f u
%I p u
%I t
[ 1 0 0 1 -459 182 ] concat

Begin %I Line
%I b 65535
1 0 0 [] 0 SetB
%I cfg Black
0 0 0 SetCFg
%I cbg White
1 1 1 SetCBg
%I p
0 SetP
%I t
[ 1 0 0 1.79044 4.06671 139.208 ] concat
%I
298 121 298 107 Line
End

Begin %I MLine
%I b 65535
1 0 0 [] 0 SetB
%I cfg Black
0 0 0 SetCFg
%I cbg White
1 1 1 SetCBg
none SetP %I p n
%I t
[ 1 0 0 1.061 -5.9333 153.119 ] concat
%I 4
360 222
354 213
352 205
350 193
4 MLine
End

Begin %I MLine
%I b 65535
1 0 0 [] 0 SetB
%I cfg Black
0 0 0 SetCFg
%I cbg White
1 1 1 SetCBg
none SetP %I p n
%I t
[ 1 0 0 1.061 -6 153.73 ] concat
%I 6
380 222
383 212
385 200
386 183
385 162
350 162
6 MLine
End

Begin %I Rect
%I b 65535
1 0 0 [] 0 SetB
%I cfg Black
0 0 0 SetCFg
%I cbg White
1 1 1 SetCBg
%I p
0 SetP
%I t
[ 1.04255 0 0 1.061 -15.6567 218.319 ] concat
%I
252 121 345 138 Rect
End

Begin %I MLine
%I b 65535
1 0 0 [] 0 SetB
%I cfg Black
0 0 0 SetCFg
%I cbg White
1 1 1 SetCBg
none SetP %I p n
%I t
[ 1.04082 0 0 1.061 -210.852 215.136 ] concat
%I 5
440 124
440 113
532 105
532 114
533 124
5 MLine
End

Begin %I Poly
%I b 65535
2 0 0 [] 0 SetB
%I cfg Black
0 0 0 SetCFg
%I cbg Black
0 0 0 SetCBg
%I p
0 SetP
%I t
[ 0.5 0 0 0.5305 205.5 288.478 ] concat
%I 3
339 187
342 176
346 190
3 Poly
End

End %I eop

Begin %I Pict
%I b u
%I cfg u
%I cbg u
%I f u
%I p u
%I t
[ 1 0 0 1 -463 176 ] concat

Begin %I Poly
%I b 65535
1 0 0 [] 0 SetB
%I cfg Black
0 0 0 SetCFg
%I cbg Black
0 0 0 SetCBg
%I p
0 SetP
%I t
[ 0.868 0 0 0.7427 125.316 192.806 ] concat
%I 8
265 187
265 179
262 171
277 165
278 159
294 154
297 159
297 187
8 Poly
End

Begin %I Pict
%I b u
%I cfg u
%I cbg u
%I f u
%I p u
%I t
[ 1 0 0 1.061 -199.5 5.72367 ] concat

Begin %I Elli
%I b 65535
1 0 0 [] 0 SetB
%I cfg White
1 1 1 SetCFg
%I cbg Black
0 0 0 SetCBg
%I p
0 SetP
%I t
[ 0.939693 -0.217649 0.34202 0.597986 206.207 259.351 ] concat
%I
313 173 8 2 Elli
End

Begin %I Elli
%I b 65535
1 0 0 [] 0 SetB
%I cfg Black
0 0 0 SetCFg
%I cbg Black
0 0 0 SetCBg
none SetP %I p n
%I t
[ 0.939693 -0.217649 0.34202 0.597986 206.207 259.351 ] concat
%I
313 173 8 2 Elli
End

End %I eop

Begin %I Pict
%I b u
%I cfg u
%I cbg u
%I f u
%I p u
%I t
[ 1 0 0 1.061 -185.5 -3.29484 ] concat

Begin %I Elli
%I b 65535
1 0 0 [] 0 SetB
%I cfg White
1 1 1 SetCFg
%I cbg Black
0 0 0 SetCBg
%I p
0 SetP
%I t
[ 0.939693 -0.217649 0.34202 0.597986 206.207 259.351 ] concat
%I
313 173 8 2 Elli
End

Begin %I Elli
%I b 65535
1 0 0 [] 0 SetB
%I cfg Black
0 0 0 SetCFg
%I cbg Black
0 0 0 SetCBg
none SetP %I p n
%I t
[ 0.939693 -0.217649 0.34202 0.597986 206.207 259.351 ] concat
%I
313 173 8 2 Elli
End

End %I eop

Begin %I Poly
%I b 65535
1 0 0 [] 0 SetB
%I cfg Black
0 0 0 SetCFg
%I cbg White
1 1 1 SetCBg
none SetP %I p n
%I t
[ 0.35 0 0 0.37135 252.8 260.685 ] concat
%I 4
271 191
281 155
292 171
292 191
4 Poly
End

Begin %I Poly
%I b 65535
2 0 0 [] 0 SetB
%I cfg Black
0 0 0 SetCFg
%I cbg Black
0 0 0 SetCBg
%I p
0 SetP
%I t
[ -0.5 0 0 -0.5305 552 430.816 ] concat
%I 3
339 187
340 179
345 192
3 Poly
End

End %I eop

Begin %I Line
%I b 65535
2 0 0 [] 0 SetB
%I cfg Black
0 0 0 SetCFg
%I cbg White
1 1 1 SetCBg
none SetP %I p n
%I t
[ -1 0 0 1.061 316.066 247.668 ] concat
%I
384 245 388 190 Line
End

Begin %I Pict
%I b u
%I cfg u
%I cbg u
%I f u
%I p u
%I t
[ 1 0 0 1 -459 182 ] concat

Begin %I Line
%I b 65535
1 0 0 [] 0 SetB
%I cfg Black
0 0 0 SetCFg
%I cbg White
1 1 1 SetCBg
%I p
0 SetP
%I t
[ -1 0 0 1.5915 764.499 160.494 ] concat
%I
298 121 298 107 Line
End

Begin %I MLine
%I b 65535
1 0 0 [] 0 SetB
%I cfg Black
0 0 0 SetCFg
%I cbg White
1 1 1 SetCBg
none SetP %I p n
%I t
[ -1 0 0 1.061 774.499 153.119 ] concat
%I 4
360 222
354 213
352 205
350 193
4 MLine
End

Begin %I MLine
%I b 65535
1 0 0 [] 0 SetB
%I cfg Black
0 0 0 SetCFg
%I cbg White
1 1 1 SetCBg
none SetP %I p n
%I t
[ -1 0 0 1.061 774.566 153.73 ] concat
%I 6
380 222
383 212
385 200
386 183
385 162
350 162
6 MLine
End

Begin %I Rect
%I b 65535
1 0 0 [] 0 SetB
%I cfg Black
0 0 0 SetCFg
%I cbg White
1 1 1 SetCBg
%I p
0 SetP
%I t
[ -1.04255 0 0 1.061 784.223 218.319 ] concat
%I
252 121 345 138 Rect
End

Begin %I MLine
%I b 65535
1 0 0 [] 0 SetB
%I cfg Black
0 0 0 SetCFg
%I cbg White
1 1 1 SetCBg
none SetP %I p n
%I t
[ -1.04082 0 0 1.061 979.418 215.136 ] concat
%I 5
440 124
440 113
532 105
532 114
533 124
5 MLine
End

Begin %I Poly
%I b 65535
2 0 0 [] 0 SetB
%I cfg Black
0 0 0 SetCFg
%I cbg Black
0 0 0 SetCBg
%I p
0 SetP
%I t
[ -0.5 0 0 0.5305 563.066 288.478 ] concat
%I 3
339 187
342 176
346 190
3 Poly
End

End %I eop

Begin %I Pict
%I b u
%I cfg u
%I cbg u
%I f u
%I p u
%I t
[ 1 0 0 1 -463 176 ] concat

Begin %I Poly
%I b 65535
1 0 0 [] 0 SetB
%I cfg Black
0 0 0 SetCFg
%I cbg Black
0 0 0 SetCBg
%I p
0 SetP
%I t
[ -0.868 0 0 0.7427 651.25 192.806 ] concat
%I 8
265 187
265 179
262 171
277 165
278 159
294 154
297 159
297 187
8 Poly
End

Begin %I Pict
%I b u
%I cfg u
%I cbg u
%I f u
%I p u
%I t
[ -1 0 0 1.061 976.066 5.72367 ] concat

Begin %I Elli
%I b 65535
1 0 0 [] 0 SetB
%I cfg White
1 1 1 SetCFg
%I cbg Black
0 0 0 SetCBg
%I p
0 SetP
%I t
[ 0.939693 -0.217649 0.34202 0.597986 206.207 259.351 ] concat
%I
313 173 8 2 Elli
End

Begin %I Elli
%I b 65535
1 0 0 [] 0 SetB
%I cfg Black
0 0 0 SetCFg
%I cbg Black
0 0 0 SetCBg
none SetP %I p n
%I t
[ 0.939693 -0.217649 0.34202 0.597986 206.207 259.351 ] concat
%I
313 173 8 2 Elli
End

End %I eop

Begin %I Pict
%I b u
%I cfg u
%I cbg u
%I f u
%I p u
%I t
[ -1 0 0 1.061 962.066 -3.29484 ] concat

Begin %I Elli
%I b 65535
1 0 0 [] 0 SetB
%I cfg White
1 1 1 SetCFg
%I cbg Black
0 0 0 SetCBg
%I p
0 SetP
%I t
[ 0.939693 -0.217649 0.34202 0.597986 206.207 259.351 ] concat
%I
313 173 8 2 Elli
End

Begin %I Elli
%I b 65535
1 0 0 [] 0 SetB
%I cfg Black
0 0 0 SetCFg
%I cbg Black
0 0 0 SetCBg
none SetP %I p n
%I t
[ 0.939693 -0.217649 0.34202 0.597986 206.207 259.351 ] concat
%I
313 173 8 2 Elli
End

End %I eop

Begin %I Poly
%I b 65535
1 0 0 [] 0 SetB
%I cfg Black
0 0 0 SetCFg
%I cbg White
1 1 1 SetCBg
none SetP %I p n
%I t
[ -0.35 0 0 0.37135 523.766 260.685 ] concat
%I 4
271 191
281 155
292 171
292 191
4 Poly
End

Begin %I Poly
%I b 65535
2 0 0 [] 0 SetB
%I cfg Black
0 0 0 SetCFg
%I cbg Black
0 0 0 SetCBg
%I p
0 SetP
%I t
[ 0.5 0 0 -0.5305 224.566 430.816 ] concat
%I 3
339 187
340 179
345 192
3 Poly
End

End %I eop

Begin %I MLine
%I b 65535
2 0 0 [] 0 SetB
%I cfg Black
0 0 0 SetCFg
%I cbg White
1 1 1 SetCBg
none SetP %I p n
%I t
[ 0.5 0 0 0.5 -315.5 396.5 ] concat
%I 9
417 733
367 483
364 475
359 467
237 359
231 351
225 343
219 329
214 299
9 MLine
End

Begin %I BSpl
%I b 65535
1 0 0 [] 0 SetB
%I cfg Black
0 0 0 SetCFg
%I cbg White
1 1 1 SetCBg
none SetP %I p n
%I t
[ 1 0 0 1.061 -534.433 295.413 ] concat
%I 5
425 439
442 518
460 530
478 518
493 440
5 BSpl
End

Begin %I BSpl
%I b 65535
1 0 0 [] 0 SetB
%I cfg Black
0 0 0 SetCFg
%I cbg White
1 1 1 SetCBg
none SetP %I p n
%I t
[ -0.5 0 0 0.5305 139.6 471.539 ] concat
%I 9
362 548
333 433
301 302
299 302
249 265
191 214
175 204
157 176
153 142
9 BSpl
End

Begin %I MLine
%I b 65535
2 0 0 [] 0 SetB
%I cfg Black
0 0 0 SetCFg
%I cbg White
1 1 1 SetCBg
none SetP %I p n
%I t
[ -0.5 0 0 0.5 167 396.5 ] concat
%I 9
423 732
366 483
363 475
358 467
236 361
230 351
224 343
218 329
215 298
9 MLine
End

Begin %I BSpl
%I b 65535
1 0 0 [] 0 SetB
%I cfg Black
0 0 0 SetCFg
%I cbg White
1 1 1 SetCBg
none SetP %I p n
%I t
[ 0.5 0 0 0.5305 -289 471.539 ] concat
%I 9
358 545
335 433
303 302
301 302
251 263
193 212
177 203
159 178
155 144
9 BSpl
End

Begin %I Pict
%I b u
%I cfg u
%I cbg u
%I f u
%I p u
%I t
[ 1 0 0 1 -629 -66 ] concat

Begin %I Poly
none SetB %I b n
%I cfg LtGray
0.762951 0.762951 0.762951 SetCFg
%I cbg White
1 1 1 SetCBg
%I p
0.75 SetP
%I t
[ -0.5 0 0 0.51 796.332 541.18 ] concat
%I 6
424 194
424 565
434 567
441 568
455 570
455 194
6 Poly
End

Begin %I Poly
none SetB %I b n
%I cfg LtGray
0.762951 0.762951 0.762951 SetCFg
%I cbg White
1 1 1 SetCBg
%I p
0.75 SetP
%I t
[ 0.5 0 0 0.51 312 541.18 ] concat
%I 6
424 194
424 565
434 567
441 568
455 570
455 194
6 Poly
End

Begin %I Line
%I b 65535
1 0 0 [] 0 SetB
%I cfg Black
0 0 0 SetCFg
%I cbg White
1 1 1 SetCBg
none SetP %I p n
%I t
[ 1 0 0 1.07811 194.067 388.849 ] concat
%I
390 407 390 232 Line
End

Begin %I Line
%I b 65535
1 0 0 [] 0 SetB
%I cfg Black
0 0 0 SetCFg
%I cbg White
1 1 1 SetCBg
none SetP %I p n
%I t
[ 1 0 0 1.07811 133.067 388.849 ] concat
%I
390 407 390 232 Line
End

Begin %I Line
%I b 65535
1 0 0 [] 0 SetB
%I cfg Black
0 0 0 SetCFg
%I cbg White
1 1 1 SetCBg
none SetP %I p n
%I t
[ 1 0 0 1.1001 164.067 383.252 ] concat
%I
390 407 390 232 Line
End

End %I eop

Begin %I Pict
%I b u
%I cfg u
%I cbg u
%I f u
%I p u
%I t
[ 1 0 0 1 -629 -66 ] concat

Begin %I Pict
%I b u
%I cfg u
%I cbg u
%I f u
%I p u
%I t
[ 1 0 0 1 334 0 ] concat

Begin %I Elli
%I b 65535
1 0 0 [] 0 SetB
%I cfg Black
0 0 0 SetCFg
%I cbg White
1 1 1 SetCBg
%I p
0 SetP
%I t
[ 0.5 0 0 0.5 101 552 ] concat
%I
176 463 1 7 Elli
End

Begin %I Elli
%I b 65535
1 0 0 [] 0 SetB
%I cfg Black
0 0 0 SetCFg
%I cbg White
1 1 1 SetCBg
%I p
0 SetP
%I t
[ 0.5 0 0 0.5 163.267 552 ] concat
%I
176 463 1 7 Elli
End

Begin %I Elli
%I b 65535
1 0 0 [] 0 SetB
%I cfg Black
0 0 0 SetCFg
%I cbg White
1 1 1 SetCBg
%I p
0 SetP
%I t
[ 0.5 0 0 0.5 101 452.374 ] concat
%I
176 463 1 7 Elli
End

Begin %I Elli
%I b 65535
1 0 0 [] 0 SetB
%I cfg Black
0 0 0 SetCFg
%I cbg White
1 1 1 SetCBg
%I p
0 SetP
%I t
[ 0.5 0 0 0.5 163.267 452.374 ] concat
%I
176 463 1 7 Elli
End

End %I eop

Begin %I BSpl
%I b 65535
2 0 0 [] 0 SetB
%I cfg Black
0 0 0 SetCFg
%I cbg White
1 1 1 SetCBg
none SetP %I p n
%I t
[ 0.375 0 0 0.397875 419.129 614.926 ] concat
%I 3
277 536
360 548
440 536
3 BSpl
End

Begin %I Rect
%I b 65535
1 0 0 [] 0 SetB
%I cfg Black
0 0 0 SetCFg
%I cbg White
1 1 1 SetCBg
%I p
0 SetP
%I t
[ 1 0 0 1.23783 163.067 362.039 ] concat
%I
360 221 421 226 Rect
End

Begin %I BSpl
%I b 65535
2 0 0 [] 0 SetB
%I cfg Black
0 0 0 SetCFg
%I cbg White
1 1 1 SetCBg
%I p
0 SetP
%I t
[ 0.375 0 0 0.397875 419.129 427.926 ] concat
%I 3
277 536
360 548
440 536
3 BSpl
End

End %I eop

End %I eop

End %I eop

End %I eop

showpage

%%Trailer

end
