%!PS-Adobe-2.0 EPSF-1.2
%%DocumentFonts:
%%Pages: 1
%%BoundingBox: 181 293 450 561
%%EndComments

50 dict begin

/arrowHeight 8 def
/arrowWidth 4 def
/none null def
/numGraphicParameters 17 def
/stringLimit 65535 def

/Begin {
save
numGraphicParameters dict begin
} def

/End {
end
restore
} def

/SetB {
dup type /nulltype eq {
pop
false /brushRightArrow idef
false /brushLeftArrow idef
true /brushNone idef
} {
/brushDashOffset idef
/brushDashArray idef
0 ne /brushRightArrow idef
0 ne /brushLeftArrow idef
/brushWidth idef
false /brushNone idef
} ifelse
} def

/SetCFg {
/fgblue idef
/fggreen idef
/fgred idef
} def

/SetCBg {
/bgblue idef
/bggreen idef
/bgred idef
} def

/SetF {
/printSize idef
/printFont idef
} def

/SetP {
dup type /nulltype eq {
pop true /patternNone idef
} {
/patternGrayLevel idef
patternGrayLevel -1 eq {
/patternString idef
} if
false /patternNone idef
} ifelse
} def

/BSpl {
0 begin
storexyn
newpath
n 1 gt {
0 0 0 0 0 0 1 1 true subspline
n 2 gt {
0 0 0 0 1 1 2 2 false subspline
1 1 n 3 sub {
/i exch def
i 1 sub dup i dup i 1 add dup i 2 add dup false subspline
} for
n 3 sub dup n 2 sub dup n 1 sub dup 2 copy false subspline
} if
n 2 sub dup n 1 sub dup 2 copy 2 copy false subspline
patternNone not brushLeftArrow not brushRightArrow not and and { ifill } if
brushNone not { istroke } if
0 0 1 1 leftarrow
n 2 sub dup n 1 sub dup rightarrow
} if
end
} dup 0 4 dict put def

/Circ {
newpath
0 360 arc
patternNone not { ifill } if
brushNone not { istroke } if
} def

/CBSpl {
0 begin
dup 2 gt {
storexyn
newpath
n 1 sub dup 0 0 1 1 2 2 true subspline
1 1 n 3 sub {
/i exch def
i 1 sub dup i dup i 1 add dup i 2 add dup false subspline
} for
n 3 sub dup n 2 sub dup n 1 sub dup 0 0 false subspline
n 2 sub dup n 1 sub dup 0 0 1 1 false subspline
patternNone not { ifill } if
brushNone not { istroke } if
} {
Poly
} ifelse
end
} dup 0 4 dict put def

/Elli {
0 begin
newpath
4 2 roll
translate
scale
0 0 1 0 360 arc
patternNone not { ifill } if
brushNone not { istroke } if
end
} dup 0 1 dict put def

/Line {
0 begin
2 storexyn
newpath
x 0 get y 0 get moveto
x 1 get y 1 get lineto
brushNone not { istroke } if
0 0 1 1 leftarrow
0 0 1 1 rightarrow
end
} dup 0 4 dict put def

/MLine {
0 begin
storexyn
newpath
n 1 gt {
x 0 get y 0 get moveto
1 1 n 1 sub {
/i exch def
x i get y i get lineto
} for
patternNone not brushLeftArrow not brushRightArrow not and and { ifill } if
brushNone not { istroke } if
0 0 1 1 leftarrow
n 2 sub dup n 1 sub dup rightarrow
} if
end
} dup 0 4 dict put def

/Poly {
3 1 roll
newpath
moveto
-1 add
{ lineto } repeat
closepath
patternNone not { ifill } if
brushNone not { istroke } if
} def

/Rect {
0 begin
/t exch def
/r exch def
/b exch def
/l exch def
newpath
l b moveto
l t lineto
r t lineto
r b lineto
closepath
patternNone not { ifill } if
brushNone not { istroke } if
end
} dup 0 4 dict put def

/Text {
ishow
} def

/idef {
dup where { pop pop pop } { exch def } ifelse
} def

/ifill {
0 begin
gsave
patternGrayLevel -1 ne {
fgred bgred fgred sub patternGrayLevel mul add
fggreen bggreen fggreen sub patternGrayLevel mul add
fgblue bgblue fgblue sub patternGrayLevel mul add setrgbcolor
eofill
} {
eoclip
originalCTM setmatrix
pathbbox /t exch def /r exch def /b exch def /l exch def
/w r l sub ceiling cvi def
/h t b sub ceiling cvi def
/imageByteWidth w 8 div ceiling cvi def
/imageHeight h def
bgred bggreen bgblue setrgbcolor
eofill
fgred fggreen fgblue setrgbcolor
w 0 gt h 0 gt and {
l b translate w h scale
w h true [w 0 0 h neg 0 h] { patternproc } imagemask
} if
} ifelse
grestore
end
} dup 0 8 dict put def

/istroke {
gsave
brushDashOffset -1 eq {
[] 0 setdash
1 setgray
} {
brushDashArray brushDashOffset setdash
fgred fggreen fgblue setrgbcolor
} ifelse
brushWidth setlinewidth
originalCTM setmatrix
stroke
grestore
} def

/ishow {
0 begin
gsave
printFont findfont printSize scalefont setfont
fgred fggreen fgblue setrgbcolor
/vertoffset printSize neg def {
0 vertoffset moveto show
/vertoffset vertoffset printSize sub def
} forall
grestore
end
} dup 0 3 dict put def

/patternproc {
0 begin
/patternByteLength patternString length def
/patternHeight patternByteLength 8 mul sqrt cvi def
/patternWidth patternHeight def
/patternByteWidth patternWidth 8 idiv def
/imageByteMaxLength imageByteWidth imageHeight mul
stringLimit patternByteWidth sub min def
/imageMaxHeight imageByteMaxLength imageByteWidth idiv patternHeight idiv
patternHeight mul patternHeight max def
/imageHeight imageHeight imageMaxHeight sub store
/imageString imageByteWidth imageMaxHeight mul patternByteWidth add string def
0 1 imageMaxHeight 1 sub {
/y exch def
/patternRow y patternByteWidth mul patternByteLength mod def
/patternRowString patternString patternRow patternByteWidth getinterval def
/imageRow y imageByteWidth mul def
0 patternByteWidth imageByteWidth 1 sub {
/x exch def
imageString imageRow x add patternRowString putinterval
} for
} for
imageString
end
} dup 0 12 dict put def

/min {
dup 3 2 roll dup 4 3 roll lt { exch } if pop
} def

/max {
dup 3 2 roll dup 4 3 roll gt { exch } if pop
} def

/arrowhead {
0 begin
transform originalCTM itransform
/taily exch def
/tailx exch def
transform originalCTM itransform
/tipy exch def
/tipx exch def
/dy tipy taily sub def
/dx tipx tailx sub def
/angle dx 0 ne dy 0 ne or { dy dx atan } { 90 } ifelse def
gsave
originalCTM setmatrix
tipx tipy translate
angle rotate
newpath
0 0 moveto
arrowHeight neg arrowWidth 2 div lineto
arrowHeight neg arrowWidth 2 div neg lineto
closepath
patternNone not {
originalCTM setmatrix
/padtip arrowHeight 2 exp 0.25 arrowWidth 2 exp mul add sqrt brushWidth mul
arrowWidth div def
/padtail brushWidth 2 div def
tipx tipy translate
angle rotate
padtip 0 translate
arrowHeight padtip add padtail add arrowHeight div dup scale
arrowheadpath
ifill
} if
brushNone not {
originalCTM setmatrix
tipx tipy translate
angle rotate
arrowheadpath
istroke
} if
grestore
end
} dup 0 9 dict put def

/arrowheadpath {
newpath
0 0 moveto
arrowHeight neg arrowWidth 2 div lineto
arrowHeight neg arrowWidth 2 div neg lineto
closepath
} def

/leftarrow {
0 begin
y exch get /taily exch def
x exch get /tailx exch def
y exch get /tipy exch def
x exch get /tipx exch def
brushLeftArrow { tipx tipy tailx taily arrowhead } if
end
} dup 0 4 dict put def

/rightarrow {
0 begin
y exch get /tipy exch def
x exch get /tipx exch def
y exch get /taily exch def
x exch get /tailx exch def
brushRightArrow { tipx tipy tailx taily arrowhead } if
end
} dup 0 4 dict put def

/midpoint {
0 begin
/y1 exch def
/x1 exch def
/y0 exch def
/x0 exch def
x0 x1 add 2 div
y0 y1 add 2 div
end
} dup 0 4 dict put def

/thirdpoint {
0 begin
/y1 exch def
/x1 exch def
/y0 exch def
/x0 exch def
x0 2 mul x1 add 3 div
y0 2 mul y1 add 3 div
end
} dup 0 4 dict put def

/subspline {
0 begin
/movetoNeeded exch def
y exch get /y3 exch def
x exch get /x3 exch def
y exch get /y2 exch def
x exch get /x2 exch def
y exch get /y1 exch def
x exch get /x1 exch def
y exch get /y0 exch def
x exch get /x0 exch def
x1 y1 x2 y2 thirdpoint
/p1y exch def
/p1x exch def
x2 y2 x1 y1 thirdpoint
/p2y exch def
/p2x exch def
x1 y1 x0 y0 thirdpoint
p1x p1y midpoint
/p0y exch def
/p0x exch def
x2 y2 x3 y3 thirdpoint
p2x p2y midpoint
/p3y exch def
/p3x exch def
movetoNeeded { p0x p0y moveto } if
p1x p1y p2x p2y p3x p3y curveto
end
} dup 0 17 dict put def

/storexyn {
/n exch def
/y n array def
/x n array def
n 1 sub -1 0 {
/i exch def
y i 3 2 roll put
x i 3 2 roll put
} for
} def

%%EndProlog

%I Idraw 5 Grid 4.80467

%%Page: 1 1

Begin
%I b u
%I cfg u
%I cbg u
%I f u
%I p u
%I t
[ .8 0 0 .8 0 0 ] concat
/originalCTM matrix currentmatrix def

Begin %I Pict static
none SetB %I b n
%I cfg u
%I cbg u
%I f u
%I p u
%I t
[ 1 0 0 1 -3.05176e-05 0 ] concat

Begin %I Rect
%I b 65535
1 0 0 [] 0 SetB
%I cfg SkyBlue
.195315 .597665 .796887 SetCFg
%I cbg White
1 1 1 SetCBg
%I p
.5 SetP
%I t
[ 1 0 0 1 1 2 ] concat
%I
229 367 559 697 Rect
End

Begin %I CBSpl
%I b 65535
1 0 0 [] 0 SetB
%I cfg Indigo
.746105 0 .996109 SetCFg
%I cbg Blue
0 0 .996109 SetCBg
%I p
.5 SetP
%I t
[ 1 0 0 1 -3 -1 ] concat
%I 75
234 508
232 501
233 505
245 520
252 523
254 524
268 525
271 524
273 524
278 521
280 520
284 520
289 520
293 520
298 525
302 529
304 532
309 533
313 532
327 528
331 527
335 524
340 521
343 519
346 517
348 516
350 516
356 515
359 516
362 516
364 518
372 523
376 525
380 526
393 528
397 528
400 528
405 527
411 524
419 521
433 518
436 518
440 519
447 521
450 523
453 524
455 525
460 526
464 525
470 524
473 523
483 526
490 521
494 517
498 515
502 514
506 514
518 516
523 520
525 523
532 523
538 522
545 517
546 516
552 518
556 522
560 522
561 521
563 518
564 516
562 507
563 510
564 509
560 507
561 509
75 CBSpl
End

Begin %I Poly
%I b 65535
1 0 0 [] 0 SetB
%I cfg Brown
.644541 .164065 .164065 SetCFg
%I cbg White
1 1 1 SetCBg
%I p
.5 SetP
%I t
[ 1 0 0 .421212 1 214.415 ] concat
%I 4
229 367
229 697
559 697
559 367
4 Poly
End

End %I eop

Begin %I Pict dynamic
%I b u
%I cfg u
%I cbg u
%I f u
%I p u
%I t
[ .486838 -.141015 .141015 .486838 129.325 240.767 ] concat

Begin %I CBSpl
%I b 65535
1 0 0 [] 0 SetB
%I cfg Black
0 0 0 SetCFg
%I cbg White
1 1 1 SetCBg
%I p
1 SetP
%I t
[ .790521 .455339 -.437761 .760002 297.401 -47.292 ] concat
%I 22
277 504
272 502
269 498
267 494
270 489
275 489
540 502
546 503
550 504
557 512
554 520
549 520
546 523
536 530
532 530
531 533
523 535
520 548
510 547
322 538
286 529
286 529
22 CBSpl
End

Begin %I CBSpl
%I b 65535
1 0 0 [] 0 SetB
%I cfg Black
0 0 0 SetCFg
%I cbg White
1 1 1 SetCBg
%I p
1 SetP
%I t
[ .866532 .499122 -.499122 .866532 307.036 -111.119 ] concat
%I 10
280 527
271 531
253 581
253 583
254 585
273 586
279 583
325 532
326 526
326 526
10 CBSpl
End

Begin %I CBSpl
%I b 65535
1 0 0 [] 0 SetB
%I cfg Black
0 0 0 SetCFg
%I cbg White
1 1 1 SetCBg
%I p
0 SetP
%I t
[ .866532 .499122 -.499122 .866532 307.036 -111.119 ] concat
%I 14
516 523
517 521
520 520
523 517
527 517
529 516
531 512
531 509
530 505
528 503
524 502
520 501
517 500
517 500
14 CBSpl
End

Begin %I Poly
%I b 65535
1 0 0 [] 0 SetB
%I cfg Black
0 0 0 SetCFg
%I cbg White
1 1 1 SetCBg
%I p
0 SetP
%I t
[ .866532 .499122 -.499122 .866532 307.036 -111.119 ] concat
%I 5
518 515
488 515
488 497
519 500
519 500
5 Poly
End

Begin %I Poly
%I b 65535
1 0 0 [] 0 SetB
%I cfg Black
0 0 0 SetCFg
%I cbg White
1 1 1 SetCBg
%I p
0 SetP
%I t
[ .866532 .499122 -.499122 .866532 308.27 -109.254 ] concat
%I 5
489 537
485 531
493 526
496 532
496 532
5 Poly
End

Begin %I Poly
%I b 65535
1 0 0 [] 0 SetB
%I cfg Black
0 0 0 SetCFg
%I cbg White
1 1 1 SetCBg
%I p
0 SetP
%I t
[ .874409 .503659 -.499122 .866532 303.176 -113.342 ] concat
%I 6
490 505
270 497
270 492
270 489
286 489
490 497
6 Poly
End

Begin %I CBSpl
%I b 65535
1 0 0 [] 0 SetB
%I cfg Black
0 0 0 SetCFg
%I cbg White
1 1 1 SetCBg
%I p
0 SetP
%I t
[ 1.14045 .425935 -.349874 .936797 156.723 -127.342 ] concat
%I 10
283 509
256 512
255 511
254 505
254 500
255 494
257 492
262 494
273 499
273 499
10 CBSpl
End

Begin %I Poly
%I b 65535
1 0 0 [] 0 SetB
%I cfg Black
0 0 0 SetCFg
%I cbg White
1 1 1 SetCBg
%I p
0 SetP
%I t
[ .866532 .499122 -.499122 .866532 307.036 -111.119 ] concat
%I 21
329 531
289 576
285 580
279 585
271 585
266 586
260 585
253 584
255 578
259 578
269 578
289 544
269 541
270 538
296 542
273 579
280 579
283 576
322 530
329 530
329 530
21 Poly
End

Begin %I Poly
%I b 65535
2 0 0 [] 0 SetB
%I cfg Black
0 0 0 SetCFg
%I cbg White
1 1 1 SetCBg
%I p
0 SetP
%I t
[ .866532 .499122 -.499122 .866532 307.036 -111.119 ] concat
%I 5
358 491
358 479
373 487
374 492
374 492
5 Poly
End

Begin %I Line
%I b 65535
2 0 0 [] 0 SetB
%I cfg Black
0 0 0 SetCFg
%I cbg White
1 1 1 SetCBg
%I p
0 SetP
%I t
[ .866532 .499122 -.499122 .866532 307.036 -111.119 ] concat
%I
365 491 365 475 Line
End

Begin %I Line
%I b 65535
2 0 0 [] 0 SetB
%I cfg Black
0 0 0 SetCFg
%I cbg White
1 1 1 SetCBg
%I p
0 SetP
%I t
[ .866532 .499122 -.499122 .866532 307.036 -111.119 ] concat
%I
375 495 375 480 Line
End

Begin %I Poly
%I b 65535
2 0 0 [] 0 SetB
%I cfg Black
0 0 0 SetCFg
%I cbg White
1 1 1 SetCBg
%I p
0 SetP
%I t
[ .866532 .499122 -.499122 .866532 307.036 -111.119 ] concat
%I 5
500 497
502 490
528 497
526 503
526 503
5 Poly
End

Begin %I Line
%I b 65535
2 0 0 [] 0 SetB
%I cfg Black
0 0 0 SetCFg
%I cbg White
1 1 1 SetCBg
%I p
0 SetP
%I t
[ .866532 .499122 -.816743 1.41796 464.577 -384.628 ] concat
%I
512 495 513 486 Line
End

Begin %I Elli
%I b 65535
2 0 0 [] 0 SetB
%I cfg Black
0 0 0 SetCFg
%I cbg White
1 1 1 SetCBg
%I p
0 SetP
%I t
[ .866532 .499122 -.499122 .866532 307.036 -111.119 ] concat
%I
365 472 4 4 Elli
End

Begin %I Elli
%I b 65535
2 0 0 [] 0 SetB
%I cfg Black
0 0 0 SetCFg
%I cbg White
1 1 1 SetCBg
%I p
0 SetP
%I t
[ .866532 .499122 -.499122 .866532 311.341 -100.561 ] concat
%I
365 472 4 4 Elli
End

Begin %I Elli
%I b 65535
2 0 0 [] 0 SetB
%I cfg Black
0 0 0 SetCFg
%I cbg White
1 1 1 SetCBg
%I p
0 SetP
%I t
[ .866532 .499122 -.499122 .866532 433.654 -32.4172 ] concat
%I
365 472 4 4 Elli
End

Begin %I Pict
%I b u
%I cfg u
%I cbg u
%I f u
%I p u
%I t
[ .866532 .499122 -.499122 .866532 318.301 -104.63 ] concat

Begin %I Pict
%I b u
%I cfg u
%I cbg u
%I f u
%I p u
%I t u

Begin %I Line
%I b 65535
2 0 0 [] 0 SetB
%I cfg Red
.996109 0 0 SetCFg
%I cbg White
1 1 1 SetCBg
%I p
< ff 00 00 00 ff 00 00 00 > -1 SetP
%I t
[ 1 0 0 1 2 0 ] concat
%I
375 513 396 513 Line
End

Begin %I Line
%I b 65535
2 0 0 [] 0 SetB
%I cfg Red
.996109 0 0 SetCFg
%I cbg White
1 1 1 SetCBg
%I p
< ff 00 00 00 ff 00 00 00 > -1 SetP
%I t
[ 1 0 0 1 2 -4 ] concat
%I
375 513 396 513 Line
End

Begin %I Line
%I b 65535
2 0 0 [] 0 SetB
%I cfg Red
.996109 0 0 SetCFg
%I cbg White
1 1 1 SetCBg
%I p
< ff 00 00 00 ff 00 00 00 > -1 SetP
%I t
[ 1 0 0 1 2 -8 ] concat
%I
375 513 396 513 Line
End

Begin %I Line
%I b 65535
2 0 0 [] 0 SetB
%I cfg Red
.996109 0 0 SetCFg
%I cbg White
1 1 1 SetCBg
%I p
< ff 00 00 00 ff 00 00 00 > -1 SetP
%I t
[ 1 0 0 1 2 4 ] concat
%I
375 513 396 513 Line
End

End %I eop

Begin %I Rect
%I b 65535
2 0 0 [] 0 SetB
%I cfg Blue
0 0 .996109 SetCFg
%I cbg Black
0 0 0 SetCBg
%I p
.5 SetP
%I t
[ 1 0 0 1 -1 -2 ] concat
%I
390 512 399 519 Rect
End

End %I eop

Begin %I CBSpl
%I b 65535
1 0 0 [] 0 SetB
%I cfg Black
0 0 0 SetCFg
%I cbg White
1 1 1 SetCBg
%I p
0 SetP
%I t u
%I 27
391 505
386 502
381 497
377 494
373 489
368 482
364 476
362 471
360 467
356 460
355 456
352 449
349 444
343 441
338 439
334 436
327 432
322 430
316 427
312 428
311 436
311 443
309 447
309 449
306 452
305 454
305 454
27 CBSpl
End

Begin %I CBSpl
none SetB %I b n
%I cfg Black
0 0 0 SetCFg
%I cbg White
1 1 1 SetCBg
%I p
1 SetP
%I t
[ .755792 -0.00575476 0.0077116 1.01279 79.8907 4.53046 ] concat
%I 27
380 515
385 502
387 497
381 492
375 488
370 480
366 475
362 471
361 467
357 460
355 456
353 449
349 444
344 441
338 438
334 436
327 432
323 430
316 427
312 428
312 436
309 440
309 445
309 449
306 464
294 482
305 454
27 CBSpl
End

Begin %I CBSpl
%I b 65535
1 0 0 [] 0 SetB
%I cfg Black
0 0 0 SetCFg
%I cbg White
1 1 1 SetCBg
%I p
1 SetP
%I t
[ .866532 .499122 -.499122 .866532 306.405 -108.02 ] concat
%I 18
286 528
283 527
278 528
262 528
266 528
261 522
259 517
258 510
261 505
272 507
280 505
287 504
324 505
332 507
332 516
330 524
327 526
327 526
18 CBSpl
End

End %I eop

End %I eop

showpage

%%Trailer

end
