%!PS-Adobe-2.0 EPSF-1.2
%%DocumentFonts: Helvetica-Bold Helvetica
%%Pages: 1
%%BoundingBox: 170 269 373 401
%%EndComments

50 dict begin

/arrowHeight 8 def
/arrowWidth 4 def
/none null def
/numGraphicParameters 17 def
/stringLimit 65535 def

/Begin {
save
numGraphicParameters dict begin
} def

/End {
end
restore
} def

/SetB {
dup type /nulltype eq {
pop
false /brushRightArrow idef
false /brushLeftArrow idef
true /brushNone idef
} {
/brushDashOffset idef
/brushDashArray idef
0 ne /brushRightArrow idef
0 ne /brushLeftArrow idef
/brushWidth idef
false /brushNone idef
} ifelse
} def

/SetCFg {
/fgblue idef
/fggreen idef
/fgred idef
} def

/SetCBg {
/bgblue idef
/bggreen idef
/bgred idef
} def

/SetF {
/printSize idef
/printFont idef
} def

/SetP {
dup type /nulltype eq {
pop true /patternNone idef
} {
/patternGrayLevel idef
patternGrayLevel -1 eq {
/patternString idef
} if
false /patternNone idef
} ifelse
} def

/BSpl {
0 begin
storexyn
newpath
n 1 gt {
0 0 0 0 0 0 1 1 true subspline
n 2 gt {
0 0 0 0 1 1 2 2 false subspline
1 1 n 3 sub {
/i exch def
i 1 sub dup i dup i 1 add dup i 2 add dup false subspline
} for
n 3 sub dup n 2 sub dup n 1 sub dup 2 copy false subspline
} if
n 2 sub dup n 1 sub dup 2 copy 2 copy false subspline
patternNone not brushLeftArrow not brushRightArrow not and and { ifill } if
brushNone not { istroke } if
0 0 1 1 leftarrow
n 2 sub dup n 1 sub dup rightarrow
} if
end
} dup 0 4 dict put def

/Circ {
newpath
0 360 arc
patternNone not { ifill } if
brushNone not { istroke } if
} def

/CBSpl {
0 begin
dup 2 gt {
storexyn
newpath
n 1 sub dup 0 0 1 1 2 2 true subspline
1 1 n 3 sub {
/i exch def
i 1 sub dup i dup i 1 add dup i 2 add dup false subspline
} for
n 3 sub dup n 2 sub dup n 1 sub dup 0 0 false subspline
n 2 sub dup n 1 sub dup 0 0 1 1 false subspline
patternNone not { ifill } if
brushNone not { istroke } if
} {
Poly
} ifelse
end
} dup 0 4 dict put def

/Elli {
0 begin
newpath
4 2 roll
translate
scale
0 0 1 0 360 arc
patternNone not { ifill } if
brushNone not { istroke } if
end
} dup 0 1 dict put def

/Line {
0 begin
2 storexyn
newpath
x 0 get y 0 get moveto
x 1 get y 1 get lineto
brushNone not { istroke } if
0 0 1 1 leftarrow
0 0 1 1 rightarrow
end
} dup 0 4 dict put def

/MLine {
0 begin
storexyn
newpath
n 1 gt {
x 0 get y 0 get moveto
1 1 n 1 sub {
/i exch def
x i get y i get lineto
} for
patternNone not brushLeftArrow not brushRightArrow not and and { ifill } if
brushNone not { istroke } if
0 0 1 1 leftarrow
n 2 sub dup n 1 sub dup rightarrow
} if
end
} dup 0 4 dict put def

/Poly {
3 1 roll
newpath
moveto
-1 add
{ lineto } repeat
closepath
patternNone not { ifill } if
brushNone not { istroke } if
} def

/Rect {
0 begin
/t exch def
/r exch def
/b exch def
/l exch def
newpath
l b moveto
l t lineto
r t lineto
r b lineto
closepath
patternNone not { ifill } if
brushNone not { istroke } if
end
} dup 0 4 dict put def

/Text {
ishow
} def

/idef {
dup where { pop pop pop } { exch def } ifelse
} def

/ifill {
0 begin
gsave
patternGrayLevel -1 ne {
fgred bgred fgred sub patternGrayLevel mul add
fggreen bggreen fggreen sub patternGrayLevel mul add
fgblue bgblue fgblue sub patternGrayLevel mul add setrgbcolor
eofill
} {
eoclip
originalCTM setmatrix
pathbbox /t exch def /r exch def /b exch def /l exch def
/w r l sub ceiling cvi def
/h t b sub ceiling cvi def
/imageByteWidth w 8 div ceiling cvi def
/imageHeight h def
bgred bggreen bgblue setrgbcolor
eofill
fgred fggreen fgblue setrgbcolor
w 0 gt h 0 gt and {
l b translate w h scale
w h true [w 0 0 h neg 0 h] { patternproc } imagemask
} if
} ifelse
grestore
end
} dup 0 8 dict put def

/istroke {
gsave
brushDashOffset -1 eq {
[] 0 setdash
1 setgray
} {
brushDashArray brushDashOffset setdash
fgred fggreen fgblue setrgbcolor
} ifelse
brushWidth setlinewidth
originalCTM setmatrix
stroke
grestore
} def

/ishow {
0 begin
gsave
fgred fggreen fgblue setrgbcolor
/fontDict printFont findfont printSize scalefont dup setfont def
/descender fontDict begin 0 [FontBBox] 1 get FontMatrix end
transform exch pop def
/vertoffset 0 descender sub printSize sub printFont /Courier ne
printFont /Courier-Bold ne and { 1 add } if def {
0 vertoffset moveto show
/vertoffset vertoffset printSize sub def
} forall
grestore
end
} dup 0 3 dict put def

/patternproc {
0 begin
/patternByteLength patternString length def
/patternHeight patternByteLength 8 mul sqrt cvi def
/patternWidth patternHeight def
/patternByteWidth patternWidth 8 idiv def
/imageByteMaxLength imageByteWidth imageHeight mul
stringLimit patternByteWidth sub min def
/imageMaxHeight imageByteMaxLength imageByteWidth idiv patternHeight idiv
patternHeight mul patternHeight max def
/imageHeight imageHeight imageMaxHeight sub store
/imageString imageByteWidth imageMaxHeight mul patternByteWidth add string def
0 1 imageMaxHeight 1 sub {
/y exch def
/patternRow y patternByteWidth mul patternByteLength mod def
/patternRowString patternString patternRow patternByteWidth getinterval def
/imageRow y imageByteWidth mul def
0 patternByteWidth imageByteWidth 1 sub {
/x exch def
imageString imageRow x add patternRowString putinterval
} for
} for
imageString
end
} dup 0 12 dict put def

/min {
dup 3 2 roll dup 4 3 roll lt { exch } if pop
} def

/max {
dup 3 2 roll dup 4 3 roll gt { exch } if pop
} def

/arrowhead {
0 begin
transform originalCTM itransform
/taily exch def
/tailx exch def
transform originalCTM itransform
/tipy exch def
/tipx exch def
/dy tipy taily sub def
/dx tipx tailx sub def
/angle dx 0 ne dy 0 ne or { dy dx atan } { 90 } ifelse def
gsave
originalCTM setmatrix
tipx tipy translate
angle rotate
newpath
0 0 moveto
arrowHeight neg arrowWidth 2 div lineto
arrowHeight neg arrowWidth 2 div neg lineto
closepath
patternNone not {
originalCTM setmatrix
/padtip arrowHeight 2 exp 0.25 arrowWidth 2 exp mul add sqrt brushWidth mul
arrowWidth div def
/padtail brushWidth 2 div def
tipx tipy translate
angle rotate
padtip 0 translate
arrowHeight padtip add padtail add arrowHeight div dup scale
arrowheadpath
ifill
} if
brushNone not {
originalCTM setmatrix
tipx tipy translate
angle rotate
arrowheadpath
istroke
} if
grestore
end
} dup 0 9 dict put def

/arrowheadpath {
newpath
0 0 moveto
arrowHeight neg arrowWidth 2 div lineto
arrowHeight neg arrowWidth 2 div neg lineto
closepath
} def

/leftarrow {
0 begin
y exch get /taily exch def
x exch get /tailx exch def
y exch get /tipy exch def
x exch get /tipx exch def
brushLeftArrow { tipx tipy tailx taily arrowhead } if
end
} dup 0 4 dict put def

/rightarrow {
0 begin
y exch get /tipy exch def
x exch get /tipx exch def
y exch get /taily exch def
x exch get /tailx exch def
brushRightArrow { tipx tipy tailx taily arrowhead } if
end
} dup 0 4 dict put def

/midpoint {
0 begin
/y1 exch def
/x1 exch def
/y0 exch def
/x0 exch def
x0 x1 add 2 div
y0 y1 add 2 div
end
} dup 0 4 dict put def

/thirdpoint {
0 begin
/y1 exch def
/x1 exch def
/y0 exch def
/x0 exch def
x0 2 mul x1 add 3 div
y0 2 mul y1 add 3 div
end
} dup 0 4 dict put def

/subspline {
0 begin
/movetoNeeded exch def
y exch get /y3 exch def
x exch get /x3 exch def
y exch get /y2 exch def
x exch get /x2 exch def
y exch get /y1 exch def
x exch get /x1 exch def
y exch get /y0 exch def
x exch get /x0 exch def
x1 y1 x2 y2 thirdpoint
/p1y exch def
/p1x exch def
x2 y2 x1 y1 thirdpoint
/p2y exch def
/p2x exch def
x1 y1 x0 y0 thirdpoint
p1x p1y midpoint
/p0y exch def
/p0x exch def
x2 y2 x3 y3 thirdpoint
p2x p2y midpoint
/p3y exch def
/p3x exch def
movetoNeeded { p0x p0y moveto } if
p1x p1y p2x p2y p3x p3y curveto
end
} dup 0 17 dict put def

/storexyn {
/n exch def
/y n array def
/x n array def
n 1 sub -1 0 {
/i exch def
y i 3 2 roll put
x i 3 2 roll put
} for
} def

%%EndProlog

%I Idraw 7 Grid 4.80467 

%%Page: 1 1

Begin
%I b u
%I cfg u
%I cbg u
%I f u
%I p u
%I t
[ 0.8 0 0 0.8 0 0 ] concat
/originalCTM matrix currentmatrix def

Begin %I Pict static
%I b u
%I cfg u
%I cbg u
%I f u
%I p u
%I t u

Begin %I CBSpl
%I b 65535
1 0 0 [] 0 SetB
%I cfg Black
0 0 0 SetCFg
%I cbg Black
0 0 0 SetCBg
%I p
0 SetP
%I t
[ 0.25 0 0 0.25 446.5 392.75 ] concat
%I 2
50 323
50 325
2 CBSpl
End

Begin %I Pict
%I b u
%I cfg Black
0 0 0 SetCFg
%I cbg Black
0 0 0 SetCBg
%I f u
%I p u
%I t
[ 1 0 0 1 -18 -136 ] concat

Begin %I Rect
%I b 65535
2 0 0 [] 0 SetB
%I cfg Black
0 0 0 SetCFg
%I cbg DkGray
0.503548 0.503548 0.503548 SetCBg
%I p
1 SetP
%I t
[ 1.00971 0 0 1.28 92.447 193.68 ] concat
%I
161 220 366 244 Rect
End

Begin %I Elli
%I b 65535
1 0 0 [] 0 SetB
%I cfg White
1 1 1 SetCFg
%I cbg White
1 1 1 SetCBg
%I p
0 SetP
%I t
[ 0.92 0 0 0.92 145.56 324.405 ] concat
%I
232 177 25 11 Elli
End

End %I eop

Begin %I BSpl
%I b 65535
1 0 0 [] 0 SetB
%I cfg Black
0 0 0 SetCFg
%I cbg Black
0 0 0 SetCBg
%I p
1 SetP
%I t
[ 0.25 0 0 0.25 202.5 288.75 ] concat
%I 39
150 322
151 331
152 339
153 345
152 350
151 354
152 357
152 360
154 374
156 390
164 428
178 472
194 505
222 554
274 616
299 639
352 676
407 704
481 726
536 734
604 733
657 722
696 709
752 688
791 661
834 627
870 589
888 568
909 536
929 502
940 473
951 442
957 419
965 384
966 365
967 340
968 326
967 327
150 327
39 BSpl
End

Begin %I BSpl
%I b 65535
1 0 0 [] 0 SetB
%I cfg Black
0 0 0 SetCFg
%I cbg Yellow
1 1 0 SetCBg
%I p
1 SetP
%I t
[ 0.25 0 0 0.25 192.5 291.75 ] concat
%I 39
150 322
151 331
152 339
153 345
152 350
151 354
152 357
152 360
154 374
156 390
164 428
178 472
194 505
222 554
274 616
299 639
352 676
407 704
481 726
536 734
604 733
657 722
696 709
752 688
791 661
834 627
870 589
888 568
909 536
929 502
940 473
951 442
957 419
965 384
966 365
967 340
968 326
967 327
150 327
39 BSpl
End

Begin %I Text
%I cfg Black
0 0 0 SetCFg
%I f -adobe-helvetica-bold-r-*-*-14-*-75-75-*-*-*-*
/Helvetica-Bold 14 SetF
%I t
[ 1 0 0 1 315 423 ] concat
%I
[
(MPH)
] Text
End

Begin %I Pict
%I b u
%I cfg u
%I cbg u
%I f u
%I p u
%I t u

Begin %I Text
%I cfg Black
0 0 0 SetCFg
%I f -adobe-helvetica-medium-r-*-*-12-*-75-75-*-*-*-*
/Helvetica 12 SetF
%I t
[ 1 0 0 1 220 385 ] concat
%I
[
(0)
] Text
End

Begin %I Text
%I cfg Black
0 0 0 SetCFg
%I f -adobe-helvetica-medium-r-*-*-12-*-75-75-*-*-*-*
/Helvetica 12 SetF
%I t
[ 1 0 0 1 216 412 ] concat
%I
[
(10)
] Text
End

Begin %I Text
%I cfg Black
0 0 0 SetCFg
%I f -adobe-helvetica-medium-r-*-*-12-*-75-75-*-*-*-*
/Helvetica 12 SetF
%I t
[ 1 0 0 1 227 441 ] concat
%I
[
(20)
] Text
End

Begin %I Text
%I cfg Black
0 0 0 SetCFg
%I f -adobe-helvetica-medium-r-*-*-12-*-75-75-*-*-*-*
/Helvetica 12 SetF
%I t
[ 1 0 0 1 244 462 ] concat
%I
[
(30)
] Text
End

Begin %I Text
%I cfg Black
0 0 0 SetCFg
%I f -adobe-helvetica-medium-r-*-*-12-*-75-75-*-*-*-*
/Helvetica 12 SetF
%I t
[ 1 0 0 1 269 482 ] concat
%I
[
(40)
] Text
End

Begin %I Text
%I cfg Black
0 0 0 SetCFg
%I f -adobe-helvetica-medium-r-*-*-12-*-75-75-*-*-*-*
/Helvetica 12 SetF
%I t
[ 1 0 0 1 297 492 ] concat
%I
[
(50)
] Text
End

Begin %I Text
%I cfg Black
0 0 0 SetCFg
%I f -adobe-helvetica-medium-r-*-*-12-*-75-75-*-*-*-*
/Helvetica 12 SetF
%I t
[ 1 0 0 1 326 496 ] concat
%I
[
(60)
] Text
End

Begin %I Text
%I cfg Black
0 0 0 SetCFg
%I f -adobe-helvetica-medium-r-*-*-12-*-75-75-*-*-*-*
/Helvetica 12 SetF
%I t
[ 1 0 0 1 353 492 ] concat
%I
[
(70)
] Text
End

Begin %I Text
%I cfg Black
0 0 0 SetCFg
%I f -adobe-helvetica-medium-r-*-*-12-*-75-75-*-*-*-*
/Helvetica 12 SetF
%I t
[ 1 0 0 1 382 484 ] concat
%I
[
(80)
] Text
End

Begin %I Text
%I cfg Black
0 0 0 SetCFg
%I f -adobe-helvetica-medium-r-*-*-12-*-75-75-*-*-*-*
/Helvetica 12 SetF
%I t
[ 1 0 0 1 405 465 ] concat
%I
[
(90)
] Text
End

Begin %I Text
%I cfg Black
0 0 0 SetCFg
%I f -adobe-helvetica-medium-r-*-*-12-*-75-75-*-*-*-*
/Helvetica 12 SetF
%I t
[ 1 0 0 1 426 443 ] concat
%I
[
(100)
] Text
End

Begin %I Text
%I cfg Black
0 0 0 SetCFg
%I f -adobe-helvetica-medium-r-*-*-12-*-75-75-*-*-*-*
/Helvetica 12 SetF
%I t
[ 1 0 0 1 439 414 ] concat
%I
[
(110)
] Text
End

Begin %I Text
%I cfg Black
0 0 0 SetCFg
%I f -adobe-helvetica-medium-r-*-*-12-*-75-75-*-*-*-*
/Helvetica 12 SetF
%I t
[ 1 0 0 1 443 385 ] concat
%I
[
(120)
] Text
End

End %I eop

Begin %I Pict
%I b u
%I cfg u
%I cbg u
%I f u
%I p u
%I t
[ 1 0 0 1 -77 -66 ] concat

Begin %I Line
%I b 65535
2 0 0 [] 0 SetB
%I cfg Black
0 0 0 SetCFg
%I cbg White
1 1 1 SetCBg
%I p
0.5 SetP
%I t
[ 1 0 0 1 5.50934 198.5 ] concat
%I
306 245 324 245 Line
End

Begin %I Line
%I b 65535
2 0 0 [] 0 SetB
%I cfg Black
0 0 0 SetCFg
%I cbg White
1 1 1 SetCBg
%I p
0.5 SetP
%I t
[ 0 -1 1 0 164.755 847.5 ] concat
%I
306 245 324 245 Line
End

Begin %I Line
%I b 65535
2 0 0 [] 0 SetB
%I cfg Black
0 0 0 SetCFg
%I cbg White
1 1 1 SetCBg
%I p
0.5 SetP
%I t
[ 1 0 0 1 188.573 198.5 ] concat
%I
306 245 324 245 Line
End

Begin %I Line
%I b 65535
2 0 0 [] 0 SetB
%I cfg Black
0 0 0 SetCFg
%I cbg White
1 1 1 SetCBg
%I p
0.5 SetP
%I t
[ 0.707107 0.707107 -0.707107 0.707107 424.984 111.02 ] concat
%I
306 245 324 245 Line
End

Begin %I Line
%I b 65535
2 0 0 [] 0 SetB
%I cfg Black
0 0 0 SetCFg
%I cbg White
1 1 1 SetCBg
%I p
0.5 SetP
%I t
[ -0.707107 0.707107 -0.707107 -0.707107 742.48 456.003 ] concat
%I
306 245 324 245 Line
End

Begin %I Line
%I b 65535
2 0 0 [] 0 SetB
%I cfg Black
0 0 0 SetCFg
%I cbg White
1 1 1 SetCBg
%I p
0.5 SetP
%I t
[ 0.258819 -0.965926 0.965926 0.258819 68.5748 770.356 ] concat
%I
306 245 324 245 Line
End

Begin %I Line
%I b 65535
2 0 0 [] 0 SetB
%I cfg Black
0 0 0 SetCFg
%I cbg White
1 1 1 SetCBg
%I p
0.5 SetP
%I t
[ -0.965926 -0.258819 0.258819 -0.965926 743.611 785.68 ] concat
%I
306 245 324 245 Line
End

Begin %I Line
%I b 65535
2 0 0 [] 0 SetB
%I cfg Black
0 0 0 SetCFg
%I cbg White
1 1 1 SetCBg
%I p
0.5 SetP
%I t
[ -0.258819 -0.965926 0.965926 -0.258819 277.876 898.177 ] concat
%I
306 245 324 245 Line
End

Begin %I Line
%I b 65535
2 0 0 [] 0 SetB
%I cfg Black
0 0 0 SetCFg
%I cbg White
1 1 1 SetCBg
%I p
0.5 SetP
%I t
[ -0.965926 0.258819 -0.258819 -0.965926 687.432 621.869 ] concat
%I
306 245 324 245 Line
End

Begin %I Line
%I b 65535
2 0 0 [] 0 SetB
%I cfg Black
0 0 0 SetCFg
%I cbg White
1 1 1 SetCBg
%I p
0.5 SetP
%I t
[ 0.5 -0.866025 0.866025 0.5 -4.9216 670.798 ] concat
%I
306 245 324 245 Line
End

Begin %I Line
%I b 65535
2 0 0 [] 0 SetB
%I cfg Black
0 0 0 SetCFg
%I cbg White
1 1 1 SetCBg
%I p
0.5 SetP
%I t
[ -0.866025 -0.5 0.5 -0.866025 641.053 859.176 ] concat
%I
306 245 324 245 Line
End

Begin %I Line
%I b 65535
2 0 0 [] 0 SetB
%I cfg Black
0 0 0 SetCFg
%I cbg White
1 1 1 SetCBg
%I p
0.5 SetP
%I t
[ -0.5 -0.866025 0.866025 -0.5 401.078 917.798 ] concat
%I
306 245 324 245 Line
End

Begin %I Line
%I b 65535
2 0 0 [] 0 SetB
%I cfg Black
0 0 0 SetCFg
%I cbg White
1 1 1 SetCBg
%I p
0.5 SetP
%I t
[ -0.866025 0.5 -0.5 -0.866025 727.053 543.176 ] concat
%I
306 245 324 245 Line
End

Begin %I Line
%I b 65535
2 0 0 [] 0 SetB
%I cfg Red
1 0 0 SetCFg
%I cbg White
1 1 1 SetCBg
%I p
0.5 SetP
%I t
[ 0.0913683 -0.694011 0.991445 0.130526 126.07 721.135 ] concat
%I
306 245 324 245 Line
End

End %I eop

Begin %I Pict
%I b u
%I cfg Black
0 0 0 SetCFg
%I cbg u
%I f u
%I p u
%I t
[ 1 0 0 1 -25 -130 ] concat

Begin %I Rect
%I b 65535
2 0 0 [] 0 SetB
%I cfg Black
0 0 0 SetCFg
%I cbg DkGray
0.503548 0.503548 0.503548 SetCBg
%I p
1 SetP
%I t
[ 1.00971 0 0 1.28 92.447 193.68 ] concat
%I
161 220 366 244 Rect
End

Begin %I Elli
%I b 65535
1 0 0 [] 0 SetB
%I cfg White
1 1 1 SetCFg
%I cbg White
1 1 1 SetCBg
%I p
0 SetP
%I t
[ 0.92 0 0 0.92 145.56 324.405 ] concat
%I
232 177 25 11 Elli
End

End %I eop

End %I eop

Begin %I Text value
%I cfg White
1 1 1 SetCFg
%I f -adobe-helvetica-medium-r-*-*-12-*-75-75-*-*-*-*
/Helvetica 12 SetF
%I t
[ 1 0 0 1 323.472 363.245 ] concat
%I
[
(%.0f)
] Text
End

Begin %I Pict dynamic
%I b u
%I cfg u
%I cbg u
%I f u
%I p u
%I t
[ 1 0 0 1 8 -145 ] concat

Begin %I Elli
%I b 65535
1 0 0 [] 0 SetB
%I cfg Black
0 0 0 SetCFg
%I cbg White
1 1 1 SetCBg
%I p
0 SetP
%I t
[ 0.79832 0 0 0.358456 43.7511 418.555 ] concat
%I
349 298 6 6 Elli
End

Begin %I Poly
%I b 65535
1 0 0 [] 0 SetB
%I cfg Black
0 0 0 SetCFg
%I cbg White
1 1 1 SetCBg
%I p
0 SetP
%I t
[ 0.39916 0 0 0.179228 225.768 490.067 ] concat
%I 6
59 205
111 205
244 205
244 188
60 188
60 206
6 Poly
End

Begin %I Poly
%I b 65535
1 0 0 [] 0 SetB
%I cfg Black
0 0 0 SetCFg
%I cbg White
1 1 1 SetCBg
%I p
0 SetP
%I t
[ 0.09979 0 0 0.0352054 232.354 513.797 ] concat
%I 5
177 462
177 461
177 191
4 328
177 462
5 Poly
End

End %I eop

Begin %I Rect pivot
%I b 65535
2 0 0 [] 0 SetB
%I cfg Black
0 0 0 SetCFg
%I cbg White
1 1 1 SetCBg
%I p
0 SetP
%I t
[ 1 0 0 1 104.755 19.434 ] concat
%I
228 360 239 366 Rect
End

End %I eop

showpage

%%Trailer

end
