%!PS-Adobe-2.0 EPSF-1.2
%%DocumentFonts:
%%Pages: 1
%%BoundingBox: 7 396 917 547
%%EndComments

50 dict begin

/arrowHeight 8 def
/arrowWidth 4 def
/none null def
/numGraphicParameters 17 def
/stringLimit 65535 def

/Begin {
save
numGraphicParameters dict begin
} def

/End {
end
restore
} def

/SetB {
dup type /nulltype eq {
pop
false /brushRightArrow idef
false /brushLeftArrow idef
true /brushNone idef
} {
/brushDashOffset idef
/brushDashArray idef
0 ne /brushRightArrow idef
0 ne /brushLeftArrow idef
/brushWidth idef
false /brushNone idef
} ifelse
} def

/SetCFg {
/fgblue idef
/fggreen idef
/fgred idef
} def

/SetCBg {
/bgblue idef
/bggreen idef
/bgred idef
} def

/SetF {
/printSize idef
/printFont idef
} def

/SetP {
dup type /nulltype eq {
pop true /patternNone idef
} {
/patternGrayLevel idef
patternGrayLevel -1 eq {
/patternString idef
} if
false /patternNone idef
} ifelse
} def

/BSpl {
0 begin
storexyn
newpath
n 1 gt {
0 0 0 0 0 0 1 1 true subspline
n 2 gt {
0 0 0 0 1 1 2 2 false subspline
1 1 n 3 sub {
/i exch def
i 1 sub dup i dup i 1 add dup i 2 add dup false subspline
} for
n 3 sub dup n 2 sub dup n 1 sub dup 2 copy false subspline
} if
n 2 sub dup n 1 sub dup 2 copy 2 copy false subspline
patternNone not brushLeftArrow not brushRightArrow not and and { ifill } if
brushNone not { istroke } if
0 0 1 1 leftarrow
n 2 sub dup n 1 sub dup rightarrow
} if
end
} dup 0 4 dict put def

/Circ {
newpath
0 360 arc
patternNone not { ifill } if
brushNone not { istroke } if
} def

/CBSpl {
0 begin
dup 2 gt {
storexyn
newpath
n 1 sub dup 0 0 1 1 2 2 true subspline
1 1 n 3 sub {
/i exch def
i 1 sub dup i dup i 1 add dup i 2 add dup false subspline
} for
n 3 sub dup n 2 sub dup n 1 sub dup 0 0 false subspline
n 2 sub dup n 1 sub dup 0 0 1 1 false subspline
patternNone not { ifill } if
brushNone not { istroke } if
} {
Poly
} ifelse
end
} dup 0 4 dict put def

/Elli {
0 begin
newpath
4 2 roll
translate
scale
0 0 1 0 360 arc
patternNone not { ifill } if
brushNone not { istroke } if
end
} dup 0 1 dict put def

/Line {
0 begin
2 storexyn
newpath
x 0 get y 0 get moveto
x 1 get y 1 get lineto
brushNone not { istroke } if
0 0 1 1 leftarrow
0 0 1 1 rightarrow
end
} dup 0 4 dict put def

/MLine {
0 begin
storexyn
newpath
n 1 gt {
x 0 get y 0 get moveto
1 1 n 1 sub {
/i exch def
x i get y i get lineto
} for
patternNone not brushLeftArrow not brushRightArrow not and and { ifill } if
brushNone not { istroke } if
0 0 1 1 leftarrow
n 2 sub dup n 1 sub dup rightarrow
} if
end
} dup 0 4 dict put def

/Poly {
3 1 roll
newpath
moveto
-1 add
{ lineto } repeat
closepath
patternNone not { ifill } if
brushNone not { istroke } if
} def

/Rect {
0 begin
/t exch def
/r exch def
/b exch def
/l exch def
newpath
l b moveto
l t lineto
r t lineto
r b lineto
closepath
patternNone not { ifill } if
brushNone not { istroke } if
end
} dup 0 4 dict put def

/Text {
ishow
} def

/idef {
dup where { pop pop pop } { exch def } ifelse
} def

/ifill {
0 begin
gsave
patternGrayLevel -1 ne {
fgred bgred fgred sub patternGrayLevel mul add
fggreen bggreen fggreen sub patternGrayLevel mul add
fgblue bgblue fgblue sub patternGrayLevel mul add setrgbcolor
eofill
} {
eoclip
originalCTM setmatrix
pathbbox /t exch def /r exch def /b exch def /l exch def
/w r l sub ceiling cvi def
/h t b sub ceiling cvi def
/imageByteWidth w 8 div ceiling cvi def
/imageHeight h def
bgred bggreen bgblue setrgbcolor
eofill
fgred fggreen fgblue setrgbcolor
w 0 gt h 0 gt and {
l b translate w h scale
w h true [w 0 0 h neg 0 h] { patternproc } imagemask
} if
} ifelse
grestore
end
} dup 0 8 dict put def

/istroke {
gsave
brushDashOffset -1 eq {
[] 0 setdash
1 setgray
} {
brushDashArray brushDashOffset setdash
fgred fggreen fgblue setrgbcolor
} ifelse
brushWidth setlinewidth
originalCTM setmatrix
stroke
grestore
} def

/ishow {
0 begin
gsave
fgred fggreen fgblue setrgbcolor
/fontDict printFont findfont printSize scalefont dup setfont def
/descender fontDict begin 0 [FontBBox] 1 get FontMatrix end
transform exch pop def
/vertoffset 0 descender sub printSize sub printFont /Courier ne
printFont /Courier-Bold ne and { 1 add } if def {
0 vertoffset moveto show
/vertoffset vertoffset printSize sub def
} forall
grestore
end
} dup 0 3 dict put def

/patternproc {
0 begin
/patternByteLength patternString length def
/patternHeight patternByteLength 8 mul sqrt cvi def
/patternWidth patternHeight def
/patternByteWidth patternWidth 8 idiv def
/imageByteMaxLength imageByteWidth imageHeight mul
stringLimit patternByteWidth sub min def
/imageMaxHeight imageByteMaxLength imageByteWidth idiv patternHeight idiv
patternHeight mul patternHeight max def
/imageHeight imageHeight imageMaxHeight sub store
/imageString imageByteWidth imageMaxHeight mul patternByteWidth add string def
0 1 imageMaxHeight 1 sub {
/y exch def
/patternRow y patternByteWidth mul patternByteLength mod def
/patternRowString patternString patternRow patternByteWidth getinterval def
/imageRow y imageByteWidth mul def
0 patternByteWidth imageByteWidth 1 sub {
/x exch def
imageString imageRow x add patternRowString putinterval
} for
} for
imageString
end
} dup 0 12 dict put def

/min {
dup 3 2 roll dup 4 3 roll lt { exch } if pop
} def

/max {
dup 3 2 roll dup 4 3 roll gt { exch } if pop
} def

/arrowhead {
0 begin
transform originalCTM itransform
/taily exch def
/tailx exch def
transform originalCTM itransform
/tipy exch def
/tipx exch def
/dy tipy taily sub def
/dx tipx tailx sub def
/angle dx 0 ne dy 0 ne or { dy dx atan } { 90 } ifelse def
gsave
originalCTM setmatrix
tipx tipy translate
angle rotate
newpath
0 0 moveto
arrowHeight neg arrowWidth 2 div lineto
arrowHeight neg arrowWidth 2 div neg lineto
closepath
patternNone not {
originalCTM setmatrix
/padtip arrowHeight 2 exp 0.25 arrowWidth 2 exp mul add sqrt brushWidth mul
arrowWidth div def
/padtail brushWidth 2 div def
tipx tipy translate
angle rotate
padtip 0 translate
arrowHeight padtip add padtail add arrowHeight div dup scale
arrowheadpath
ifill
} if
brushNone not {
originalCTM setmatrix
tipx tipy translate
angle rotate
arrowheadpath
istroke
} if
grestore
end
} dup 0 9 dict put def

/arrowheadpath {
newpath
0 0 moveto
arrowHeight neg arrowWidth 2 div lineto
arrowHeight neg arrowWidth 2 div neg lineto
closepath
} def

/leftarrow {
0 begin
y exch get /taily exch def
x exch get /tailx exch def
y exch get /tipy exch def
x exch get /tipx exch def
brushLeftArrow { tipx tipy tailx taily arrowhead } if
end
} dup 0 4 dict put def

/rightarrow {
0 begin
y exch get /tipy exch def
x exch get /tipx exch def
y exch get /taily exch def
x exch get /tailx exch def
brushRightArrow { tipx tipy tailx taily arrowhead } if
end
} dup 0 4 dict put def

/midpoint {
0 begin
/y1 exch def
/x1 exch def
/y0 exch def
/x0 exch def
x0 x1 add 2 div
y0 y1 add 2 div
end
} dup 0 4 dict put def

/thirdpoint {
0 begin
/y1 exch def
/x1 exch def
/y0 exch def
/x0 exch def
x0 2 mul x1 add 3 div
y0 2 mul y1 add 3 div
end
} dup 0 4 dict put def

/subspline {
0 begin
/movetoNeeded exch def
y exch get /y3 exch def
x exch get /x3 exch def
y exch get /y2 exch def
x exch get /x2 exch def
y exch get /y1 exch def
x exch get /x1 exch def
y exch get /y0 exch def
x exch get /x0 exch def
x1 y1 x2 y2 thirdpoint
/p1y exch def
/p1x exch def
x2 y2 x1 y1 thirdpoint
/p2y exch def
/p2x exch def
x1 y1 x0 y0 thirdpoint
p1x p1y midpoint
/p0y exch def
/p0x exch def
x2 y2 x3 y3 thirdpoint
p2x p2y midpoint
/p3y exch def
/p3x exch def
movetoNeeded { p0x p0y moveto } if
p1x p1y p2x p2y p3x p3y curveto
end
} dup 0 17 dict put def

/storexyn {
/n exch def
/y n array def
/x n array def
n 1 sub -1 0 {
/i exch def
y i 3 2 roll put
x i 3 2 roll put
} for
} def

%%EndProlog

%I Idraw 7 Grid 4.80467 

%%Page: 1 1

Begin
%I b u
%I cfg u
%I cbg u
%I f u
%I p u
%I t
[ 0.8 0 0 0.8 0 0 ] concat
/originalCTM matrix currentmatrix def

Begin %I Rect
%I b 65535
1 0 0 [] 0 SetB
%I cfg Brown
0.644541 0.164065 0.164065 SetCFg
%I cbg Black
0 0 0 SetCBg
%I p
1 SetP
%I t
[ 1 0 0 1 94.2987 12.7 ] concat
%I
600 605 600 605 Rect
End

Begin %I Pict dynamic
%I b u
%I cfg u
%I cbg u
%I f u
%I p u
%I t
[ 1 0 0 1 -176.701 19.7 ] concat

Begin %I Pict
%I b u
%I cfg u
%I cbg u
%I f u
%I p u
%I t
[ 1 0 0 1 -70 128 ] concat

Begin %I Pict
%I b u
%I cfg u
%I cbg u
%I f u
%I p u
%I t u

Begin %I Rect
%I b 65535
1 0 0 [] 0 SetB
%I cfg Black
0 0 0 SetCFg
%I cbg forestgreen
0.133333 0.545098 0.133333 SetCBg
%I p
1 SetP
%I t u
%I
268 495 326 524 Rect
End

Begin %I Rect
%I b 65535
1 0 0 [] 0 SetB
%I cfg Black
0 0 0 SetCFg
%I cbg Black
0 0 0 SetCBg
%I p
1 SetP
%I t
[ 1 0 0 1 -5 4 ] concat
%I
277 508 284 515 Rect
End

Begin %I Rect
%I b 65535
1 0 0 [] 0 SetB
%I cfg Black
0 0 0 SetCFg
%I cbg Black
0 0 0 SetCBg
%I p
1 SetP
%I t
[ 1 0 0 1 9 4 ] concat
%I
277 508 284 515 Rect
End

Begin %I Rect
%I b 65535
1 0 0 [] 0 SetB
%I cfg Black
0 0 0 SetCFg
%I cbg Black
0 0 0 SetCBg
%I p
1 SetP
%I t
[ 1 0 0 1 24 4 ] concat
%I
277 508 284 515 Rect
End

Begin %I Rect
%I b 65535
1 0 0 [] 0 SetB
%I cfg Black
0 0 0 SetCFg
%I cbg Black
0 0 0 SetCBg
%I p
1 SetP
%I t
[ 1 0 0 1 37 4 ] concat
%I
277 508 284 515 Rect
End

Begin %I Pict
%I b u
%I cfg u
%I cbg u
%I f u
%I p u
%I t
[ 1 0 0 1 -3 1 ] concat

Begin %I Elli
%I b 65535
1 0 0 [] 0 SetB
%I cfg Black
0 0 0 SetCFg
%I cbg lightblue
0.678431 0.847059 0.901961 SetCBg
%I p
1 SetP
%I t
[ 1 0 0 1 -3 0 ] concat
%I
279 489 4 4 Elli
End

Begin %I Elli
%I b 65535
1 0 0 [] 0 SetB
%I cfg Black
0 0 0 SetCFg
%I cbg lightblue
0.678431 0.847059 0.901961 SetCBg
%I p
1 SetP
%I t
[ 1 0 0 1 7 0 ] concat
%I
279 489 4 4 Elli
End

End %I eop

Begin %I Elli
%I b 65535
1 0 0 [] 0 SetB
%I cfg Black
0 0 0 SetCFg
%I cbg lightblue
0.678431 0.847059 0.901961 SetCBg
%I p
1 SetP
%I t
[ 1 0 0 1 33 1 ] concat
%I
279 489 4 4 Elli
End

Begin %I Elli
%I b 65535
1 0 0 [] 0 SetB
%I cfg Black
0 0 0 SetCFg
%I cbg lightblue
0.678431 0.847059 0.901961 SetCBg
%I p
1 SetP
%I t
[ 1 0 0 1 44 1 ] concat
%I
279 489 4 4 Elli
End

Begin %I Poly
%I b 65535
1 0 0 [] 0 SetB
%I cfg Black
0 0 0 SetCFg
%I cbg Red
1 0 0 SetCBg
%I p
1 SetP
%I t u
%I 5
262 525
333 525
329 530
267 530
262 526
5 Poly
End

End %I eop

Begin %I Line
%I b 65535
2 0 0 [] 0 SetB
%I cfg Black
0 0 0 SetCFg
%I cbg Red
1 0 0 SetCBg
%I p
1 SetP
%I t u
%I
268 499 259 499 Line
End

Begin %I Line
%I b 65535
2 0 0 [] 0 SetB
%I cfg Black
0 0 0 SetCFg
%I cbg Red
1 0 0 SetCBg
%I p
1 SetP
%I t u
%I
327 501 327 501 Line
End

Begin %I Line
%I b 65535
2 0 0 [] 0 SetB
%I cfg Black
0 0 0 SetCFg
%I cbg Red
1 0 0 SetCBg
%I p
1 SetP
%I t u
%I
327 499 335 499 Line
End

End %I eop

Begin %I Pict
%I b u
%I cfg u
%I cbg u
%I f u
%I p u
%I t
[ 1 0 0 1 -89 121 ] concat

Begin %I Rect
%I b 65535
1 0 0 [] 0 SetB
%I cfg Black
0 0 0 SetCFg
%I cbg Yellow
1 1 0 SetCBg
%I p
1 SetP
%I t
[ 1 0 0 1 95 7 ] concat
%I
268 495 326 524 Rect
End

Begin %I Rect
%I b 65535
1 0 0 [] 0 SetB
%I cfg Black
0 0 0 SetCFg
%I cbg Black
0 0 0 SetCBg
%I p
1 SetP
%I t
[ 1 0 0 1 90 11 ] concat
%I
277 508 284 515 Rect
End

Begin %I Rect
%I b 65535
1 0 0 [] 0 SetB
%I cfg Black
0 0 0 SetCFg
%I cbg Black
0 0 0 SetCBg
%I p
1 SetP
%I t
[ 1 0 0 1 104 11 ] concat
%I
277 508 284 515 Rect
End

Begin %I Rect
%I b 65535
1 0 0 [] 0 SetB
%I cfg Black
0 0 0 SetCFg
%I cbg Black
0 0 0 SetCBg
%I p
1 SetP
%I t
[ 1 0 0 1 119 11 ] concat
%I
277 508 284 515 Rect
End

Begin %I Rect
%I b 65535
1 0 0 [] 0 SetB
%I cfg Black
0 0 0 SetCFg
%I cbg Black
0 0 0 SetCBg
%I p
1 SetP
%I t
[ 1 0 0 1 132 11 ] concat
%I
277 508 284 515 Rect
End

Begin %I Pict
%I b u
%I cfg u
%I cbg u
%I f u
%I p u
%I t
[ 1 0 0 1 92 8 ] concat

Begin %I Elli
%I b 65535
1 0 0 [] 0 SetB
%I cfg Black
0 0 0 SetCFg
%I cbg lightblue
0.678431 0.847059 0.901961 SetCBg
%I p
1 SetP
%I t
[ 1 0 0 1 -3 0 ] concat
%I
279 489 4 4 Elli
End

Begin %I Elli
%I b 65535
1 0 0 [] 0 SetB
%I cfg Black
0 0 0 SetCFg
%I cbg lightblue
0.678431 0.847059 0.901961 SetCBg
%I p
1 SetP
%I t
[ 1 0 0 1 7 0 ] concat
%I
279 489 4 4 Elli
End

End %I eop

Begin %I Elli
%I b 65535
1 0 0 [] 0 SetB
%I cfg Black
0 0 0 SetCFg
%I cbg lightblue
0.678431 0.847059 0.901961 SetCBg
%I p
1 SetP
%I t
[ 1 0 0 1 128 8 ] concat
%I
279 489 4 4 Elli
End

Begin %I Elli
%I b 65535
1 0 0 [] 0 SetB
%I cfg Black
0 0 0 SetCFg
%I cbg lightblue
0.678431 0.847059 0.901961 SetCBg
%I p
1 SetP
%I t
[ 1 0 0 1 139 8 ] concat
%I
279 489 4 4 Elli
End

Begin %I Poly
%I b 65535
1 0 0 [] 0 SetB
%I cfg Black
0 0 0 SetCFg
%I cbg Red
1 0 0 SetCBg
%I p
1 SetP
%I t
[ 1 0 0 1 95 7 ] concat
%I 5
262 525
333 525
329 530
267 530
262 526
5 Poly
End

Begin %I Line
%I b 65535
2 0 0 [] 0 SetB
%I cfg Black
0 0 0 SetCFg
%I cbg Red
1 0 0 SetCBg
%I p
1 SetP
%I t
[ 1 0 0 1 95 7 ] concat
%I
268 499 259 499 Line
End

Begin %I Line
%I b 65535
2 0 0 [] 0 SetB
%I cfg Black
0 0 0 SetCFg
%I cbg Red
1 0 0 SetCBg
%I p
1 SetP
%I t
[ 1 0 0 1 95 7 ] concat
%I
327 501 327 501 Line
End

Begin %I Line
%I b 65535
2 0 0 [] 0 SetB
%I cfg Black
0 0 0 SetCFg
%I cbg Red
1 0 0 SetCBg
%I p
1 SetP
%I t
[ 1 0 0 1 95 7 ] concat
%I
327 499 335 499 Line
End

End %I eop

Begin %I Pict
%I b u
%I cfg u
%I cbg u
%I f u
%I p u
%I t
[ 1 0 0 1 117 221 ] concat

Begin %I Rect
%I b 65535
1 0 0 [] 0 SetB
%I cfg Black
0 0 0 SetCFg
%I cbg skyblue
0.529412 0.807843 0.921569 SetCBg
%I p
1 SetP
%I t
[ 1 0 0 1 -36 -93 ] concat
%I
268 495 326 524 Rect
End

Begin %I Rect
%I b 65535
1 0 0 [] 0 SetB
%I cfg Black
0 0 0 SetCFg
%I cbg Black
0 0 0 SetCBg
%I p
1 SetP
%I t
[ 1 0 0 1 -41 -89 ] concat
%I
277 508 284 515 Rect
End

Begin %I Rect
%I b 65535
1 0 0 [] 0 SetB
%I cfg Black
0 0 0 SetCFg
%I cbg Black
0 0 0 SetCBg
%I p
1 SetP
%I t
[ 1 0 0 1 -27 -89 ] concat
%I
277 508 284 515 Rect
End

Begin %I Rect
%I b 65535
1 0 0 [] 0 SetB
%I cfg Black
0 0 0 SetCFg
%I cbg Black
0 0 0 SetCBg
%I p
1 SetP
%I t
[ 1 0 0 1 -12 -89 ] concat
%I
277 508 284 515 Rect
End

Begin %I Rect
%I b 65535
1 0 0 [] 0 SetB
%I cfg Black
0 0 0 SetCFg
%I cbg Black
0 0 0 SetCBg
%I p
1 SetP
%I t
[ 1 0 0 1 1 -89 ] concat
%I
277 508 284 515 Rect
End

Begin %I Pict
%I b u
%I cfg u
%I cbg u
%I f u
%I p u
%I t
[ 1 0 0 1 -39 -92 ] concat

Begin %I Elli
%I b 65535
1 0 0 [] 0 SetB
%I cfg Black
0 0 0 SetCFg
%I cbg lightblue
0.678431 0.847059 0.901961 SetCBg
%I p
1 SetP
%I t
[ 1 0 0 1 -3 0 ] concat
%I
279 489 4 4 Elli
End

Begin %I Elli
%I b 65535
1 0 0 [] 0 SetB
%I cfg Black
0 0 0 SetCFg
%I cbg lightblue
0.678431 0.847059 0.901961 SetCBg
%I p
1 SetP
%I t
[ 1 0 0 1 7 0 ] concat
%I
279 489 4 4 Elli
End

End %I eop

Begin %I Elli
%I b 65535
1 0 0 [] 0 SetB
%I cfg Black
0 0 0 SetCFg
%I cbg lightblue
0.678431 0.847059 0.901961 SetCBg
%I p
1 SetP
%I t
[ 1 0 0 1 -3 -92 ] concat
%I
279 489 4 4 Elli
End

Begin %I Elli
%I b 65535
1 0 0 [] 0 SetB
%I cfg Black
0 0 0 SetCFg
%I cbg lightblue
0.678431 0.847059 0.901961 SetCBg
%I p
1 SetP
%I t
[ 1 0 0 1 8 -92 ] concat
%I
279 489 4 4 Elli
End

Begin %I Poly
%I b 65535
1 0 0 [] 0 SetB
%I cfg Black
0 0 0 SetCFg
%I cbg Red
1 0 0 SetCBg
%I p
1 SetP
%I t
[ 1 0 0 1 -36 -93 ] concat
%I 5
262 525
333 525
329 530
267 530
262 526
5 Poly
End

Begin %I Line
%I b 65535
2 0 0 [] 0 SetB
%I cfg Black
0 0 0 SetCFg
%I cbg Red
1 0 0 SetCBg
%I p
1 SetP
%I t
[ 1 0 0 1 -36 -93 ] concat
%I
268 499 259 499 Line
End

Begin %I Line
%I b 65535
2 0 0 [] 0 SetB
%I cfg Black
0 0 0 SetCFg
%I cbg Red
1 0 0 SetCBg
%I p
1 SetP
%I t
[ 1 0 0 1 -36 -93 ] concat
%I
327 501 327 501 Line
End

Begin %I Line
%I b 65535
2 0 0 [] 0 SetB
%I cfg Black
0 0 0 SetCFg
%I cbg Red
1 0 0 SetCBg
%I p
1 SetP
%I t
[ 1 0 0 1 -36 -93 ] concat
%I
327 499 335 499 Line
End

End %I eop

Begin %I Pict
%I b u
%I cfg u
%I cbg u
%I f u
%I p u
%I t
[ 1 0 0 1 106 221 ] concat

Begin %I Pict
%I b u
%I cfg u
%I cbg u
%I f u
%I p u
%I t
[ -1 0 0 1 605 56 ] concat

Begin %I Rect
%I b 65535
1 0 0 [] 0 SetB
%I cfg Brown
0.644541 0.164065 0.164065 SetCFg
%I cbg Orange
1 0.647059 0 SetCBg
%I p
1 SetP
%I t
[ 1.12903 0 0 1.14286 -30.1935 -52.1429 ] concat
%I
234 351 265 365 Rect
End

Begin %I Rect
%I b 65535
1 0 0 [] 0 SetB
%I cfg Brown
0.644541 0.164065 0.164065 SetCFg
%I cbg Orange
1 0.647059 0 SetCBg
%I p
1 SetP
%I t
[ 1 0 0 1 -1 0 ] concat
%I
270 349 290 380 Rect
End

Begin %I Rect
%I b 65535
1 0 0 [] 0 SetB
%I cfg Black
0 0 0 SetCFg
%I cbg Black
0 0 0 SetCBg
%I p
1 SetP
%I t
[ 1.5 0 0 1 -145.5 0 ] concat
%I
279 366 287 374 Rect
End

Begin %I Poly
%I b 65535
1 0 0 [] 0 SetB
%I cfg Black
0 0 0 SetCFg
%I cbg Black
0 0 0 SetCBg
%I p
1 SetP
%I t u
%I 10
238 365
238 375
236 377
236 378
237 379
245 379
247 378
247 377
245 375
245 365
10 Poly
End

Begin %I Elli
%I b 65535
1 0 0 [] 0 SetB
%I cfg Black
0 0 0 SetCFg
%I cbg lightblue
0.678431 0.847059 0.901961 SetCBg
%I p
1 SetP
%I t
[ 1 0 0 1 1 -7 ] concat
%I
240 350 6 6 Elli
End

Begin %I Elli
%I b 65535
1 0 0 [] 0 SetB
%I cfg Black
0 0 0 SetCFg
%I cbg lightblue
0.678431 0.847059 0.901961 SetCBg
%I p
1 SetP
%I t
[ 1 0 0 1 13 -7 ] concat
%I
240 350 6 6 Elli
End

Begin %I Elli
%I b 65535
1 0 0 [] 0 SetB
%I cfg Black
0 0 0 SetCFg
%I cbg lightblue
0.678431 0.847059 0.901961 SetCBg
%I p
1 SetP
%I t
[ 1.25 0 0 1.25 -19 -93 ] concat
%I
240 350 6 6 Elli
End

Begin %I Elli
%I b 65535
1 0 0 [] 0 SetB
%I cfg Black
0 0 0 SetCFg
%I cbg lightblue
0.678431 0.847059 0.901961 SetCBg
%I p
1 SetP
%I t
[ 1 0 0 1 25 -7 ] concat
%I
240 350 6 6 Elli
End

Begin %I Line
%I b 65535
2 0 0 [] 0 SetB
%I cfg Black
0 0 0 SetCFg
%I cbg lightblue
0.678431 0.847059 0.901961 SetCBg
%I p
0 SetP
%I t
[ 1 0 0 1 0 -1 ] concat
%I
240 344 266 344 Line
End

Begin %I Line
%I b 65535
2 0 0 [] 0 SetB
%I cfg Black
0 0 0 SetCFg
%I cbg lightblue
0.678431 0.847059 0.901961 SetCBg
%I p
0 SetP
%I t u
%I
254 344 282 350 Line
End

Begin %I Poly
%I b 65535
2 0 0 [] 0 SetB
%I cfg Black
0 0 0 SetCFg
%I cbg lightblue
0.678431 0.847059 0.901961 SetCBg
%I p
0 SetP
%I t u
%I 4
235 349
222 338
234 338
234 349
4 Poly
End

Begin %I Poly
%I b 65535
1 0 0 [] 0 SetB
%I cfg Black
0 0 0 SetCFg
%I cbg Cyan
0 1 1 SetCBg
%I p
1 SetP
%I t
[ 0.338028 0 0 1 178.437 -145 ] concat
%I 5
262 525
333 525
329 530
267 530
262 526
5 Poly
End

End %I eop

Begin %I Line
%I b 65535
2 0 0 [] 0 SetB
%I cfg Black
0 0 0 SetCFg
%I cbg Cyan
0 1 1 SetCBg
%I p
0 SetP
%I t
[ 1 0 0 1 0 -2 ] concat
%I
305 408 316 408 Line
End

End %I eop

End %I eop

Begin %I Rect stop
%I b 65535
2 0 0 [] 0 SetB
%I cfg Black
0 0 0 SetCFg
%I cbg Cyan
0 1 1 SetCBg
%I p
0 SetP
%I t
[ 1 0 0 1 392.299 4.70001 ] concat
%I
748 623 752 629 Rect
End

Begin %I Rect
none SetB %I b n
%I cfg Black
0 0 0 SetCFg
%I cbg White
1 1 1 SetCBg
none SetP %I p n
%I t
[ 1.40099 0 0 1.08772 -131.483 -156.019 ] concat
%I
184 601 588 658 Rect
End

Begin %I Pict static
%I b u
%I cfg u
%I cbg u
%I f u
%I p u
%I t
[ 1 0 0 1 40.2987 18.7 ] concat

Begin %I Pict static
%I b u
%I cfg u
%I cbg u
%I f u
%I p u
%I t u

Begin %I Rect
none SetB %I b n
%I cfg Black
0 0 0 SetCFg
%I cbg White
1 1 1 SetCBg
none SetP %I p n
%I t
[ 1.40099 0 0 1.08772 -73.7822 -52.7193 ] concat
%I
184 601 588 658 Rect
End

Begin %I Rect
%I b 65535
1 0 0 [] 0 SetB
%I cfg Black
0 0 0 SetCFg
%I cbg Black
0 0 0 SetCBg
%I p
1 SetP
%I t
[ 1.40099 0 0 1.66667 -73.7822 -406 ] concat
%I
185 609 588 612 Rect
End

Begin %I Pict
%I b u
%I cfg u
%I cbg u
%I f u
%I p u
%I t
[ 1.40099 0 0 1 -77.9852 0 ] concat

Begin %I Pict
%I b u
%I cfg u
%I cbg u
%I f u
%I p u
%I t
[ 1 0 0 1 -1 -1 ] concat

Begin %I Rect
%I b 65535
1 0 0 [] 0 SetB
%I cfg Brown
0.644541 0.164065 0.164065 SetCFg
%I cbg Black
0 0 0 SetCBg
%I p
1 SetP
%I t u
%I
189 604 195 610 Rect
End

Begin %I Rect
%I b 65535
1 0 0 [] 0 SetB
%I cfg Brown
0.644541 0.164065 0.164065 SetCFg
%I cbg Black
0 0 0 SetCBg
%I p
1 SetP
%I t
[ 1 0 0 1 11 0 ] concat
%I
189 604 195 610 Rect
End

Begin %I Rect
%I b 65535
1 0 0 [] 0 SetB
%I cfg Brown
0.644541 0.164065 0.164065 SetCFg
%I cbg Black
0 0 0 SetCBg
%I p
1 SetP
%I t
[ 1 0 0 1 22 0 ] concat
%I
189 604 195 610 Rect
End

Begin %I Rect
%I b 65535
1 0 0 [] 0 SetB
%I cfg Brown
0.644541 0.164065 0.164065 SetCFg
%I cbg Black
0 0 0 SetCBg
%I p
1 SetP
%I t
[ 1 0 0 1 33 0 ] concat
%I
189 604 195 610 Rect
End

Begin %I Rect
%I b 65535
1 0 0 [] 0 SetB
%I cfg Brown
0.644541 0.164065 0.164065 SetCFg
%I cbg Black
0 0 0 SetCBg
%I p
1 SetP
%I t
[ 1 0 0 1 45 0 ] concat
%I
189 604 195 610 Rect
End

Begin %I Rect
%I b 65535
1 0 0 [] 0 SetB
%I cfg Brown
0.644541 0.164065 0.164065 SetCFg
%I cbg Black
0 0 0 SetCBg
%I p
1 SetP
%I t
[ 1 0 0 1 57 0 ] concat
%I
189 604 195 610 Rect
End

Begin %I Rect
%I b 65535
1 0 0 [] 0 SetB
%I cfg Brown
0.644541 0.164065 0.164065 SetCFg
%I cbg Black
0 0 0 SetCBg
%I p
1 SetP
%I t
[ 1 0 0 1 69 0 ] concat
%I
189 604 195 610 Rect
End

Begin %I Rect
%I b 65535
1 0 0 [] 0 SetB
%I cfg Brown
0.644541 0.164065 0.164065 SetCFg
%I cbg Black
0 0 0 SetCBg
%I p
1 SetP
%I t
[ 1 0 0 1 81 0 ] concat
%I
189 604 195 610 Rect
End

Begin %I Rect
%I b 65535
1 0 0 [] 0 SetB
%I cfg Brown
0.644541 0.164065 0.164065 SetCFg
%I cbg Black
0 0 0 SetCBg
%I p
1 SetP
%I t
[ 1 0 0 1 93 0 ] concat
%I
189 604 195 610 Rect
End

Begin %I Rect
%I b 65535
1 0 0 [] 0 SetB
%I cfg Brown
0.644541 0.164065 0.164065 SetCFg
%I cbg Black
0 0 0 SetCBg
%I p
1 SetP
%I t
[ 1 0 0 1 105 0 ] concat
%I
189 604 195 610 Rect
End

Begin %I Rect
%I b 65535
1 0 0 [] 0 SetB
%I cfg Brown
0.644541 0.164065 0.164065 SetCFg
%I cbg Black
0 0 0 SetCBg
%I p
1 SetP
%I t
[ 1 0 0 1 116 0 ] concat
%I
189 604 195 610 Rect
End

Begin %I Rect
%I b 65535
1 0 0 [] 0 SetB
%I cfg Brown
0.644541 0.164065 0.164065 SetCFg
%I cbg Black
0 0 0 SetCBg
%I p
1 SetP
%I t
[ 1 0 0 1 128 0 ] concat
%I
189 604 195 610 Rect
End

End %I eop

Begin %I Pict
%I b u
%I cfg u
%I cbg u
%I f u
%I p u
%I t
[ 1 0 0 1 139 -1 ] concat

Begin %I Rect
%I b 65535
1 0 0 [] 0 SetB
%I cfg Brown
0.644541 0.164065 0.164065 SetCFg
%I cbg Black
0 0 0 SetCBg
%I p
1 SetP
%I t u
%I
189 604 195 610 Rect
End

Begin %I Rect
%I b 65535
1 0 0 [] 0 SetB
%I cfg Brown
0.644541 0.164065 0.164065 SetCFg
%I cbg Black
0 0 0 SetCBg
%I p
1 SetP
%I t
[ 1 0 0 1 11 0 ] concat
%I
189 604 195 610 Rect
End

Begin %I Rect
%I b 65535
1 0 0 [] 0 SetB
%I cfg Brown
0.644541 0.164065 0.164065 SetCFg
%I cbg Black
0 0 0 SetCBg
%I p
1 SetP
%I t
[ 1 0 0 1 22 0 ] concat
%I
189 604 195 610 Rect
End

Begin %I Rect
%I b 65535
1 0 0 [] 0 SetB
%I cfg Brown
0.644541 0.164065 0.164065 SetCFg
%I cbg Black
0 0 0 SetCBg
%I p
1 SetP
%I t
[ 1 0 0 1 33 0 ] concat
%I
189 604 195 610 Rect
End

Begin %I Rect
%I b 65535
1 0 0 [] 0 SetB
%I cfg Brown
0.644541 0.164065 0.164065 SetCFg
%I cbg Black
0 0 0 SetCBg
%I p
1 SetP
%I t
[ 1 0 0 1 45 0 ] concat
%I
189 604 195 610 Rect
End

Begin %I Rect
%I b 65535
1 0 0 [] 0 SetB
%I cfg Brown
0.644541 0.164065 0.164065 SetCFg
%I cbg Black
0 0 0 SetCBg
%I p
1 SetP
%I t
[ 1 0 0 1 57 0 ] concat
%I
189 604 195 610 Rect
End

Begin %I Rect
%I b 65535
1 0 0 [] 0 SetB
%I cfg Brown
0.644541 0.164065 0.164065 SetCFg
%I cbg Black
0 0 0 SetCBg
%I p
1 SetP
%I t
[ 1 0 0 1 69 0 ] concat
%I
189 604 195 610 Rect
End

Begin %I Rect
%I b 65535
1 0 0 [] 0 SetB
%I cfg Brown
0.644541 0.164065 0.164065 SetCFg
%I cbg Black
0 0 0 SetCBg
%I p
1 SetP
%I t
[ 1 0 0 1 81 0 ] concat
%I
189 604 195 610 Rect
End

Begin %I Rect
%I b 65535
1 0 0 [] 0 SetB
%I cfg Brown
0.644541 0.164065 0.164065 SetCFg
%I cbg Black
0 0 0 SetCBg
%I p
1 SetP
%I t
[ 1 0 0 1 93 0 ] concat
%I
189 604 195 610 Rect
End

Begin %I Rect
%I b 65535
1 0 0 [] 0 SetB
%I cfg Brown
0.644541 0.164065 0.164065 SetCFg
%I cbg Black
0 0 0 SetCBg
%I p
1 SetP
%I t
[ 1 0 0 1 105 0 ] concat
%I
189 604 195 610 Rect
End

Begin %I Rect
%I b 65535
1 0 0 [] 0 SetB
%I cfg Brown
0.644541 0.164065 0.164065 SetCFg
%I cbg Black
0 0 0 SetCBg
%I p
1 SetP
%I t
[ 1 0 0 1 116 0 ] concat
%I
189 604 195 610 Rect
End

Begin %I Rect
%I b 65535
1 0 0 [] 0 SetB
%I cfg Brown
0.644541 0.164065 0.164065 SetCFg
%I cbg Black
0 0 0 SetCBg
%I p
1 SetP
%I t
[ 1 0 0 1 128 0 ] concat
%I
189 604 195 610 Rect
End

End %I eop

Begin %I Rect
%I b 65535
1 0 0 [] 0 SetB
%I cfg Brown
0.644541 0.164065 0.164065 SetCFg
%I cbg Black
0 0 0 SetCBg
%I p
1 SetP
%I t
[ 1 0 0 1 278 -1 ] concat
%I
189 604 195 610 Rect
End

Begin %I Rect
%I b 65535
1 0 0 [] 0 SetB
%I cfg Brown
0.644541 0.164065 0.164065 SetCFg
%I cbg Black
0 0 0 SetCBg
%I p
1 SetP
%I t
[ 1 0 0 1 289 -1 ] concat
%I
189 604 195 610 Rect
End

Begin %I Rect
%I b 65535
1 0 0 [] 0 SetB
%I cfg Brown
0.644541 0.164065 0.164065 SetCFg
%I cbg Black
0 0 0 SetCBg
%I p
1 SetP
%I t
[ 1 0 0 1 300 -1 ] concat
%I
189 604 195 610 Rect
End

Begin %I Rect
%I b 65535
1 0 0 [] 0 SetB
%I cfg Brown
0.644541 0.164065 0.164065 SetCFg
%I cbg Black
0 0 0 SetCBg
%I p
1 SetP
%I t
[ 1 0 0 1 311 -1 ] concat
%I
189 604 195 610 Rect
End

Begin %I Rect
%I b 65535
1 0 0 [] 0 SetB
%I cfg Brown
0.644541 0.164065 0.164065 SetCFg
%I cbg Black
0 0 0 SetCBg
%I p
1 SetP
%I t
[ 1 0 0 1 323 -1 ] concat
%I
189 604 195 610 Rect
End

Begin %I Rect
%I b 65535
1 0 0 [] 0 SetB
%I cfg Brown
0.644541 0.164065 0.164065 SetCFg
%I cbg Black
0 0 0 SetCBg
%I p
1 SetP
%I t
[ 1 0 0 1 335 -1 ] concat
%I
189 604 195 610 Rect
End

Begin %I Rect
%I b 65535
1 0 0 [] 0 SetB
%I cfg Brown
0.644541 0.164065 0.164065 SetCFg
%I cbg Black
0 0 0 SetCBg
%I p
1 SetP
%I t
[ 1 0 0 1 347 -1 ] concat
%I
189 604 195 610 Rect
End

Begin %I Rect
%I b 65535
1 0 0 [] 0 SetB
%I cfg Brown
0.644541 0.164065 0.164065 SetCFg
%I cbg Black
0 0 0 SetCBg
%I p
1 SetP
%I t
[ 1 0 0 1 359 -1 ] concat
%I
189 604 195 610 Rect
End

Begin %I Rect
%I b 65535
1 0 0 [] 0 SetB
%I cfg Brown
0.644541 0.164065 0.164065 SetCFg
%I cbg Black
0 0 0 SetCBg
%I p
1 SetP
%I t
[ 1 0 0 1 371 -1 ] concat
%I
189 604 195 610 Rect
End

Begin %I Rect
%I b 65535
1 0 0 [] 0 SetB
%I cfg Brown
0.644541 0.164065 0.164065 SetCFg
%I cbg Black
0 0 0 SetCBg
%I p
1 SetP
%I t
[ 1 0 0 1 383 -1 ] concat
%I
189 604 195 610 Rect
End

Begin %I Rect
%I b 65535
1 0 0 [] 0 SetB
%I cfg Brown
0.644541 0.164065 0.164065 SetCFg
%I cbg Black
0 0 0 SetCBg
%I p
1 SetP
%I t
[ 1 0 0 1 394 -1 ] concat
%I
189 604 195 610 Rect
End

End %I eop

End %I eop

Begin %I Rect
%I b 65535
1 0 0 [] 0 SetB
%I cfg Black
0 0 0 SetCFg
%I cbg Black
0 0 0 SetCBg
%I p
1 SetP
%I t
[ 0.53312 0 0 1.66667 -127.226 -406 ] concat
%I
185 609 588 612 Rect
End

Begin %I Pict
%I b u
%I cfg u
%I cbg u
%I f u
%I p u
%I t
[ 1.40099 0 0 1 -272.248 -1 ] concat

Begin %I Rect
%I b 65535
1 0 0 [] 0 SetB
%I cfg Brown
0.644541 0.164065 0.164065 SetCFg
%I cbg Black
0 0 0 SetCBg
%I p
1 SetP
%I t u
%I
189 604 195 610 Rect
End

Begin %I Rect
%I b 65535
1 0 0 [] 0 SetB
%I cfg Brown
0.644541 0.164065 0.164065 SetCFg
%I cbg Black
0 0 0 SetCBg
%I p
1 SetP
%I t
[ 1 0 0 1 11 0 ] concat
%I
189 604 195 610 Rect
End

Begin %I Rect
%I b 65535
1 0 0 [] 0 SetB
%I cfg Brown
0.644541 0.164065 0.164065 SetCFg
%I cbg Black
0 0 0 SetCBg
%I p
1 SetP
%I t
[ 1 0 0 1 22 0 ] concat
%I
189 604 195 610 Rect
End

Begin %I Rect
%I b 65535
1 0 0 [] 0 SetB
%I cfg Brown
0.644541 0.164065 0.164065 SetCFg
%I cbg Black
0 0 0 SetCBg
%I p
1 SetP
%I t
[ 1 0 0 1 33 0 ] concat
%I
189 604 195 610 Rect
End

Begin %I Rect
%I b 65535
1 0 0 [] 0 SetB
%I cfg Brown
0.644541 0.164065 0.164065 SetCFg
%I cbg Black
0 0 0 SetCBg
%I p
1 SetP
%I t
[ 1 0 0 1 45 0 ] concat
%I
189 604 195 610 Rect
End

Begin %I Rect
%I b 65535
1 0 0 [] 0 SetB
%I cfg Brown
0.644541 0.164065 0.164065 SetCFg
%I cbg Black
0 0 0 SetCBg
%I p
1 SetP
%I t
[ 1 0 0 1 57 0 ] concat
%I
189 604 195 610 Rect
End

Begin %I Rect
%I b 65535
1 0 0 [] 0 SetB
%I cfg Brown
0.644541 0.164065 0.164065 SetCFg
%I cbg Black
0 0 0 SetCBg
%I p
1 SetP
%I t
[ 1 0 0 1 69 0 ] concat
%I
189 604 195 610 Rect
End

Begin %I Rect
%I b 65535
1 0 0 [] 0 SetB
%I cfg Brown
0.644541 0.164065 0.164065 SetCFg
%I cbg Black
0 0 0 SetCBg
%I p
1 SetP
%I t
[ 1 0 0 1 81 0 ] concat
%I
189 604 195 610 Rect
End

Begin %I Rect
%I b 65535
1 0 0 [] 0 SetB
%I cfg Brown
0.644541 0.164065 0.164065 SetCFg
%I cbg Black
0 0 0 SetCBg
%I p
1 SetP
%I t
[ 1 0 0 1 93 0 ] concat
%I
189 604 195 610 Rect
End

Begin %I Rect
%I b 65535
1 0 0 [] 0 SetB
%I cfg Brown
0.644541 0.164065 0.164065 SetCFg
%I cbg Black
0 0 0 SetCBg
%I p
1 SetP
%I t
[ 1 0 0 1 105 0 ] concat
%I
189 604 195 610 Rect
End

Begin %I Rect
%I b 65535
1 0 0 [] 0 SetB
%I cfg Brown
0.644541 0.164065 0.164065 SetCFg
%I cbg Black
0 0 0 SetCBg
%I p
1 SetP
%I t
[ 1 0 0 1 116 0 ] concat
%I
189 604 195 610 Rect
End

Begin %I Rect
%I b 65535
1 0 0 [] 0 SetB
%I cfg Brown
0.644541 0.164065 0.164065 SetCFg
%I cbg Black
0 0 0 SetCBg
%I p
1 SetP
%I t
[ 1 0 0 1 128 0 ] concat
%I
189 604 195 610 Rect
End

End %I eop

Begin %I Rect
%I b 65535
1 0 0 [] 0 SetB
%I cfg Brown
0.644541 0.164065 0.164065 SetCFg
%I cbg Black
0 0 0 SetCBg
%I p
1 SetP
%I t
[ 1.40099 0 0 1 -286.51 -1 ] concat
%I
189 604 195 610 Rect
End

End %I eop

End %I eop

showpage

%%Trailer

end
