[schematic2]
uniq 658
[tools]
[detail]
w 130 1515 100 0 n#657 elongouts.elongouts#587.OUT 128 1504 192 1504 hwout.hwout#590.outp
w 1602 1963 100 0 n#655 hwin.hwin#36.in 1376 1920 1408 1920 1408 1952 1856 1952 egenSubD.$(cc)MrgCarG.INPL
w 1618 1931 100 0 n#654 hwin.hwin#493.in 1376 1856 1440 1856 1440 1920 1856 1920 egenSubD.$(cc)MrgCarG.INPM
w -316 27 100 0 n#653 ecad2.$(cc)datum.OUTA -416 -128 -320 -128 -320 192 -256 192 egenSubB.egenSubB#645.A
w -1230 -1941 100 0 n#652 ecad2.$(cc)abort.VAL -2272 32 -2240 32 -2240 96 -832 96 -832 -736 1280 -736 1280 -576 2848 -576 2848 -1728 1024 -1728 1024 -1952 -3424 -1952 -3424 288 -3168 288 eapply.$(cc)applyCMD.INPE
w -1230 -1917 100 0 n#651 ecad2.$(cc)abort.MESS -2272 0 -2208 0 -2208 64 -864 64 -864 -768 1312 -768 1312 -608 2816 -608 2816 -1696 992 -1696 992 -1920 -3392 -1920 -3392 256 -3168 256 eapply.$(cc)applyCMD.INME
w -2020 891 100 0 n#643 ecad2.$(cc)test.OUTA -2112 704 -2016 704 -2016 1088 -1952 1088 egenSubB.egenSubB#632.A
w 66 515 100 0 n#622 ecad2.$(cc)init.STLK -256 512 448 512 448 448 544 448 egenSubB.egenSubB#572.SLNK
w 66 771 100 0 n#621 ecad2.$(cc)init.OUTA -256 768 448 768 448 1152 544 1152 egenSubB.egenSubB#572.A
w -414 1251 100 0 n#611 ecad2.ecad2#464.MESS 1504 96 1568 96 1568 384 2656 384 2656 1248 -3424 1248 -3424 384 -3168 384 eapply.$(cc)applyCMD.INMC
w -414 1219 100 0 n#610 ecad2.ecad2#464.VAL 1504 128 1536 128 1536 416 2624 416 2624 1216 -3392 1216 -3392 416 -3168 416 eapply.$(cc)applyCMD.INPC
w -686 -829 100 0 n#607 eapply.$(cc)applyCMD.OUTF -2784 224 -2688 224 -2688 -800 -2304 -800 -2304 -832 992 -832 ecad2.$(cc)stop.DIR
w -2172 -85 100 0 n#606 ecad2.$(cc)abort.VALA -2272 -160 -2176 -160 -2176 0 -2080 0 egenSubB.egenSubB#604.A
w -2172 -581 100 0 n#605 ecad2.$(cc)abort.STLK -2272 -448 -2176 -448 -2176 -704 -2080 -704 egenSubB.egenSubB#604.SLNK
w -222 1547 100 0 n#589 elongins.$(cc)heartbeat.FLNK -288 1600 -256 1600 -256 1536 -128 1536 elongouts.elongouts#587.SLNK
w -238 1579 100 0 n#588 elongins.$(cc)heartbeat.VAL -288 1568 -128 1568 elongouts.elongouts#587.DOL
w 1522 -341 100 0 n#586 ecad2.ecad2#464.STLK 1504 -352 1600 -352 1600 -384 1696 -384 egenSubB.egenSubB#575.SLNK
w 1404 -933 100 0 n#646 ecad2.$(cc)stop.OUTA 1312 -1056 1408 -1056 1408 -800 1568 -800 egenSubB.egenSubB#582.A
w 1404 -1413 100 0 n#650 ecad2.$(cc)stop.STLK 1312 -1312 1408 -1312 1408 -1504 1568 -1504 egenSubB.egenSubB#582.SLNK
w 2306 1859 100 0 n#580 egenSubD.$(cc)MrgCarG.OUTE 2144 2016 2240 2016 2240 1856 2432 1856 hwout.hwout#578.outp
w 2268 1995 100 0 n#579 egenSubD.$(cc)MrgCarG.OUTD 2144 2080 2272 2080 2272 1920 2432 1920 hwout.hwout#577.outp
w 1596 107 100 0 n#576 ecad2.ecad2#464.OUTA 1504 -96 1600 -96 1600 320 1696 320 egenSubB.egenSubB#575.A
w -734 1283 100 0 n#623 ecad2.$(cc)init.VALB -256 736 416 736 416 1280 -1824 1280 -1824 1408 -1472 1408 ecalcs.ecalcs#566.SDIS
w -644 1523 100 0 n#570 elongouts.elongouts#568.OUT -704 1472 -640 1472 -640 1584 -544 1584 elongins.$(cc)heartbeat.SLNK
w -1060 1579 100 0 n#569 ecalcs.ecalcs#566.FLNK -1184 1664 -1056 1664 -1056 1504 -960 1504 elongouts.elongouts#568.SLNK
w -1054 1539 100 0 n#567 junction -1120 1632 -1088 1632 -1088 1536 -960 1536 elongouts.elongouts#568.DOL
w -1374 1891 100 0 n#567 ecalcs.ecalcs#566.VAL -1184 1632 -1120 1632 -1120 1888 -1568 1888 -1568 1824 -1472 1824 ecalcs.ecalcs#566.INPA
w -1212 2331 100 0 n#563 egenSubB.egenSubB#529.OUTI -1344 2464 -1216 2464 -1216 2208 -960 2208 hwout.hwout#539.outp
w -1180 2379 100 0 n#562 egenSubB.egenSubB#529.OUTH -1344 2496 -1184 2496 -1184 2272 -960 2272 hwout.hwout#538.outp
w -1278 2531 100 0 n#561 egenSubB.egenSubB#529.OUTG -1344 2528 -1152 2528 -1152 2336 -960 2336 hwout.hwout#537.outp
w -1262 2563 100 0 n#560 egenSubB.egenSubB#529.OUTF -1344 2560 -1120 2560 -1120 2400 -960 2400 hwout.hwout#536.outp
w -1246 2595 100 0 n#559 egenSubB.egenSubB#529.OUTE -1344 2592 -1088 2592 -1088 2464 -960 2464 hwout.hwout#535.outp
w -1230 2627 100 0 n#558 egenSubB.egenSubB#529.OUTD -1344 2624 -1056 2624 -1056 2528 -960 2528 hwout.hwout#534.outp
w -1214 2659 100 0 n#557 egenSubB.egenSubB#529.OUTC -1344 2656 -1024 2656 -1024 2592 -960 2592 hwout.hwout#533.outp
w -1198 2691 100 0 n#556 egenSubB.egenSubB#529.OUTB -1344 2688 -992 2688 -992 2656 -960 2656 hwout.hwout#532.outp
w -1182 2723 100 0 n#555 egenSubB.egenSubB#529.OUTA -1344 2720 -960 2720 hwout.hwout#531.outp
w 2290 2283 100 0 n#528 egenSubD.$(cc)MrgCarG.OUTB 2144 2208 2208 2208 2208 2240 2272 2240 2272 2272 2368 2272 ecars.$(cc)applyC.IVAL
w 2274 2219 100 0 n#527 egenSubD.$(cc)MrgCarG.OUTA 2144 2272 2240 2272 2240 2208 2368 2208 ecars.$(cc)applyC.IMSS
w 1474 1475 100 0 n#524 hwin.hwin#496.in 1376 1472 1632 1472 1632 1728 1856 1728 egenSubD.$(cc)MrgCarG.INPS
w 1698 1763 100 0 n#523 hwin.hwin#39.in 1376 1536 1600 1536 1600 1760 1856 1760 egenSubD.$(cc)MrgCarG.INPR
w 1682 1795 100 0 n#522 hwin.hwin#495.in 1376 1600 1568 1600 1568 1792 1856 1792 egenSubD.$(cc)MrgCarG.INPQ
w 1666 1827 100 0 n#521 hwin.hwin#38.in 1376 1664 1536 1664 1536 1824 1856 1824 egenSubD.$(cc)MrgCarG.INPP
w 1650 1859 100 0 n#520 hwin.hwin#494.in 1376 1728 1504 1728 1504 1856 1856 1856 egenSubD.$(cc)MrgCarG.INPO
w 1634 1891 100 0 n#519 hwin.hwin#37.in 1376 1792 1472 1792 1472 1888 1856 1888 egenSubD.$(cc)MrgCarG.INPN
w 1474 2563 100 0 n#516 hwin.hwin#47.in 1376 2560 1632 2560 1632 2304 1856 2304 egenSubD.$(cc)MrgCarG.INPA
w 1698 2275 100 0 n#515 hwin.hwin#488.in 1376 2496 1600 2496 1600 2272 1856 2272 egenSubD.$(cc)MrgCarG.INPB
w 1682 2243 100 0 n#514 hwin.hwin#32.in 1376 2432 1568 2432 1568 2240 1856 2240 egenSubD.$(cc)MrgCarG.INPC
w 1666 2211 100 0 n#513 hwin.hwin#489.in 1376 2368 1536 2368 1536 2208 1856 2208 egenSubD.$(cc)MrgCarG.INPD
w 1650 2179 100 0 n#512 hwin.hwin#33.in 1376 2304 1504 2304 1504 2176 1856 2176 egenSubD.$(cc)MrgCarG.INPE
w 1634 2147 100 0 n#511 hwin.hwin#490.in 1376 2240 1472 2240 1472 2144 1856 2144 egenSubD.$(cc)MrgCarG.INPF
w 1618 2115 100 0 n#510 hwin.hwin#34.in 1376 2176 1440 2176 1440 2112 1856 2112 egenSubD.$(cc)MrgCarG.INPG
w 1602 2083 100 0 n#509 hwin.hwin#491.in 1376 2112 1408 2112 1408 2080 1856 2080 egenSubD.$(cc)MrgCarG.INPH
w 1586 2051 100 0 n#508 hwin.hwin#35.in 1376 2048 1856 2048 egenSubD.$(cc)MrgCarG.INPI
w -1230 -2013 100 0 n#480 ecad2.$(cc)datum.VAL -416 96 -384 96 -384 288 1056 288 1056 -512 2912 -512 2912 -1792 1088 -1792 1088 -2016 -3488 -2016 -3488 352 -3168 352 eapply.$(cc)applyCMD.INPD
w -1230 -1981 100 0 n#479 ecad2.$(cc)datum.MESS -416 64 -352 64 -352 256 1024 256 1024 -544 2880 -544 2880 -1760 1056 -1760 1056 -1984 -3456 -1984 -3456 320 -3168 320 eapply.$(cc)applyCMD.INMD
w -1646 227 100 0 n#476 eapply.$(cc)applyCMD.OUTC -2784 416 -2592 416 -2592 224 -640 224 -640 320 1152 320 1152 128 1184 128 ecad2.ecad2#464.DIR
w 2108 -69 100 0 n#451 egenSubB.egenSubB#575.OUTI 1984 64 2112 64 2112 -192 2368 -192 hwout.hwout#463.outp
w 2140 -21 100 0 n#450 egenSubB.egenSubB#575.OUTH 1984 96 2144 96 2144 -128 2368 -128 hwout.hwout#455.outp
w 2050 131 100 0 n#449 egenSubB.egenSubB#575.OUTG 1984 128 2176 128 2176 -64 2368 -64 hwout.hwout#456.outp
w 2066 163 100 0 n#448 egenSubB.egenSubB#575.OUTF 1984 160 2208 160 2208 0 2368 0 hwout.hwout#457.outp
w 2082 195 100 0 n#447 egenSubB.egenSubB#575.OUTE 1984 192 2240 192 2240 64 2368 64 hwout.hwout#458.outp
w 2146 323 100 0 n#446 egenSubB.egenSubB#575.OUTA 1984 320 2368 320 hwout.hwout#462.outp
w 2130 291 100 0 n#445 egenSubB.egenSubB#575.OUTB 1984 288 2336 288 2336 256 2368 256 hwout.hwout#461.outp
w 2114 259 100 0 n#444 egenSubB.egenSubB#575.OUTC 1984 256 2304 256 2304 192 2368 192 hwout.hwout#460.outp
w 2098 227 100 0 n#443 egenSubB.egenSubB#575.OUTD 1984 224 2272 224 2272 128 2368 128 hwout.hwout#459.outp
w -1230 -1885 100 0 n#410 ecad2.$(cc)stop.VAL 1312 -832 1344 -832 1344 -640 2784 -640 2784 -1664 960 -1664 960 -1888 -3360 -1888 -3360 224 -3168 224 eapply.$(cc)applyCMD.INPF
w -1230 -1853 100 0 n#409 ecad2.$(cc)stop.MESS 1312 -864 1376 -864 1376 -672 2752 -672 2752 -1632 928 -1632 928 -1856 -3328 -1856 -3328 192 -3168 192 eapply.$(cc)applyCMD.INMF
w -1230 -1821 100 0 n#408 eapply.$(cc)apply.VAL -1888 -1024 -1504 -1024 -1504 -896 896 -896 896 -1824 -3296 -1824 -3296 160 -3168 160 eapply.$(cc)applyCMD.INPG
w -1230 -1789 100 0 n#407 eapply.$(cc)apply.MESS -1888 -1056 -1472 -1056 -1472 -928 864 -928 864 -1792 -3264 -1792 -3264 128 -3168 128 eapply.$(cc)applyCMD.INMG
w -1518 1187 100 0 n#628 ecad2.$(cc)init.MESS -256 960 384 960 384 1184 -3360 1184 -3360 448 -3168 448 eapply.$(cc)applyCMD.INMB
w -1518 1155 100 0 n#631 ecad2.$(cc)init.VAL -256 992 352 992 352 1152 -3328 1152 -3328 480 -3168 480 eapply.$(cc)applyCMD.INPB
w -2702 1027 100 0 n#642 ecad2.$(cc)test.MESS -2112 896 -2048 896 -2048 1024 -3296 1024 -3296 512 -3168 512 eapply.$(cc)applyCMD.INMA
w -2702 995 100 0 n#639 ecad2.$(cc)test.VAL -2112 928 -2080 928 -2080 992 -3264 992 -3264 544 -3168 544 eapply.$(cc)applyCMD.INPA
w -2724 -341 100 0 n#603 eapply.$(cc)applyCMD.OUTG -2784 160 -2720 160 -2720 -832 -2336 -832 -2336 -1024 -2272 -1024 eapply.$(cc)apply.DIR
w -2660 155 100 0 n#400 eapply.$(cc)applyCMD.OUTE -2784 288 -2656 288 -2656 32 -2592 32 ecad2.$(cc)abort.DIR
w -1742 131 100 0 n#399 eapply.$(cc)applyCMD.OUTD -2784 352 -2624 352 -2624 128 -800 128 -800 96 -736 96 ecad2.$(cc)datum.DIR
w -1630 259 100 0 n#398 eapply.$(cc)applyCMD.OUTB -2784 480 -2528 480 -2528 256 -672 256 -672 992 -576 992 ecad2.$(cc)init.DIR
w -2532 731 100 0 n#635 eapply.$(cc)applyCMD.OUTA -2784 544 -2528 544 -2528 928 -2432 928 ecad2.$(cc)test.DIR
w -798 -1757 100 0 n#396 eapply.$(cc)apply2.VAL 64 -1024 832 -1024 832 -1760 -2368 -1760 -2368 -1568 -2272 -1568 eapply.$(cc)apply.INPH
w -798 -1725 100 0 n#395 eapply.$(cc)apply2.MESS 64 -1056 800 -1056 800 -1728 -2336 -1728 -2336 -1600 -2272 -1600 eapply.$(cc)apply.INMH
w -798 -957 100 0 n#394 eapply.$(cc)apply.OUTH -1888 -1568 -1152 -1568 -1152 -960 -384 -960 -384 -1024 -320 -1024 eapply.$(cc)apply2.DIR
w -1668 -389 100 0 n#391 egenSubB.egenSubB#604.OUTI -1792 -256 -1664 -256 -1664 -512 -1408 -512 hwout.hwout#370.outp
w -1636 -341 100 0 n#390 egenSubB.egenSubB#604.OUTH -1792 -224 -1632 -224 -1632 -448 -1408 -448 hwout.hwout#362.outp
w -1726 -189 100 0 n#389 egenSubB.egenSubB#604.OUTG -1792 -192 -1600 -192 -1600 -384 -1408 -384 hwout.hwout#363.outp
w -1710 -157 100 0 n#388 egenSubB.egenSubB#604.OUTF -1792 -160 -1568 -160 -1568 -320 -1408 -320 hwout.hwout#364.outp
w -1694 -125 100 0 n#387 egenSubB.egenSubB#604.OUTE -1792 -128 -1536 -128 -1536 -256 -1408 -256 hwout.hwout#365.outp
w -1630 3 100 0 n#386 egenSubB.egenSubB#604.OUTA -1792 0 -1408 0 hwout.hwout#369.outp
w -1646 -29 100 0 n#385 egenSubB.egenSubB#604.OUTB -1792 -32 -1440 -32 -1440 -64 -1408 -64 hwout.hwout#368.outp
w -1662 -61 100 0 n#384 egenSubB.egenSubB#604.OUTC -1792 -64 -1472 -64 -1472 -128 -1408 -128 hwout.hwout#367.outp
w -1678 -93 100 0 n#383 egenSubB.egenSubB#604.OUTD -1792 -96 -1504 -96 -1504 -192 -1408 -192 hwout.hwout#366.outp
w 1970 -893 100 0 n#336 egenSubB.egenSubB#582.OUTD 1856 -896 2144 -896 2144 -928 2208 -928 hwout.hwout#353.outp
w 2002 -861 100 0 n#335 egenSubB.egenSubB#582.OUTC 1856 -864 2208 -864 hwout.hwout#352.outp
w 1954 -829 100 0 n#334 egenSubB.egenSubB#582.OUTB 1856 -832 2112 -832 2112 -800 2208 -800 hwout.hwout#351.outp
w 1938 -797 100 0 n#333 egenSubB.egenSubB#582.OUTA 1856 -800 2080 -800 2080 -736 2208 -736 hwout.hwout#350.outp
w 1954 -925 100 0 n#332 egenSubB.egenSubB#582.OUTE 1856 -928 2112 -928 2112 -992 2208 -992 hwout.hwout#354.outp
w 1938 -957 100 0 n#331 egenSubB.egenSubB#582.OUTF 1856 -960 2080 -960 2080 -1056 2208 -1056 hwout.hwout#355.outp
w 1922 -989 100 0 n#330 egenSubB.egenSubB#582.OUTG 1856 -992 2048 -992 2048 -1120 2208 -1120 hwout.hwout#356.outp
w 2082 -1181 100 0 n#329 egenSubB.egenSubB#582.OUTH 1856 -1024 2016 -1024 2016 -1184 2208 -1184 hwout.hwout#357.outp
w 2066 -1245 100 0 n#327 egenSubB.egenSubB#582.OUTI 1856 -1056 1984 -1056 1984 -1248 2208 -1248 hwout.hwout#349.outp
w 1154 675 100 0 n#323 egenSubB.egenSubB#572.OUTI 832 896 1056 896 1056 672 1312 672 hwout.hwout#302.outp
w 930 931 100 0 n#322 egenSubB.egenSubB#572.OUTH 832 928 1088 928 1088 736 1312 736 hwout.hwout#294.outp
w 946 963 100 0 n#321 egenSubB.egenSubB#572.OUTG 832 960 1120 960 1120 800 1312 800 hwout.hwout#295.outp
w 962 995 100 0 n#320 egenSubB.egenSubB#572.OUTF 832 992 1152 992 1152 864 1312 864 hwout.hwout#296.outp
w 978 1027 100 0 n#319 egenSubB.egenSubB#572.OUTE 832 1024 1184 1024 1184 928 1312 928 hwout.hwout#297.outp
w 978 1155 100 0 n#318 egenSubB.egenSubB#572.OUTA 832 1152 1184 1152 1184 1184 1312 1184 hwout.hwout#301.outp
w 1042 1123 100 0 n#317 egenSubB.egenSubB#572.OUTB 832 1120 1312 1120 hwout.hwout#300.outp
w 1010 1091 100 0 n#316 egenSubB.egenSubB#572.OUTC 832 1088 1248 1088 1248 1056 1312 1056 hwout.hwout#299.outp
w 994 1059 100 0 n#315 egenSubB.egenSubB#572.OUTD 832 1056 1216 1056 1216 992 1312 992 hwout.hwout#298.outp
w -1534 995 100 0 n#268 egenSubB.egenSubB#632.OUTD -1664 992 -1344 992 -1344 896 -1248 896 hwout.hwout#285.outp
w -1518 1027 100 0 n#267 egenSubB.egenSubB#632.OUTC -1664 1024 -1312 1024 -1312 960 -1248 960 hwout.hwout#284.outp
w -1502 1059 100 0 n#266 egenSubB.egenSubB#632.OUTB -1664 1056 -1280 1056 -1280 1024 -1248 1024 hwout.hwout#283.outp
w -1486 1091 100 0 n#265 egenSubB.egenSubB#632.OUTA -1664 1088 -1248 1088 hwout.hwout#282.outp
w -1550 963 100 0 n#264 egenSubB.egenSubB#632.OUTE -1664 960 -1376 960 -1376 832 -1248 832 hwout.hwout#286.outp
w -1566 931 100 0 n#263 egenSubB.egenSubB#632.OUTF -1664 928 -1408 928 -1408 768 -1248 768 hwout.hwout#287.outp
w -1582 899 100 0 n#261 egenSubB.egenSubB#632.OUTG -1664 896 -1440 896 -1440 704 -1248 704 hwout.hwout#288.outp
w -1476 747 100 0 n#259 egenSubB.egenSubB#632.OUTH -1664 864 -1472 864 -1472 640 -1248 640 hwout.hwout#289.outp
w -1508 699 100 0 n#260 egenSubB.egenSubB#632.OUTI -1664 832 -1504 832 -1504 576 -1248 576 hwout.hwout#281.outp
w -2094 451 100 0 n#638 ecad2.$(cc)test.STLK -2112 448 -2016 448 -2016 384 -1952 384 egenSubB.egenSubB#632.SLNK
w -414 -1117 100 0 n#252 hwin.hwin#216.in -544 -1024 -448 -1024 -448 -1120 -320 -1120 eapply.$(cc)apply2.INPA
w -430 -1149 100 0 n#251 hwin.hwin#217.in -544 -1088 -480 -1088 -480 -1152 -320 -1152 eapply.$(cc)apply2.INMA
w -446 -1181 100 0 n#250 hwin.hwin#218.in -544 -1152 -512 -1152 -512 -1184 -320 -1184 eapply.$(cc)apply2.INPB
w -462 -1213 100 0 n#249 hwin.hwin#219.in -544 -1216 -320 -1216 eapply.$(cc)apply2.INMB
w -2526 -1725 100 0 n#248 hwin.hwin#226.in -2592 -1728 -2400 -1728 -2400 -1536 -2272 -1536 eapply.$(cc)apply.INMG
w -2542 -1661 100 0 n#247 hwin.hwin#225.in -2592 -1664 -2432 -1664 -2432 -1504 -2272 -1504 eapply.$(cc)apply.INPG
w -2398 -1469 100 0 n#246 hwin.hwin#224.in -2592 -1600 -2464 -1600 -2464 -1472 -2272 -1472 eapply.$(cc)apply.INMF
w -2414 -1437 100 0 n#245 hwin.hwin#223.in -2592 -1536 -2496 -1536 -2496 -1440 -2272 -1440 eapply.$(cc)apply.INPF
w -2430 -1405 100 0 n#244 hwin.hwin#222.in -2592 -1472 -2528 -1472 -2528 -1408 -2272 -1408 eapply.$(cc)apply.INME
w -2446 -1373 100 0 n#243 hwin.hwin#221.in -2592 -1408 -2560 -1408 -2560 -1376 -2272 -1376 eapply.$(cc)apply.INPE
w -2510 -893 100 0 n#242 hwin.hwin#209.in -2592 -896 -2368 -896 -2368 -1120 -2272 -1120 eapply.$(cc)apply.INPA
w -2526 -957 100 0 n#241 hwin.hwin#210.in -2592 -960 -2400 -960 -2400 -1152 -2272 -1152 eapply.$(cc)apply.INMA
w -2542 -1021 100 0 n#240 hwin.hwin#211.in -2592 -1024 -2432 -1024 -2432 -1184 -2272 -1184 eapply.$(cc)apply.INPB
w -2398 -1213 100 0 n#239 hwin.hwin#212.in -2592 -1088 -2464 -1088 -2464 -1216 -2272 -1216 eapply.$(cc)apply.INMB
w -2414 -1245 100 0 n#238 hwin.hwin#213.in -2592 -1152 -2496 -1152 -2496 -1248 -2272 -1248 eapply.$(cc)apply.INPC
w -2430 -1277 100 0 n#237 hwin.hwin#214.in -2592 -1216 -2528 -1216 -2528 -1280 -2272 -1280 eapply.$(cc)apply.INMC
w -2446 -1309 100 0 n#236 hwin.hwin#215.in -2592 -1280 -2560 -1280 -2560 -1312 -2272 -1312 eapply.$(cc)apply.INPD
w -2462 -1341 100 0 n#235 hwin.hwin#220.in -2592 -1344 -2272 -1344 eapply.$(cc)apply.INMD
w 82 -1181 100 0 n#206 eapply.$(cc)apply2.OUTB 64 -1184 160 -1184 hwout.hwout#188.outp
w 82 -1117 100 0 n#205 eapply.$(cc)apply2.OUTA 64 -1120 160 -1120 hwout.hwout#187.outp
w -1870 -1501 100 0 n#203 eapply.$(cc)apply.OUTG -1888 -1504 -1792 -1504 hwout.hwout#186.outp
w -1870 -1437 100 0 n#202 eapply.$(cc)apply.OUTF -1888 -1440 -1792 -1440 hwout.hwout#185.outp
w -1870 -1373 100 0 n#201 eapply.$(cc)apply.OUTE -1888 -1376 -1792 -1376 hwout.hwout#184.outp
w -1870 -1309 100 0 n#200 eapply.$(cc)apply.OUTD -1888 -1312 -1792 -1312 hwout.hwout#183.outp
w -1870 -1245 100 0 n#199 eapply.$(cc)apply.OUTC -1888 -1248 -1792 -1248 hwout.hwout#182.outp
w -1870 -1181 100 0 n#198 eapply.$(cc)apply.OUTB -1888 -1184 -1792 -1184 hwout.hwout#181.outp
w -1870 -1117 100 0 n#197 eapply.$(cc)apply.OUTA -1888 -1120 -1792 -1120 hwout.hwout#180.outp
w 184 99 100 0 n#72 egenSubB.egenSubB#645.OUTD 32 96 384 96 384 32 448 32 hwout.hwout#24.outp
w 200 131 100 0 n#71 egenSubB.egenSubB#645.OUTC 32 128 416 128 416 96 448 96 hwout.hwout#23.outp
w 216 163 100 0 n#70 egenSubB.egenSubB#645.OUTB 32 160 448 160 hwout.hwout#22.outp
w 152 195 100 0 n#69 egenSubB.egenSubB#645.OUTA 32 192 320 192 320 224 448 224 hwout.hwout#21.outp
w 168 67 100 0 n#68 egenSubB.egenSubB#645.OUTE 32 64 352 64 352 -32 448 -32 hwout.hwout#25.outp
w 152 35 100 0 n#67 egenSubB.egenSubB#645.OUTF 32 32 320 32 320 -96 448 -96 hwout.hwout#26.outp
w 136 3 100 0 n#66 egenSubB.egenSubB#645.OUTG 32 0 288 0 288 -160 448 -160 hwout.hwout#27.outp
w 120 -29 100 0 n#65 egenSubB.egenSubB#645.OUTH 32 -32 256 -32 256 -224 448 -224 hwout.hwout#28.outp
w 220 -181 100 0 n#64 egenSubB.egenSubB#645.OUTI 32 -64 224 -64 224 -288 448 -288 hwout.hwout#20.outp
w 1592 1987 100 0 n#58 hwin.hwin#492.in 1376 1984 1856 1984 egenSubD.$(cc)MrgCarG.INPK
w -324 -453 100 0 n#74 ecad2.$(cc)datum.STLK -416 -384 -320 -384 -320 -512 -256 -512 egenSubB.egenSubB#645.SLNK
s -1840 2432 120 0 debug level
s 2003 -1907 285 0 cc14.sch 2/13/2002 1:20 PM EST
s -1858 1419 100 0 1 (SIMM NONE, SIMM FULL)
s -1815 1388 100 0 0 (SIMM FAST)
[cell use]
use estringins -2240 1639 100 0 estringins#656
xform 0 -2112 1712
p -2128 1632 100 1024 -1 name:$(cc)log
use egenSubB 1696 -473 100 0 egenSubB#575
xform 0 1840 -48
p 1539 267 100 0 0 DESC:Passes Park String to Motors
p 1473 -699 100 0 0 FTA:STRING
p 1473 -955 100 0 0 FTJ:STRING
p 1473 -699 100 0 0 FTVA:STRING
p 1473 -699 100 0 0 FTVB:STRING
p 1473 -731 100 0 0 FTVC:STRING
p 1473 -763 100 0 0 FTVD:STRING
p 1473 -795 100 0 0 FTVE:STRING
p 1473 -859 100 0 0 FTVF:STRING
p 1473 -859 100 0 0 FTVG:STRING
p 1473 -891 100 0 0 FTVH:STRING
p 1473 -923 100 0 0 FTVI:STRING
p 1473 -955 100 0 0 FTVJ:STRING
p 1408 -98 100 0 0 SNAM:ufccparkSproc
p 1808 -480 100 1024 -1 name:$(cc)parkS
p 1984 330 75 0 -1 pproc(OUTA):PP
p 1984 298 75 0 -1 pproc(OUTB):PP
p 1984 266 75 0 -1 pproc(OUTC):PP
p 1984 234 75 0 -1 pproc(OUTD):PP
p 1984 202 75 0 -1 pproc(OUTE):PP
p 1984 170 75 0 -1 pproc(OUTF):PP
p 1984 138 75 0 -1 pproc(OUTG):PP
p 1984 106 75 0 -1 pproc(OUTH):PP
p 1984 74 75 0 -1 pproc(OUTI):PP
p 1984 42 75 0 -1 pproc(OUTJ):PP
use egenSubB 544 359 100 0 egenSubB#572
xform 0 688 784
p 387 1099 100 0 0 DESC:Passes INIT String to motors
p 321 133 100 0 0 FTA:STRING
p 321 -123 100 0 0 FTJ:STRING
p 321 133 100 0 0 FTVA:STRING
p 321 133 100 0 0 FTVB:STRING
p 321 101 100 0 0 FTVC:STRING
p 321 69 100 0 0 FTVD:STRING
p 321 37 100 0 0 FTVE:STRING
p 321 -27 100 0 0 FTVF:STRING
p 321 -27 100 0 0 FTVG:STRING
p 321 -59 100 0 0 FTVH:STRING
p 321 -91 100 0 0 FTVI:STRING
p 321 -123 100 0 0 FTVJ:STRING
p 256 734 100 0 0 SNAM:ufccinitSproc
p 656 352 100 1024 -1 name:$(cc)initS
p 832 1162 75 0 -1 pproc(OUTA):PP
p 832 1130 75 0 -1 pproc(OUTB):PP
p 832 1098 75 0 -1 pproc(OUTC):PP
p 832 1066 75 0 -1 pproc(OUTD):PP
p 832 1034 75 0 -1 pproc(OUTE):PP
p 832 1002 75 0 -1 pproc(OUTF):PP
p 832 970 75 0 -1 pproc(OUTG):PP
p 832 938 75 0 -1 pproc(OUTH):PP
p 832 906 75 0 -1 pproc(OUTI):PP
p 832 874 75 0 -1 pproc(OUTJ):PP
use egenSubB -1632 1927 100 0 egenSubB#529
xform 0 -1488 2352
p -1789 2667 100 0 0 DESC:CC Debug. Sets debug for all motors
p -1855 1701 100 0 0 FTA:STRING
p -1855 1445 100 0 0 FTJ:STRING
p -1855 1701 100 0 0 FTVA:STRING
p -1855 1701 100 0 0 FTVB:STRING
p -1855 1669 100 0 0 FTVC:STRING
p -1855 1637 100 0 0 FTVD:STRING
p -1855 1605 100 0 0 FTVE:STRING
p -1855 1541 100 0 0 FTVF:STRING
p -1855 1541 100 0 0 FTVG:STRING
p -1855 1509 100 0 0 FTVH:STRING
p -1855 1477 100 0 0 FTVI:STRING
p -1855 1445 100 0 0 FTVJ:STRING
p -1920 2302 100 0 0 SNAM:ufccdebugproc
p -1520 1920 100 1024 -1 name:$(cc)debug
p -1344 2730 75 0 -1 pproc(OUTA):PP
p -1344 2698 75 0 -1 pproc(OUTB):PP
p -1344 2666 75 0 -1 pproc(OUTC):PP
p -1344 2634 75 0 -1 pproc(OUTD):PP
p -1344 2602 75 0 -1 pproc(OUTE):PP
p -1344 2570 75 0 -1 pproc(OUTF):PP
p -1344 2538 75 0 -1 pproc(OUTG):PP
p -1344 2506 75 0 -1 pproc(OUTH):PP
p -1344 2474 75 0 -1 pproc(OUTI):PP
p -1344 2442 75 0 -1 pproc(OUTJ):PP
use egenSubB 1568 -1593 100 0 egenSubB#582
xform 0 1712 -1168
p 1411 -853 100 0 0 DESC:Passes Stop Message to Motors
p 1345 -1819 100 0 0 FTA:STRING
p 1345 -1819 100 0 0 FTVA:STRING
p 1345 -1819 100 0 0 FTVB:STRING
p 1345 -1851 100 0 0 FTVC:STRING
p 1345 -1883 100 0 0 FTVD:STRING
p 1345 -1915 100 0 0 FTVE:STRING
p 1345 -1979 100 0 0 FTVF:STRING
p 1345 -1979 100 0 0 FTVG:STRING
p 1345 -2011 100 0 0 FTVH:STRING
p 1345 -2043 100 0 0 FTVI:STRING
p 1345 -2075 100 0 0 FTVJ:STRING
p 1280 -1218 100 0 0 SNAM:ufccstopSproc
p 1680 -1600 100 1024 -1 name:$(cc)stopS
p 1856 -790 75 0 -1 pproc(OUTA):PP
p 1856 -822 75 0 -1 pproc(OUTB):PP
p 1856 -854 75 0 -1 pproc(OUTC):PP
p 1856 -886 75 0 -1 pproc(OUTD):PP
p 1856 -918 75 0 -1 pproc(OUTE):PP
p 1856 -950 75 0 -1 pproc(OUTF):PP
p 1856 -982 75 0 -1 pproc(OUTG):PP
p 1856 -1014 75 0 -1 pproc(OUTH):PP
p 1856 -1046 75 0 -1 pproc(OUTI):PP
p 1856 -1078 75 0 -1 pproc(OUTJ):PP
use egenSubB -2080 -793 100 0 egenSubB#604
xform 0 -1936 -368
p -2237 -53 100 0 0 DESC:Abort Sequencer
p -2303 -1019 100 0 0 FTA:STRING
p -2303 -1019 100 0 0 FTVA:STRING
p -2303 -1019 100 0 0 FTVB:STRING
p -2303 -1051 100 0 0 FTVC:STRING
p -2303 -1083 100 0 0 FTVD:STRING
p -2303 -1115 100 0 0 FTVE:STRING
p -2303 -1179 100 0 0 FTVF:STRING
p -2303 -1179 100 0 0 FTVG:STRING
p -2303 -1211 100 0 0 FTVH:STRING
p -2303 -1243 100 0 0 FTVI:STRING
p -2303 -1275 100 0 0 FTVJ:STRING
p -2368 -418 100 0 0 SNAM:ufccabortSproc
p -1968 -800 100 1024 -1 name:$(cc)abortS
p -1792 10 75 0 -1 pproc(OUTA):PP
p -1792 -22 75 0 -1 pproc(OUTB):PP
p -1792 -54 75 0 -1 pproc(OUTC):PP
p -1792 -86 75 0 -1 pproc(OUTD):PP
p -1792 -118 75 0 -1 pproc(OUTE):PP
p -1792 -150 75 0 -1 pproc(OUTF):PP
p -1792 -182 75 0 -1 pproc(OUTG):PP
p -1792 -214 75 0 -1 pproc(OUTH):PP
p -1792 -246 75 0 -1 pproc(OUTI):PP
p -1792 -278 75 0 -1 pproc(OUTJ):PP
use egenSubB -1952 295 100 0 egenSubB#632
xform 0 -1808 720
p -2175 69 100 0 0 FTA:STRING
p -2175 -187 100 0 0 FTO:DOUBLE
p -2175 69 100 0 0 FTVA:STRING
p -2175 69 100 0 0 FTVB:STRING
p -2175 37 100 0 0 FTVC:STRING
p -2175 5 100 0 0 FTVD:STRING
p -2175 -27 100 0 0 FTVE:STRING
p -2175 -91 100 0 0 FTVF:STRING
p -2175 -91 100 0 0 FTVG:STRING
p -2175 -123 100 0 0 FTVH:STRING
p -2175 -155 100 0 0 FTVI:STRING
p -2175 -187 100 0 0 FTVJ:STRING
p -2240 670 100 0 0 SNAM:ufcctestSproc
p -1840 288 100 1024 -1 name:$(cc)testS
p -1664 1098 75 0 -1 pproc(OUTA):PP
p -1664 1066 75 0 -1 pproc(OUTB):PP
p -1664 1034 75 0 -1 pproc(OUTC):PP
p -1664 1002 75 0 -1 pproc(OUTD):PP
p -1664 970 75 0 -1 pproc(OUTE):PP
p -1664 938 75 0 -1 pproc(OUTF):PP
p -1664 906 75 0 -1 pproc(OUTG):PP
p -1664 874 75 0 -1 pproc(OUTH):PP
p -1664 842 75 0 -1 pproc(OUTI):PP
p -1664 810 75 0 -1 pproc(OUTJ):PP
use egenSubB -256 -601 100 0 egenSubB#645
xform 0 -112 -176
p -479 -827 100 0 0 FTA:STRING
p -479 -1083 100 0 0 FTO:DOUBLE
p -479 -827 100 0 0 FTVA:STRING
p -479 -827 100 0 0 FTVB:STRING
p -479 -859 100 0 0 FTVC:STRING
p -479 -891 100 0 0 FTVD:STRING
p -479 -923 100 0 0 FTVE:STRING
p -479 -987 100 0 0 FTVF:STRING
p -479 -987 100 0 0 FTVG:STRING
p -479 -1019 100 0 0 FTVH:STRING
p -479 -1051 100 0 0 FTVI:STRING
p -479 -1083 100 0 0 FTVJ:STRING
p -544 -226 100 0 0 SNAM:ufccdaatumSproc
p -144 -608 100 1024 -1 name:$(cc)datumS
p 32 202 75 0 -1 pproc(OUTA):PP
p 32 170 75 0 -1 pproc(OUTB):PP
p 32 138 75 0 -1 pproc(OUTC):PP
p 32 106 75 0 -1 pproc(OUTD):PP
p 32 74 75 0 -1 pproc(OUTE):PP
p 32 42 75 0 -1 pproc(OUTF):PP
p 32 10 75 0 -1 pproc(OUTG):PP
p 32 -22 75 0 -1 pproc(OUTH):PP
p 32 -54 75 0 -1 pproc(OUTI):PP
p 32 -86 75 0 -1 pproc(OUTJ):PP
use elongouts -128 1447 100 0 elongouts#587
xform 0 0 1536
p -243 1881 100 0 0 DESC:CC Heartbeat Long out
p -112 1408 100 0 1 OMSL:closed_loop
p -16 1440 100 1024 -1 name:$(cc)heartbeatLO
p 128 1504 75 768 -1 pproc(OUT):PP
use elongouts -960 1415 100 0 elongouts#568
xform 0 -832 1504
p -1075 1849 100 0 0 DESC:Heartbeat in SIM FAST Mode
p -944 1376 100 0 1 OMSL:closed_loop
p -848 1408 100 1024 -1 name:$(cc)simHeartbeat
p -704 1472 75 768 -1 pproc(OUT):PP
use ecalcs -1472 1351 100 0 ecalcs#566
xform 0 -1328 1616
p -1472 1312 100 0 1 CALC:A+1
p -1679 1782 100 0 0 DESC:Starts the hearbeat in SIM FAST Mode
p -1760 1598 100 0 0 DISV:0
p -1760 1726 100 0 0 SCAN:1 second
p -1360 1344 100 1024 -1 name:$(cc)HeartbeatCALC
use trecsMotor -3328 2183 100 0 trecsMotor#593
xform 0 -3248 2288
p -3328 2144 100 0 1 setDelimiter:delim :
p -3328 2176 100 0 1 setDev:dev sectWhl
use trecsMotor -3008 2183 100 0 trecsMotor#594
xform 0 -2928 2288
p -3008 2144 100 0 1 setDelimiter:delim :
p -3008 2176 100 0 1 setDev:dev winChngr
use trecsMotor -2688 2183 100 0 trecsMotor#595
xform 0 -2608 2288
p -2688 2144 100 0 1 setDelimiter:delim :
p -2688 2176 100 0 1 setDev:dev aprtrWhl
use trecsMotor -2368 2183 100 0 trecsMotor#596
xform 0 -2288 2288
p -2368 2144 100 0 1 setDelimiter:delim :
p -2368 2176 100 0 1 setDev:dev fltrWhl1
use trecsMotor -2048 2183 100 0 trecsMotor#597
xform 0 -1968 2288
p -2048 2144 100 0 1 setDelimiter:delim :
p -2048 2176 100 0 1 setDev:dev lyotWhl
use trecsMotor -3328 1895 100 0 trecsMotor#598
xform 0 -3248 2000
p -3328 1856 100 0 1 setDelimiter:delim :
p -3328 1888 100 0 1 setDev:dev fltrWhl2
use trecsMotor -3008 1895 100 0 trecsMotor#599
xform 0 -2928 2000
p -3008 1856 100 0 1 setDelimiter:delim :
p -3008 1888 100 0 1 setDev:dev pplImg
use trecsMotor -2688 1895 100 0 trecsMotor#600
xform 0 -2608 2000
p -2688 1856 100 0 1 setDelimiter:delim :
p -2688 1888 100 0 1 setDev:dev slitWhl
use trecsMotor -2368 1895 100 0 trecsMotor#601
xform 0 -2288 2000
p -2368 1856 100 0 1 setDelimiter:delim :
p -2368 1888 100 0 1 setDev:dev grating
use hwout 192 1463 100 0 hwout#590
xform 0 288 1504
p 392 1496 100 0 -1 val(outp):$(sad)ccHeartbeat.VAL PP NMS
use hwout 2432 1815 100 0 hwout#578
xform 0 2528 1856
p 2632 1845 100 0 -1 val(outp):$(sad)ccState.VAL PP NMS
use hwout 2432 1879 100 0 hwout#577
xform 0 2528 1920
p 2632 1910 100 0 -1 val(outp):$(sad)ccHealth.VAL PP NMS
use hwout 448 -329 100 0 hwout#20
xform 0 544 -288
p 653 -298 100 0 -1 val(outp):$(cc)grating:datum.A PP NMS
use hwout 448 183 100 0 hwout#21
xform 0 544 224
p 653 216 100 0 -1 val(outp):$(cc)sectWhl:datum.A PP NMS
use hwout 448 119 100 0 hwout#22
xform 0 544 160
p 653 150 100 0 -1 val(outp):$(cc)winChngr:datum.A PP NMS
use hwout 448 55 100 0 hwout#23
xform 0 544 96
p 653 87 100 0 -1 val(outp):$(cc)aprtrWhl:datum.A PP NMS
use hwout 448 -9 100 0 hwout#24
xform 0 544 32
p 653 22 100 0 -1 val(outp):$(cc)fltrWhl1:datum.A PP NMS
use hwout 448 -73 100 0 hwout#25
xform 0 544 -32
p 653 -42 100 0 -1 val(outp):$(cc)lyotWhl:datum.A PP NMS
use hwout 448 -137 100 0 hwout#26
xform 0 544 -96
p 653 -103 100 0 -1 val(outp):$(cc)fltrWhl2:datum.A PP NMS
use hwout 448 -201 100 0 hwout#27
xform 0 544 -160
p 653 -172 100 0 -1 val(outp):$(cc)pplImg:datum.A PP NMS
use hwout 448 -265 100 0 hwout#28
xform 0 544 -224
p 653 -234 100 0 -1 val(outp):$(cc)slitWhl:datum.A PP NMS
use hwout -1792 -1161 100 0 hwout#180
xform 0 -1696 -1120
p -1591 -1127 100 0 -1 val(outp):$(cc)sectWhl:motorApply.DIR PP NMS
use hwout -1792 -1225 100 0 hwout#181
xform 0 -1696 -1184
p -1591 -1195 100 0 -1 val(outp):$(cc)winChngr:motorApply.DIR PP NMS
use hwout -1792 -1289 100 0 hwout#182
xform 0 -1696 -1248
p -1591 -1256 100 0 -1 val(outp):$(cc)aprtrWhl:motorApply.DIR PP NMS
use hwout -1792 -1353 100 0 hwout#183
xform 0 -1696 -1312
p -1591 -1321 100 0 -1 val(outp):$(cc)fltrWhl1:motorApply.DIR PP NMS
use hwout -1792 -1417 100 0 hwout#184
xform 0 -1696 -1376
p -1591 -1382 100 0 -1 val(outp):$(cc)lyotWhl:motorApply.DIR PP NMS
use hwout -1792 -1481 100 0 hwout#185
xform 0 -1696 -1440
p -1591 -1448 100 0 -1 val(outp):$(cc)fltrWhl2:motorApply.DIR PP NMS
use hwout -1792 -1545 100 0 hwout#186
xform 0 -1696 -1504
p -1591 -1512 100 0 -1 val(outp):$(cc)pplImg:motorApply.DIR PP NMS
use hwout 160 -1161 100 0 hwout#187
xform 0 256 -1120
p 361 -1126 100 0 -1 val(outp):$(cc)slitWhl:motorApply.DIR PP NMS
use hwout 160 -1225 100 0 hwout#188
xform 0 256 -1184
p 361 -1192 100 0 -1 val(outp):$(cc)grating:motorApply.DIR PP NMS
use hwout -1248 535 100 0 hwout#281
xform 0 -1152 576
p -1044 566 100 0 -1 val(outp):$(cc)grating:test.A PP NMS
use hwout -1248 1047 100 0 hwout#282
xform 0 -1152 1088
p -1044 1079 100 0 -1 val(outp):$(cc)sectWhl:test.A PP NMS
use hwout -1248 983 100 0 hwout#283
xform 0 -1152 1024
p -1044 1016 100 0 -1 val(outp):$(cc)winChngr:test.A PP NMS
use hwout -1248 919 100 0 hwout#284
xform 0 -1152 960
p -1044 951 100 0 -1 val(outp):$(cc)aprtrWhl:test.A PP NMS
use hwout -1248 855 100 0 hwout#285
xform 0 -1152 896
p -1044 886 100 0 -1 val(outp):$(cc)fltrWhl1:test.A PP NMS
use hwout -1248 791 100 0 hwout#286
xform 0 -1152 832
p -1044 826 100 0 -1 val(outp):$(cc)lyotWhl:test.A PP NMS
use hwout -1248 727 100 0 hwout#287
xform 0 -1152 768
p -1044 759 100 0 -1 val(outp):$(cc)fltrWhl2:test.A PP NMS
use hwout -1248 663 100 0 hwout#288
xform 0 -1152 704
p -1044 695 100 0 -1 val(outp):$(cc)pplImg:test.A PP NMS
use hwout -1248 599 100 0 hwout#289
xform 0 -1152 640
p -1043 634 100 0 -1 val(outp):$(cc)slitWhl:test.A PP NMS
use hwout 1312 695 100 0 hwout#294
xform 0 1408 736
p 1516 729 100 0 -1 val(outp):$(cc)slitWhl:init.A PP NMS
use hwout 1312 759 100 0 hwout#295
xform 0 1408 800
p 1516 794 100 0 -1 val(outp):$(cc)pplImg:init.A PP NMS
use hwout 1312 823 100 0 hwout#296
xform 0 1408 864
p 1516 854 100 0 -1 val(outp):$(cc)fltrWhl2:init.A PP NMS
use hwout 1312 887 100 0 hwout#297
xform 0 1408 928
p 1516 921 100 0 -1 val(outp):$(cc)lyotWhl:init.A PP NMS
use hwout 1312 951 100 0 hwout#298
xform 0 1408 992
p 1516 982 100 0 -1 val(outp):$(cc)fltrWhl1:init.A PP NMS
use hwout 1312 1015 100 0 hwout#299
xform 0 1408 1056
p 1516 1047 100 0 -1 val(outp):$(cc)aprtrWhl:init.A PP NMS
use hwout 1312 1079 100 0 hwout#300
xform 0 1408 1120
p 1516 1112 100 0 -1 val(outp):$(cc)winChngr:init.A PP NMS
use hwout 1312 1143 100 0 hwout#301
xform 0 1408 1184
p 1516 1177 100 0 -1 val(outp):$(cc)sectWhl:init.A PP NMS
use hwout 1312 631 100 0 hwout#302
xform 0 1408 672
p 1516 664 100 0 -1 val(outp):$(cc)grating:init.A PP NMS
use hwout 2208 -1289 100 0 hwout#349
xform 0 2304 -1248
p 2413 -1257 100 0 -1 val(outp):$(cc)grating:stop.A PP NMS
use hwout 2208 -777 100 0 hwout#350
xform 0 2304 -736
p 2411 -743 100 0 -1 val(outp):$(cc)sectWhl:stop.A PP NMS
use hwout 2208 -841 100 0 hwout#351
xform 0 2304 -800
p 2412 -809 100 0 -1 val(outp):$(cc)winChngr:stop.A PP NMS
use hwout 2208 -905 100 0 hwout#352
xform 0 2304 -864
p 2412 -873 100 0 -1 val(outp):$(cc)aprtrWhl:stop.A PP NMS
use hwout 2208 -969 100 0 hwout#353
xform 0 2304 -928
p 2412 -934 100 0 -1 val(outp):$(cc)fltrWhl1:stop.A PP NMS
use hwout 2208 -1033 100 0 hwout#354
xform 0 2304 -992
p 2412 -1000 100 0 -1 val(outp):$(cc)lyotWhl:stop.A PP NMS
use hwout 2208 -1097 100 0 hwout#355
xform 0 2304 -1056
p 2412 -1064 100 0 -1 val(outp):$(cc)fltrWhl2:stop.A PP NMS
use hwout 2208 -1161 100 0 hwout#356
xform 0 2304 -1120
p 2412 -1130 100 0 -1 val(outp):$(cc)pplImg:stop.A PP NMS
use hwout 2208 -1225 100 0 hwout#357
xform 0 2304 -1184
p 2412 -1192 100 0 -1 val(outp):$(cc)slitWhl:stop.A PP NMS
use hwout -1408 -489 100 0 hwout#362
xform 0 -1312 -448
p -1206 -456 100 0 -1 val(outp):$(cc)slitWhl:abort.A PP NMS
use hwout -1408 -425 100 0 hwout#363
xform 0 -1312 -384
p -1205 -396 100 0 -1 val(outp):$(cc)pplImg:abort.A PP NMS
use hwout -1408 -361 100 0 hwout#364
xform 0 -1312 -320
p -1205 -329 100 0 -1 val(outp):$(cc)fltrWhl2:abort.A PP NMS
use hwout -1408 -297 100 0 hwout#365
xform 0 -1312 -256
p -1205 -266 100 0 -1 val(outp):$(cc)lyotWhl:abort.A PP NMS
use hwout -1408 -233 100 0 hwout#366
xform 0 -1312 -192
p -1205 -201 100 0 -1 val(outp):$(cc)fltrWhl1:abort.A PP NMS
use hwout -1408 -169 100 0 hwout#367
xform 0 -1312 -128
p -1205 -137 100 0 -1 val(outp):$(cc)aprtrWhl:abort.A PP NMS
use hwout -1408 -105 100 0 hwout#368
xform 0 -1312 -64
p -1205 -72 100 0 -1 val(outp):$(cc)winChngr:abort.A PP NMS
use hwout -1408 -41 100 0 hwout#369
xform 0 -1312 0
p -1205 -10 100 0 -1 val(outp):$(cc)sectWhl:abort.A PP NMS
use hwout -1408 -553 100 0 hwout#370
xform 0 -1312 -512
p -1205 -521 100 0 -1 val(outp):$(cc)grating:abort.A PP NMS
use hwout 2368 -169 100 0 hwout#455
xform 0 2464 -128
p 2570 -136 100 0 -1 val(outp):$(cc)slitWhl:namedPos.A PP NMS
use hwout 2368 -105 100 0 hwout#456
xform 0 2464 -64
p 2570 -71 100 0 -1 val(outp):$(cc)pplImg:namedPos.A PP NMS
use hwout 2368 -41 100 0 hwout#457
xform 0 2464 0
p 2570 -8 100 0 -1 val(outp):$(cc)fltrWhl2:namedPos.A PP NMS
use hwout 2368 23 100 0 hwout#458
xform 0 2464 64
p 2570 56 100 0 -1 val(outp):$(cc)lyotWhl:namedPos.A PP NMS
use hwout 2368 87 100 0 hwout#459
xform 0 2464 128
p 2570 122 100 0 -1 val(outp):$(cc)fltrWhl1:namedPos.A PP NMS
use hwout 2368 151 100 0 hwout#460
xform 0 2464 192
p 2570 186 100 0 -1 val(outp):$(cc)aprtrWhl:namedPos.A PP NMS
use hwout 2368 215 100 0 hwout#461
xform 0 2464 256
p 2570 248 100 0 -1 val(outp):$(cc)winChngr:namedPos.A PP NMS
use hwout 2368 279 100 0 hwout#462
xform 0 2464 320
p 2570 314 100 0 -1 val(outp):$(cc)sectWhl:namedPos.A PP NMS
use hwout 2368 -233 100 0 hwout#463
xform 0 2464 -192
p 2571 -201 100 0 -1 val(outp):$(cc)grating:namedPos.A PP NMS
use hwout -960 2679 100 0 hwout#531
xform 0 -864 2720
p -758 2714 100 0 -1 val(outp):$(cc)sectWhl:debug.VAL PP NMS
use hwout -960 2615 100 0 hwout#532
xform 0 -864 2656
p -759 2648 100 0 -1 val(outp):$(cc)winChngr:debug.VAL PP NMS
use hwout -960 2551 100 0 hwout#533
xform 0 -864 2592
p -759 2584 100 0 -1 val(outp):$(cc)aprtrWhl:debug.VAL PP NMS
use hwout -960 2487 100 0 hwout#534
xform 0 -864 2528
p -759 2518 100 0 -1 val(outp):$(cc)fltrWhl1:debug.VAL PP NMS
use hwout -960 2423 100 0 hwout#535
xform 0 -864 2464
p -759 2454 100 0 -1 val(outp):$(cc)lyotWhl:debug.VAL PP NMS
use hwout -960 2359 100 0 hwout#536
xform 0 -864 2400
p -759 2393 100 0 -1 val(outp):$(cc)fltrWhl2:debug.VAL PP NMS
use hwout -960 2295 100 0 hwout#537
xform 0 -864 2336
p -759 2327 100 0 -1 val(outp):$(cc)pplImg:debug.VAL PP NMS
use hwout -960 2231 100 0 hwout#538
xform 0 -864 2272
p -759 2263 100 0 -1 val(outp):$(cc)slitWhl:debug.VAL PP NMS
use hwout -960 2167 100 0 hwout#539
xform 0 -864 2208
p -759 2201 100 0 -1 val(outp):$(cc)grating:debug.VAL PP NMS
use hwin 1184 1431 100 0 hwin#496
xform 0 1280 1472
p 844 1462 100 0 -1 val(in):$(cc)grating:motorC.OMSS
use hwin 1184 1559 100 0 hwin#495
xform 0 1280 1600
p 845 1591 100 0 -1 val(in):$(cc)slitWhl:motorC.OMSS
use hwin 1184 1687 100 0 hwin#494
xform 0 1280 1728
p 857 1718 100 0 -1 val(in):$(cc)pplImg:motorC.OMSS
use hwin 1184 1815 100 0 hwin#493
xform 0 1280 1856
p 833 1846 100 0 -1 val(in):$(cc)fltrWhl2:motorC.OMSS
use hwin 1184 1943 100 0 hwin#492
xform 0 1280 1984
p 844 1974 100 0 -1 val(in):$(cc)lyotWhl:motorC.OMSS
use hwin 1184 2071 100 0 hwin#491
xform 0 1280 2112
p 833 2102 100 0 -1 val(in):$(cc)fltrWhl1:motorC.OMSS
use hwin 1184 2199 100 0 hwin#490
xform 0 1280 2240
p 834 2231 100 0 -1 val(in):$(cc)aprtrWhl:motorC.OMSS
use hwin 1184 2327 100 0 hwin#489
xform 0 1280 2368
p 834 2357 100 0 -1 val(in):$(cc)winChngr:motorC.OMSS
use hwin 1184 2455 100 0 hwin#488
xform 0 1280 2496
p 845 2489 100 0 -1 val(in):$(cc)sectWhl:motorC.OMSS
use hwin -2784 -1769 100 0 hwin#226
xform 0 -2688 -1728
p -3163 -1738 100 0 -1 val(in):$(cc)pplImg:motorApply.MESS
use hwin -2784 -1705 100 0 hwin#225
xform 0 -2688 -1664
p -3152 -1675 100 0 -1 val(in):$(cc)pplImg:motorApply.VAL
use hwin -2784 -1641 100 0 hwin#224
xform 0 -2688 -1600
p -3187 -1610 100 0 -1 val(in):$(cc)fltrWhl2:motorApply.MESS
use hwin -2784 -1577 100 0 hwin#223
xform 0 -2688 -1536
p -3175 -1544 100 0 -1 val(in):$(cc)fltrWhl2:motorApply.VAL
use hwin -2784 -1513 100 0 hwin#222
xform 0 -2688 -1472
p -3174 -1481 100 0 -1 val(in):$(cc)lyotWhl:motorApply.MESS
use hwin -2784 -1449 100 0 hwin#221
xform 0 -2688 -1408
p -3163 -1419 100 0 -1 val(in):$(cc)lyotWhl:motorApply.VAL
use hwin -2784 -1385 100 0 hwin#220
xform 0 -2688 -1344
p -3187 -1356 100 0 -1 val(in):$(cc)fltrWhl1:motorApply.MESS
use hwin -736 -1257 100 0 hwin#219
xform 0 -640 -1216
p -1087 -1225 100 0 -1 val(in):$(cc)grating:motorApply.MESS
use hwin -736 -1193 100 0 hwin#218
xform 0 -640 -1152
p -1073 -1160 100 0 -1 val(in):$(cc)grating:motorApply.VAL
use hwin -736 -1129 100 0 hwin#217
xform 0 -640 -1088
p -1086 -1097 100 0 -1 val(in):$(cc)slitWhl:motorApply.MESS
use hwin -736 -1065 100 0 hwin#216
xform 0 -640 -1024
p -1073 -1034 100 0 -1 val(in):$(cc)slitWhl:motorApply.VAL
use hwin -2784 -1321 100 0 hwin#215
xform 0 -2688 -1280
p -3172 -1290 100 0 -1 val(in):$(cc)fltrWhl1:motorApply.VAL
use hwin -2784 -1257 100 0 hwin#214
xform 0 -2688 -1216
p -3185 -1225 100 0 -1 val(in):$(cc)aprtrWhl:motorApply.MESS
use hwin -2784 -1193 100 0 hwin#213
xform 0 -2688 -1152
p -2770 -1224 100 0 0 typ(in):val
p -3174 -1159 100 0 -1 val(in):$(cc)aprtrWhl:motorApply.VAL
use hwin -2784 -1129 100 0 hwin#212
xform 0 -2688 -1088
p -3184 -1097 100 0 -1 val(in):$(cc)winChngr:motorApply.MESS
use hwin -2784 -1065 100 0 hwin#211
xform 0 -2688 -1024
p -3174 -1034 100 0 -1 val(in):$(cc)winChngr:motorApply.VAL
use hwin -2784 -1001 100 0 hwin#210
xform 0 -2688 -960
p -3174 -971 100 0 -1 val(in):$(cc)sectWhl:motorApply.MESS
use hwin -2784 -937 100 0 hwin#209
xform 0 -2688 -896
p -3162 -903 100 0 -1 val(in):$(cc)sectWhl:motorApply.VAL
use hwin 1184 2391 100 0 hwin#32
xform 0 1280 2432
p 847 2422 100 0 -1 val(in):$(cc)winChngr:motorC.VAL
use hwin 1184 2263 100 0 hwin#33
xform 0 1280 2304
p 848 2293 100 0 -1 val(in):$(cc)aprtrWhl:motorC.VAL
use hwin 1184 2135 100 0 hwin#34
xform 0 1280 2176
p 847 2166 100 0 -1 val(in):$(cc)fltrWhl1:motorC.VAL
use hwin 1184 2007 100 0 hwin#35
xform 0 1280 2048
p 859 2037 100 0 -1 val(in):$(cc)lyotWhl:motorC.VAL
use hwin 1184 1879 100 0 hwin#36
xform 0 1280 1920
p 847 1910 100 0 -1 val(in):$(cc)fltrWhl2:motorC.VAL
use hwin 1184 1751 100 0 hwin#37
xform 0 1280 1792
p 870 1785 100 0 -1 val(in):$(cc)pplImg:motorC.VAL
use hwin 1184 1623 100 0 hwin#38
xform 0 1280 1664
p 856 1656 100 0 -1 val(in):$(cc)slitWhl:motorC.VAL
use hwin 1184 1495 100 0 hwin#39
xform 0 1280 1536
p 859 1527 100 0 -1 val(in):$(cc)grating:motorC.VAL
use hwin 1184 2519 100 0 hwin#47
xform 0 1280 2560
p 858 2551 100 0 -1 val(in):$(cc)sectWhl:motorC.VAL
use ecad2 -736 -473 -100 0 $(cc)datum
xform 0 -576 -160
p -640 0 100 0 0 DESC:CC Datum CAD
p -640 -448 100 0 0 SNAM:ccDatumCommand
p -624 -480 100 1024 -1 name:$(cc)datum
p -400 -384 75 1024 -1 pproc(STLK):PP
use ecad2 -2432 359 -100 0 $(cc)test
xform 0 -2272 672
p -2336 832 100 0 0 DESC:CC Test CAD
p -2336 672 100 0 0 FTVA:STRING
p -2336 384 100 0 0 SNAM:ccTestCommand
p -2320 352 100 1024 -1 name:$(cc)test
p -2096 448 75 1024 -1 pproc(STLK):PP
use ecad2 -576 423 -100 0 $(cc)init
xform 0 -416 736
p -480 896 100 0 0 DESC:CC Init CAD
p -480 704 100 0 0 FTVB:LONG
p -480 448 100 0 0 SNAM:ccInitCommand
p -464 416 100 1024 -1 name:$(cc)init
p -240 512 75 1024 -1 pproc(STLK):PP
use ecad2 992 -1401 -100 0 $(cc)stop
xform 0 1152 -1088
p 1088 -928 100 0 0 DESC:CC Stop CAD
p 1088 -1376 100 0 0 SNAM:ccStopCommand
p 1104 -1408 100 1024 -1 name:$(cc)stop
p 1328 -1312 75 1024 -1 pproc(STLK):PP
use ecad2 -2592 -537 -100 0 $(cc)abort
xform 0 -2432 -224
p -2496 -64 100 0 0 DESC:CC Abort CAD
p -2496 -512 100 0 0 SNAM:ccAbortCommand
p -2480 -544 100 1024 -1 name:$(cc)abort
p -2256 -448 75 1024 -1 pproc(STLK):PP
use ecad2 1184 -441 100 0 ecad2#464
xform 0 1344 -128
p 1280 32 100 0 0 DESC:CC CAD Record
p 1280 -416 100 0 0 SNAM:ccParkCommand
p 1296 -448 100 1024 -1 name:$(cc)park
use egenSubC 256 1735 100 0 egenSubC#432
xform 0 400 2160
p 99 2475 100 0 0 DESC:Holds Configuration for CC
p 33 1509 100 0 0 FTVA:LONG
p 33 1509 100 0 0 FTVB:STRING
p 33 1477 100 0 0 FTVC:STRING
p 33 1445 100 0 0 FTVD:DOUBLE
p 33 1413 100 0 0 FTVE:STRING
p 33 1349 100 0 0 FTVG:STRING
p -32 2142 100 0 0 INAM:ufNamedPosGensub
p 368 1728 100 1024 -1 name:$(cc)configG
use be200tr -3712 -2392 -100 0 frame
xform 0 -272 272
use eapply -320 -1657 -100 0 $(cc)apply2
xform 0 -128 -1296
p -224 -1312 100 0 0 DESC:All Motors Apply Record 2
p -208 -1664 100 1024 -1 name:$(cc)applyCMD2
use eapply -2272 -1657 -100 0 $(cc)apply
xform 0 -2080 -1296
p -2176 -1312 100 0 0 DESC:All Motors Apply Record
p -2160 -1664 100 1024 -1 name:$(cc)applyCMD1
use eapply -3168 7 -100 0 $(cc)applyCMD
xform 0 -2976 368
p -3072 352 100 0 0 DESC:CC Apply Record
p -3056 0 100 1024 -1 name:$(cc)apply
use ecars 2368 1991 -100 0 $(cc)applyC
xform 0 2528 2160
p 2464 2208 100 0 0 DESC:CAR record for CC
p 2480 1984 100 1024 -1 name:$(cc)applyC
use egenSubD 1856 1511 -100 0 $(cc)MrgCarG
xform 0 2000 1936
p 1699 2251 100 0 0 DESC:Merges Motor CAR records
p 1633 1285 100 0 0 FTA:LONG
p 1633 1285 100 0 0 FTB:STRING
p 1633 1253 100 0 0 FTC:LONG
p 1633 1221 100 0 0 FTD:STRING
p 1633 1189 100 0 0 FTE:LONG
p 1633 1125 100 0 0 FTF:STRING
p 1633 1125 100 0 0 FTG:LONG
p 1633 1093 100 0 0 FTH:STRING
p 1633 1061 100 0 0 FTI:LONG
p 1633 1029 100 0 0 FTJ:STRING
p 1633 1285 100 0 0 FTK:STRING
p 1633 1285 100 0 0 FTL:LONG
p 1633 1253 100 0 0 FTM:STRING
p 1633 1221 100 0 0 FTN:LONG
p 1633 1189 100 0 0 FTO:STRING
p 1633 1125 100 0 0 FTP:LONG
p 1633 1125 100 0 0 FTQ:STRING
p 1633 1093 100 0 0 FTR:LONG
p 1633 1061 100 0 0 FTS:STRING
p 1633 1029 100 0 0 FTT:LONG
p 1633 1029 100 0 0 FTU:STRING
p 1633 1285 100 0 0 FTVA:STRING
p 1633 1285 100 0 0 FTVB:LONG
p 1633 1253 100 0 0 FTVC:LONG
p 1633 1221 100 0 0 FTVD:STRING
p 1633 1189 100 0 0 FTVE:STRING
p 1568 1918 100 0 0 INAM:uftrecsNullGInit
p 1568 1886 100 0 0 SNAM:uftrecsCmdCombineGProcess
p 1968 1504 100 1024 -1 name:$(cc)MrgCarG
p 1808 2026 75 0 -1 pproc(INPJ):PP
p 2144 2218 75 0 -1 pproc(OUTB):PP
p 2144 2154 75 0 -1 pproc(OUTC):NPP
p 2144 2090 75 0 -1 pproc(OUTD):PP
p 2144 2026 75 0 -1 pproc(OUTE):PP
use elongins -544 1511 -100 0 $(cc)heartbeat
xform 0 -416 1584
p -755 1785 100 0 0 DESC:Heartbeat from CC Agent
p -432 1504 100 1024 -1 name:$(cc)heartbeat
[comments]
RCS: "$Name:  $ $Id: trecsCcTop.sch,v 0.0 2003/04/25 15:21:15 hon Developmental $"
