[symbol2]
bbox 32 32 288 704
uniq 34
[tools]
[attributes]
[layers]
<symbol>
l 100 0 0 100 363 trecsControl
r 0 32 32 288 704
[comments]
RCS: $Name:  $ $Id: trecsControl.sym,v 0.0 2003/04/25 15:21:15 hon Developmental $
