[schematic2]
uniq 1105
[tools]
[detail]
w -20 3595 100 0 n#1056 elongouts.elongouts#1063.FLNK -96 3584 128 3584 junction
w -20 5379 100 0 n#1056 elongouts.elongouts#914.FLNK -96 5376 128 5376 junction
w -20 4931 100 0 n#1056 elongouts.elongouts#915.FLNK -96 4928 128 4928 junction
w -20 4707 100 0 n#1056 elongouts.elongouts#916.FLNK -96 4704 128 4704 junction
w -20 4227 100 0 n#1056 eaos.eaos#1104.FLNK -96 4224 128 4224 junction
w -20 4003 100 0 n#1056 elongouts.elongouts#971.FLNK -96 4000 128 4000 junction
w 124 4443 100 0 n#1056 elongouts.elongouts#1036.FLNK -96 5600 128 5600 128 3296 192 3296 trecsLinkEnable.trecsLinkEnable#946.ENABLE
w 284 3979 100 0 n#1093 elongouts.elongouts#1063.OUT -96 3520 288 3520 288 4448 384 4448 egenSubTReCS.egenSubTReCS#1055.K
w -2500 2763 100 0 n#1089 ecad2.ecad2#1057.VAL -896 3360 -768 3360 -768 2720 -1344 2720 -1344 2752 -3584 2752 -3584 3904 -3200 3904 eapply.$(top)$(dev)motorApply.INPF
w -2468 2787 100 0 n#1088 ecad2.ecad2#1057.MESS -896 3328 -800 3328 -800 2752 -1312 2752 -1312 2784 -3552 2784 -3552 3872 -3200 3872 eapply.$(top)$(dev)motorApply.INMF
w -452 3211 100 0 n#1065 ecad2.ecad2#1057.STLK -896 2880 -448 2880 -448 3552 -352 3552 elongouts.elongouts#1063.SLNK
w -724 3171 100 0 n#1064 ecad2.ecad2#1057.VALA -896 3168 -480 3168 -480 3584 -352 3584 elongouts.elongouts#1063.DOL
w -2724 3611 100 0 n#1062 eapply.$(top)$(dev)motorApply.OCLH -2816 3744 -2720 3744 -2720 3488 -2528 3488 ecad2.$(top)$(dev)abort.ICID
w -2692 3643 100 0 n#1070 eapply.$(top)$(dev)motorApply.OUTH -2816 3776 -2688 3776 -2688 3520 -2528 3520 ecad2.$(top)$(dev)abort.DIR
w 108 4643 100 0 n#1098 elongouts.elongouts#916.OUT -96 4640 384 4640 egenSubTReCS.egenSubTReCS#1055.E
w -4 4387 100 0 n#1097 eaos.eaos#917.OUT -96 4384 160 4384 160 4608 384 4608 egenSubTReCS.egenSubTReCS#1055.F
w 188 4363 100 0 n#1096 eaos.eaos#1104.OUT -96 4160 192 4160 192 4576 384 4576 egenSubTReCS.egenSubTReCS#1055.G
w 220 4235 100 0 n#1095 elongouts.elongouts#971.OUT -96 3936 224 3936 224 4544 384 4544 egenSubTReCS.egenSubTReCS#1055.H
w -4 4867 100 0 n#1099 elongouts.elongouts#915.OUT -96 4864 160 4864 160 4672 384 4672 egenSubTReCS.egenSubTReCS#1055.D
w 252 5147 100 0 n#1102 elongouts.elongouts#1036.OUT -96 5536 256 5536 256 4768 384 4768 egenSubTReCS.egenSubTReCS#1055.A
w -1316 5603 100 0 n#1038 ecad2.ecad2#1031.VALA -2304 4896 -2208 4896 -2208 5600 -352 5600 elongouts.elongouts#1036.DOL
w -1300 5571 100 0 n#1037 ecad2.ecad2#1031.STLK -2304 4608 -2176 4608 -2176 5568 -352 5568 elongouts.elongouts#1036.SLNK
w -2820 5195 100 0 n#1035 ecad2.ecad2#1031.MESS -2304 5056 -2240 5056 -2240 5184 -3328 5184 -3328 4192 -3200 4192 eapply.$(top)$(dev)motorApply.INMA
w -2820 5163 100 0 n#1034 ecad2.ecad2#1031.VAL -2304 5088 -2272 5088 -2272 5152 -3296 5152 -3296 4224 -3200 4224 eapply.$(top)$(dev)motorApply.INPA
w -2716 4619 100 0 n#1033 eapply.$(top)$(dev)motorApply.OCLA -2816 4192 -2720 4192 -2720 5056 -2624 5056 ecad2.ecad2#1031.ICID
w -2748 4651 100 0 n#1032 eapply.$(top)$(dev)motorApply.OUTA -2816 4224 -2752 4224 -2752 5088 -2624 5088 ecad2.ecad2#1031.DIR
w 220 5019 100 0 n#1101 elongouts.elongouts#914.OUT -96 5312 224 5312 224 4736 384 4736 egenSubTReCS.egenSubTReCS#1055.B
w -980 3491 100 0 n#1058 ecad2.$(top)$(dev)steps.STLK -1600 2976 -1376 2976 -1376 3488 -512 3488 -512 3968 -352 3968 elongouts.elongouts#971.SLNK
w -1012 3523 100 0 n#1086 ecad2.$(top)$(dev)steps.VALA -1600 3264 -1408 3264 -1408 3520 -544 3520 -544 4000 -352 4000 elongouts.elongouts#971.DOL
w -1326 3555 100 0 n#983 ecad2.$(top)$(dev)abort.STLK -2208 3040 -2016 3040 -2016 3552 -576 3552 -576 4192 -352 4192 eaos.eaos#1104.SLNK
w -1364 3587 100 0 n#1076 ecad2.$(top)$(dev)abort.VALA -2208 3328 -2048 3328 -2048 3584 -608 3584 -608 4224 -352 4224 eaos.eaos#1104.DOL
w -286 4523 100 0 n#981 eaos.eaos#917.FLNK -96 4448 -64 4448 -64 4512 -448 4512 -448 4672 -352 4672 elongouts.elongouts#916.SLNK
w -644 4091 100 0 n#989 ecad2.$(top)$(dev)datum.STLK -864 3776 -640 3776 -640 4416 -352 4416 eaos.eaos#917.SLNK
w -676 4219 100 0 n#991 ecad2.$(top)$(dev)datum.VALB -864 4000 -672 4000 -672 4448 -352 4448 eaos.eaos#917.DOL
w -708 4379 100 0 n#990 ecad2.$(top)$(dev)datum.VALA -864 4064 -704 4064 -704 4704 -352 4704 elongouts.elongouts#916.DOL
w -1348 4203 100 0 n#996 ecad2.ecad2#1054.STLK -1440 3904 -1344 3904 -1344 4512 -736 4512 -736 4896 -352 4896 elongouts.elongouts#915.SLNK
w -1102 4547 100 0 n#997 ecad2.ecad2#1054.VALA -1440 4192 -1376 4192 -1376 4544 -768 4544 -768 4928 -352 4928 elongouts.elongouts#915.DOL
w -1070 5475 100 0 n#994 ecad2.$(top)$(dev)test.STLK -1664 4672 -1536 4672 -1536 5472 -544 5472 -544 5344 -352 5344 elongouts.elongouts#914.SLNK
w -1070 5507 100 0 n#995 ecad2.$(top)$(dev)test.VALA -1664 4960 -1568 4960 -1568 5504 -512 5504 -512 5376 -352 5376 elongouts.elongouts#914.DOL
w 252 4115 100 0 n#1094 estringouts.$(top)$(dev)debug.OUT -96 3728 256 3728 256 4512 384 4512 egenSubTReCS.egenSubTReCS#1055.I
w 316 3723 100 0 n#1103 trecsLinkEnable.trecsLinkEnable#946.FLINK 512 3264 544 3264 544 3392 320 3392 320 4064 384 4064 egenSubTReCS.egenSubTReCS#1055.SLNK
w -2030 2691 100 0 n#947 eapply.$(top)$(dev)motorApply.FLNK -2816 4352 -2784 4352 -2784 4416 -3616 4416 -3616 2688 -384 2688 -384 3232 192 3232 trecsLinkEnable.trecsLinkEnable#946.SLINK
w -2548 2819 100 0 n#1067 ecad2.$(top)$(dev)steps.VAL -1600 3456 -1504 3456 -1504 2816 -3520 2816 -3520 3840 -3200 3840 eapply.$(top)$(dev)motorApply.INPG
w -2548 2851 100 0 n#1087 ecad2.$(top)$(dev)steps.MESS -1600 3424 -1536 3424 -1536 2848 -3488 2848 -3488 3808 -3200 3808 eapply.$(top)$(dev)motorApply.INMG
w -2804 2883 100 0 n#1071 ecad2.$(top)$(dev)abort.VAL -2208 3520 -2080 3520 -2080 2880 -3456 2880 -3456 3776 -3200 3776 eapply.$(top)$(dev)motorApply.INPH
w -2804 2915 100 0 n#1083 ecad2.$(top)$(dev)abort.MESS -2208 3488 -2112 3488 -2112 2912 -3424 2912 -3424 3744 -3200 3744 eapply.$(top)$(dev)motorApply.INMH
w -2084 3779 100 0 n#1003 eapply.$(top)$(dev)motorApply.OUTF -2816 3904 -2560 3904 -2560 3776 -1536 3776 -1536 3520 -1440 3520 -1440 3456 -1280 3456 -1280 3360 -1216 3360 ecad2.ecad2#1057.DIR
w -2110 3747 100 0 n#998 eapply.$(top)$(dev)motorApply.OCLF -2816 3872 -2592 3872 -2592 3744 -1568 3744 -1568 3488 -1472 3488 -1472 3424 -1312 3424 -1312 3328 -1216 3328 ecad2.ecad2#1057.ICID
w -2324 3715 100 0 n#1066 eapply.$(top)$(dev)motorApply.OUTG -2816 3840 -2624 3840 -2624 3712 -1952 3712 -1952 3456 -1920 3456 ecad2.$(top)$(dev)steps.DIR
w -2350 3683 100 0 n#904 eapply.$(top)$(dev)motorApply.OCLG -2816 3808 -2656 3808 -2656 3680 -1984 3680 -1984 3424 -1920 3424 ecad2.$(top)$(dev)steps.ICID
w -2254 5443 100 0 n#868 ecad2.ecad2#1054.MESS -1440 4352 -1312 4352 -1312 3616 -736 3616 -736 4480 -864 4480 -864 5440 -3584 5440 -3584 3936 -3200 3936 eapply.$(top)$(dev)motorApply.INME
w -2254 5411 100 0 n#867 ecad2.ecad2#1054.VAL -1440 4384 -1280 4384 -1280 3648 -768 3648 -768 4448 -896 4448 -896 5408 -3552 5408 -3552 3968 -3200 3968 eapply.$(top)$(dev)motorApply.INPE
w -2254 5379 100 0 n#866 ecad2.$(top)$(dev)datum.MESS -864 4224 -800 4224 -800 4416 -928 4416 -928 5376 -3520 5376 -3520 4000 -3200 4000 eapply.$(top)$(dev)motorApply.INMD
w -2254 5347 100 0 n#865 ecad2.$(top)$(dev)datum.VAL -864 4256 -832 4256 -832 4384 -960 4384 -960 5344 -3488 5344 -3488 4032 -3200 4032 eapply.$(top)$(dev)motorApply.INPD
w -2366 3939 100 0 n#862 eapply.$(top)$(dev)motorApply.OCLE -2816 3936 -1856 3936 -1856 4352 -1760 4352 ecad2.ecad2#1054.ICID
w -2382 3971 100 0 n#861 eapply.$(top)$(dev)motorApply.OUTE -2816 3968 -1888 3968 -1888 4384 -1760 4384 ecad2.ecad2#1054.DIR
w -2398 4003 100 0 n#864 eapply.$(top)$(dev)motorApply.OCLD -2816 4000 -1920 4000 -1920 4448 -1248 4448 -1248 4224 -1184 4224 ecad2.$(top)$(dev)datum.ICID
w -2414 4035 100 0 n#863 eapply.$(top)$(dev)motorApply.OUTD -2816 4032 -1952 4032 -1952 4480 -1216 4480 -1216 4256 -1184 4256 ecad2.$(top)$(dev)datum.DIR
w -2526 5251 100 0 n#854 ecad2.$(top)$(dev)test.MESS -1664 5120 -1600 5120 -1600 5248 -3392 5248 -3392 4128 -3200 4128 eapply.$(top)$(dev)motorApply.INMB
w -2526 5219 100 0 n#853 ecad2.$(top)$(dev)test.VAL -1664 5152 -1632 5152 -1632 5216 -3360 5216 -3360 4160 -3200 4160 eapply.$(top)$(dev)motorApply.INPB
w -2084 4619 100 0 n#852 eapply.$(top)$(dev)motorApply.OCLB -2816 4128 -2080 4128 -2080 5120 -1984 5120 ecad2.$(top)$(dev)test.ICID
w -2116 4651 100 0 n#851 eapply.$(top)$(dev)motorApply.OUTB -2816 4160 -2112 4160 -2112 5152 -1984 5152 ecad2.$(top)$(dev)test.DIR
w 754 5059 100 0 n#824 ecars.$(top)$(dev)motorC.FLNK 704 5056 864 5056 hwout.hwout#822.outp
s 320 3024 210 0 mce4_preamp-04.sch 3/6/2002 1:40 PM EST
s 739 4741 100 0 socket number
s 741 4771 100 0 command mode
s 740 4704 100 0 Power
s 738 4672 100 0 control values
s 736 4640 100 0 default values
[cell use]
use eaos -352 4103 100 0 eaos#1104
xform 0 -224 4192
p -608 4174 100 1024 1 OMSL:closed_loop
p -240 4096 100 256 1 name:$(dc)paGlobSetW
use elongouts -352 5479 100 0 elongouts#1036
xform 0 -224 5568
p -416 5440 100 0 1 OMSL:closed_loop
p -416 5472 100 768 -1 name:$(dc)paInitW
use elongouts -352 3879 100 0 elongouts#971
xform 0 -224 3968
p -416 3840 100 0 1 OMSL:closed_loop
p -416 3872 100 768 -1 name:$(dc)paRdAllW
use elongouts -352 5255 100 0 elongouts#914
xform 0 -224 5344
p -419 5219 100 0 1 OMSL:closed_loop
p -419 5245 100 768 1 name:$(dc)paDatumW
use elongouts -352 4807 100 0 elongouts#915
xform 0 -224 4896
p -419 4770 100 0 1 OMSL:closed_loop
p -419 4796 100 768 1 name:$(dc)paParkW
use elongouts -352 4583 100 0 elongouts#916
xform 0 -224 4672
p -419 4550 100 0 1 OMSL:closed_loop
p -419 4579 100 768 1 name:$(dc)padacIDSetW
use elongouts -352 3463 100 0 elongouts#1063
xform 0 -224 3552
p -416 3424 100 0 1 OMSL:closed_loop
p -416 3456 100 768 -1 name:$(dc)paAdjW
use bd200tr -3808 2536 -100 0 frame
xform 0 -1168 4240
use ecad2 -1760 3815 100 0 ecad2#1054
xform 0 -1600 4128
p -1664 4128 100 0 0 FTVA:LONG
p -1664 3840 100 0 0 SNAM:DCbipaParkCommand
p -1648 3808 100 1024 -1 name:$(dc)paPark
use ecad2 -2624 4519 100 0 ecad2#1031
xform 0 -2464 4832
p -2528 4832 100 0 0 FTVA:LONG
p -2528 4544 100 0 0 SNAM:DCbipaInitCommand
p -2512 4512 100 1024 -1 name:$(dc)paInit
use ecad2 -1920 2887 -100 0 $(top)$(dev)steps
xform 0 -1760 3200
p -1824 3360 100 0 0 DESC:ReadAll PreAmp CAD
p -1824 3200 100 0 0 FTVA:LONG
p -1824 2912 100 0 0 SNAM:DCbipaReadAllCommand
p -1808 2880 100 1024 -1 name:$(dc)paReadAll
use ecad2 -2528 2951 -100 0 $(top)$(dev)abort
xform 0 -2368 3264
p -2432 3424 100 0 0 DESC:PreAmp Latch
p -2432 3264 100 0 0 FTVA:DOUBLE
p -2432 2976 100 0 0 SNAM:DCbipaGlobSetCommand
p -2416 2944 100 1024 -1 name:$(dc)paGlobSet
use ecad2 -1184 3687 -100 0 $(top)$(dev)datum
xform 0 -1024 4000
p -1088 4160 100 0 0 DESC:set PreAmp CAD
p -1088 4000 100 0 0 FTVA:LONG
p -1088 3968 100 0 0 FTVB:DOUBLE
p -1088 3712 100 0 0 SNAM:DCbipaSetCommand
p -1072 3680 100 1024 -1 name:$(dc)paSet
use ecad2 -1984 4583 -100 0 $(top)$(dev)test
xform 0 -1824 4896
p -1888 5056 100 0 0 DESC:Motor Test CAD
p -1888 4896 100 0 0 FTVA:LONG
p -1888 4608 100 0 0 SNAM:DCbipaDatumCommand
p -1872 4576 100 1024 -1 name:$(dc)paDatum
use ecad2 -1216 2791 100 0 ecad2#1057
xform 0 -1056 3104
p -1120 3104 100 0 0 FTVA:LONG
p -1120 2816 100 0 0 SNAM:DCbipaAdjustCommand
p -1104 2784 100 1024 -1 name:$(dc)paAdjust
use egenSubTReCS 384 3975 100 0 egenSubTReCS#1055
xform 0 528 4400
p 161 3749 100 0 0 FTA:LONG
p 161 3749 100 0 0 FTB:LONG
p 161 3717 100 0 0 FTC:STRING
p 161 3685 100 0 0 FTD:LONG
p 161 3653 100 0 0 FTE:LONG
p 161 3589 100 0 0 FTF:DOUBLE
p 161 3589 100 0 0 FTG:DOUBLE
p 161 3557 100 0 0 FTH:LONG
p 161 3525 100 0 0 FTI:STRING
p 161 3493 100 0 0 FTJ:STRING
p 161 3493 100 0 0 FTK:LONG
p 161 3493 100 0 0 FTM:STRING
p 161 3749 100 0 0 FTVA:LONG
p 161 3717 100 0 0 FTVC:STRING
p 161 3685 100 0 0 FTVD:LONG
p 161 3653 100 0 0 FTVE:DOUBLE
p 161 3589 100 0 0 FTVG:LONG
p 96 4382 100 0 0 INAM:ufDCPreAmpGinit
p 161 3109 100 0 0 NOJ:16
p 161 3301 100 0 0 NOVD:16
p 161 3269 100 0 0 NOVE:16
p 161 3237 100 0 0 NOVF:1
p 161 3205 100 0 0 NOVG:1
p 161 3173 100 0 0 NOVH:1
p 96 4350 100 0 0 SNAM:ufDCPreAmpGproc
p 496 3968 100 1024 -1 name:$(dc)PreAmpG
use trecsLinkEnable 192 3143 100 0 trecsLinkEnable#946
xform 0 352 3264
p 192 3136 100 0 1 setSystem:system $(dc)pa
use eaos -352 4327 100 0 eaos#917
xform 0 -224 4416
p -419 4292 100 0 1 OMSL:closed_loop
p -419 4320 100 768 1 name:$(dc)paVoltW
use estringouts -352 3671 -100 0 $(top)$(dev)debug
xform 0 -224 3744
p -325 3784 100 0 0 DESC:Debug Mode (NONE,MIN,FULL)
p -240 3664 100 1024 -1 name:$(dc)paDebug
use hwout 864 5015 100 0 hwout#822
xform 0 960 5056
p 1067 5045 100 0 -1 val(outp):$(dc)dcStatusG.J PP NMS
use ecars 384 4999 -100 0 $(top)$(dev)motorC
xform 0 544 5168
p 480 5216 100 0 0 DESC:Motor CAR Record
p 496 4992 100 1024 -1 name:$(dc)PreAmpC
use eapply -3200 3687 -100 0 $(top)$(dev)motorApply
xform 0 -3008 4048
p -3104 4032 100 0 0 DESC:PreAmp Low Level Apply
p -3088 3680 100 1024 -1 name:$(dc)paApply
[comments]
RCS: "$Name:  $ $Id: trecsDcPreAmp.sch,v 0.0 2003/04/25 15:21:15 hon Developmental $"
