[symbol2]
bbox 32 32 320 288
uniq 46
[tools]
[attributes]
[layers]
<symbol>
r 0 32 32 320 288
l 100 0 0 80 155 trecsSadDcConfig
[comments]
RCS: $Name:  $ $Id: trecsSadDcConfig.sym,v 0.0 2003/04/25 15:21:16 hon Developmental $
