NOD       0                                Index of Nod Phase
NODSET    0                                Index of NodSet
UTSTART   00:00:00.0                       UT at extension start
UTEND     00:00:00.0                       UT at extension end  
