/* XPM */
static char * mini-calc_xpm[] = {
"16 14 6 1",
" 	c #7F7F7F7F7F7F",
".	c #0000FFFF0000",
"X	c #000000000000",
"o	c #D9D9D9D9D9D9",
"O	c #0000FFFFFFFF",
"+	c #FFFFFFFF0000",
"                ",
" .............X ",
" .ooXXXXXXXXXoX ",
" .ooXOOOOOOO oX ",
" .oo         oX ",
" .ooooooooooooX ",
" .+Xo+Xo+Xo+XoX ",
" .XXoXXoXXoXXoX ",
" .+Xo+Xo+Xo+XoX ",
" .XXoXXoXXoXXoX ",
" .+Xo+Xo+Xo+XoX ",
" .XXoXXoXXoXXoX ",
" oooooooooooooX ",
" XXXXXXXXXXXXX  "};
