[symbol2]
bbox -96 -32 288 352
uniq 215
[tools]
[attributes]
[layers]
<symbol>
l 100 0 0 32 0 trecsState
r 0 -96 -32 288 352
[comments]
RCS: $Name:  $ $Id: trecsState.sym,v 0.1 2003/02/15 03:02:14 trecs beta $
