[symbol2]
bbox 32 32 480 320
uniq 4
[tools]
[attributes]
p 32 0 100 0 1 setCc:cc $(top)cc:
[layers]
<symbol>
l 100 0 0 192 64 trecsCcTop
r 0 32 32 480 320
[comments]
RCS: $Name:  $ $Id: trecsCcTop.sym,v 0.1 2003/02/15 03:02:14 trecs beta $
