[symbol2]
bbox 32 32 480 320
uniq 5
[tools]
[attributes]
p 32 0 100 0 1 setDc:dc $(top)dc:
[layers]
<symbol>
l 100 0 0 192 64 trecsDcTop
r 0 32 32 480 320
[comments]
RCS: $Name:  $ $Id: trecsDcTop.sym,v 0.1 2003/02/15 03:02:14 trecs beta $
