[schematic2]
uniq 123
[tools]
[detail]
s 2240 -128 100 0 FLAMINGOS
s 2096 -176 200 1792 FLAMINGOS
s 2432 -192 100 256 Flamingos DC Configuration
s 2320 -240 100 1792 Rev: A
s 2096 -240 100 1792 2000/11/12
s 2096 -272 100 1792 Author: NWR
s 2512 -240 100 1792 flamSadDcConfig.sch
s 2112 2032 100 1792 A
s 2336 2032 100 1792 Initial Layout
s 2480 2032 100 1792 NWR
s 2624 2032 100 1792 2000/11/12
[cell use]
use esirs 2048 839 100 0 esirs#122
xform 0 2256 992
p 1984 544 100 0 0 FTVL:LONG
p 2112 800 100 0 1 SCAN:Passive
p 2208 832 100 1024 -1 name:$(top)DACPRE05
use esirs 2784 -313 100 0 esirs#117
xform 0 2992 -160
p 2720 -608 100 0 0 FTVL:LONG
p 2848 -352 100 0 1 SCAN:Passive
p 2944 -320 100 1024 -1 name:$(top)POSTSETS
use esirs 2768 1655 100 0 esirs#116
xform 0 2976 1808
p 2704 1360 100 0 0 FTVL:LONG
p 2832 1616 100 0 1 SCAN:Passive
p 2928 1648 100 1024 -1 name:$(top)BIASGATE
use esirs 2768 1239 100 0 esirs#115
xform 0 2976 1392
p 2704 944 100 0 0 FTVL:LONG
p 2832 1200 100 0 1 SCAN:Passive
p 2928 1232 100 1024 -1 name:$(top)BIASPWR
use esirs 2768 839 100 0 esirs#114
xform 0 2976 992
p 2704 544 100 0 0 FTVL:LONG
p 2832 800 100 0 1 SCAN:Passive
p 2928 832 100 1024 -1 name:$(top)BIASVDD
use esirs 2768 455 100 0 esirs#113
xform 0 2976 608
p 2704 160 100 0 0 FTVL:LONG
p 2832 416 100 0 1 SCAN:Passive
p 2928 448 100 1024 -1 name:$(top)BIASVRES
use esirs 2768 71 100 0 esirs#112
xform 0 2976 224
p 2704 -224 100 0 0 FTVL:LONG
p 2832 32 100 0 1 SCAN:Passive
p 2928 64 100 1024 -1 name:$(top)PRESETS
use esirs -96 -1497 100 0 esirs#111
xform 0 112 -1344
p -160 -1792 100 0 0 FTVL:LONG
p -32 -1536 100 0 1 SCAN:Passive
p 64 -1504 100 1024 -1 name:$(top)DACPRE25
use esirs 640 -1497 100 0 esirs#110
xform 0 848 -1344
p 576 -1792 100 0 0 FTVL:LONG
p 704 -1536 100 0 1 SCAN:Passive
p 800 -1504 100 1024 -1 name:$(top)DACPRE26
use esirs 1344 -1497 100 0 esirs#109
xform 0 1552 -1344
p 1280 -1792 100 0 0 FTVL:LONG
p 1408 -1536 100 0 1 SCAN:Passive
p 1504 -1504 100 1024 -1 name:$(top)DACPRE27
use esirs 2080 -1497 100 0 esirs#108
xform 0 2288 -1344
p 2016 -1792 100 0 0 FTVL:LONG
p 2144 -1536 100 0 1 SCAN:Passive
p 2240 -1504 100 1024 -1 name:$(top)DACPRE28
use esirs 2080 -1881 100 0 esirs#107
xform 0 2288 -1728
p 2016 -2176 100 0 0 FTVL:LONG
p 2144 -1920 100 0 1 SCAN:Passive
p 2240 -1888 100 1024 -1 name:$(top)DACPRE29
use esirs 1344 -1881 100 0 esirs#106
xform 0 1552 -1728
p 1280 -2176 100 0 0 FTVL:LONG
p 1408 -1920 100 0 1 SCAN:Passive
p 1504 -1888 100 1024 -1 name:$(top)DACPRE30
use esirs 640 -1881 100 0 esirs#105
xform 0 848 -1728
p 576 -2176 100 0 0 FTVL:LONG
p 704 -1920 100 0 1 SCAN:Passive
p 800 -1888 100 1024 -1 name:$(top)DACPRE31
use esirs -96 -1881 100 0 esirs#104
xform 0 112 -1728
p -160 -2176 100 0 0 FTVL:LONG
p -32 -1920 100 0 1 SCAN:Passive
p 64 -1888 100 1024 -1 name:$(top)DACPRE00
use esirs -96 -1113 100 0 esirs#103
xform 0 112 -960
p -160 -1408 100 0 0 FTVL:LONG
p -32 -1152 100 0 1 SCAN:Passive
p 64 -1120 100 1024 -1 name:$(top)DACPRE24
use esirs 640 -1113 100 0 esirs#102
xform 0 848 -960
p 576 -1408 100 0 0 FTVL:LONG
p 704 -1152 100 0 1 SCAN:Passive
p 800 -1120 100 1024 -1 name:$(top)DACPRE23
use esirs 1344 -1113 100 0 esirs#101
xform 0 1552 -960
p 1280 -1408 100 0 0 FTVL:LONG
p 1408 -1152 100 0 1 SCAN:Passive
p 1504 -1120 100 1024 -1 name:$(top)DACPRE22
use esirs 2080 -1113 100 0 esirs#100
xform 0 2288 -960
p 2016 -1408 100 0 0 FTVL:LONG
p 2144 -1152 100 0 1 SCAN:Passive
p 2240 -1120 100 1024 -1 name:$(top)DACPRE21
use esirs 2080 -729 100 0 esirs#99
xform 0 2288 -576
p 2016 -1024 100 0 0 FTVL:LONG
p 2144 -768 100 0 1 SCAN:Passive
p 2240 -736 100 1024 -1 name:$(top)DACPRE20
use esirs 1344 -729 100 0 esirs#98
xform 0 1552 -576
p 1280 -1024 100 0 0 FTVL:LONG
p 1408 -768 100 0 1 SCAN:Passive
p 1504 -736 100 1024 -1 name:$(top)DACPRE19
use esirs 640 -729 100 0 esirs#97
xform 0 848 -576
p 576 -1024 100 0 0 FTVL:LONG
p 704 -768 100 0 1 SCAN:Passive
p 800 -736 100 1024 -1 name:$(top)DACPRE18
use esirs -96 -729 100 0 esirs#96
xform 0 112 -576
p -160 -1024 100 0 0 FTVL:LONG
p -32 -768 100 0 1 SCAN:Passive
p 64 -736 100 1024 -1 name:$(top)DACPRE17
use esirs -96 -329 100 0 esirs#95
xform 0 112 -176
p -160 -624 100 0 0 FTVL:LONG
p -32 -368 100 0 1 SCAN:Passive
p 64 -336 100 1024 -1 name:$(top)DACPRE16
use esirs 640 -329 100 0 esirs#94
xform 0 848 -176
p 576 -624 100 0 0 FTVL:LONG
p 704 -368 100 0 1 SCAN:Passive
p 800 -336 100 1024 -1 name:$(top)DACPRE15
use esirs 1344 -329 100 0 esirs#93
xform 0 1552 -176
p 1280 -624 100 0 0 FTVL:LONG
p 1408 -368 100 0 1 SCAN:Passive
p 1504 -336 100 1024 -1 name:$(top)DACPRE14
use esirs 2048 71 100 0 esirs#92
xform 0 2256 224
p 1984 -224 100 0 0 FTVL:LONG
p 2112 32 100 0 1 SCAN:Passive
p 2208 64 100 1024 -1 name:$(top)DACPRE13
use esirs 2048 455 100 0 esirs#91
xform 0 2256 608
p 1984 160 100 0 0 FTVL:LONG
p 2112 416 100 0 1 SCAN:Passive
p 2208 448 100 1024 -1 name:$(top)DACPRE12
use esirs 1344 71 100 0 esirs#90
xform 0 1552 224
p 1280 -224 100 0 0 FTVL:LONG
p 1408 32 100 0 1 SCAN:Passive
p 1504 64 100 1024 -1 name:$(top)DACPRE11
use esirs 640 71 100 0 esirs#89
xform 0 848 224
p 576 -224 100 0 0 FTVL:LONG
p 704 32 100 0 1 SCAN:Passive
p 800 64 100 1024 -1 name:$(top)DACPRE10
use esirs -96 71 100 0 esirs#88
xform 0 112 224
p -160 -224 100 0 0 FTVL:LONG
p -32 32 100 0 1 SCAN:Passive
p 64 64 100 1024 -1 name:$(top)DACPRE09
use esirs -96 455 100 0 esirs#87
xform 0 112 608
p -160 160 100 0 0 FTVL:LONG
p -32 416 100 0 1 SCAN:Passive
p 64 448 100 1024 -1 name:$(top)DACPRE08
use esirs 640 455 100 0 esirs#86
xform 0 848 608
p 576 160 100 0 0 FTVL:LONG
p 704 416 100 0 1 SCAN:Passive
p 800 448 100 1024 -1 name:$(top)DACPRE07
use esirs 1344 455 100 0 esirs#85
xform 0 1552 608
p 1280 160 100 0 0 FTVL:LONG
p 1408 416 100 0 1 SCAN:Passive
p 1504 448 100 1024 -1 name:$(top)DACPRE06
use esirs 1344 839 100 0 esirs#82
xform 0 1552 992
p 1280 544 100 0 0 FTVL:LONG
p 1408 800 100 0 1 SCAN:Passive
p 1504 832 100 1024 -1 name:$(top)DACPRE04
use esirs 640 839 100 0 esirs#81
xform 0 848 992
p 576 544 100 0 0 FTVL:LONG
p 704 800 100 0 1 SCAN:Passive
p 800 832 100 1024 -1 name:$(top)DACPRE03
use esirs -96 839 100 0 esirs#80
xform 0 112 992
p -160 544 100 0 0 FTVL:LONG
p -32 800 100 0 1 SCAN:Passive
p 64 832 100 1024 -1 name:$(top)DACPRE02
use esirs 2048 1239 100 0 esirs#42
xform 0 2256 1392
p 1984 944 100 0 0 FTVL:LONG
p 2112 1200 100 0 1 SCAN:Passive
p 2208 1232 100 1024 -1 name:$(top)DACPRE01
use esirs 2048 1655 100 0 esirs#41
xform 0 2256 1808
p 1984 1360 100 0 0 FTVL:LONG
p 2112 1616 100 0 1 SCAN:Passive
p 2208 1648 100 1024 -1 name:$(top)edtTimeout
use esirs 1344 1671 100 0 esirs#40
xform 0 1552 1824
p 1280 1376 100 0 0 FTVL:LONG
p 1408 1632 100 0 1 SCAN:Passive
p 1504 1664 100 1024 -1 name:$(top)pixelBaseClock
use esirs 1344 1255 100 0 esirs#39
xform 0 1552 1408
p 1408 1216 100 0 1 SCAN:Passive
p 1504 1248 100 1024 -1 name:$(top)timer
use esirs 640 1255 100 0 esirs#32
xform 0 848 1408
p 576 960 100 0 0 FTVL:LONG
p 704 1216 100 0 1 SCAN:Passive
p 800 1248 100 1024 -1 name:$(top)CYCLETYP
use esirs 640 1671 100 0 esirs#31
xform 0 848 1824
p 576 1376 100 0 0 FTVL:LONG
p 704 1632 100 0 1 SCAN:Passive
p 800 1664 100 1024 -1 name:$(top)postResets
use esirs -96 1255 100 0 esirs#27
xform 0 112 1408
p -160 960 100 0 0 FTVL:LONG
p -32 1216 100 0 1 SCAN:Passive
p 64 1248 100 1024 -1 name:$(top)lutTimeout
use esirs -96 1671 100 0 esirs#7
xform 0 112 1824
p -160 1376 100 0 0 FTVL:LONG
p -32 1632 100 0 1 SCAN:Passive
p 64 1664 100 1024 -1 name:$(top)preResets
use esirs 2880 -1497 100 0 esirs#118
xform 0 3088 -1344
p 2816 -1792 100 0 0 FTVL:LONG
p 2944 -1536 100 0 1 SCAN:Passive
p 3040 -1504 100 1024 -1 name:$(top)EDTACTN
use esirs 2880 -1113 100 0 esirs#119
xform 0 3088 -960
p 2816 -1408 100 0 0 FTVL:LONG
p 2944 -1152 100 0 1 SCAN:Passive
p 3040 -1120 100 1024 -1 name:$(top)EDTFRAME
use esirs 2880 -729 100 0 esirs#120
xform 0 3088 -576
p 2816 -1024 100 0 0 FTVL:LONG
p 2944 -768 100 0 1 SCAN:Passive
p 3040 -736 100 1024 -1 name:$(top)EDTTOTAL
use esirs 2880 -1865 100 0 esirs#121
xform 0 3088 -1712
p 2816 -2160 100 0 0 FTVL:LONG
p 2944 -1904 100 0 1 SCAN:Passive
p 3040 -1872 100 1024 -1 name:$(top)FOCUSPOS
use tb200abc 1984 1991 100 0 tb200abc#1
xform 0 2336 2048
use bc200 -576 -408 -100 0 frame
xform 0 1104 896
use rb200abc 1984 -313 100 0 rb200abc#0
xform 0 2336 -192
[comments]
RCS: $Name:  $ $Id: flamSadDcConfig.sch,v 0.0 2006/06/21 15:20:21 hon Exp $
