[symbol2]
bbox 32 32 768 384
uniq 394
[tools]
[attributes]
[layers]
<symbol>
l 100 0 0 316 203 flamDcCommand
r 0 32 32 768 384
[comments]
RCS: "$Name:  $ $Id: flamDcCommand.sym,v 0.0 2006/06/21 15:20:21 hon Exp $"
