[schematic2]
uniq 1355
[tools]
[detail]
w 4076 331 100 0 n#1354 estringouts.estringouts#1351.OUT 3808 320 4416 320 4416 704 4672 704 4672 1056 4800 1056 egenSubFLAM.egenSubFLAM#1212.M
w 3884 427 100 0 n#1353 estringouts.estringouts#1351.FLNK 3808 352 3872 352 3872 416 3968 416 estringouts.estringouts#1324.SLNK
w 3340 379 100 0 n#1352 ecad20.ecad20#1170.VALM 3136 896 3200 896 3200 368 3552 368 estringouts.estringouts#1351.DOL
w 3564 459 100 0 n#1349 ecad20.ecad20#1170.VALL 3136 960 3232 960 3232 448 3968 448 estringouts.estringouts#1324.DOL
w 4612 651 100 0 n#1348 flamLinkEnable.flamLinkEnable#861.FLINK 4480 32 4576 32 4576 640 4720 640 4720 736 4800 736 egenSubFLAM.egenSubFLAM#1212.SLNK
w 3372 699 100 0 n#1345 estringouts.estringouts#1321.DOL 3552 688 3264 688 3264 1024 3136 1024 ecad20.ecad20#1170.VALK
w 3588 763 100 0 n#1344 estringouts.estringouts#1318.DOL 3952 752 3296 752 3296 1088 3136 1088 ecad20.ecad20#1170.VALJ
w 3196 1163 100 0 n#1343 estringouts.estringouts#1319.DOL 3488 976 3328 976 3328 1152 3136 1152 ecad20.ecad20#1170.VALI
w 3628 1035 100 0 n#1342 estringouts.estringouts#1317.DOL 3968 1024 3360 1024 3360 1216 3136 1216 ecad20.ecad20#1170.VALH
w 3212 1291 100 0 n#1341 ecad20.ecad20#1170.VALG 3136 1280 3360 1280 3360 1264 3552 1264 estringouts.estringouts#1320.DOL
w 4476 747 100 0 n#1338 estringouts.estringouts#1324.OUT 4224 400 4384 400 4384 736 4640 736 4640 1088 4800 1088 egenSubFLAM.egenSubFLAM#1212.L
w 4028 635 100 0 n#1337 estringouts.estringouts#1321.OUT 3808 640 3808 624 4320 624 4320 800 4608 800 4608 1120 4800 1120 egenSubFLAM.egenSubFLAM#1212.K
w 4396 843 100 0 n#1336 estringouts.estringouts#1318.OUT 4208 704 4288 704 4288 832 4576 832 4576 1152 4800 1152 egenSubFLAM.egenSubFLAM#1212.J
w 4140 875 100 0 n#1335 estringouts.estringouts#1319.OUT 3744 928 3808 928 3808 864 4544 864 4544 1184 4800 1184 egenSubFLAM.egenSubFLAM#1212.I
w 4332 987 100 0 n#1334 estringouts.estringouts#1317.OUT 4224 976 4512 976 4512 1216 4800 1216 egenSubFLAM.egenSubFLAM#1212.H
w 4108 1227 100 0 n#1333 estringouts.estringouts#1320.OUT 3808 1216 4480 1216 4480 1248 4800 1248 egenSubFLAM.egenSubFLAM#1212.G
w 3820 1083 100 0 n#1332 estringouts.estringouts#1317.FLNK 4224 1008 4256 1008 4256 1072 3456 1072 3456 1232 3552 1232 estringouts.estringouts#1320.SLNK
w 3788 811 100 0 n#1331 estringouts.estringouts#1318.FLNK 4208 736 4256 736 4256 800 3392 800 3392 944 3488 944 estringouts.estringouts#1319.SLNK
w 3836 507 100 0 n#1330 estringouts.estringouts#1324.FLNK 4224 432 4288 432 4288 496 3456 496 3456 656 3552 656 estringouts.estringouts#1321.SLNK
w 3812 683 100 0 n#1327 estringouts.estringouts#1321.FLNK 3808 672 3888 672 3888 720 3952 720 estringouts.estringouts#1318.SLNK
w 3852 1003 100 0 n#1326 estringouts.estringouts#1319.FLNK 3744 960 3808 960 3808 992 3968 992 estringouts.estringouts#1317.SLNK
w 3828 1259 100 0 n#1325 estringouts.estringouts#1320.FLNK 3808 1248 3920 1248 3920 1296 4016 1296 estringouts.estringouts#843.SLNK
w 3644 1611 100 0 n#1310 ecad20.ecad20#1170.VALD 3136 1472 3328 1472 3328 1600 4032 1600 estringouts.estringouts#844.DOL
w 4620 1355 100 0 n#1308 estringouts.estringouts#844.OUT 4288 1552 4512 1552 4512 1344 4800 1344 egenSubFLAM.egenSubFLAM#1212.D
w 3860 1547 100 0 n#1306 estringouts.estringouts#1305.FLNK 3808 1536 3984 1536 3984 1568 4032 1568 estringouts.estringouts#844.SLNK
w 1564 331 100 0 n#1296 ecad4.ecad4#1265.MESS 1856 160 1952 160 1952 320 1248 320 1248 1472 1632 1472 eapply.eapply#1243.INMA
w 1532 299 100 0 n#1295 ecad4.ecad4#1265.VAL 1856 192 1920 192 1920 288 1216 288 1216 1504 1632 1504 eapply.eapply#1243.INPA
w 1868 427 100 0 n#1294 eapply.eapply#1243.OCLA 2016 1472 2400 1472 2400 416 1408 416 1408 160 1536 160 ecad4.ecad4#1265.ICID
w 1900 395 100 0 n#1293 eapply.eapply#1243.OUTA 2016 1504 2432 1504 2432 384 1440 384 1440 192 1536 192 ecad4.ecad4#1265.DIR
w 2620 1355 100 0 n#1291 estringouts.estringouts#1282.OUT 2432 -144 2560 -144 2560 256 2496 256 2496 1344 2816 1344 ecad20.ecad20#1170.F
w 2604 1675 100 0 n#1290 estringouts.estringouts#1281.OUT 2432 112 2528 112 2528 224 2464 224 2464 1664 2816 1664 ecad20.ecad20#1170.A
w 2252 -5 100 0 n#1289 estringouts.estringouts#1282.FLNK 2432 -112 2496 -112 2496 -16 2080 -16 2080 128 2176 128 estringouts.estringouts#1281.SLNK
w 1900 -405 100 0 n#1286 ecad4.ecad4#1265.STLK 1856 -416 2016 -416 2016 -128 2176 -128 estringouts.estringouts#1282.SLNK
w 1916 11 100 0 n#1285 ecad4.ecad4#1265.VALA 1856 0 2048 0 2048 160 2176 160 estringouts.estringouts#1281.DOL
w 1900 -53 100 0 n#1284 ecad4.ecad4#1265.VALB 1856 -64 2016 -64 2016 -96 2176 -96 estringouts.estringouts#1282.DOL
w 2284 2027 100 0 n#1262 ecad20.ecad20#1170.MESS 3136 1824 3200 1824 3200 2016 1440 2016 1440 1408 1632 1408 eapply.eapply#1243.INMB
w 2284 1995 100 0 n#1261 ecad20.ecad20#1170.VAL 3136 1856 3168 1856 3168 1984 1472 1984 1472 1440 1632 1440 eapply.eapply#1243.INPB
w 2476 1835 100 0 n#1260 eapply.eapply#1243.OCLB 2016 1408 2208 1408 2208 1824 2816 1824 ecad20.ecad20#1170.ICID
w 2460 1867 100 0 n#1259 eapply.eapply#1243.OUTB 2016 1440 2176 1440 2176 1856 2816 1856 ecad20.ecad20#1170.DIR
w 3852 -117 100 0 n#1210 ecad20.ecad20#1170.VALO 3136 768 3168 768 3168 -128 4608 -128 4608 64 4704 64 ecalcs.ecalcs#303.SDIS
w 6076 810 120 0 n#1208 estringouts.estringouts#839.FLNK 3872 2112 3968 2112 3968 2176 4640 2176 4640 1824 6080 1824 6080 -192 4128 -192 4128 64 4160 64 flamLinkEnable.flamLinkEnable#861.ENABLE
w 3509 236 120 0 n#1226 efanouts.efanouts#863.LNK1 3584 128 3696 128 3696 224 3408 224 3408 336 3552 336 estringouts.estringouts#1351.SLNK
w 4108 1419 100 0 n#1201 estringouts.estringouts#1305.OUT 3808 1504 3808 1408 4480 1408 4480 1312 4800 1312 egenSubFLAM.egenSubFLAM#1212.E
w 4204 1699 100 0 n#1199 estringouts.estringouts#841.OUT 3872 1792 3936 1792 3936 1696 4544 1696 4544 1376 4800 1376 egenSubFLAM.egenSubFLAM#1212.C
w 4572 1627 100 0 n#1198 estringouts.estringouts#840.OUT 4256 1856 4576 1856 4576 1408 4800 1408 egenSubFLAM.egenSubFLAM#1212.B
w 4204 2083 100 0 n#1197 estringouts.estringouts#839.OUT 3872 2080 4608 2080 4608 1440 4800 1440 egenSubFLAM.egenSubFLAM#1212.A
w 3228 1891 100 0 n#1190 ecad20.ecad20#1170.VALA 3136 1664 3232 1664 3232 2128 3616 2128 estringouts.estringouts#839.DOL
w 3596 1907 100 0 n#1189 ecad20.ecad20#1170.VALB 3136 1600 3264 1600 3264 1904 4000 1904 estringouts.estringouts#840.DOL
w 3420 1843 100 0 n#1188 ecad20.ecad20#1170.VALC 3136 1536 3296 1536 3296 1840 3616 1840 estringouts.estringouts#841.DOL
w 3212 1419 100 0 n#1186 ecad20.ecad20#1170.VALE 3136 1408 3360 1408 3360 1552 3552 1552 estringouts.estringouts#1305.DOL
w 3436 1355 100 0 n#1185 estringouts.estringouts#843.DOL 4016 1328 3808 1328 3808 1344 3136 1344 ecad20.ecad20#1170.VALF
w 4500 1291 100 0 n#1184 estringouts.estringouts#843.OUT 4272 1280 4800 1280 egenSubFLAM.egenSubFLAM#1212.F
w 3916 1883 100 0 n#1183 estringouts.estringouts#841.FLNK 3872 1824 3904 1824 3904 1872 4000 1872 estringouts.estringouts#840.SLNK
w 3868 1963 100 0 n#1182 estringouts.estringouts#840.FLNK 4256 1888 4288 1888 4288 1952 3520 1952 3520 2096 3616 2096 estringouts.estringouts#839.SLNK
w 3916 1675 100 0 n#1180 estringouts.estringouts#844.FLNK 4288 1584 4384 1584 4384 1664 3520 1664 3520 1808 3616 1808 estringouts.estringouts#841.SLNK
w 3868 1387 100 0 n#1179 estringouts.estringouts#843.FLNK 4272 1312 4288 1312 4288 1376 3520 1376 3520 1520 3552 1520 estringouts.estringouts#1305.SLNK
w 3252 59 100 0 n#1227 ecad20.ecad20#1170.STLK 3136 224 3232 224 3232 48 3344 48 efanouts.efanouts#863.SLNK
w 3954 3 100 0 n#862 efanouts.efanouts#863.LNK2 3584 96 3808 96 3808 0 4160 0 flamLinkEnable.flamLinkEnable#861.SLINK
w 4786 547 100 0 n#650 junction 5024 288 5024 544 4608 544 4608 480 4704 480 ecalcs.ecalcs#303.INPA
w 5090 227 100 0 n#650 ecalcs.ecalcs#303.VAL 4992 288 5024 288 5024 224 5216 224 elongouts.elongouts#304.DOL
w 5500 651 100 0 n#1234 elongouts.elongouts#316.OUT 5472 640 5600 640 5600 -32 5696 -32 hwout.hwout#319.outp
w 5298 483 100 0 n#635 elongins.elongins#272.VAL 5472 384 5536 384 5536 480 5120 480 5120 704 5216 704 elongouts.elongouts#316.DOL
w 5330 515 100 0 n#636 elongins.elongins#272.FLNK 5472 416 5568 416 5568 512 5152 512 5152 672 5216 672 elongouts.elongouts#316.SLNK
w 5084 251 100 0 n#1230 ecalcs.ecalcs#303.FLNK 4992 320 5088 320 5088 192 5216 192 elongouts.elongouts#304.SLNK
w 5298 291 100 0 n#312 elongouts.elongouts#304.OUT 5472 160 5536 160 5536 288 5120 288 5120 400 5216 400 elongins.elongins#272.SLNK
s 5168 1248 120 0 dither
s 5161 1098 100 0 Exposure time
s 5160 1127 100 0 Total time
s 5163 1162 100 0 obs_mode
s 5164 1194 100 0 Frame Count
s 2659 1670 120 0 command
s 2675 1594 120 0 power
s 2640 1520 120 0 voltage
s 5184 -416 220 0 mce4_cont-18.sch 12/10/2001 4:15 PM EST
s 5161 1387 100 0 command
s 5161 1350 100 0 obs ID
s 5163 1317 100 0 DHS write
s 5161 1451 100 0 sim mode
s 5168 1280 100 0 local archive
s 5161 1419 100 0 socket number
s 2656 1408 120 0 limit vel
s 2656 1472 120 0 frequency
s 2672 1168 120 0 motor name
s 2672 1232 120 0 step vel
s 2656 1280 120 0 steps
s 2640 1088 120 0 current pos
s 2624 1024 120 0 steps To Move
s 2672 960 120 0 backlash
s 2688 784 120 0 park
s 2688 848 120 0 datum
s 2672 896 120 0 previous pos
s 2656 704 120 0 abort
[cell use]
use estringouts 3552 263 100 0 estringouts#1351
xform 0 3680 336
p 3568 224 100 0 1 OMSL:closed_loop
p 3568 256 100 768 -1 name:$(lvdt)previousPosW
use ecars 5072 2103 100 0 ecars#1350
xform 0 5232 2272
p 5184 2096 100 1024 1 name:$(lvdt)lvdtControlC
use estringouts 3616 2023 100 0 estringouts#839
xform 0 3744 2096
p 3648 1984 100 0 1 OMSL:closed_loop
p 3648 2016 100 768 -1 name:$(lvdt)commW
use estringouts 4000 1799 100 0 estringouts#840
xform 0 4128 1872
p 4016 1760 100 0 1 OMSL:closed_loop
p 4016 1792 100 768 -1 name:$(lvdt)powerW
use estringouts 3616 1735 100 0 estringouts#841
xform 0 3744 1808
p 3632 1696 100 0 1 OMSL:closed_loop
p 3632 1728 100 768 -1 name:$(lvdt)voltageW
use estringouts 4016 1223 100 0 estringouts#843
xform 0 4144 1296
p 4032 1184 100 0 1 OMSL:closed_loop
p 4032 1216 100 768 -1 name:$(lvdt)SmModeW
use estringouts 4032 1495 100 0 estringouts#844
xform 0 4160 1568
p 4048 1456 100 0 1 OMSL:closed_loop
p 4048 1488 100 768 -1 name:$(lvdt)frequencyW
use estringouts 2176 55 100 0 estringouts#1281
xform 0 2304 128
p 2192 16 100 0 1 OMSL:closed_loop
p 2192 48 100 768 -1 name:$(lvdt)InitPushVala
use estringouts 2176 -201 100 0 estringouts#1282
xform 0 2304 -128
p 2192 -240 100 0 1 OMSL:closed_loop
p 2192 -208 100 768 -1 name:$(lvdt)InitPushValb
use estringouts 3552 1447 100 0 estringouts#1305
xform 0 3680 1520
p 3568 1408 100 0 1 OMSL:closed_loop
p 3568 1440 100 768 -1 name:$(lvdt)limitVelW
use estringouts 3968 919 100 0 estringouts#1317
xform 0 4096 992
p 3984 880 100 0 1 OMSL:closed_loop
p 3984 912 100 768 -1 name:$(lvdt)stepsVelW
use estringouts 3952 647 100 0 estringouts#1318
xform 0 4080 720
p 3968 608 100 0 1 OMSL:closed_loop
p 3968 640 100 768 -1 name:$(lvdt)currentPosW
use estringouts 3488 871 100 0 estringouts#1319
xform 0 3616 944
p 3504 832 100 0 1 OMSL:closed_loop
p 3504 864 100 768 -1 name:$(lvdt)motorNameW
use estringouts 3552 1159 100 0 estringouts#1320
xform 0 3680 1232
p 3568 1120 100 0 1 OMSL:closed_loop
p 3568 1152 100 768 -1 name:$(lvdt)stepsW
use estringouts 3552 583 100 0 estringouts#1321
xform 0 3680 656
p 3568 544 100 0 1 OMSL:closed_loop
p 3568 576 100 768 -1 name:$(lvdt)stepsToMoveW
use estringouts 3968 343 100 0 estringouts#1324
xform 0 4096 416
p 3984 304 100 0 1 OMSL:closed_loop
p 3984 336 100 768 -1 name:$(lvdt)backlashW
use ecad4 1536 -505 100 0 ecad4#1265
xform 0 1696 -128
p 1472 -736 100 0 0 FTVB:STRING
p 1472 -768 100 0 0 FTVC:STRING
p 1472 -1056 100 0 0 SNAM:LVDTInitCommand
p 1648 -512 100 1024 -1 name:$(lvdt)init
p 1856 -160 75 768 -1 pproc(OUTC):NPP
use hwout 5696 -73 100 0 hwout#319
xform 0 5792 -32
p 5895 -40 100 0 -1 val(outp):$(sad)lvdtHeartbeat.VAL PP NMS
use elongins 5216 327 100 0 elongins#272
xform 0 5344 400
p 5005 601 100 0 0 DESC:Detector Controller Heartbeat
p 5328 320 100 1024 -1 name:$(lvdt)heartbeat
use elongouts 5216 583 100 0 elongouts#316
xform 0 5344 672
p 5101 1017 100 0 0 DESC:DC Heartbeat Longout
p 5216 544 100 0 1 OMSL:closed_loop
p 5216 576 100 768 -1 name:$(lvdt)heartbeatLO
p 5472 640 75 768 -1 pproc(OUT):PP
use elongouts 5216 103 100 0 elongouts#304
xform 0 5344 192
p 5101 537 100 0 0 DESC:DC Heartbeat is SIM FAST Mode
p 5228 68 100 0 1 OMSL:closed_loop
p 5328 96 100 1024 -1 name:$(lvdt)simHeartbeat
p 5472 160 75 768 -1 pproc(OUT):PP
use eapply 1632 967 100 0 eapply#1243
xform 0 1824 1328
p 1744 960 100 1024 -1 name:$(lvdt)apply
use egenSubFLAM 4800 647 100 0 egenSubFLAM#1212
xform 0 4944 1072
p 4577 421 100 0 0 FTA:STRING
p 4577 421 100 0 0 FTB:STRING
p 4577 389 100 0 0 FTC:STRING
p 4577 357 100 0 0 FTD:STRING
p 4577 325 100 0 0 FTE:STRING
p 4577 261 100 0 0 FTF:STRING
p 4577 261 100 0 0 FTG:STRING
p 4577 229 100 0 0 FTH:STRING
p 4577 197 100 0 0 FTI:STRING
p 4577 165 100 0 0 FTJ:STRING
p 4577 165 100 0 0 FTK:STRING
p 4577 165 100 0 0 FTL:STRING
p 4577 165 100 0 0 FTM:STRING
p 4577 165 100 0 0 FTN:STRING
p 4577 165 100 0 0 FTO:STRING
p 4577 165 100 0 0 FTP:STRING
p 4577 165 100 0 0 FTQ:STRING
p 4577 165 100 0 0 FTR:STRING
p 4577 165 100 0 0 FTS:STRING
p 4577 165 100 0 0 FTT:STRING
p 4577 165 100 0 0 FTU:STRING
p 4577 421 100 0 0 FTVA:LONG
p 4577 421 100 0 0 FTVB:LONG
p 4577 389 100 0 0 FTVC:STRING
p 4577 357 100 0 0 FTVD:STRING
p 4577 325 100 0 0 FTVE:STRING
p 4577 261 100 0 0 FTVF:STRING
p 4577 261 100 0 0 FTVG:STRING
p 4577 229 100 0 0 FTVH:STRING
p 4577 197 100 0 0 FTVI:STRING
p 4577 165 100 0 0 FTVJ:STRING
p 4577 165 100 0 0 FTVK:STRING
p 4577 165 100 0 0 FTVL:STRING
p 4577 165 100 0 0 FTVM:STRING
p 4577 165 100 0 0 FTVN:STRING
p 4577 165 100 0 0 FTVO:STRING
p 4577 165 100 0 0 FTVP:STRING
p 4577 165 100 0 0 FTVQ:STRING
p 4577 165 100 0 0 FTVR:STRING
p 4577 165 100 0 0 FTVS:STRING
p 4577 165 100 0 0 FTVT:STRING
p 4577 165 100 0 0 FTVU:STRING
p 4512 1054 100 0 0 INAM:uflvdtControlGinit
p 4512 1342 100 0 0 SCAN:5 second
p 4512 1022 100 0 0 SNAM:uflvdtControlGproc
p 4912 640 100 1024 -1 name:$(lvdt)lvdtControlG
use ecad20 2816 135 100 0 ecad20#1170
xform 0 2976 1024
p 2912 1152 100 0 0 FTVO:LONG
p 2912 800 100 0 0 SCAN:Passive
p 2912 736 100 0 0 SNAM:lvdtCommand
p 2928 128 100 1024 -1 name:$(lvdt)lvdtControl
p 2784 1568 75 1280 -1 pproc(INPB):NPP
p 3136 234 75 0 -1 pproc(STLK):PP
use efanouts 3344 -89 100 0 efanouts#863
xform 0 3464 64
p 3456 -96 100 1024 -1 name:$(lvdt)cmFanout
use flamLinkEnable 4160 -89 100 0 flamLinkEnable#861
xform 0 4320 32
p 4160 -96 100 0 1 setSystem:system $(lvdt)lvdt
use ecalcs 4704 7 100 0 ecalcs#303
xform 0 4848 272
p 4704 -32 100 0 1 CALC:A+1
p 4497 438 100 0 0 DESC:Heartbeat Simulator
p 4416 254 100 0 0 DISV:0
p 4704 -64 100 0 1 SCAN:1 second
p 4816 0 100 1024 -1 name:$(lvdt)HeartbeatCALC
[comments]
RCS: "$Name:  $ $Id: flamLvdt.sch,v 1.1 2006/06/27 14:28:11 hon Exp $"
