Comment This is not the original afm file released by Adobe. It has
Comment been edited to contain only information of interest to IDL.
Comment Copyright (c) 1984 Adobe Systems Incorporated. All Rights Reserved.
FontName AvantGarde-DemiOblique
Notice ITC Avant Garde Gothic is a registered trademark of International Typeface Corporation.
StartCharMetrics 228
C 32 ; WX 280 ; N space ; B 0 0 0 0 ;
C 33 ; WX 280 ; N exclam ; B 72 0 342 739 ;
C 34 ; WX 360 ; N quotedbl ; B 169 513 420 739 ;
C 35 ; WX 560 ; N numbersign ; B 77 0 623 740 ;
C 36 ; WX 560 ; N dollar ; B 100 -85 575 855 ;
C 37 ; WX 860 ; N percent ; B 124 -18 868 753 ;
C 38 ; WX 680 ; N ampersand ; B 71 -18 741 753 ;
C 39 ; WX 280 ; N quoteright ; B 159 466 342 739 ;
C 40 ; WX 380 ; N parenleft ; B 122 -128 486 739 ;
C 41 ; WX 380 ; N parenright ; B 13 -128 377 739 ;
C 42 ; WX 440 ; N asterisk ; B 176 456 490 753 ;
C 43 ; WX 600 ; N plus ; B 100 65 625 570 ;
C 44 ; WX 280 ; N comma ; B 47 -140 230 133 ;
C 45 ; WX 420 ; N hyphen ; B 122 259 421 377 ;
C 46 ; WX 280 ; N period ; B 72 0 230 133 ;
C 47 ; WX 460 ; N slash ; B 2 -128 580 739 ;
C 48 ; WX 560 ; N zero ; B 68 -18 623 753 ;
C 49 ; WX 560 ; N one ; B 246 0 516 739 ;
C 50 ; WX 560 ; N two ; B 42 0 619 753 ;
C 51 ; WX 560 ; N three ; B 53 -18 571 753 ;
C 52 ; WX 560 ; N four ; B 20 0 589 739 ;
C 53 ; WX 560 ; N five ; B 50 -18 586 739 ;
C 54 ; WX 560 ; N six ; B 62 -18 584 739 ;
C 55 ; WX 560 ; N seven ; B 85 0 637 739 ;
C 56 ; WX 560 ; N eight ; B 69 -18 582 753 ;
C 57 ; WX 560 ; N nine ; B 108 0 628 753 ;
C 58 ; WX 280 ; N colon ; B 72 0 298 502 ;
C 59 ; WX 280 ; N semicolon ; B 47 -140 298 502 ;
C 60 ; WX 600 ; N less ; B 98 42 668 593 ;
C 61 ; WX 600 ; N equal ; B 81 163 643 473 ;
C 62 ; WX 600 ; N greater ; B 56 42 625 593 ;
C 63 ; WX 560 ; N question ; B 129 0 586 753 ;
C 64 ; WX 740 ; N at ; B 64 -18 831 753 ;
C 65 ; WX 740 ; N A ; B 7 0 733 739 ;
C 66 ; WX 580 ; N B ; B 68 0 607 739 ;
C 67 ; WX 780 ; N C ; B 92 -18 858 753 ;
C 68 ; WX 700 ; N D ; B 68 0 734 739 ;
C 69 ; WX 520 ; N E ; B 68 0 602 739 ;
C 70 ; WX 480 ; N F ; B 68 0 581 739 ;
C 71 ; WX 840 ; N G ; B 91 -18 888 753 ;
C 72 ; WX 680 ; N H ; B 68 0 743 739 ;
C 73 ; WX 280 ; N I ; B 68 0 342 739 ;
C 74 ; WX 480 ; N J ; B 38 -18 551 739 ;
C 75 ; WX 620 ; N K ; B 68 0 736 739 ;
C 76 ; WX 440 ; N L ; B 68 0 456 739 ;
C 77 ; WX 900 ; N M ; B 68 0 977 739 ;
C 78 ; WX 740 ; N N ; B 68 0 804 739 ;
C 79 ; WX 840 ; N O ; B 91 -18 876 753 ;
C 80 ; WX 560 ; N P ; B 68 0 639 739 ;
C 81 ; WX 840 ; N Q ; B 91 -18 889 753 ;
C 82 ; WX 580 ; N R ; B 68 0 657 739 ;
C 83 ; WX 520 ; N S ; B 49 -18 579 753 ;
C 84 ; WX 420 ; N T ; B 119 0 555 739 ;
C 85 ; WX 640 ; N U ; B 109 -18 704 739 ;
C 86 ; WX 700 ; N V ; B 145 0 831 739 ;
C 87 ; WX 900 ; N W ; B 144 0 1035 739 ;
C 88 ; WX 680 ; N X ; B 5 0 813 739 ;
C 89 ; WX 620 ; N Y ; B 140 0 763 739 ;
C 90 ; WX 500 ; N Z ; B 18 0 598 739 ;
C 91 ; WX 320 ; N bracketleft ; B 100 -127 429 739 ;
C 92 ; WX 640 ; N backslash ; B 221 0 503 739 ;
C 93 ; WX 320 ; N bracketright ; B 13 -127 346 739 ;
C 94 ; WX 600 ; N asciicircum ; B 130 315 610 739 ;
C 95 ; WX 500 ; N underscore ; B -26 -138 491 -48 ;
C 96 ; WX 280 ; N quoteleft ; B 161 480 343 753 ;
C 97 ; WX 660 ; N a ; B 75 -18 718 572 ;
C 98 ; WX 660 ; N b ; B 54 -18 695 739 ;
C 99 ; WX 640 ; N c ; B 77 -18 670 572 ;
C 100 ; WX 660 ; N d ; B 76 -18 750 739 ;
C 101 ; WX 640 ; N e ; B 76 -18 665 572 ;
C 102 ; WX 280 ; N f ; B 57 0 413 753 ; L i fi ; L l fl ;
C 103 ; WX 660 ; N g ; B 30 -225 714 572 ;
C 104 ; WX 600 ; N h ; B 54 0 613 739 ;
C 105 ; WX 240 ; N i ; B 54 0 324 739 ;
C 106 ; WX 260 ; N j ; B -17 -185 342 739 ;
C 107 ; WX 580 ; N k ; B 54 0 625 739 ;
C 108 ; WX 240 ; N l ; B 54 0 324 739 ;
C 109 ; WX 940 ; N m ; B 54 0 952 572 ;
C 110 ; WX 600 ; N n ; B 54 0 613 572 ;
C 111 ; WX 640 ; N o ; B 76 -18 675 572 ;
C 112 ; WX 660 ; N p ; B 20 -185 691 572 ;
C 113 ; WX 660 ; N q ; B 77 -185 714 572 ;
C 114 ; WX 320 ; N r ; B 54 0 412 572 ;
C 115 ; WX 440 ; N s ; B 49 -18 482 572 ;
C 116 ; WX 300 ; N t ; B 74 0 390 739 ;
C 117 ; WX 600 ; N u ; B 88 -18 650 554 ;
C 118 ; WX 560 ; N v ; B 104 0 656 554 ;
C 119 ; WX 800 ; N w ; B 113 0 888 554 ;
C 120 ; WX 560 ; N x ; B 1 0 629 554 ;
C 121 ; WX 580 ; N y ; B 73 -185 671 554 ;
C 122 ; WX 460 ; N z ; B 20 0 528 554 ;
C 123 ; WX 340 ; N braceleft ; B 94 -127 439 738 ;
C 124 ; WX 600 ; N bar ; B 243 0 499 739 ;
C 125 ; WX 340 ; N braceright ; B 14 -127 360 738 ;
C 126 ; WX 600 ; N asciitilde ; B 105 215 619 421 ;
C 161 ; WX 280 ; N exclamdown ; B 38 -185 308 554 ;
C 162 ; WX 560 ; N cent ; B 106 39 593 713 ;
C 163 ; WX 560 ; N sterling ; B 40 0 616 753 ;
C 164 ; WX 160 ; N fraction ; B -121 0 417 739 ;
C 165 ; WX 560 ; N yen ; B 51 0 726 739 ;
C 166 ; WX 560 ; N florin ; B -44 -150 646 822 ;
C 167 ; WX 560 ; N section ; B 68 -141 608 768 ;
C 168 ; WX 560 ; N currency ; B 69 148 640 653 ;
C 169 ; WX 220 ; N quotesingle ; B 169 513 287 739 ;
C 170 ; WX 480 ; N quotedblleft ; B 159 480 548 753 ;
C 171 ; WX 460 ; N guillemotleft ; B 85 136 480 498 ;
C 172 ; WX 240 ; N guilsinglleft ; B 85 136 267 498 ;
C 173 ; WX 240 ; N guilsinglright ; B 98 136 280 498 ;
C 174 ; WX 520 ; N fi ; B 55 0 598 753 ;
C 175 ; WX 520 ; N fl ; B 55 0 598 753 ;
C 177 ; WX 500 ; N endash ; B 48 259 570 377 ;
C 178 ; WX 560 ; N dagger ; B 129 -128 608 739 ;
C 179 ; WX 560 ; N daggerdbl ; B 96 -128 615 739 ;
C 180 ; WX 280 ; N periodcentered ; B 119 251 276 384 ;
C 182 ; WX 600 ; N paragraph ; B 133 -128 664 739 ;
C 183 ; WX 600 ; N bullet ; B 190 149 533 486 ;
C 184 ; WX 280 ; N quotesinglbase ; B 46 -140 228 133 ;
C 185 ; WX 480 ; N quotedblbase ; B 45 -140 435 133 ;
C 186 ; WX 480 ; N quotedblright ; B 157 466 547 739 ;
C 187 ; WX 460 ; N guillemotright ; B 98 136 493 498 ;
C 188 ; WX 1000 ; N ellipsis ; B 100 0 924 133 ;
C 189 ; WX 1280 ; N perthousand ; B 124 -18 1281 753 ;
C 191 ; WX 560 ; N questiondown ; B 71 -199 528 554 ;
C 193 ; WX 420 ; N grave ; B 211 613 484 840 ;
C 194 ; WX 420 ; N acute ; B 205 613 488 838 ;
C 195 ; WX 540 ; N circumflex ; B 189 620 588 758 ;
C 196 ; WX 480 ; N tilde ; B 206 620 528 749 ;
C 197 ; WX 420 ; N macron ; B 189 620 486 730 ;
C 198 ; WX 480 ; N breve ; B 214 620 544 756 ;
C 199 ; WX 280 ; N dotaccent ; B 189 620 347 753 ;
C 200 ; WX 500 ; N dieresis ; B 189 620 557 753 ;
C 202 ; WX 360 ; N ring ; B 206 620 416 826 ;
C 203 ; WX 340 ; N cedilla ; B 42 -251 244 0 ;
C 205 ; WX 700 ; N hungarumlaut ; B 204 620 768 845 ;
C 206 ; WX 340 ; N ogonek ; B 52 -203 235 0 ;
C 207 ; WX 540 ; N caron ; B 214 620 613 758 ;
C 208 ; WX 1000 ; N emdash ; B 48 259 1070 377 ;
C 225 ; WX 900 ; N AE ; B 17 0 980 739 ;
C 227 ; WX 360 ; N ordfeminine ; B 90 316 480 753 ;
C 232 ; WX 480 ; N Lslash ; B 49 0 498 739 ;
C 233 ; WX 840 ; N Oslash ; B 91 -70 887 813 ;
C 234 ; WX 1060 ; N OE ; B 100 -14 1141 753 ;
C 235 ; WX 360 ; N ordmasculine ; B 90 316 451 753 ;
C 241 ; WX 1080 ; N ae ; B 76 -18 1108 572 ;
C 245 ; WX 240 ; N dotlessi ; B 54 0 290 554 ;
C 248 ; WX 320 ; N lslash ; B 59 0 420 739 ;
C 249 ; WX 660 ; N oslash ; B 76 -50 680 606 ;
C 250 ; WX 1080 ; N oe ; B 76 -18 1105 572 ;
C 251 ; WX 600 ; N germandbls ; B 51 -18 628 753 ;
EndCharMetrics
