Comment This is not the original afm file released by Adobe. It has
Comment been edited to contain only information of interest to IDL.
Comment Copyright (c) 1984 Adobe Systems Incorporated. All Rights Reserved.
FontName Bookman-LightItalic
Notice ITC Bookman is a registered trademark of International Typeface Corporation.
StartCharMetrics 228
C 32 ; WX 300 ; N space ; B 0 0 0 0 ;
C 33 ; WX 320 ; N exclam ; B 103 -8 342 698 ;
C 34 ; WX 360 ; N quotedbl ; B 107 468 402 699 ;
C 35 ; WX 620 ; N numbersign ; B 107 0 598 681 ;
C 36 ; WX 620 ; N dollar ; B 78 -85 619 762 ;
C 37 ; WX 800 ; N percent ; B 56 -8 811 691 ;
C 38 ; WX 820 ; N ampersand ; B 65 -18 848 698 ;
C 39 ; WX 280 ; N quoteright ; B 148 470 288 698 ;
C 40 ; WX 280 ; N parenleft ; B 96 -146 383 727 ;
C 41 ; WX 280 ; N parenright ; B -8 -146 279 727 ;
C 42 ; WX 440 ; N asterisk ; B 139 324 505 698 ;
C 43 ; WX 600 ; N plus ; B 91 43 595 548 ;
C 44 ; WX 300 ; N comma ; B 88 -115 227 112 ;
C 45 ; WX 320 ; N hyphen ; B 78 269 336 325 ;
C 46 ; WX 300 ; N period ; B 96 -8 231 127 ;
C 47 ; WX 600 ; N slash ; B 104 -149 562 717 ;
C 48 ; WX 620 ; N zero ; B 86 -17 646 698 ;
C 49 ; WX 620 ; N one ; B 154 0 500 681 ;
C 50 ; WX 620 ; N two ; B 66 0 636 698 ;
C 51 ; WX 620 ; N three ; B 55 -17 622 698 ;
C 52 ; WX 620 ; N four ; B 69 0 634 681 ;
C 53 ; WX 620 ; N five ; B 70 -17 614 681 ;
C 54 ; WX 620 ; N six ; B 89 -17 657 698 ;
C 55 ; WX 620 ; N seven ; B 143 0 672 681 ;
C 56 ; WX 620 ; N eight ; B 61 -17 655 698 ;
C 57 ; WX 620 ; N nine ; B 77 -17 649 698 ;
C 58 ; WX 300 ; N colon ; B 96 -8 292 494 ;
C 59 ; WX 300 ; N semicolon ; B 88 -114 292 494 ;
C 60 ; WX 600 ; N less ; B 79 33 588 561 ;
C 61 ; WX 600 ; N equal ; B 91 161 595 433 ;
C 62 ; WX 600 ; N greater ; B 93 33 602 561 ;
C 63 ; WX 540 ; N question ; B 114 -8 604 698 ;
C 64 ; WX 780 ; N at ; B 102 -17 802 698 ;
C 65 ; WX 700 ; N A ; B -25 0 720 681 ;
C 66 ; WX 720 ; N B ; B 21 0 746 681 ;
C 67 ; WX 720 ; N C ; B 88 -17 746 698 ;
C 68 ; WX 740 ; N D ; B 21 0 782 681 ;
C 69 ; WX 680 ; N E ; B 21 0 736 681 ;
C 70 ; WX 620 ; N F ; B 21 0 743 681 ;
C 71 ; WX 760 ; N G ; B 88 -17 813 698 ;
C 72 ; WX 800 ; N H ; B 21 0 888 681 ;
C 73 ; WX 320 ; N I ; B 21 0 412 681 ;
C 74 ; WX 560 ; N J ; B -2 -17 666 681 ;
C 75 ; WX 720 ; N K ; B 21 0 804 681 ;
C 76 ; WX 580 ; N L ; B 21 0 656 681 ;
C 77 ; WX 860 ; N M ; B 18 0 956 681 ;
C 78 ; WX 720 ; N N ; B 18 0 823 681 ;
C 79 ; WX 760 ; N O ; B 88 -17 799 698 ;
C 80 ; WX 600 ; N P ; B 21 0 681 681 ;
C 81 ; WX 780 ; N Q ; B 61 -191 812 698 ;
C 82 ; WX 700 ; N R ; B 21 0 736 681 ;
C 83 ; WX 640 ; N S ; B 61 -17 668 698 ;
C 84 ; WX 600 ; N T ; B 50 0 725 681 ;
C 85 ; WX 720 ; N U ; B 118 -17 842 681 ;
C 86 ; WX 680 ; N V ; B 87 0 815 681 ;
C 87 ; WX 960 ; N W ; B 87 0 1095 681 ;
C 88 ; WX 700 ; N X ; B -25 0 815 681 ;
C 89 ; WX 660 ; N Y ; B 87 0 809 681 ;
C 90 ; WX 580 ; N Z ; B 8 0 695 681 ;
C 91 ; WX 260 ; N bracketleft ; B 56 -136 351 717 ;
C 92 ; WX 600 ; N backslash ; B 84 0 542 717 ;
C 93 ; WX 260 ; N bracketright ; B 15 -136 309 717 ;
C 94 ; WX 600 ; N asciicircum ; B 97 276 599 681 ;
C 95 ; WX 500 ; N underscore ; B 0 -155 500 -95 ;
C 96 ; WX 280 ; N quoteleft ; B 191 470 330 698 ;
C 97 ; WX 620 ; N a ; B 71 -8 686 494 ;
C 98 ; WX 600 ; N b ; B 88 -8 621 717 ;
C 99 ; WX 480 ; N c ; B 65 -8 522 494 ;
C 100 ; WX 640 ; N d ; B 65 -8 695 717 ;
C 101 ; WX 540 ; N e ; B 65 -8 575 494 ;
C 102 ; WX 340 ; N f ; B -160 -218 557 725 ; L i fi ; L l fl ;
C 103 ; WX 560 ; N g ; B 4 -221 581 494 ;
C 104 ; WX 620 ; N h ; B 88 -8 689 717 ;
C 105 ; WX 280 ; N i ; B 88 -8 351 663 ;
C 106 ; WX 280 ; N j ; B -200 -221 308 663 ;
C 107 ; WX 600 ; N k ; B 88 -8 657 717 ;
C 108 ; WX 280 ; N l ; B 100 -8 342 717 ;
C 109 ; WX 880 ; N m ; B 88 -8 952 494 ;
C 110 ; WX 620 ; N n ; B 88 -8 673 494 ;
C 111 ; WX 540 ; N o ; B 65 -8 572 494 ;
C 112 ; WX 600 ; N p ; B -24 -212 620 494 ;
C 113 ; WX 560 ; N q ; B 65 -212 584 494 ;
C 114 ; WX 400 ; N r ; B 88 0 481 494 ;
C 115 ; WX 540 ; N s ; B 65 -8 547 494 ;
C 116 ; WX 340 ; N t ; B 88 -8 411 664 ;
C 117 ; WX 620 ; N u ; B 88 -8 686 484 ;
C 118 ; WX 540 ; N v ; B 88 -8 562 494 ;
C 119 ; WX 880 ; N w ; B 88 -8 893 494 ;
C 120 ; WX 540 ; N x ; B 9 -8 626 494 ;
C 121 ; WX 600 ; N y ; B 60 -221 609 484 ;
C 122 ; WX 520 ; N z ; B 38 -8 561 494 ;
C 123 ; WX 360 ; N braceleft ; B 125 -191 439 717 ;
C 124 ; WX 600 ; N bar ; B 294 0 372 717 ;
C 125 ; WX 380 ; N braceright ; B 15 -191 330 717 ;
C 126 ; WX 600 ; N asciitilde ; B 91 207 595 386 ;
C 161 ; WX 320 ; N exclamdown ; B 73 -213 301 494 ;
C 162 ; WX 620 ; N cent ; B 148 -29 596 715 ;
C 163 ; WX 620 ; N sterling ; B 4 -17 702 698 ;
C 164 ; WX 20 ; N fraction ; B -228 0 323 681 ;
C 165 ; WX 620 ; N yen ; B 71 0 735 681 ;
C 166 ; WX 620 ; N florin ; B -26 -218 692 725 ;
C 167 ; WX 620 ; N section ; B 38 -178 638 698 ;
C 168 ; WX 620 ; N currency ; B 100 89 605 591 ;
C 169 ; WX 200 ; N quotesingle ; B 99 473 247 698 ;
C 170 ; WX 440 ; N quotedblleft ; B 191 470 493 698 ;
C 171 ; WX 300 ; N guillemotleft ; B 70 129 313 434 ;
C 172 ; WX 180 ; N guilsinglleft ; B 75 129 208 434 ;
C 173 ; WX 180 ; N guilsinglright ; B 70 129 203 434 ;
C 174 ; WX 640 ; N fi ; B -159 -222 709 725 ;
C 175 ; WX 660 ; N fl ; B -159 -218 713 725 ;
C 177 ; WX 500 ; N endash ; B 33 269 561 325 ;
C 178 ; WX 620 ; N dagger ; B 192 -130 570 698 ;
C 179 ; WX 620 ; N daggerdbl ; B 144 -122 566 698 ;
C 180 ; WX 300 ; N periodcentered ; B 137 229 272 364 ;
C 182 ; WX 620 ; N paragraph ; B 112 0 718 681 ;
C 183 ; WX 460 ; N bullet ; B 100 170 444 511 ;
C 184 ; WX 320 ; N quotesinglbase ; B 87 -114 226 113 ;
C 185 ; WX 480 ; N quotedblbase ; B 87 -114 390 113 ;
C 186 ; WX 440 ; N quotedblright ; B 148 470 451 698 ;
C 187 ; WX 300 ; N guillemotright ; B 60 129 303 434 ;
C 188 ; WX 1000 ; N ellipsis ; B 99 -8 900 127 ;
C 189 ; WX 1180 ; N perthousand ; B 56 -8 1199 691 ;
C 191 ; WX 540 ; N questiondown ; B 18 -212 508 494 ;
C 193 ; WX 340 ; N grave ; B 182 551 377 706 ;
C 194 ; WX 320 ; N acute ; B 178 551 373 706 ;
C 195 ; WX 440 ; N circumflex ; B 176 571 479 685 ;
C 196 ; WX 440 ; N tilde ; B 180 586 488 671 ;
C 197 ; WX 440 ; N macron ; B 178 599 484 658 ;
C 198 ; WX 440 ; N breve ; B 191 577 500 680 ;
C 199 ; WX 260 ; N dotaccent ; B 169 543 290 664 ;
C 200 ; WX 420 ; N dieresis ; B 185 569 467 688 ;
C 202 ; WX 300 ; N ring ; B 178 551 334 706 ;
C 203 ; WX 320 ; N cedilla ; B 45 -178 240 0 ;
C 205 ; WX 340 ; N hungarumlaut ; B 167 547 402 738 ;
C 206 ; WX 260 ; N ogonek ; B 51 -173 184 0 ;
C 207 ; WX 440 ; N caron ; B 178 571 481 684 ;
C 208 ; WX 1000 ; N emdash ; B 33 269 1061 325 ;
C 225 ; WX 1220 ; N AE ; B -45 0 1269 681 ;
C 227 ; WX 440 ; N ordfeminine ; B 94 307 513 698 ;
C 232 ; WX 580 ; N Lslash ; B 21 0 656 681 ;
C 233 ; WX 760 ; N Oslash ; B 88 -95 799 777 ;
C 234 ; WX 1180 ; N OE ; B 88 -17 1237 698 ;
C 235 ; WX 400 ; N ordmasculine ; B 94 307 455 698 ;
C 241 ; WX 880 ; N ae ; B 71 -8 918 494 ;
C 245 ; WX 280 ; N dotlessi ; B 88 -8 351 484 ;
C 248 ; WX 340 ; N lslash ; B 50 -8 398 717 ;
C 249 ; WX 540 ; N oslash ; B 65 -49 571 532 ;
C 250 ; WX 900 ; N oe ; B 65 -8 948 494 ;
C 251 ; WX 620 ; N germandbls ; B -121 -111 653 698 ;
EndCharMetrics
