Comment This is not the original afm file released by Adobe. It has
Comment been edited to contain only information of interest to IDL.
Comment Copyright (c) 1984 Adobe Systems Incorporated. All Rights Reserved.
FontName Helvetica-BoldOblique
Notice Helvetica is a registered trademark of Allied Corporation
StartCharMetrics 228
C 32 ; WX 278 ; N space ; B 0 0 0 0 ;
C 33 ; WX 333 ; N exclam ; B 112 0 417 729 ;
C 34 ; WX 474 ; N quotedbl ; B 177 470 579 729 ;
C 35 ; WX 556 ; N numbersign ; B 33 -30 660 696 ;
C 36 ; WX 556 ; N dollar ; B 59 -125 628 765 ;
C 37 ; WX 889 ; N percent ; B 129 -18 903 708 ;
C 38 ; WX 722 ; N ampersand ; B 89 -20 720 729 ;
C 39 ; WX 278 ; N quoteright ; B 166 469 356 729 ;
C 40 ; WX 333 ; N parenleft ; B 84 -202 458 729 ;
C 41 ; WX 333 ; N parenright ; B -21 -202 356 729 ;
C 42 ; WX 389 ; N asterisk ; B 145 385 478 730 ;
C 43 ; WX 584 ; N plus ; B 87 -10 596 474 ;
C 44 ; WX 278 ; N comma ; B 27 -174 245 146 ;
C 45 ; WX 333 ; N hyphen ; B 70 208 371 344 ;
C 46 ; WX 278 ; N period ; B 64 0 245 146 ;
C 47 ; WX 278 ; N slash ; B -1 -14 427 715 ;
C 48 ; WX 556 ; N zero ; B 81 -23 614 725 ;
C 49 ; WX 556 ; N one ; B 172 0 529 709 ;
C 50 ; WX 556 ; N two ; B 30 0 628 726 ;
C 51 ; WX 556 ; N three ; B 67 -23 613 726 ;
C 52 ; WX 556 ; N four ; B 57 0 599 709 ;
C 53 ; WX 556 ; N five ; B 59 -24 641 709 ;
C 54 ; WX 556 ; N six ; B 85 -23 625 727 ;
C 55 ; WX 556 ; N seven ; B 131 0 679 709 ;
C 56 ; WX 556 ; N eight ; B 60 -23 620 726 ;
C 57 ; WX 556 ; N nine ; B 68 -23 611 728 ;
C 58 ; WX 333 ; N colon ; B 113 0 374 521 ;
C 59 ; WX 333 ; N semicolon ; B 76 -174 374 521 ;
C 60 ; WX 584 ; N less ; B 77 -10 630 474 ;
C 61 ; WX 584 ; N equal ; B 61 52 622 412 ;
C 62 ; WX 584 ; N greater ; B 38 -10 591 474 ;
C 63 ; WX 611 ; N question ; B 168 0 672 744 ;
C 64 ; WX 975 ; N at ; B 73 -136 1032 746 ;
C 65 ; WX 722 ; N A ; B 26 0 703 729 ;
C 66 ; WX 722 ; N B ; B 82 0 762 729 ;
C 67 ; WX 722 ; N C ; B 107 -23 793 741 ;
C 68 ; WX 722 ; N D ; B 77 0 776 729 ;
C 69 ; WX 667 ; N E ; B 79 0 762 729 ;
C 70 ; WX 611 ; N F ; B 74 0 741 729 ;
C 71 ; WX 778 ; N G ; B 107 -24 819 741 ;
C 72 ; WX 722 ; N H ; B 68 0 812 729 ;
C 73 ; WX 278 ; N I ; B 63 0 368 729 ;
C 74 ; WX 556 ; N J ; B 59 -23 641 729 ;
C 75 ; WX 722 ; N K ; B 74 0 843 729 ;
C 76 ; WX 611 ; N L ; B 80 0 606 729 ;
C 77 ; WX 833 ; N M ; B 66 0 931 729 ;
C 78 ; WX 722 ; N N ; B 68 0 816 729 ;
C 79 ; WX 778 ; N O ; B 106 -23 828 741 ;
C 80 ; WX 667 ; N P ; B 76 0 747 729 ;
C 81 ; WX 778 ; N Q ; B 109 -54 831 741 ;
C 82 ; WX 722 ; N R ; B 80 0 785 729 ;
C 83 ; WX 667 ; N S ; B 76 -23 725 741 ;
C 84 ; WX 611 ; N T ; B 142 0 753 729 ;
C 85 ; WX 722 ; N U ; B 119 -23 809 729 ;
C 86 ; WX 667 ; N V ; B 179 0 802 729 ;
C 87 ; WX 944 ; N W ; B 168 0 1087 729 ;
C 88 ; WX 667 ; N X ; B 22 0 802 729 ;
C 89 ; WX 667 ; N Y ; B 182 0 805 729 ;
C 90 ; WX 611 ; N Z ; B 30 0 733 729 ;
C 91 ; WX 333 ; N bracketleft ; B 23 -202 463 729 ;
C 92 ; WX 278 ; N backslash ; B 138 -21 285 708 ;
C 93 ; WX 333 ; N bracketright ; B -25 -202 415 729 ;
C 94 ; WX 584 ; N asciicircum ; B 119 271 580 696 ;
C 95 ; WX 556 ; N underscore ; B -65 -200 550 -130 ;
C 96 ; WX 278 ; N quoteleft ; B 167 469 357 729 ;
C 97 ; WX 556 ; N a ; B 50 -24 578 551 ;
C 98 ; WX 611 ; N b ; B 59 -23 640 729 ;
C 99 ; WX 556 ; N c ; B 77 -23 597 551 ;
C 100 ; WX 611 ; N d ; B 79 -23 700 729 ;
C 101 ; WX 556 ; N e ; B 64 -23 591 551 ;
C 102 ; WX 333 ; N f ; B 90 0 464 729 ; L i fi ; L l fl ;
C 103 ; WX 611 ; N g ; B 26 -220 656 551 ;
C 104 ; WX 611 ; N h ; B 67 0 629 729 ;
C 105 ; WX 278 ; N i ; B 67 0 362 729 ;
C 106 ; WX 278 ; N j ; B -43 -219 365 729 ;
C 107 ; WX 556 ; N k ; B 59 0 651 729 ;
C 108 ; WX 278 ; N l ; B 67 0 362 729 ;
C 109 ; WX 889 ; N m ; B 60 0 911 553 ;
C 110 ; WX 611 ; N n ; B 63 0 629 551 ;
C 111 ; WX 611 ; N o ; B 82 -23 634 551 ;
C 112 ; WX 611 ; N p ; B 11 -219 637 551 ;
C 113 ; WX 611 ; N q ; B 72 -219 659 551 ;
C 114 ; WX 389 ; N r ; B 63 0 487 553 ;
C 115 ; WX 556 ; N s ; B 60 -23 589 551 ;
C 116 ; WX 333 ; N t ; B 101 -23 414 678 ;
C 117 ; WX 611 ; N u ; B 88 -23 656 542 ;
C 118 ; WX 556 ; N v ; B 129 0 651 542 ;
C 119 ; WX 778 ; N w ; B 120 0 881 542 ;
C 120 ; WX 556 ; N x ; B 16 0 648 542 ;
C 121 ; WX 556 ; N y ; B 37 -219 653 542 ;
C 122 ; WX 500 ; N z ; B 21 0 575 542 ;
C 123 ; WX 389 ; N braceleft ; B 84 -202 472 729 ;
C 124 ; WX 280 ; N bar ; B 57 -202 335 729 ;
C 125 ; WX 389 ; N braceright ; B 29 -202 419 729 ;
C 126 ; WX 584 ; N asciitilde ; B 97 144 581 322 ;
C 161 ; WX 333 ; N exclamdown ; B 26 -187 331 542 ;
C 162 ; WX 556 ; N cent ; B 79 -122 598 637 ;
C 163 ; WX 556 ; N sterling ; B 49 -20 629 717 ;
C 164 ; WX 167 ; N fraction ; B -177 -20 489 715 ;
C 165 ; WX 556 ; N yen ; B 107 0 702 705 ;
C 166 ; WX 556 ; N florin ; B -21 -221 690 745 ;
C 167 ; WX 556 ; N section ; B 56 -201 596 728 ;
C 168 ; WX 556 ; N currency ; B 66 105 644 604 ;
C 169 ; WX 238 ; N quotesingle ; B 177 469 343 729 ;
C 170 ; WX 500 ; N quotedblleft ; B 171 469 588 729 ;
C 171 ; WX 556 ; N guillemotleft ; B 135 71 571 484 ;
C 172 ; WX 333 ; N guilsinglleft ; B 128 73 351 476 ;
C 173 ; WX 333 ; N guilsinglright ; B 96 73 319 476 ;
C 174 ; WX 611 ; N fi ; B 85 0 703 729 ;
C 175 ; WX 611 ; N fl ; B 88 0 701 729 ;
C 177 ; WX 556 ; N endash ; B 35 208 624 313 ;
C 178 ; WX 556 ; N dagger ; B 109 -195 626 708 ;
C 179 ; WX 556 ; N daggerdbl ; B 35 -195 623 708 ;
C 180 ; WX 278 ; N periodcentered ; B 143 318 270 442 ;
C 182 ; WX 556 ; N paragraph ; B 121 -195 684 729 ;
C 183 ; WX 350 ; N bullet ; B 111 175 367 425 ;
C 184 ; WX 278 ; N quotesinglbase ; B 37 -135 228 125 ;
C 185 ; WX 500 ; N quotedblbase ; B 37 -164 462 141 ;
C 186 ; WX 500 ; N quotedblright ; B 173 469 595 729 ;
C 187 ; WX 556 ; N guillemotright ; B 103 71 533 482 ;
C 188 ; WX 1000 ; N ellipsis ; B 92 0 939 146 ;
C 189 ; WX 1000 ; N perthousand ; B 72 -20 1021 745 ;
C 191 ; WX 611 ; N questiondown ; B 52 -192 556 542 ;
C 193 ; WX 333 ; N grave ; B 175 595 339 745 ;
C 194 ; WX 333 ; N acute ; B 247 595 475 745 ;
C 195 ; WX 333 ; N circumflex ; B 135 598 453 745 ;
C 196 ; WX 333 ; N tilde ; B 117 595 500 729 ;
C 197 ; WX 333 ; N macron ; B 150 629 467 717 ;
C 198 ; WX 333 ; N breve ; B 188 593 455 736 ;
C 199 ; WX 333 ; N dotaccent ; B 241 607 377 729 ;
C 200 ; WX 333 ; N dieresis ; B 147 609 469 731 ;
C 202 ; WX 333 ; N ring ; B 214 565 398 745 ;
C 203 ; WX 333 ; N cedilla ; B -13 -220 270 -9 ;
C 205 ; WX 333 ; N hungarumlaut ; B 82 595 498 745 ;
C 206 ; WX 333 ; N ogonek ; B 23 -195 248 38 ;
C 207 ; WX 333 ; N caron ; B 167 598 485 745 ;
C 208 ; WX 1000 ; N emdash ; B 37 208 1070 313 ;
C 225 ; WX 1000 ; N AE ; B 1 0 1104 729 ;
C 227 ; WX 370 ; N ordfeminine ; B 96 277 451 746 ;
C 232 ; WX 611 ; N Lslash ; B 54 0 624 729 ;
C 233 ; WX 778 ; N Oslash ; B 34 -34 906 754 ;
C 234 ; WX 1000 ; N OE ; B 90 -20 1107 741 ;
C 235 ; WX 365 ; N ordmasculine ; B 92 276 471 745 ;
C 241 ; WX 889 ; N ae ; B 54 -20 927 555 ;
C 245 ; WX 278 ; N dotlessi ; B 67 0 322 542 ;
C 248 ; WX 278 ; N lslash ; B 50 0 372 729 ;
C 249 ; WX 611 ; N oslash ; B 12 -34 709 561 ;
C 250 ; WX 944 ; N oe ; B 71 -21 986 554 ;
C 251 ; WX 611 ; N germandbls ; B 67 -16 654 730 ;
EndCharMetrics
