make[1]: Entering directory `/snebulos/h3/xte/software/C++common/socDist/MissionMonitoring/mmUtilities'
co -rBuild3_2 RCS/Makefile,v Makefile
RCS/Makefile,v  -->  Makefile
revision 1.1
done
make[1]: Leaving directory `/snebulos/h3/xte/software/C++common/socDist/MissionMonitoring/mmUtilities'
make[1]: Entering directory `/snebulos/h3/xte/software/C++common/socDist/MissionMonitoring/mmUtilities'
Makefile:57: make.d.sun4: No such file or directory
touch make.d.sun4
make[1]: Leaving directory `/snebulos/h3/xte/software/C++common/socDist/MissionMonitoring/mmUtilities'
make[1]: Entering directory `/snebulos/h3/xte/software/C++common/socDist/MissionMonitoring/mmUtilities'
co -rBuild3_2 RCS/MMutilities.C,v MMutilities.C
RCS/MMutilities.C,v  -->  MMutilities.C
revision 1.3
done
CC -g  -I/cygx1/h1/berczuk/work/XTE/include -I/include  -c MMutilities.C -o MMutilities.o
MMutilities.C:
ar r $SOCHOME/lib/sun4/libmm.a MMutilities.o
co -rBuild3_2 RCS/MMapply.C,v MMapply.C
RCS/MMapply.C,v  -->  MMapply.C
revision 1.3
done
CC -g  -I/cygx1/h1/berczuk/work/XTE/include -I/include  -c MMapply.C -o MMapply.o
MMapply.C:
ar r $SOCHOME/lib/sun4/libmm.a MMapply.o
ranlib /cygx1/h1/berczuk/work/XTE/lib/sun4/libmm.a
ranlib /cygx1/h1/berczuk/work/XTE/lib/sun4/libmm.a
rm MMapply.o MMutilities.o
make[1]: Leaving directory `/snebulos/h3/xte/software/C++common/socDist/MissionMonitoring/mmUtilities'
make[1]: Entering directory `/snebulos/h3/xte/software/C++common/socDist/MissionMonitoring/mmMConfig'
CC -g  -I/cygx1/h1/berczuk/work/XTE/include -I/include  -c MeasConfig.C -o MeasConfig.o
MeasConfig.C:
ar r $SOCHOME/lib/sun4/libmm.a MeasConfig.o
ar r $SOCHOME/lib/sun4/libmm.a ConfigError.o
ranlib /cygx1/h1/berczuk/work/XTE/lib/sun4/libmm.a
ranlib /cygx1/h1/berczuk/work/XTE/lib/sun4/libmm.a
make[1]: Leaving directory `/snebulos/h3/xte/software/C++common/socDist/MissionMonitoring/mmMConfig'
make[1]: Entering directory `/snebulos/h3/xte/software/C++common/socDist/MissionMonitoring/mmACS'
CC -g  -I/cygx1/h1/berczuk/work/XTE/include -I/include  -c ACSMConfig.C -o ACSMConfig.o
ACSMConfig.C:
ar r $SOCHOME/lib/sun4/libmm.a ACSMConfig.o
ranlib /cygx1/h1/berczuk/work/XTE/lib/sun4/libmm.a
ranlib /cygx1/h1/berczuk/work/XTE/lib/sun4/libmm.a
make[1]: Leaving directory `/snebulos/h3/xte/software/C++common/socDist/MissionMonitoring/mmACS'
make[1]: Entering directory `/snebulos/h3/xte/software/C++common/socDist/MissionMonitoring/mmPCA'
ar rv /cygx1/h1/berczuk/work/XTE/lib/sun4/libmm.a PCAMeasConfig.o
r - PCAMeasConfig.o
ranlib /cygx1/h1/berczuk/work/XTE/lib/sun4/libmm.a
Install Public Libs for Pca Mission Mon
make[1]: Leaving directory `/snebulos/h3/xte/software/C++common/socDist/MissionMonitoring/mmPCA'
make[1]: Entering directory `/snebulos/h3/xte/software/C++common/socDist/MissionMonitoring/mmIPC'
ar r $SOCHOME/lib/sun4/libipc.a SOCIpc.o
ar r $SOCHOME/lib/sun4/libipc.a SOCClientList.o
CC -g  -I/cygx1/h1/berczuk/work/XTE/include -I/include  -c SOCClient.C -o SOCClient.o
SOCClient.C:
"SOCClient.C", line 59: error:  undefined function close called
"SOCClient.C", line 108: error:  undefined function write called
2 errors
make[1]: *** [SOCClient.o] Error 1
CC -g  -I/cygx1/h1/berczuk/work/XTE/include -I/include  -c SOCServer.C -o SOCServer.o
SOCServer.C:
"SOCServer.C", line 55: error:  undefined function close called
"SOCServer.C", line 69: error:  undefined function read called
2 errors
make[1]: *** [SOCServer.o] Error 1
ar r $SOCHOME/lib/sun4/libipc.a SOCiostream.o
ar r $SOCHOME/lib/sun4/libipc.a dumy.o
make[1]: Target `publibs' not remade because of errors.
make[1]: Leaving directory `/snebulos/h3/xte/software/C++common/socDist/MissionMonitoring/mmIPC'
make[1]: Entering directory `/snebulos/h3/xte/software/C++common/socDist/MissionMonitoring/mmTime'
co -rBuild3_2 RCS/Makefile,v Makefile
RCS/Makefile,v  -->  Makefile
revision 1.1
done
make[1]: Leaving directory `/snebulos/h3/xte/software/C++common/socDist/MissionMonitoring/mmTime'
make[1]: Entering directory `/snebulos/h3/xte/software/C++common/socDist/MissionMonitoring/mmTime'
Makefile:57: make.d.sun4: No such file or directory
touch make.d.sun4
make[1]: Leaving directory `/snebulos/h3/xte/software/C++common/socDist/MissionMonitoring/mmTime'
make[1]: Entering directory `/snebulos/h3/xte/software/C++common/socDist/MissionMonitoring/mmTime'
co -rBuild3_2 RCS/TimeTrak.C,v TimeTrak.C
RCS/TimeTrak.C,v  -->  TimeTrak.C
revision 1.3
done
CC -g  -I/cygx1/h1/berczuk/work/XTE/include -I/include  -c TimeTrak.C -o TimeTrak.o
TimeTrak.C:
ar r $SOCHOME/lib/sun4/libmm.a TimeTrak.o
ranlib /cygx1/h1/berczuk/work/XTE/lib/sun4/libmm.a
ranlib /cygx1/h1/berczuk/work/XTE/lib/sun4/libmm.a
rm TimeTrak.o
make[1]: Leaving directory `/snebulos/h3/xte/software/C++common/socDist/MissionMonitoring/mmTime'
