001 AIRMASS 	 AIRMASS1
002 AMEND 	 AIRMASS2
003 AMSTART 	 APERTURE
004 APERTURE 	 AZERROR1
005 AXISLAB 	 AZERROR2
006 AXISSZ 	 AZIMUTH1
007 AZIMEND 	 AZIMUTH2
008 AZIMUTH 	 BITPIX
009 BKAEND 	 BKAEND
010 BKASTART 	 BKASTART
011 BKWEND 	 BKWEND
012 BKWMAX 	 BKWMAX
013 BKWSTART 	 BKWSTART
014 CD1_1 	 CHPCOADD
015 CD1_2 	 CHPDELAY
016 CD2_1 	 CHPFREQ
017 CD2_2 	 CHPPA
018 CHPCOADD 	 CHPSETTL
019 CHPDELAY 	 CHPTHROW
020 CHPDUTY 	 COFFADUS
021 CHPFREQ 	 COFFWELL
022 CHPPA 	 COLDCLAM
023 CHPSETTL 	 COLDFING
024 CHPTHROW 	 COLDPLAT
025 COLDCLAM 	 COLDSCTR
026 COLDFING 	 COLDSEDG
027 COLDPLAT 	 COLDSTRP
028 COLDSCTR 	 COMPSTAT
029 COLDSEDG 	 DATALAB
030 COLDSTRP 	 DATE_FH
031 COMPSTAT 	 DATE-OBS
032 CRPA 	 DEC_BASE
033 CRPAEND 	 DEC_OFF
034 CRPIX1 	 DEC_TEL
035 CRPIX2 	 DETARRAY
036 CRVAL1 	 EFF_CHP
037 CRVAL2 	 EFF_FRM
038 CTYPE1 	 EFF_NOD
039 CTYPE2 	 EL1
040 DATALAB 	 EL2
041 DATATYP 	 ELERROR1
042 DATE 	 ELERROR2
043 DATE-OBS 	 EPOCH
044 DEC    	 EQUINOX
045 DECTRACK 	 FILT1WHE
046 DETARRAY 	 FILT2WHE
047 EFF_CHP 	 FIRSTSTG
048 EFF_FRM 	 FRAMEPA
049 EFF_NOD 	 FRMCOADD
050 ELEVATIO 	 FRMTIME
051 ELEVEND 	 GEMPRGID
052 EPOCH 	 GRATINGW
053 EQUINOX 	 HA1
054 FILTER1 	 HA2
055 FILTER2 	 HUMID1
056 FIRSTSTG 	 HUMID2
057 FOCOFFS 	 INSTRAA1
058 FRAME 	 INSTRAA2
059 FRMCOADD 	 INSTRPA1
060 FRMNAME 	 INSTRPA2
061 FRMTIME 	 INSTRUME
062 GEMPRGID 	 LOCTIME1
063 GRATING 	 LOCTIME2
064 HA    	 LST1
065 HAEND 	 LST2
066 INPORT 	 LYOTWHEE
067 INSTALIG 	 MJD
068 INSTRUME 	 NAXIS
069 LT    	 NAXIS1
070 LYOT 	 NAXIS2
071 M2BAFFLE 	 NAXIS3
072 M2CENBAF 	 NAXIS4
073 MJD-OBS 	 NAXIS5
074 NCHOPS 	 NAXIS6
075 NNODS 	 NODDELAY
076 NNODSETS 	 NODMODE
077 NOD    	 NODPA
078 NODAMP 	 NODSETS
079 NODDELAY 	 NODSETTL
080 NODMODE 	 NODSETTR
081 NODPA 	 NODTHROW
082 NODSET 	 NODTIME
083 NODSETS 	 NODTYPE
084 NODSETTL 	 OBJECT
085 NODSETTR 	 OBJTIME
086 NODTIME 	 OBSERVAT
087 NODTYPE 	 OBSERVER
088 NSAVSETS 	 OBSID
089 OBJECT 	 OBSMODE
090 OBJTIME 	 ORIGIN
091 OBSEPOCH 	 PASVSHLD
092 OBSERVAT 	 PIXCLOCK
093 OBSERVER 	 PIXSCALE
094 OBSID 	 PRECHPS
095 OBSMODE 	 PRECHPT
096 OBSTYPE 	 PSTCHPS
097 P1AANG 	 PSTCHPT
098 P1ABIN 	 PUPILIMA
099 P1ADEC 	 RA_BASE
100 P1AEPOCH 	 RA_OFF
101 P1AEQUIN 	 RA_TEL
102 P1AFILT 	 RAWBG
103 P1AFRAME 	 RAWCC
104 P1AFREQ 	 RAWGEMQA
105 P1AMAG 	 RAWIQ
106 P1AOBJEC 	 RAWPIREQ
107 P1APARAL 	 RAWWV
108 P1APMDEC 	 READMODE
109 P1APMRA 	 ROTATOR1
110 P1ARA 	 ROTATOR2
111 P1ARAD 	 ROTERR1
112 P1ARV 	 ROTERR2
113 P1AWAVEL 	 SAVEFREQ
114 P2AANG 	 SAVESETS
115 P2ABIN 	 SCSDUTY
116 P2ADEC 	 SECTORWH
117 P2AEPOCH 	 SIGFRM
118 P2AEQUIN 	 SIGMAX
119 P2AFILT 	 SIGREADN
120 P2AFRAME 	 SIMPLE
121 P2AFREQ 	 SLITWHEE
122 P2AMAG 	 SLITWHL
123 P2AOBJEC 	 SSA
124 P2APARAL 	 TARGFRM
125 P2APMDEC 	 TARGSYS
126 P2APMRA 	 TELESCOP
127 P2ARA 	 TELFOCUS
128 P2ARAD 	 USRFOC1
129 P2ARV 	 USRFOC2
130 P2AWAVEL 	 UTC1
131 PA    	 UTC2
132 PAEND 	 VACUUM
133 PARALLAX 	 WINDOWCH
134 PARANGLE 	 WINTURR
135 PASVSHLD 	 ZD1
136 PIXCLOCK 	 ZD2
137 PMDEC 	  
138 PMRA 	  
139 PRECHPS 	  
140 PRECHPT 	  
141 PSTCHPS 	  
142 PSTCHPT 	  
143 PUPILIMA 	  
144 RA    	  
145 RADECSYS 	  
146 RADVEL 	  
147 RATRACK 	  
148 RAWBG 	  
149 RAWCC 	  
150 RAWGEMQA 	  
151 RAWIQ 	  
152 RAWPIREQ 	  
153 RAWWV 	  
154 READMODE 	  
155 SAVEFREQ 	  
156 SAVESETS 	  
157 SECTOR 	  
158 SFLINEAR 	  
159 SFRT2 	  
160 SFTILT 	  
161 SIGFRM 	  
162 SIGMAX 	  
163 SLIT 	  
164 SLITWHL 	  
165 SSA    	  
166 ST    	  
167 TELESCOP 	  
168 TELFOC 	  
169 TELFOCEN 	  
170 TIME-OBS 	  
171 TIMESYS 	  
172 TRKEPOCH 	  
173 TRKEQUIN 	  
174 TRKFRAME 	  
175 UT    	  
176 UTEND 	  
177 UTSTART 	  
178 VACUUM 	  
179 WAVELENG 	  
180 WINDOW 	  
181 WINTURR 	  
