[symbol2]
bbox 32 32 416 416
uniq 115
[tools]
[attributes]
[layers]
<symbol>
l 100 0 0 160 64 flamExposure
r 0 32 32 416 416
[comments]
RCS: $Name:  $ $Id: flamExposure.sym,v 1.1 2006/09/14 22:27:48 gemvx Exp $
