[symbol2]
bbox 32 32 224 224
uniq 1174
[tools]
[attributes]
[layers]
<symbol>
l 100 0 0 50 123 flamDcConfig
r 0 32 32 224 224
[comments]
RCS: "$Name:  $ $Id: flamDcConfig.sym,v 1.1 2006/09/14 22:27:46 gemvx Exp $"
