#define CenterLine_small_width 74
#define CenterLine_small_height 28
static char CenterLine_small_bits[] = {
   0x00, 0x00, 0x00, 0x00, 0x00, 0x00, 0x00, 0x00, 0x00, 0x00, 0x00, 0x00,
   0x00, 0x00, 0x00, 0x00, 0x40, 0x00, 0x00, 0x00, 0x00, 0x00, 0x00, 0x00,
   0x00, 0x00, 0x20, 0x00, 0x00, 0x00, 0x00, 0x00, 0x00, 0x00, 0x00, 0x00,
   0x20, 0x00, 0x00, 0x00, 0x00, 0x00, 0x00, 0x00, 0x00, 0x00, 0x0e, 0x00,
   0x00, 0x00, 0x00, 0x00, 0x00, 0x00, 0x00, 0x00, 0x03, 0x00, 0x00, 0x00,
   0x00, 0x00, 0x00, 0x00, 0x00, 0x80, 0x03, 0x00, 0x00, 0x00, 0x00, 0x00,
   0x00, 0x00, 0x00, 0x80, 0x05, 0x00, 0x00, 0x00, 0x00, 0x00, 0x00, 0x00,
   0x00, 0x80, 0x0b, 0x00, 0x00, 0x00, 0x00, 0x00, 0x00, 0x00, 0x00, 0x80,
   0x15, 0x00, 0x00, 0x00, 0xc0, 0x01, 0x00, 0x00, 0x00, 0x00, 0x1f, 0x00,
   0x00, 0x00, 0xe0, 0x03, 0x00, 0x00, 0x00, 0x30, 0x02, 0x00, 0x00, 0x00,
   0xe0, 0x03, 0x00, 0x00, 0x00, 0x30, 0x01, 0x00, 0x00, 0x00, 0x60, 0x00,
   0x00, 0x0c, 0x00, 0x30, 0x00, 0x00, 0x00, 0x00, 0x60, 0x00, 0x00, 0x0c,
   0x00, 0xb0, 0x00, 0x00, 0x00, 0x00, 0x60, 0xf0, 0xf8, 0x1c, 0xc7, 0x72,
   0xcc, 0xc6, 0x03, 0x00, 0x60, 0xf8, 0xf9, 0x9c, 0xcf, 0x73, 0xcc, 0xef,
   0x03, 0x00, 0x60, 0x98, 0xd9, 0x8c, 0xcd, 0x31, 0xcc, 0x6c, 0x03, 0x00,
   0x60, 0x98, 0xd9, 0x8c, 0xcd, 0x30, 0xcc, 0x6c, 0x03, 0x00, 0x60, 0xf8,
   0xd9, 0x8c, 0xcf, 0x30, 0xcc, 0xec, 0x03, 0x00, 0x60, 0xf8, 0xd9, 0x8c,
   0xcf, 0x30, 0xcc, 0xec, 0x03, 0x00, 0x60, 0x18, 0xd8, 0x8c, 0xc1, 0x38,
   0xcc, 0x6c, 0x00, 0x00, 0xe0, 0x9b, 0xd8, 0x9c, 0xc9, 0xf8, 0xcc, 0xec,
   0x02, 0x00, 0xe0, 0xfb, 0xd8, 0x9c, 0xcf, 0xf4, 0xcc, 0xcc, 0x03, 0x00,
   0xc0, 0x61, 0x00, 0x18, 0x06, 0x04, 0x00, 0x80, 0x01, 0x00, 0x00, 0x00,
   0x00, 0x00, 0x00, 0x02, 0x00, 0x00, 0x00, 0x00, 0x00, 0x00, 0x00, 0x00,
   0x00, 0x00, 0x00, 0x00, 0x00, 0x00, 0x00, 0x00, 0x00, 0x00, 0x00, 0x00,
   0x00, 0x00, 0x00, 0x00};
