#define CenterLine_status_width 117
#define CenterLine_status_height 16
static unsigned char CenterLine_status_bits[] = {
   0xc0, 0x07, 0x00, 0x00, 0x00, 0x00, 0x00, 0x00, 0x00, 0x00, 0x00, 0x00,
   0x00, 0x00, 0xe0, 0x60, 0x0e, 0x00, 0x00, 0x00, 0x00, 0x00, 0x00, 0x00,
   0x3e, 0xc0, 0x00, 0x00, 0x00, 0xe0, 0x70, 0x0e, 0x00, 0x00, 0x00, 0x30,
   0x00, 0x00, 0x00, 0x1c, 0xe0, 0x00, 0x00, 0x00, 0xe0, 0x38, 0x0e, 0x00,
   0x00, 0x00, 0x38, 0x00, 0x00, 0x00, 0x1c, 0x00, 0x00, 0x00, 0x00, 0xe0,
   0x3c, 0x00, 0x00, 0x00, 0x00, 0x18, 0x00, 0x00, 0x00, 0x0c, 0x00, 0x00,
   0x00, 0x00, 0xe0, 0x1c, 0x00, 0x1e, 0x38, 0x0f, 0xff, 0xe0, 0x81, 0x73,
   0x0c, 0xe0, 0xe0, 0x3c, 0xc0, 0xe3, 0x0e, 0x00, 0x73, 0xf8, 0x0c, 0x18,
   0x30, 0x87, 0x7f, 0x0e, 0x60, 0xe0, 0x33, 0x60, 0xee, 0x0e, 0x80, 0x73,
   0x70, 0x0c, 0x1c, 0x38, 0x07, 0x07, 0x0e, 0x60, 0xc0, 0x31, 0x70, 0xee,
   0x0e, 0xc0, 0x71, 0x38, 0x0e, 0x1c, 0x1c, 0x87, 0x03, 0x0e, 0x60, 0xe0,
   0x38, 0x38, 0xee, 0x0e, 0xc0, 0x39, 0x38, 0x0e, 0x1c, 0x9c, 0x83, 0x03,
   0x0e, 0x60, 0xe0, 0x38, 0x38, 0xe7, 0x0e, 0xc0, 0x0f, 0x38, 0x0e, 0x1c,
   0xfc, 0x80, 0x03, 0x0e, 0x70, 0xe0, 0x38, 0xf8, 0xe1, 0x0e, 0xc0, 0x01,
   0x38, 0x0e, 0x0c, 0x1c, 0x80, 0x03, 0x06, 0x70, 0xe0, 0x38, 0x38, 0xe0,
   0x0e, 0xc0, 0x01, 0x18, 0x0e, 0x0c, 0x1c, 0x80, 0x03, 0x06, 0x70, 0x60,
   0x38, 0x38, 0xe0, 0x1c, 0xc0, 0x21, 0x18, 0x0e, 0x0c, 0x1c, 0x82, 0x01,
   0x87, 0x71, 0x60, 0x38, 0x38, 0xe4, 0x38, 0x80, 0x19, 0x18, 0x0e, 0x0c,
   0x98, 0x81, 0x01, 0x87, 0x71, 0x60, 0x38, 0x30, 0xe3, 0xf0, 0x01, 0x0f,
   0x18, 0x1e, 0x1c, 0xf0, 0x80, 0x81, 0xff, 0xf1, 0x60, 0x78, 0xe0, 0xe1};
