/* XPM */
static char * xv2_xpm[] = {
"32 32 4 1",
" 	c #0000FEFE3232",
".	c #0000FFFF0000",
"X	c #FFFF00000000",
"o	c #00000000FFFF",
"  .  ...............            ",
"   ............. ....   .       ",
"   .. ........... ...           ",
"  ..................  ..        ",
" XXXXXX............XXX....      ",
" XXXXXX...........XXX           ",
"  XXXXXX.........XXXX.    .     ",
"  .XXXXXX........XXX.           ",
" .  XXXXXX......XXX .. .        ",
"  ...XXXXXX....XXX.....         ",
" . . XXXXXX...XXX....           ",
"    ..XXXXXX.XXX.....           ",
"       XXXX.XXXXX.........      ",
"    .  XXX.XXXXXX...........    ",
"  ooooooX...XXXXXX.....oooooo   ",
"  oooooo     XXXXXX.....oooo..  ",
"   oooooo   . XXXXXX....ooo...  ",
"   Xoooooo...  XXXXXX..ooo..... ",
"  XXXoooooo.. .XXXXXX..ooo..... ",
"      oooooo..   .....ooo...... ",
"       oooooo..  .....ooo...... ",
"        oooooo.......ooo......  ",
"         oooooo......ooo......  ",
"          oooooo....ooo......   ",
"          .oooooo...ooo......   ",
"           .oooooo.ooo......... ",
"            .oooooooo...........",
"            ..ooooooo...........",
"           ....oooo.............",
"          ...  .................",
"         ...    ................",
"        ...      ..............."};
