# -sed1.inp-------------------------------------------------------------
# Configuration script for src/makefile
# ----------------------------------------------------------------------
s/^#.*//
s/^[ \f\t][ \f\t]*$//
s/^ /	/
s/\.h\.in/.h-in/
s!^	\./temacs!	go32 temacs!
s!/bin/sh!command.com!
/^MAKE *=/s/^/# /
/^SHELL *=/s/^/# /
/^srcdir *=/s/@[^@\n]*@/./
/^VPATH *=/s/@[^@\n]*@/./
/^CC *=/s/@[^@\n]*@/gcc/
/^CPP *=/s/@[^@\n]*@/gcc -e/
/^CFLAGS *=/s/@[^@\n]*@/-O2 -g/
/^LN_S *=/s/@[^@\n]*@/ln -s/
/^M_FILE *=/s!@[^@\n]*@!m/intel386.h!
/^S_FILE *=/s!@[^@\n]*@!s/msdos.h!
/^@SET_MAKE@$/s/@SET_MAKE@//
/^.\${libsrc}make-docfile.*>/s!make-docfile!make-doc.exe -o ../etc/DOC!
/^.\${libsrc}make-doc/s!>.*$!!
/^[ 	]*$/d
/^temacs:/s/prefix-args//
/^	#/d
