[symbol2]
bbox 32 32 864 640
uniq 27
[tools]
[attributes]
[layers]
<symbol>
r 0 32 32 864 640
l 100 0 0 376 331 trecsSadMain
[comments]
RCS: $Name:  $ $Id: trecsSadMain.sym,v 0.0 2003/04/25 15:21:16 hon Developmental $
