[symbol2]
bbox 32 32 320 288
uniq 46
[tools]
[attributes]
[layers]
<symbol>
l 100 0 0 50 155 trecsSadEcEngineering
r 0 32 32 320 288
[comments]
RCS: $Name:  $ $Id: trecsSadEcEngineering.sym,v 0.0 2003/04/25 15:21:16 hon Developmental $
