[symbol2]
bbox -64 -64 320 320
uniq 110
[tools]
[attributes]
[layers]
<symbol>
l 100 0 0 64 -32 trecsHeartbeat
r 0 -64 -64 320 320
[comments]
RCS: $Name:  $ $Id: trecsHeartbeat.sym,v 0.0 2003/04/25 15:21:15 hon Developmental $
