[symbol2]
bbox 32 32 224 224
uniq 1057
[tools]
[attributes]
[layers]
<symbol>
r 0 32 32 224 224
l 100 0 0 50 123 trecsDcPreAmp
[comments]
RCS: "$Name:  $ $Id: trecsDcPreAmp.sym,v 0.0 2003/04/25 15:21:15 hon Developmental $"
