%!PS-Adobe-3.0
%%BoundingBox: (atend)
%%Pages: (atend)
%%PageOrder: (atend)
%%DocumentFonts: (atend)
%%Creator: Frame 5.0
%%DocumentData: Clean7Bit
%%EndComments
%%BeginProlog
%
% Frame ps_prolog 5.0, for use with Frame 5.0 products
% This ps_prolog file is Copyright (c) 1986-1995 Frame Technology
% Corporation.  All rights reserved.  This ps_prolog file may be
% freely copied and distributed in conjunction with documents created
% using FrameMaker, FrameMaker/SGML and FrameViewer as long as this 
% copyright notice is preserved.
%
% FrameMaker users specify the proper paper size for each print job in the
% "Print" dialog's "Printer Paper Size" "Width" and "Height~ fields.  If the
% printer that the PS file is sent to does not support the requested paper
% size, or if there is no paper tray of the proper size currently installed, 
% then the job will not be printed.  The following flag, if set to true, will
% cause the job to print on the default paper in such cases.
/FMAllowPaperSizeMismatch            false def
%
% Frame products normally print colors as their true color on a color printer
% or as shades of gray, based on luminance, on a black-and white printer. The
% following flag, if set to true, forces all non-white colors to print as pure
% black. This has no effect on bitmap images.
/FMPrintAllColorsAsBlack             false def
%
% Frame products can either set their own line screens or use a printer's 
% default settings. Three flags below control this separately for no 
% separations, spot separations and process separations. If a flag
% is true, then the default printer settings will not be changed. If it is
% false, Frame products will use their own settings from a table based on
% the printer's resolution.
/FMUseDefaultNoSeparationScreen      true  def
/FMUseDefaultSpotSeparationScreen    true  def
/FMUseDefaultProcessSeparationScreen false def
%
% For any given PostScript printer resolution, Frame products have two sets of 
% screen angles and frequencies for printing process separations, which are 
% recomended by Adobe. The following variable chooses the higher frequencies
% when set to true or the lower frequencies when set to false. This is only
% effective if the appropriate FMUseDefault...SeparationScreen flag is false.
/FMUseHighFrequencyScreens true def
%
% The following is a set of predefined optimal frequencies and angles for various
% common dpi settings. This is taken from "Advances in Color Separation Using
% PostScript Software Technology," from Adobe Systems (3/13/89 P.N. LPS 0043)
% and corrolated with information which is in various PPD (4.0) files.
%
% The "dpiranges" figure is the minimum dots per inch device resolution which
% can support this setting. The "low" and "high" values are controlled by the
% setting of the FMUseHighFrequencyScreens flag above. The "TDot" flags control
% the use of the "Yellow Triple Dot" feature whereby the frequency id divided by
% three, but the dot function is "trippled" giving a block of 3x3 dots per cell.
%
% PatFreq is a compromise pattern frequency for ps Level 2 printers which is close
% to the ideal WYSIWYG pattern frequency of 9 repetitions/inch but does not beat
% (too badly) against the screen frequencies of any separations for that DPI.
/dpiranges   [  2540    2400    1693     1270    1200     635      600      0      ] def
/CMLowFreqs  [ 100.402  94.8683 89.2289 100.402  94.8683  66.9349  63.2456 47.4342 ] def
/YLowFreqs   [  95.25   90.0    84.65    95.25   90.0     70.5556  66.6667 50.0    ] def
/KLowFreqs   [  89.8026 84.8528 79.8088  89.8026 84.8528  74.8355  70.7107 53.033  ] def
/CLowAngles  [  71.5651 71.5651 71.5651 71.5651  71.5651  71.5651  71.5651 71.5651 ] def
/MLowAngles  [  18.4349 18.4349 18.4349 18.4349  18.4349  18.4349  18.4349 18.4349 ] def
/YLowTDot    [  true    true    false    true    true     false    false   false   ] def
/CMHighFreqs [ 133.87  126.491 133.843  108.503 102.523  100.402   94.8683 63.2456 ] def
/YHighFreqs  [ 127.0   120.0   126.975  115.455 109.091   95.25    90.0    60.0    ] def
/KHighFreqs  [ 119.737 113.137 119.713  128.289 121.218   89.8026  84.8528 63.6395 ] def
/CHighAngles [  71.5651 71.5651 71.5651  70.0169 70.0169  71.5651  71.5651 71.5651 ] def
/MHighAngles [  18.4349 18.4349 18.4349  19.9831 19.9831  18.4349  18.4349 18.4349 ] def
/YHighTDot   [  false   false   true     false   false    true     true    false   ] def
/PatFreq     [	10.5833 10.0     9.4055  10.5833 10.0	  10.5833  10.0	   9.375   ] def
%
% PostScript Level 2 printers contain an "Accurate Screens" feature which can
% improve process separation rendering at the expense of compute time. This 
% flag is ignored by PostScript Level 1 printers.
/FMUseAcccurateScreens true def
%
% The following PostScript procedure defines the spot function that Frame
% products will use for process separations. You may un-comment-out one of
% the alternative functions below, or use your own.
%
% Dot function
/FMSpotFunction {abs exch abs 2 copy add 1 gt 
		{1 sub dup mul exch 1 sub dup mul add 1 sub }
		{dup mul exch dup mul add 1 exch sub }ifelse } def
%
% Line function
% /FMSpotFunction { pop } def
%
% Elipse function
% /FMSpotFunction { dup 5 mul 8 div mul exch dup mul exch add 
%		sqrt 1 exch sub } def
%
%
/FMversion (5.0) def 
/fMLevel1 /languagelevel where {pop languagelevel} {1} ifelse 2 lt def
/FMPColor
	fMLevel1 {
		false
		/colorimage where {pop pop true} if
	} {
		true
	} ifelse
def
/FrameDict 400 dict def 
systemdict /errordict known not {/errordict 10 dict def
		errordict /rangecheck {stop} put} if
% The readline in PS 23.0 doesn't recognize cr's as nl's on AppleTalk
FrameDict /tmprangecheck errordict /rangecheck get put 
errordict /rangecheck {FrameDict /bug true put} put 
FrameDict /bug false put 
mark 
% Some PS machines read past the CR, so keep the following 3 lines together!
currentfile 5 string readline
00
0000000000
cleartomark 
errordict /rangecheck FrameDict /tmprangecheck get put 
FrameDict /bug get { 
	/readline {
		/gstring exch def
		/gfile exch def
		/gindex 0 def
		{
			gfile read pop 
			dup 10 eq {exit} if 
			dup 13 eq {exit} if 
			gstring exch gindex exch put 
			/gindex gindex 1 add def 
		} loop
		pop 
		gstring 0 gindex getinterval true 
		} bind def
	} if
/FMshowpage /showpage load def
/FMquit /quit load def
/FMFAILURE { 
	dup = flush 
	FMshowpage 
	/Helvetica findfont 12 scalefont setfont
	72 200 moveto show
	72 220 moveto show
	FMshowpage 
	FMquit 
	} def 
/FMVERSION {
	FMversion ne {
		(Frame product version does not match ps_prolog!  Check installation;)
		(also check ~/fminit and ./fminit for old versions) FMFAILURE
		} if
	} def 
/FMBADEPSF { 
	(Adobe's PostScript Language Reference Manual, 2nd Edition, section H.2.4)
	(says your EPS file is not valid, as it calls X              )
	dup dup (X) search pop exch pop exch pop length 
	5 -1 roll 
	putinterval 
	FMFAILURE
	} def
/fmConcatProcs
	{
	/proc2 exch cvlit def/proc1 exch cvlit def/newproc proc1 length proc2 length add array def
	newproc 0 proc1 putinterval newproc proc1 length proc2 putinterval newproc cvx
}def
FrameDict begin [
	/ALDsave
	/FMdicttop
	/FMoptop
	/FMpointsize
	/FMsaveobject
	/b
	/bitmapsave
	/blut
	/bpside
	/bs
	/bstring
	/bwidth
	/c
	/cf
	/cs
	/cynu
	/depth
	/edown
	/fh
	/fillvals
	/fw
	/fx
	/fy
	/g
	/gfile
	/gindex
	/grnt
	/gryt
	/gstring
	/height
	/hh
	/i
	/im
	/indx
	/is
	/k
	/kk
	/landscape
	/lb
	/len
	/llx
	/lly
	/m
	/magu
	/manualfeed
	/n
	/offbits
	/onbits
	/organgle
	/orgbangle
	/orgbfreq
	/orgbproc
	/orgbxfer
	/orgfreq
	/orggangle
	/orggfreq
	/orggproc
	/orggxfer
	/orgmatrix
	/orgproc
	/orgrangle
	/orgrfreq
	/orgrproc
	/orgrxfer
	/orgxfer
	/pagesave
	/paperheight
	/papersizedict
	/paperwidth
	/pos
	/pwid
	/r
	/rad
	/redt
	/sl
	/str
	/tran
	/u
	/urx
	/ury
	/val
	/width
	/width
	/ws
	/ww
	/x
	/x1
	/x2
	/xindex
	/xpoint
	/xscale
	/xx
	/y
	/y1
	/y2
	/yelu
	/yindex
	/ypoint
	/yscale
	/yy
] { 0 def } forall
/FmBD {bind def} bind def
systemdict /pdfmark known {
	/fMAcrobat true def
	
	/FmPD /pdfmark load def
	
	
	/FmPT /show load def
	
	
	currentdistillerparams /CoreDistVersion get 2000 ge {
	
		
		/FmPD2 /pdfmark load def
		
		
		
		
		
		/FmPA { mark exch /Dest exch 5 3 roll 
				/View [ /XYZ null 6 -2 roll FmDC exch pop null] /DEST FmPD 
		}FmBD
	} {
		
		/FmPD2 /cleartomark load def
		/FmPA {pop pop pop}FmBD
	} ifelse
} {
	
	/fMAcrobat false def
	/FmPD /cleartomark load def
	/FmPD2 /cleartomark load def
	/FmPT /pop load def
	/FmPA {pop pop pop}FmBD
} ifelse
/FmDC {
	transform fMDefaultMatrix itransform cvi exch cvi exch
}FmBD
/FmBx {
	dup 3 index lt {3 1 roll exch} if 
	1 index 4 index lt {4 -1 roll 3 1 roll exch 4 1 roll} if
}FmBD
/FMnone 0 def
/FMcyan 1 def
/FMmagenta 2 def
/FMyellow 3 def
/FMblack 4 def
/FMcustom 5 def
/fMNegative false def 
/FrameSepIs FMnone def 
/FrameSepBlack 0 def
/FrameSepYellow 0 def
/FrameSepMagenta 0 def
/FrameSepCyan 0 def
/FrameSepRed 1 def
/FrameSepGreen 1 def
/FrameSepBlue 1 def
/FrameCurGray 1 def
/FrameCurPat null def
/FrameCurColors [ 0 0 0 1 0 0 0 ] def 
/FrameColorEpsilon .001 def	
/eqepsilon {		
	sub dup 0 lt {neg} if
	FrameColorEpsilon le
} bind def
/FrameCmpColorsCMYK { 
	2 copy 0 get exch 0 get eqepsilon {
		2 copy 1 get exch 1 get eqepsilon {
			2 copy 2 get exch 2 get eqepsilon {
				3 get exch 3 get eqepsilon
			} {pop pop false} ifelse
		}{pop pop false} ifelse
	} {pop pop false} ifelse
} bind def
/FrameCmpColorsRGB { 
	2 copy 4 get exch 0 get eqepsilon {
		2 copy 5 get exch 1 get eqepsilon {
			6 get exch 2 get eqepsilon
		}{pop pop false} ifelse
	} {pop pop false} ifelse
} bind def
/RGBtoCMYK { 
	1 exch sub 
	3 1 roll 
	1 exch sub 
	3 1 roll 
	1 exch sub 
	3 1 roll 
	3 copy 
	2 copy 
	le { pop } { exch pop } ifelse 
	2 copy 
	le { pop } { exch pop } ifelse 
	dup dup dup 
	6 1 roll 
	4 1 roll 
	7 1 roll 
	sub 
	6 1 roll 
	sub 
	5 1 roll 
	sub 
	4 1 roll 
} bind def
/CMYKtoRGB { 
	dup dup 4 -1 roll add 						  
	5 1 roll 3 -1 roll add 						  
	4 1 roll add 								  
	1 exch sub dup 0 lt {pop 0} if 3 1 roll 	  
	1 exch sub dup 0 lt {pop 0} if exch 	      
	1 exch sub dup 0 lt {pop 0} if exch	  		  
} bind def
/FrameSepInit {
	1.0 RealSetgray
} bind def
/FrameSetSepColor { 
	/FrameSepBlue exch def
	/FrameSepGreen exch def
	/FrameSepRed exch def
	/FrameSepBlack exch def
	/FrameSepYellow exch def
	/FrameSepMagenta exch def
	/FrameSepCyan exch def
	/FrameSepIs FMcustom def
	setCurrentScreen	
} bind def
/FrameSetCyan {
	/FrameSepBlue 1.0 def
	/FrameSepGreen 1.0 def
	/FrameSepRed 0.0 def
	/FrameSepBlack 0.0 def
	/FrameSepYellow 0.0 def
	/FrameSepMagenta 0.0 def
	/FrameSepCyan 1.0 def
	/FrameSepIs FMcyan def
	setCurrentScreen	
} bind def
 
/FrameSetMagenta {
	/FrameSepBlue 1.0 def
	/FrameSepGreen 0.0 def
	/FrameSepRed 1.0 def
	/FrameSepBlack 0.0 def
	/FrameSepYellow 0.0 def
	/FrameSepMagenta 1.0 def
	/FrameSepCyan 0.0 def
	/FrameSepIs FMmagenta def
	setCurrentScreen
} bind def
 
/FrameSetYellow {
	/FrameSepBlue 0.0 def
	/FrameSepGreen 1.0 def
	/FrameSepRed 1.0 def
	/FrameSepBlack 0.0 def
	/FrameSepYellow 1.0 def
	/FrameSepMagenta 0.0 def
	/FrameSepCyan 0.0 def
	/FrameSepIs FMyellow def
	setCurrentScreen
} bind def
 
/FrameSetBlack {
	/FrameSepBlue 0.0 def
	/FrameSepGreen 0.0 def
	/FrameSepRed 0.0 def
	/FrameSepBlack 1.0 def
	/FrameSepYellow 0.0 def
	/FrameSepMagenta 0.0 def
	/FrameSepCyan 0.0 def
	/FrameSepIs FMblack def
	setCurrentScreen
} bind def
 
/FrameNoSep { 
	/FrameSepIs FMnone def
	setCurrentScreen
} bind def
/FrameSetSepColors { 
	FrameDict begin
	[ exch 1 add 1 roll ]
	/FrameSepColors  
	exch def end
	} bind def
/FrameColorInSepListCMYK { 
	FrameSepColors {  
       		exch dup 3 -1 roll 
       		FrameCmpColorsCMYK 
       		{ pop true exit } if
    	} forall 
	dup true ne {pop false} if
	} bind def
/FrameColorInSepListRGB { 
	FrameSepColors {  
       		exch dup 3 -1 roll 
       		FrameCmpColorsRGB 
       		{ pop true exit } if
    	} forall 
	dup true ne {pop false} if
	} bind def
/RealSetgray /setgray load def
/RealSetrgbcolor /setrgbcolor load def
/RealSethsbcolor /sethsbcolor load def
end 
/setgray { 
	FrameDict begin
	FrameSepIs FMnone eq
		{ RealSetgray } 
		{ 
		FrameSepIs FMblack eq 
			{ RealSetgray } 
			{ FrameSepIs FMcustom eq 
			  FrameSepRed 0 eq and
			  FrameSepGreen 0 eq and
			  FrameSepBlue 0 eq and {
			  	RealSetgray
			  } {
				1 RealSetgray pop 
			  } ifelse
			} ifelse
		} ifelse
	end
} bind def
/setrgbcolor { 
	FrameDict begin
	FrameSepIs FMnone eq
	{  RealSetrgbcolor }
	{
		3 copy [ 4 1 roll ] 
		FrameColorInSepListRGB
		{
				FrameSepBlue eq exch 
			 	FrameSepGreen eq and exch 
			 	FrameSepRed eq and
			 	{ 0 } { 1 } ifelse
		}
		{
			FMPColor {
				RealSetrgbcolor
				currentcmykcolor
			} {
				RGBtoCMYK
			} ifelse
			FrameSepIs FMblack eq
			{1.0 exch sub 4 1 roll pop pop pop} {
			FrameSepIs FMyellow eq
			{pop 1.0 exch sub 3 1 roll pop pop} {
			FrameSepIs FMmagenta eq
			{pop pop 1.0 exch sub exch pop } {
			FrameSepIs FMcyan eq
			{pop pop pop 1.0 exch sub } 
			{pop pop pop pop 1} ifelse } ifelse } ifelse } ifelse 
		} ifelse
		RealSetgray
	} 
	ifelse
	end
} bind def
/sethsbcolor {
	FrameDict begin
	FrameSepIs FMnone eq 
	{ RealSethsbcolor } 
	{
		RealSethsbcolor 
		currentrgbcolor  
		setrgbcolor 
	} 
	ifelse
	end
} bind def
FrameDict begin
/setcmykcolor where {
	pop /RealSetcmykcolor /setcmykcolor load def
} {
	/RealSetcmykcolor {
		4 1 roll
		3 { 3 index add 0 max 1 min 1 exch sub 3 1 roll} repeat 
		RealSetrgbcolor pop
	} bind def
} ifelse
userdict /setcmykcolor { 
		FrameDict begin
		FrameSepIs FMnone eq
		{ RealSetcmykcolor } 
		{
			4 copy [ 5 1 roll ]
			FrameColorInSepListCMYK
			{
				FrameSepBlack eq exch 
				FrameSepYellow eq and exch 
				FrameSepMagenta eq and exch 
				FrameSepCyan eq and 
				{ 0 } { 1 } ifelse
			}
			{
				FrameSepIs FMblack eq
				{1.0 exch sub 4 1 roll pop pop pop} {
				FrameSepIs FMyellow eq
				{pop 1.0 exch sub 3 1 roll pop pop} {
				FrameSepIs FMmagenta eq
				{pop pop 1.0 exch sub exch pop } {
				FrameSepIs FMcyan eq
				{pop pop pop 1.0 exch sub } 
				{pop pop pop pop 1} ifelse } ifelse } ifelse } ifelse 
			} ifelse
			RealSetgray
		}
		ifelse
		end
	} bind put
fMLevel1 { 
	
	
	
	/patScreenDict 7 dict dup begin
		<0f1e3c78f0e1c387> [ 45  { pop } {exch pop} 		.5   2 sqrt] FmBD
		<0f87c3e1f0783c1e> [ 135 { pop } {exch pop}			.5   2 sqrt] FmBD
		<cccccccccccccccc> [ 0   { pop } dup				.5   2	   ] FmBD
		<ffff0000ffff0000> [ 90  { pop } dup				.5   2	   ] FmBD
		<8142241818244281> [ 45  { 2 copy lt {exch} if pop}	dup .75  2 sqrt] FmBD
		<03060c183060c081> [ 45  { pop } {exch pop}			.875 2 sqrt] FmBD
		<8040201008040201> [ 135 { pop } {exch pop}			.875 2 sqrt] FmBD
	end def
} { 
	
	/patProcDict 5 dict dup begin
		<0f1e3c78f0e1c387> { 3 setlinewidth -1 -1 moveto 9 9 lineto stroke 
											4 -4 moveto 12 4 lineto stroke
											-4 4 moveto 4 12 lineto stroke} bind def
		<0f87c3e1f0783c1e> { 3 setlinewidth -1 9 moveto 9 -1 lineto stroke 
											-4 4 moveto 4 -4 lineto stroke
											4 12 moveto 12 4 lineto stroke} bind def
		<8142241818244281> { 1 setlinewidth -1 9 moveto 9 -1 lineto stroke
											-1 -1 moveto 9 9 lineto stroke } bind def
		<03060c183060c081> { 1 setlinewidth -1 -1 moveto 9 9 lineto stroke 
											4 -4 moveto 12 4 lineto stroke
											-4 4 moveto 4 12 lineto stroke} bind def
		<8040201008040201> { 1 setlinewidth -1 9 moveto 9 -1 lineto stroke 
											-4 4 moveto 4 -4 lineto stroke
											4 12 moveto 12 4 lineto stroke} bind def
	end def
	/patDict 15 dict dup begin
		/PatternType 1 def		
		/PaintType 2 def		
		/TilingType 3 def		
		/BBox [ 0 0 8 8 ] def 	
		/XStep 8 def			
		/YStep 8 def			
		/PaintProc {
			begin
			patProcDict bstring known {
				patProcDict bstring get exec
			} {
				8 8 true [1 0 0 -1 0 8] bstring imagemask
			} ifelse
			end
		} bind def
	end def
} ifelse
/combineColor {
    FrameSepIs FMnone eq
	{
		graymode fMLevel1 or not {
			
			[/Pattern [/DeviceCMYK]] setcolorspace
			FrameCurColors 0 4 getinterval aload pop FrameCurPat setcolor
		} {
			FrameCurColors 3 get 1.0 ge {
				FrameCurGray RealSetgray
			} {
				fMAcrobat not FMPColor graymode and and {
					0 1 3 { 
						FrameCurColors exch get
						1 FrameCurGray sub mul
					} for
					RealSetcmykcolor
				} {
					4 1 6 {
						FrameCurColors exch get
						graymode {
							1 exch sub 1 FrameCurGray sub mul 1 exch sub
						} {
							1.0 lt {FrameCurGray} {1} ifelse
						} ifelse
					} for
					RealSetrgbcolor
				} ifelse
			} ifelse
		} ifelse
	} { 
		FrameCurColors 0 4 getinterval aload
		FrameColorInSepListCMYK {
			FrameSepBlack eq exch 
			FrameSepYellow eq and exch 
			FrameSepMagenta eq and exch 
			FrameSepCyan eq and
			FrameSepIs FMcustom eq and
			{ FrameCurGray } { 1 } ifelse
		} {
			FrameSepIs FMblack eq
			{FrameCurGray 1.0 exch sub mul 1.0 exch sub 4 1 roll pop pop pop} {
			FrameSepIs FMyellow eq
			{pop FrameCurGray 1.0 exch sub mul 1.0 exch sub 3 1 roll pop pop} {
			FrameSepIs FMmagenta eq
			{pop pop FrameCurGray 1.0 exch sub mul 1.0 exch sub exch pop } {
			FrameSepIs FMcyan eq
			{pop pop pop FrameCurGray 1.0 exch sub mul 1.0 exch sub } 
			{pop pop pop pop 1} ifelse } ifelse } ifelse } ifelse 
		} ifelse
		graymode fMLevel1 or not {
			
			[/Pattern [/DeviceGray]] setcolorspace
			FrameCurPat setcolor
		} { 
			graymode not fMLevel1 and {
				
				dup 1 lt {pop FrameCurGray} if
			} if
			RealSetgray
		} ifelse
	} ifelse
} bind def
/savematrix {
	orgmatrix currentmatrix pop
	} bind def
/restorematrix {
	orgmatrix setmatrix
	} bind def
/fMDefaultMatrix matrix defaultmatrix def
/fMatrix2 matrix def
/dpi    72 0 fMDefaultMatrix dtransform
    dup mul exch   dup mul add   sqrt def
	
/freq dpi dup 72 div round dup 0 eq {pop 1} if 8 mul div def
/sangle 1 0 fMDefaultMatrix dtransform exch atan def
	sangle fMatrix2 rotate 
	fMDefaultMatrix fMatrix2 concatmatrix 
	dup 0 get /sflipx exch def
	    3 get /sflipy exch def
/screenIndex {
	0 1 dpiranges length 1 sub { dup dpiranges exch get 1 sub dpi le {exit} {pop} ifelse } for
} bind def
/getCyanScreen {
	FMUseHighFrequencyScreens { CHighAngles CMHighFreqs} {CLowAngles CMLowFreqs} ifelse
		screenIndex dup 3 1 roll get 3 1 roll get /FMSpotFunction load
} bind def
/getMagentaScreen {
	FMUseHighFrequencyScreens { MHighAngles CMHighFreqs } {MLowAngles CMLowFreqs} ifelse
		screenIndex dup 3 1 roll get 3 1 roll get /FMSpotFunction load
} bind def
/getYellowScreen {
	FMUseHighFrequencyScreens { YHighTDot YHighFreqs} { YLowTDot YLowFreqs } ifelse
		screenIndex dup 3 1 roll get 3 1 roll get { 3 div
			{2 { 1 add 2 div 3 mul dup floor sub 2 mul 1 sub exch} repeat
			FMSpotFunction } } {/FMSpotFunction load } ifelse
			0.0 exch
} bind def
/getBlackScreen  {
	FMUseHighFrequencyScreens { KHighFreqs } { KLowFreqs } ifelse
		screenIndex get 45.0 /FMSpotFunction load 
} bind def
/getSpotScreen {
	getBlackScreen
} bind def
/getCompositeScreen {
	getBlackScreen
} bind def
/FMSetScreen 
	fMLevel1 { /setscreen load 
	}{ {
		8 dict begin
		/HalftoneType 1 def
		/SpotFunction exch def
		/Angle exch def
		/Frequency exch def
		/AccurateScreens FMUseAcccurateScreens def
		currentdict end sethalftone
	} bind } ifelse
def
/setDefaultScreen {
	FMPColor {
		orgrxfer cvx orggxfer cvx orgbxfer cvx orgxfer cvx setcolortransfer
	}
	{
		orgxfer cvx settransfer
	} ifelse
	orgfreq organgle orgproc cvx setscreen
} bind def
/setCurrentScreen {
	FrameSepIs FMnone eq {
		FMUseDefaultNoSeparationScreen {
			setDefaultScreen
		} {
			getCompositeScreen FMSetScreen
		} ifelse
	} {
		FrameSepIs FMcustom eq {
			FMUseDefaultSpotSeparationScreen {
				setDefaultScreen
			} {
				getSpotScreen FMSetScreen
			} ifelse
		} {
			FMUseDefaultProcessSeparationScreen {
				setDefaultScreen
			} {
				FrameSepIs FMcyan eq {
					getCyanScreen FMSetScreen
				} {
					FrameSepIs FMmagenta eq {
						getMagentaScreen FMSetScreen
					} {
						FrameSepIs FMyellow eq {
							getYellowScreen FMSetScreen
						} {
							getBlackScreen FMSetScreen
						} ifelse
					} ifelse
				} ifelse
			} ifelse
		} ifelse
	} ifelse 
} bind def
end
	
/FMDOCUMENT { 
	array /FMfonts exch def 
	/#copies exch def
	FrameDict begin
	0 ne /manualfeed exch def
	/paperheight exch def
	/paperwidth exch def
	0 ne /fMNegative exch def 
	0 ne /edown exch def 
	/yscale exch def
	/xscale exch def
	fMLevel1 {
		manualfeed {setmanualfeed} if
		/FMdicttop countdictstack 1 add def 
		/FMoptop count def 
		setpapername 
		manualfeed {true} {papersize} ifelse 
		{manualpapersize} {false} ifelse 
		{desperatepapersize} {false} ifelse 
		{papersizefailure} if
		count -1 FMoptop {pop pop} for
		countdictstack -1 FMdicttop {pop end} for 
		}
		{2 dict
		 dup /PageSize [paperwidth paperheight] put
		 manualfeed {dup /ManualFeed manualfeed put} if
		 {setpagedevice} stopped {papersizefailure} if
		}
	ifelse 
	
	FMPColor {
		currentcolorscreen
			cvlit /orgproc exch def
				  /organgle exch def 
				  /orgfreq exch def
			cvlit /orgbproc exch def
				  /orgbangle exch def 
				  /orgbfreq exch def
			cvlit /orggproc exch def
				  /orggangle exch def 
				  /orggfreq exch def
			cvlit /orgrproc exch def
				  /orgrangle exch def 
				  /orgrfreq exch def
			currentcolortransfer 
			fMNegative {
				1 1 4 { 
					pop { 1 exch sub } fmConcatProcs 4 1 roll
				} for
				4 copy
				setcolortransfer
			} if
			cvlit /orgxfer exch def
			cvlit /orgbxfer exch def
			cvlit /orggxfer exch def
			cvlit /orgrxfer exch def
	} {
		currentscreen 
			cvlit /orgproc exch def
				  /organgle exch def 
				  /orgfreq exch def
				  
		currenttransfer 
		fMNegative {
			{ 1 exch sub } fmConcatProcs
			dup settransfer
		} if 
		cvlit /orgxfer exch def
	} ifelse
	end 
} def 
/FMBEGINPAGE { 
	FrameDict begin 
	/pagesave save def
	3.86 setmiterlimit
	/landscape exch 0 ne def
	landscape { 
		90 rotate 0 exch dup /pwid exch def neg translate pop 
	}{
		pop /pwid exch def
	} ifelse
	edown { [-1 0 0 1 pwid 0] concat } if
	0 0 moveto paperwidth 0 lineto paperwidth paperheight lineto 
	0 paperheight lineto 0 0 lineto 1 setgray fill
	xscale yscale scale
	/orgmatrix matrix def
	gsave 
} def 
/FMENDPAGE {
	grestore 
	pagesave restore
	end 
	showpage
	} def 
/FMFONTDEFINE { 
	FrameDict begin
	findfont 
	ReEncode 
	1 index exch 
	definefont 
	FMfonts 3 1 roll 
	put
	end 
	} def 
/FMFILLS {
	FrameDict begin dup
	array /fillvals exch def
	dict /patCache exch def
	end 
	} def 
/FMFILL {
	FrameDict begin
	 fillvals 3 1 roll put
	end 
	} def 
/FMNORMALIZEGRAPHICS { 
	newpath
	1 setlinewidth
	0 setlinecap
	0 0 0 sethsbcolor
	0 setgray 
	} bind def
/FMBEGINEPSF { 
	end 
	/FMEPSF save def 
	/showpage {} def 
% See Adobe's "PostScript Language Reference Manual, 2nd Edition", page 714.
% "...the following operators MUST NOT be used in an EPS file:" (emphasis ours)
	/banddevice {(banddevice) FMBADEPSF} def
	/clear {(clear) FMBADEPSF} def
	/cleardictstack {(cleardictstack) FMBADEPSF} def 
	/copypage {(copypage) FMBADEPSF} def
	/erasepage {(erasepage) FMBADEPSF} def
	/exitserver {(exitserver) FMBADEPSF} def
	/framedevice {(framedevice) FMBADEPSF} def
	/grestoreall {(grestoreall) FMBADEPSF} def
	/initclip {(initclip) FMBADEPSF} def
	/initgraphics {(initgraphics) FMBADEPSF} def
	/quit {(quit) FMBADEPSF} def
	/renderbands {(renderbands) FMBADEPSF} def
	/setglobal {(setglobal) FMBADEPSF} def
	/setpagedevice {(setpagedevice) FMBADEPSF} def
	/setshared {(setshared) FMBADEPSF} def
	/startjob {(startjob) FMBADEPSF} def
	/lettertray {(lettertray) FMBADEPSF} def
	/letter {(letter) FMBADEPSF} def
	/lettersmall {(lettersmall) FMBADEPSF} def
	/11x17tray {(11x17tray) FMBADEPSF} def
	/11x17 {(11x17) FMBADEPSF} def
	/ledgertray {(ledgertray) FMBADEPSF} def
	/ledger {(ledger) FMBADEPSF} def
	/legaltray {(legaltray) FMBADEPSF} def
	/legal {(legal) FMBADEPSF} def
	/statementtray {(statementtray) FMBADEPSF} def
	/statement {(statement) FMBADEPSF} def
	/executivetray {(executivetray) FMBADEPSF} def
	/executive {(executive) FMBADEPSF} def
	/a3tray {(a3tray) FMBADEPSF} def
	/a3 {(a3) FMBADEPSF} def
	/a4tray {(a4tray) FMBADEPSF} def
	/a4 {(a4) FMBADEPSF} def
	/a4small {(a4small) FMBADEPSF} def
	/b4tray {(b4tray) FMBADEPSF} def
	/b4 {(b4) FMBADEPSF} def
	/b5tray {(b5tray) FMBADEPSF} def
	/b5 {(b5) FMBADEPSF} def
	FMNORMALIZEGRAPHICS 
	[/fy /fx /fh /fw /ury /urx /lly /llx] {exch def} forall 
	fx fw 2 div add fy fh 2 div add  translate
	rotate
	fw 2 div neg fh 2 div neg translate
	fw urx llx sub div fh ury lly sub div scale 
	llx neg lly neg translate 
	/FMdicttop countdictstack 1 add def 
	/FMoptop count def 
	} bind def
/FMENDEPSF {
	count -1 FMoptop {pop pop} for 
	countdictstack -1 FMdicttop {pop end} for 
	FMEPSF restore
	FrameDict begin 
	} bind def
FrameDict begin 
/setmanualfeed {
%%BeginFeature *ManualFeed True
	 statusdict /manualfeed true put
%%EndFeature
	} bind def
/max {2 copy lt {exch} if pop} bind def
/min {2 copy gt {exch} if pop} bind def
/inch {72 mul} def
/pagedimen { 
	paperheight sub abs 16 lt exch 
	paperwidth sub abs 16 lt and
	{/papername exch def} {pop} ifelse
	} bind def
/setpapername { 
	/papersizedict 14 dict def 
	papersizedict begin
	/papername /unknown def 
		/Letter 8.5 inch 11.0 inch pagedimen
		/LetterSmall 7.68 inch 10.16 inch pagedimen
		/Tabloid 11.0 inch 17.0 inch pagedimen
		/Ledger 17.0 inch 11.0 inch pagedimen
		/Legal 8.5 inch 14.0 inch pagedimen
		/Statement 5.5 inch 8.5 inch pagedimen
		/Executive 7.5 inch 10.0 inch pagedimen
		/A3 11.69 inch 16.5 inch pagedimen
		/A4 8.26 inch 11.69 inch pagedimen
		/A4Small 7.47 inch 10.85 inch pagedimen
		/B4 10.125 inch 14.33 inch pagedimen
		/B5 7.16 inch 10.125 inch pagedimen
	end
	} bind def
/papersize {
	papersizedict begin
		/Letter {lettertray letter} def
		/LetterSmall {lettertray lettersmall} def
		/Tabloid {11x17tray 11x17} def
		/Ledger {ledgertray ledger} def
		/Legal {legaltray legal} def
		/Statement {statementtray statement} def
		/Executive {executivetray executive} def
		/A3 {a3tray a3} def
		/A4 {a4tray a4} def
		/A4Small {a4tray a4small} def
		/B4 {b4tray b4} def
		/B5 {b5tray b5} def
		/unknown {unknown} def
	papersizedict dup papername known {papername} {/unknown} ifelse get
	end
	statusdict begin stopped end 
	} bind def
/manualpapersize {
	papersizedict begin
		/Letter {letter} def
		/LetterSmall {lettersmall} def
		/Tabloid {11x17} def
		/Ledger {ledger} def
		/Legal {legal} def
		/Statement {statement} def
		/Executive {executive} def
		/A3 {a3} def
		/A4 {a4} def
		/A4Small {a4small} def
		/B4 {b4} def
		/B5 {b5} def
		/unknown {unknown} def
	papersizedict dup papername known {papername} {/unknown} ifelse get
	end
	stopped 
	} bind def
/desperatepapersize {
	statusdict /setpageparams known
		{
		paperwidth paperheight 0 1 
		statusdict begin
		{setpageparams} stopped 
		end
		} {true} ifelse 
	} bind def
/papersizefailure {
	FMAllowPaperSizeMismatch not
		{
(The requested paper size is not available in any currently-installed tray)
(Edit the PS file to "FMAllowPaperSizeMismatch true" to use default tray)
		 FMFAILURE } if
	} def
/DiacriticEncoding [
/.notdef /.notdef /.notdef /.notdef /.notdef /.notdef /.notdef
/.notdef /.notdef /.notdef /.notdef /.notdef /.notdef /.notdef
/.notdef /.notdef /.notdef /.notdef /.notdef /.notdef /.notdef
/.notdef /.notdef /.notdef /.notdef /.notdef /.notdef /.notdef
/.notdef /.notdef /.notdef /.notdef /space /exclam /quotedbl
/numbersign /dollar /percent /ampersand /quotesingle /parenleft
/parenright /asterisk /plus /comma /hyphen /period /slash /zero /one
/two /three /four /five /six /seven /eight /nine /colon /semicolon
/less /equal /greater /question /at /A /B /C /D /E /F /G /H /I /J /K
/L /M /N /O /P /Q /R /S /T /U /V /W /X /Y /Z /bracketleft /backslash
/bracketright /asciicircum /underscore /grave /a /b /c /d /e /f /g /h
/i /j /k /l /m /n /o /p /q /r /s /t /u /v /w /x /y /z /braceleft /bar
/braceright /asciitilde /.notdef /Adieresis /Aring /Ccedilla /Eacute
/Ntilde /Odieresis /Udieresis /aacute /agrave /acircumflex /adieresis
/atilde /aring /ccedilla /eacute /egrave /ecircumflex /edieresis
/iacute /igrave /icircumflex /idieresis /ntilde /oacute /ograve
/ocircumflex /odieresis /otilde /uacute /ugrave /ucircumflex
/udieresis /dagger /.notdef /cent /sterling /section /bullet
/paragraph /germandbls /registered /copyright /trademark /acute
/dieresis /.notdef /AE /Oslash /.notdef /.notdef /.notdef /.notdef
/yen /.notdef /.notdef /.notdef /.notdef /.notdef /.notdef
/ordfeminine /ordmasculine /.notdef /ae /oslash /questiondown
/exclamdown /logicalnot /.notdef /florin /.notdef /.notdef
/guillemotleft /guillemotright /ellipsis /.notdef /Agrave /Atilde
/Otilde /OE /oe /endash /emdash /quotedblleft /quotedblright
/quoteleft /quoteright /.notdef /.notdef /ydieresis /Ydieresis
/fraction /currency /guilsinglleft /guilsinglright /fi /fl /daggerdbl
/periodcentered /quotesinglbase /quotedblbase /perthousand
/Acircumflex /Ecircumflex /Aacute /Edieresis /Egrave /Iacute
/Icircumflex /Idieresis /Igrave /Oacute /Ocircumflex /.notdef /Ograve
/Uacute /Ucircumflex /Ugrave /dotlessi /circumflex /tilde /macron
/breve /dotaccent /ring /cedilla /hungarumlaut /ogonek /caron
] def
/ReEncode { 
	dup 
	length 
	dict begin 
	{
	1 index /FID ne 
		{def} 
		{pop pop} ifelse 
	} forall 
	0 eq {/Encoding DiacriticEncoding def} if 
	currentdict 
	end 
	} bind def
FMPColor 
	
	{
	/BEGINBITMAPCOLOR { 
		BITMAPCOLOR} def
	/BEGINBITMAPCOLORc { 
		BITMAPCOLORc} def
	/BEGINBITMAPTRUECOLOR { 
		BITMAPTRUECOLOR } def
	/BEGINBITMAPTRUECOLORc { 
		BITMAPTRUECOLORc } def
	/BEGINBITMAPCMYK { 
		BITMAPCMYK } def
	/BEGINBITMAPCMYKc { 
		BITMAPCMYKc } def
	}
	
	{
	/BEGINBITMAPCOLOR { 
		BITMAPGRAY} def
	/BEGINBITMAPCOLORc { 
		BITMAPGRAYc} def
	/BEGINBITMAPTRUECOLOR { 
		BITMAPTRUEGRAY } def
	/BEGINBITMAPTRUECOLORc { 
		BITMAPTRUEGRAYc } def
	/BEGINBITMAPCMYK { 
		BITMAPCMYKGRAY } def
	/BEGINBITMAPCMYKc { 
		BITMAPCMYKGRAYc } def
	}
ifelse
/K { 
	FMPrintAllColorsAsBlack {
		dup 1 eq 2 index 1 eq and 3 index 1 eq and not
			{7 {pop} repeat 0 0 0 1 0 0 0} if
	} if 
	FrameCurColors astore 
	pop combineColor
} bind def
/graymode true def
fMLevel1 {
	/fmGetFlip {
		fMatrix2 exch get mul 0 lt { -1 } { 1 } ifelse
	} FmBD
} if
/setPatternMode {
	fMLevel1 {
		2 index patScreenDict exch known {
			pop pop
			patScreenDict exch get aload pop 
			freq 								
			mul									
			5 2 roll							
			fMatrix2 currentmatrix 1 get 0 ne {
				3 -1 roll 90 add 3 1 roll 		
				sflipx 1 fmGetFlip sflipy 2 fmGetFlip neg mul
			} {  								
				sflipx 0 fmGetFlip sflipy 3 fmGetFlip mul 
			} ifelse
			0 lt {exch pop} {pop} ifelse 		
			fMNegative { 
				{neg} fmConcatProcs 			
			} if
			bind
			
			
			
			systemdict /setscreen get exec		
			/FrameCurGray exch def
		} {
			/bwidth  exch def
			/bpside  exch def
			/bstring exch def
			/onbits 0 def  /offbits 0 def
			freq sangle landscape {90 add} if 
				{/ypoint exch def
				 /xpoint exch def
				 /xindex xpoint 1 add 2 div bpside mul cvi def
				 /yindex ypoint 1 add 2 div bpside mul cvi def
				 bstring yindex bwidth mul xindex 8 idiv add get
				 1 7 xindex 8 mod sub bitshift and 0 ne fMNegative {not} if
				 {/onbits  onbits  1 add def 1}
				 {/offbits offbits 1 add def 0}
				 ifelse
				}
				setscreen
			offbits offbits onbits add div fMNegative {1.0 exch sub} if
			/FrameCurGray exch def
		} ifelse
	} { 
		pop pop
		dup patCache exch known {
			patCache exch get
		} { 
			dup
			patDict /bstring 3 -1 roll put
			patDict 
			9 PatFreq screenIndex get div dup matrix scale
			makepattern
			dup 
			patCache 4 -1 roll 3 -1 roll put
		} ifelse
		/FrameCurGray 0 def
		/FrameCurPat exch def
	} ifelse
	/graymode false def
	combineColor
} bind def
/setGrayScaleMode {
	graymode not {
		/graymode true def
		fMLevel1 {
			setCurrentScreen
		} if
	} if
	/FrameCurGray exch def
	combineColor
} bind def
/normalize {
	transform round exch round exch itransform
	} bind def
/dnormalize {
	dtransform round exch round exch idtransform
	} bind def
/lnormalize { 
	0 dtransform exch cvi 2 idiv 2 mul 1 add exch idtransform pop
	} bind def
/H { 
	lnormalize setlinewidth
	} bind def
/Z {
	setlinecap
	} bind def
	
/PFill {
	graymode fMLevel1 or not {
		gsave 1 setgray eofill grestore
	} if
} bind def
/PStroke {
	graymode fMLevel1 or not {
		gsave 1 setgray stroke grestore
	} if
	stroke
} bind def
/X { 
	fillvals exch get
	dup type /stringtype eq
	{8 1 setPatternMode} 
	{setGrayScaleMode}
	ifelse
	} bind def
/V { 
	PFill gsave eofill grestore
	} bind def
/Vclip {
	clip
	} bind def
/Vstrk {
	currentlinewidth exch setlinewidth PStroke setlinewidth
	} bind def
/N { 
	PStroke
	} bind def
/Nclip {
	strokepath clip newpath
	} bind def
/Nstrk {
	currentlinewidth exch setlinewidth PStroke setlinewidth
	} bind def
/M {newpath moveto} bind def
/E {lineto} bind def
/D {curveto} bind def
/O {closepath} bind def
/L { 
 	/n exch def
	newpath
	normalize
	moveto 
	2 1 n {pop normalize lineto} for
	} bind def
/Y { 
	L 
	closepath
	} bind def
/R { 
	/y2 exch def
	/x2 exch def
	/y1 exch def
	/x1 exch def
	x1 y1
	x2 y1
	x2 y2
	x1 y2
	4 Y 
	} bind def
/rarc 
	{rad 
	 arcto
	} bind def
/RR { 
	/rad exch def
	normalize
	/y2 exch def
	/x2 exch def
	normalize
	/y1 exch def
	/x1 exch def
	mark
	newpath
	{
	x1 y1 rad add moveto
	x1 y2 x2 y2 rarc
	x2 y2 x2 y1 rarc
	x2 y1 x1 y1 rarc
	x1 y1 x1 y2 rarc
	closepath
	} stopped {x1 y1 x2 y2 R} if 
	cleartomark
	} bind def
/RRR { 
	/rad exch def
	normalize /y4 exch def /x4 exch def
	normalize /y3 exch def /x3 exch def
	normalize /y2 exch def /x2 exch def
	normalize /y1 exch def /x1 exch def
	newpath
	normalize moveto 
	mark
	{
	x2 y2 x3 y3 rarc
	x3 y3 x4 y4 rarc
	x4 y4 x1 y1 rarc
	x1 y1 x2 y2 rarc
	closepath
	} stopped
	 {x1 y1 x2 y2 x3 y3 x4 y4 newpath moveto lineto lineto lineto closepath} if
	cleartomark
	} bind def
/C { 
	grestore
	gsave
	R 
	clip
	setCurrentScreen
} bind def
/CP { 
	grestore
	gsave
	Y 
	clip
	setCurrentScreen
} bind def
/F { 
	FMfonts exch get
	FMpointsize scalefont
	setfont
	} bind def
/Q { 
	/FMpointsize exch def
	F 
	} bind def
/T { 
	moveto show
	} bind def
/RF { 
	rotate
	0 ne {-1 1 scale} if
	} bind def
/TF { 
	gsave
	moveto 
	RF
	show
	grestore
	} bind def
/P { 
	moveto
	0 32 3 2 roll widthshow
	} bind def
/PF { 
	gsave
	moveto 
	RF
	0 32 3 2 roll widthshow
	grestore
	} bind def
/S { 
	moveto
	0 exch ashow
	} bind def
/SF { 
	gsave
	moveto
	RF
	0 exch ashow
	grestore
	} bind def
/B { 
	moveto
	0 32 4 2 roll 0 exch awidthshow
	} bind def
/BF { 
	gsave
	moveto
	RF
	0 32 4 2 roll 0 exch awidthshow
	grestore
	} bind def
/G { 
	gsave
	newpath
	normalize translate 0.0 0.0 moveto 
	dnormalize scale 
	0.0 0.0 1.0 5 3 roll arc 
	closepath 
	PFill fill
	grestore
	} bind def
/Gstrk {
	savematrix
    newpath
    2 index 2 div add exch 3 index 2 div sub exch 
    normalize 2 index 2 div sub exch 3 index 2 div add exch 
    translate
    scale 
    0.0 0.0 1.0 5 3 roll arc 
    restorematrix
    currentlinewidth exch setlinewidth PStroke setlinewidth
    } bind def
/Gclip { 
	newpath
	savematrix
	normalize translate 0.0 0.0 moveto 
	dnormalize scale 
	0.0 0.0 1.0 5 3 roll arc 
	closepath 
	clip newpath
	restorematrix
	} bind def
/GG { 
	gsave
	newpath
	normalize translate 0.0 0.0 moveto 
	rotate 
	dnormalize scale 
	0.0 0.0 1.0 5 3 roll arc 
	closepath
	PFill
	fill
	grestore
	} bind def
/GGclip { 
	savematrix
	newpath
    normalize translate 0.0 0.0 moveto 
    rotate 
    dnormalize scale 
    0.0 0.0 1.0 5 3 roll arc 
    closepath
	clip newpath
	restorematrix
	} bind def
/GGstrk { 
	savematrix
    newpath
    normalize translate 0.0 0.0 moveto 
    rotate 
    dnormalize scale 
    0.0 0.0 1.0 5 3 roll arc 
    closepath 
	restorematrix
    currentlinewidth exch setlinewidth PStroke setlinewidth
	} bind def
/A { 
	gsave
	savematrix
	newpath
	2 index 2 div add exch 3 index 2 div sub exch 
	normalize 2 index 2 div sub exch 3 index 2 div add exch 
	translate 
	scale 
	0.0 0.0 1.0 5 3 roll arc 
	restorematrix
	PStroke
	grestore
	} bind def
/Aclip {
	newpath
	savematrix
	normalize translate 0.0 0.0 moveto 
	dnormalize scale 
	0.0 0.0 1.0 5 3 roll arc 
	closepath 
	strokepath clip newpath
	restorematrix
} bind def
/Astrk {
	Gstrk
} bind def
/AA { 
	gsave
	savematrix
	newpath
	
	3 index 2 div add exch 4 index 2 div sub exch 
	
	normalize 3 index 2 div sub exch 4 index 2 div add exch
	translate 
	rotate 
	scale 
	0.0 0.0 1.0 5 3 roll arc 
	restorematrix
	PStroke
	grestore
	} bind def
/AAclip {
	savematrix
	newpath
    normalize translate 0.0 0.0 moveto 
    rotate 
    dnormalize scale 
    0.0 0.0 1.0 5 3 roll arc 
    closepath
	strokepath clip newpath
	restorematrix
} bind def
/AAstrk {
	GGstrk
} bind def
/BEGINPRINTCODE { 
	/FMdicttop countdictstack 1 add def 
	/FMoptop count 7 sub def 
	/FMsaveobject save def
	userdict begin 
	/showpage {} def 
	FMNORMALIZEGRAPHICS 
	3 index neg 3 index neg translate
	} bind def
/ENDPRINTCODE {
	count -1 FMoptop {pop pop} for 
	countdictstack -1 FMdicttop {pop end} for 
	FMsaveobject restore 
	} bind def
/gn { 
	0 
	{	46 mul 
		cf read pop 
		32 sub 
		dup 46 lt {exit} if 
		46 sub add 
		} loop
	add 
	} bind def
/cfs { 
	/str sl string def 
	0 1 sl 1 sub {str exch val put} for 
	str def 
	} bind def
/ic [ 
	0 0 0 0 0 0 0 0 0 0 0 0 0 0 0 0223
	0 0 0 0 0 0 0 0 0 0 0 0 0 0 0 0223
	0
	{0 hx} {1 hx} {2 hx} {3 hx} {4 hx} {5 hx} {6 hx} {7 hx} {8 hx} {9 hx}
	{10 hx} {11 hx} {12 hx} {13 hx} {14 hx} {15 hx} {16 hx} {17 hx} {18 hx}
	{19 hx} {gn hx} {0} {1} {2} {3} {4} {5} {6} {7} {8} {9} {10} {11} {12}
	{13} {14} {15} {16} {17} {18} {19} {gn} {0 wh} {1 wh} {2 wh} {3 wh}
	{4 wh} {5 wh} {6 wh} {7 wh} {8 wh} {9 wh} {10 wh} {11 wh} {12 wh}
	{13 wh} {14 wh} {gn wh} {0 bl} {1 bl} {2 bl} {3 bl} {4 bl} {5 bl} {6 bl}
	{7 bl} {8 bl} {9 bl} {10 bl} {11 bl} {12 bl} {13 bl} {14 bl} {gn bl}
	{0 fl} {1 fl} {2 fl} {3 fl} {4 fl} {5 fl} {6 fl} {7 fl} {8 fl} {9 fl}
	{10 fl} {11 fl} {12 fl} {13 fl} {14 fl} {gn fl}
	] def
/ms { 
	/sl exch def 
	/val 255 def 
	/ws cfs 
	/im cfs 
	/val 0 def 
	/bs cfs 
	/cs cfs 
	} bind def
400 ms 
/ip { 
	is 
	0 
	cf cs readline pop 
	{	ic exch get exec 
		add 
		} forall 
	pop 
	
	} bind def
/rip { 
	   
	  
	  bis ris copy pop 
      is
      0
      cf cs readline pop 
      {       ic exch get exec 
              add 
              } forall 
	  pop pop 
	  ris gis copy pop 
	  dup is exch 
	  
      cf cs readline pop 
      {       ic exch get exec 
              add 
              } forall 
	  pop pop
	  gis bis copy pop 
	  dup add is exch 
	  
      cf cs readline pop 
      {       ic exch get exec 
              add 
              } forall 
      pop 
      
      } bind def
/rip4 { 
	   
	  
	  kis cis copy pop 
      is
      0
      cf cs readline pop 
      {       ic exch get exec 
              add 
              } forall 
	  pop pop 
	  cis mis copy pop 
	  dup is exch 
	  
      cf cs readline pop 
      {       ic exch get exec 
              add 
              } forall 
	  pop pop
	  mis yis copy pop 
	  dup dup add is exch 
	  
      cf cs readline pop 
      {       ic exch get exec 
              add 
              } forall 
	  pop pop
	  yis kis copy pop 
	  3 mul is exch 
	  
      cf cs readline pop 
      {       ic exch get exec 
              add 
              } forall 
      pop 
      
      } bind def
/wh { 
	/len exch def 
	/pos exch def 
	ws 0 len getinterval im pos len getinterval copy pop
	pos len 
	} bind def
/bl { 
	/len exch def 
	/pos exch def 
	bs 0 len getinterval im pos len getinterval copy pop
	pos len 
	} bind def
/s1 1 string def
/fl { 
	/len exch def 
	/pos exch def 
	/val cf s1 readhexstring pop 0 get def
	pos 1 pos len add 1 sub {im exch val put} for
	pos len 
	} bind def
/hx { 
	3 copy getinterval 
	cf exch readhexstring pop pop 
	} bind def
/wbytes { 
      dup dup
      8 gt { pop 8 idiv mul }
      { 8 eq {pop} {1 eq {7 add 8 idiv} {3 add 4 idiv} ifelse} ifelse } ifelse
	} bind def
/BEGINBITMAPBWc { 
	1 {} COMMONBITMAPc
	} bind def
/BEGINBITMAPGRAYc { 
	8 {} COMMONBITMAPc
	} bind def
/BEGINBITMAP2BITc { 
	2 {} COMMONBITMAPc
	} bind def
/COMMONBITMAPc { 
		 
	/cvtProc exch def
	/depth exch def
	gsave
	
	3 index 2 div add exch	
	4 index 2 div add exch	
	translate		
	rotate			
	1 index 2 div neg	
	1 index 2 div neg	
	translate		
	scale			
	/height exch def /width exch def
	/lb width depth wbytes def 
	sl lb lt {lb ms} if 
	/bitmapsave save def 
	cvtProc                
	/is im 0 lb getinterval def 
	ws 0 lb getinterval is copy pop 
	/cf currentfile def 
	width height depth [width 0 0 height neg 0 height] 
	{ip} image 
	bitmapsave restore 
	grestore
	} bind def
/BEGINBITMAPBW { 
	1 {} COMMONBITMAP
	} bind def
/BEGINBITMAPGRAY { 
	8 {} COMMONBITMAP
	} bind def
/BEGINBITMAP2BIT { 
	2 {} COMMONBITMAP
	} bind def
/COMMONBITMAP { 
	/cvtProc exch def
	/depth exch def
	gsave
	
	3 index 2 div add exch	
	4 index 2 div add exch	
	translate		
	rotate			
	1 index 2 div neg	
	1 index 2 div neg	
	translate		
	scale			
	/height exch def /width exch def
	/bitmapsave save def 
	cvtProc              
	/is width depth wbytes string def
	/cf currentfile def 
	width height depth [width 0 0 height neg 0 height] 
	{cf is readhexstring pop} image
	bitmapsave restore 
	grestore
	} bind def
/ngrayt 256 array def
/nredt 256 array def
/nbluet 256 array def
/ngreent 256 array def
fMLevel1 {
/colorsetup {
	currentcolortransfer
	/gryt exch def
	/blut exch def
	/grnt exch def
	/redt exch def
	0 1 255 {
		/indx exch def
		/cynu 1 red indx get 255 div sub def
		/magu 1 green indx get 255 div sub def
		/yelu 1 blue indx get 255 div sub def
		/kk cynu magu min yelu min def
		/u kk currentundercolorremoval exec def
%		/u 0 def
		nredt indx 1 0 cynu u sub max sub redt exec put
		ngreent indx 1 0 magu u sub max sub grnt exec put
		nbluet indx 1 0 yelu u sub max sub blut exec put
		ngrayt indx 1 kk currentblackgeneration exec sub gryt exec put
	} for
	{255 mul cvi nredt exch get}
	{255 mul cvi ngreent exch get}
	{255 mul cvi nbluet exch get}
	{255 mul cvi ngrayt exch get}
	setcolortransfer
	{pop 0} setundercolorremoval
	{} setblackgeneration
	} bind def
}
{
/colorSetup2 {
	[ /Indexed /DeviceRGB 255 
		{dup red exch get 255 div 
		 exch dup green exch get 255 div 
		 exch blue exch get 255 div}
	] setcolorspace
} bind def
} ifelse
/fakecolorsetup {
	/tran 256 string def
	0 1 255 {/indx exch def 
		tran indx
		red indx get 77 mul
		green indx get 151 mul
		blue indx get 28 mul
		add add 256 idiv put} for
	currenttransfer
	{255 mul cvi tran exch get 255.0 div}
	exch fmConcatProcs settransfer
} bind def
/BITMAPCOLOR { 
	/depth 8 def
	gsave
	
	3 index 2 div add exch	
	4 index 2 div add exch	
	translate		
	rotate			
	1 index 2 div neg	
	1 index 2 div neg	
	translate		
	scale			
	/height exch def /width exch def
	/bitmapsave save def
	fMLevel1 {	
		colorsetup
		/is width depth wbytes string def
		/cf currentfile def 
		width height depth [width 0 0 height neg 0 height] 
		{cf is readhexstring pop} {is} {is} true 3 colorimage 
	} {
		colorSetup2
		/is width depth wbytes string def
		/cf currentfile def 
		7 dict dup begin
			/ImageType 1 def
			/Width width def
			/Height height def
			/ImageMatrix [width 0 0 height neg 0 height] def
			/DataSource {cf is readhexstring pop} bind def
			/BitsPerComponent depth def
			/Decode [0 255] def
		end image	
	} ifelse
	bitmapsave restore 
	grestore
	} bind def
/BITMAPCOLORc { 
	/depth 8 def
	gsave
	
	3 index 2 div add exch	
	4 index 2 div add exch	
	translate		
	rotate			
	1 index 2 div neg	
	1 index 2 div neg	
	translate		
	scale			
	/height exch def /width exch def
	/lb width depth wbytes def 
	sl lb lt {lb ms} if 
	/bitmapsave save def 
	fMLevel1 {	
		colorsetup
		/is im 0 lb getinterval def 
		ws 0 lb getinterval is copy pop 
		/cf currentfile def 
		width height depth [width 0 0 height neg 0 height] 
		{ip} {is} {is} true 3 colorimage
	} {
		colorSetup2
		/is im 0 lb getinterval def 
		ws 0 lb getinterval is copy pop 
		/cf currentfile def 
		7 dict dup begin
			/ImageType 1 def
			/Width width def
			/Height height def
			/ImageMatrix [width 0 0 height neg 0 height] def
			/DataSource {ip} bind def
			/BitsPerComponent depth def
			/Decode [0 255] def
		end image	
	} ifelse
	bitmapsave restore 
	grestore
	} bind def
/BITMAPTRUECOLORc { 
	/depth 24 def
        gsave
 	
	3 index 2 div add exch	
	4 index 2 div add exch	
	translate		
	rotate			
	1 index 2 div neg	
	1 index 2 div neg	
	translate		
	scale			
	/height exch def /width exch def
	/lb width depth wbytes def 
	sl lb lt {lb ms} if 
	/bitmapsave save def 
        
	/is im 0 lb getinterval def	
	/ris im 0 width getinterval def	
	/gis im width width getinterval def	
	/bis im width 2 mul width getinterval def 
        
	ws 0 lb getinterval is copy pop 
	/cf currentfile def 
	width height 8 [width 0 0 height neg 0 height] 
	{width rip pop ris} {gis} {bis} true 3 colorimage
	bitmapsave restore 
	grestore
	} bind def
/BITMAPCMYKc { 
	/depth 32 def
        gsave
 	
	3 index 2 div add exch	
	4 index 2 div add exch	
	translate		
	rotate			
	1 index 2 div neg	
	1 index 2 div neg	
	translate		
	scale			
	/height exch def /width exch def
	/lb width depth wbytes def 
	sl lb lt {lb ms} if 
	/bitmapsave save def 
        
	/is im 0 lb getinterval def	
	/cis im 0 width getinterval def	
	/mis im width width getinterval def	
	/yis im width 2 mul width getinterval def 
	/kis im width 3 mul width getinterval def 
        
	ws 0 lb getinterval is copy pop 
	/cf currentfile def 
	width height 8 [width 0 0 height neg 0 height] 
	{width rip4 pop cis} {mis} {yis} {kis} true 4 colorimage
	bitmapsave restore 
	grestore
	} bind def
/BITMAPTRUECOLOR { 
        gsave
		
		3 index 2 div add exch	
		4 index 2 div add exch	
		translate		
		rotate			
		1 index 2 div neg	
		1 index 2 div neg	
		translate		
		scale			
		/height exch def /width exch def
        /bitmapsave save def 
        /is width string def
        /gis width string def
        /bis width string def
        /cf currentfile def 
        width height 8 [width 0 0 height neg 0 height] 
        { cf is readhexstring pop } 
        { cf gis readhexstring pop } 
        { cf bis readhexstring pop } 
        true 3 colorimage 
        bitmapsave restore 
        grestore
        } bind def
/BITMAPCMYK { 
        gsave
		
		3 index 2 div add exch	
		4 index 2 div add exch	
		translate		
		rotate			
		1 index 2 div neg	
		1 index 2 div neg	
		translate		
		scale			
		/height exch def /width exch def
        /bitmapsave save def 
        /is width string def
        /mis width string def
        /yis width string def
        /kis width string def
        /cf currentfile def 
        width height 8 [width 0 0 height neg 0 height] 
        { cf is readhexstring pop } 
        { cf mis readhexstring pop } 
        { cf yis readhexstring pop } 
        { cf kis readhexstring pop } 
        true 4 colorimage 
        bitmapsave restore 
        grestore
        } bind def
/BITMAPTRUEGRAYc { 
	/depth 24 def
        gsave
	
	3 index 2 div add exch	
	4 index 2 div add exch	
	translate		
	rotate			
	1 index 2 div neg	
	1 index 2 div neg	
	translate		
	scale			
	/height exch def /width exch def
	/lb width depth wbytes def 
	sl lb lt {lb ms} if 
        /bitmapsave save def 
        
	/is im 0 lb getinterval def	
	/ris im 0 width getinterval def	
	/gis im width width getinterval def	
	/bis im width 2 mul width getinterval def 
        ws 0 lb getinterval is copy pop 
        /cf currentfile def 
        width height 8 [width 0 0 height neg 0 height] 
        {width rip pop ris gis bis width gray} image
        bitmapsave restore 
        grestore
        } bind def
/BITMAPCMYKGRAYc { 
	/depth 32 def
        gsave
	
	3 index 2 div add exch	
	4 index 2 div add exch	
	translate		
	rotate			
	1 index 2 div neg	
	1 index 2 div neg	
	translate		
	scale			
	/height exch def /width exch def
	/lb width depth wbytes def 
	sl lb lt {lb ms} if 
        /bitmapsave save def 
        
	/is im 0 lb getinterval def	
	/cis im 0 width getinterval def	
	/mis im width width getinterval def	
	/yis im width 2 mul width getinterval def 
	/kis im width 3 mul width getinterval def 
        ws 0 lb getinterval is copy pop 
        /cf currentfile def 
        width height 8 [width 0 0 height neg 0 height] 
        {width rip pop cis mis yis kis width cgray} image
        bitmapsave restore 
        grestore
        } bind def
/cgray { 
        /ww exch def
        /k exch def
        /y exch def
        /m exch def
        /c exch def
        0 1 ww 1 sub { /i exch def c i get m i get y i get k i get CMYKtoRGB
				.144 mul 3 1 roll .587 mul 3 1 roll .299 mul add add
				c i 3 -1 roll floor cvi put } for
        c
 		} bind def
/gray { 
        /ww exch def
        /b exch def
        /g exch def
        /r exch def
        0 1 ww 1 sub { /i exch def r i get .299 mul g i get .587 mul
			b i get .114 mul add add r i 3 -1 roll floor cvi put } for
        r
        } bind def
/BITMAPTRUEGRAY { 
        gsave
		
		3 index 2 div add exch	
		4 index 2 div add exch	
		translate		
		rotate			
		1 index 2 div neg	
		1 index 2 div neg	
		translate		
		scale			
		/height exch def /width exch def
        /bitmapsave save def 
        /is width string def
        /gis width string def
        /bis width string def
        /cf currentfile def 
        width height 8 [width 0 0 height neg 0 height] 
        { cf is readhexstring pop 
          cf gis readhexstring pop 
          cf bis readhexstring pop width gray}  image
        bitmapsave restore 
        grestore
        } bind def
/BITMAPCMYKGRAY { 
        gsave
		
		3 index 2 div add exch	
		4 index 2 div add exch	
		translate		
		rotate			
		1 index 2 div neg	
		1 index 2 div neg	
		translate		
		scale			
		/height exch def /width exch def
        /bitmapsave save def 
        /is width string def
        /yis width string def
        /mis width string def
        /kis width string def
        /cf currentfile def 
        width height 8 [width 0 0 height neg 0 height] 
        { cf is readhexstring pop 
          cf mis readhexstring pop 
          cf yis readhexstring pop 
          cf kis readhexstring pop width cgray}  image
        bitmapsave restore 
        grestore
        } bind def
/BITMAPGRAY { 
	8 {fakecolorsetup} COMMONBITMAP
	} bind def
/BITMAPGRAYc { 
	8 {fakecolorsetup} COMMONBITMAPc
	} bind def
/ENDBITMAP {
	} bind def
end 
	/ALDmatrix matrix def ALDmatrix currentmatrix pop
/StartALD {
	/ALDsave save def
	 savematrix
	 ALDmatrix setmatrix
	} bind def
/InALD {
	 restorematrix
	} bind def
/DoneALD {
	 ALDsave restore
	} bind def
/I { setdash } bind def
/J { [] 0 setdash } bind def
%%EndProlog
%%BeginSetup
(5.0) FMVERSION
1 1 0 0 612 792 0 1 7 FMDOCUMENT
0 0 /Helvetica-Bold FMFONTDEFINE
1 0 /Times-Roman FMFONTDEFINE
2 0 /Courier-Bold FMFONTDEFINE
3 0 /Times-Bold FMFONTDEFINE
32 FMFILLS
0 0 FMFILL
1 0.1 FMFILL
2 0.3 FMFILL
3 0.5 FMFILL
4 0.7 FMFILL
5 0.9 FMFILL
6 0.97 FMFILL
7 1 FMFILL
8 <0f1e3c78f0e1c387> FMFILL
9 <0f87c3e1f0783c1e> FMFILL
10 <cccccccccccccccc> FMFILL
11 <ffff0000ffff0000> FMFILL
12 <8142241818244281> FMFILL
13 <03060c183060c081> FMFILL
14 <8040201008040201> FMFILL
16 1 FMFILL
17 0.9 FMFILL
18 0.7 FMFILL
19 0.5 FMFILL
20 0.3 FMFILL
21 0.1 FMFILL
22 0.03 FMFILL
23 0 FMFILL
24 <f0e1c3870f1e3c78> FMFILL
25 <f0783c1e0f87c3e1> FMFILL
26 <3333333333333333> FMFILL
27 <0000ffff0000ffff> FMFILL
28 <7ebddbe7e7dbbd7e> FMFILL
29 <fcf9f3e7cf9f3f7e> FMFILL
30 <7fbfdfeff7fbfdfe> FMFILL
%%EndSetup
%%Page: "6" 1
%%BeginPaperSize: Letter
%%EndPaperSize
612 792 0 FMBEGINPAGE
[0 0 0 1 0 0 0]
[ 0 1 1 0 1 0 0]
[ 1 0 1 0 0 1 0]
[ 1 1 0 0 0 0 1]
[ 1 0 0 0 0 1 1]
[ 0 1 0 0 1 0 1]
[ 0 0 1 0 1 1 0]
 7 FrameSetSepColors
FrameNoSep
0 0 0 1 0 0 0 K
J
0 0 0 1 0 0 0 K
54 750.68 540 750.68 2 L
2 H
0 Z
0 X
0 0 0 1 0 0 0 K
N
0 0 0 1 0 0 0 K
0 0 0 1 0 0 0 K
0 9 Q
(Discussion of the T) 189 739.85 T
(est) 271.48 739.85 T
0 0 0 1 0 0 0 K
0 0 0 1 0 0 0 K
54 726.98 540 726.98 2 L
0.25 H
N
54 75.33 540 75.33 2 L
2 Z
N
0 0 0 1 0 0 0 K
0 0 0 1 0 0 0 K
0 10 Q
(6) 54 60.96 T
0 9 Q
( of) 59.56 60.96 T
0 10 Q
( 6) 70.56 60.96 T
0 0 0 1 0 0 0 K
0 0 0 1 0 0 0 K
0 9 Q
(HEXTE Housekeeping Displa) 189 60.96 T
(y T) 312.35 60.96 T
(est Plan) 324.82 60.96 T
0 0 0 1 0 0 0 K
0 0 0 1 0 0 0 K
1 10 Q
(cluster) 189 680.66 T
(. When the cluster performance panel comes up, note the follo) 215.11 680.66 T
(wing additions to) 463.69 680.66 T
0 0 0 1 0 0 0 K
0 0 0 1 0 0 0 K
(this panel: In the lo) 189 668.66 T
(wer left corner) 265.97 668.66 T
(, there are four additional box) 324.43 668.66 T
(es sho) 443.14 668.66 T
(wing count rates) 467.61 668.66 T
0 0 0 1 0 0 0 K
0 0 0 1 0 0 0 K
(by PHA le) 189 656.66 T
(v) 230.97 656.66 T
(el, labelled 15-29 k) 235.82 656.66 T
(eV) 312.93 656.66 T
(, 30-61 k) 323.3 656.66 T
(eV) 359.03 656.66 T
(, 62-125 k) 369.4 656.66 T
(eV) 410.13 656.66 T
(, and 126-250 k) 420.5 656.66 T
(eV) 483.17 656.66 T
(. In the) 493.54 656.66 T
0 0 0 1 0 0 0 K
0 0 0 1 0 0 0 K
(upper part of the panel where there are four ro) 189 644.66 T
(ws labelled P1 through P4 for the four) 373.4 644.66 T
0 0 0 1 0 0 0 K
0 0 0 1 0 0 0 K
(phoswich detectors, tw) 189 632.66 T
(o additional columns ha) 280.83 632.66 T
(v) 376.46 632.66 T
(e been added to the left of the ones) 381.31 632.66 T
0 0 0 1 0 0 0 K
0 0 0 1 0 0 0 K
(which were there originally) 189 620.66 T
(. These columns are labelled \322DEAD\323 and \322GOOD\323 and) 298.6 620.66 T
0 0 0 1 0 0 0 K
0 0 0 1 0 0 0 K
(gi) 189 608.66 T
(v) 196.53 608.66 T
(e the dead time percentages and good e) 201.38 608.66 T
(v) 358.03 608.66 T
(ent rate, respecti) 362.88 608.66 T
(v) 428.44 608.66 T
(ely) 433.29 608.66 T
(.) 444.86 608.66 T
0 0 0 1 0 0 0 K
0 0 0 1 0 0 0 K
0 0 0 1 0 0 0 K
0 0 0 1 0 0 0 K
0 9 Q
(4.4.8) 159.98 585.33 T
0 0 0 1 0 0 0 K
0 0 0 1 0 0 0 K
(DR790: Long science con\336guration name crashes housekeeping displa) 189 585.33 T
(y) 493.91 585.33 T
(.) 498.2 585.33 T
0 0 0 1 0 0 0 K
0 0 0 1 0 0 0 K
1 10 Q
-0.25 (There is not really a good test for this one, as I ha) 189 572.66 P
-0.25 (v) 383.82 572.66 P
-0.25 (en\325) 388.67 572.66 P
-0.25 (t tak) 401.26 572.66 P
-0.25 (en the time to track do) 418.41 572.66 P
-0.25 (wn data) 506.62 572.66 P
0 0 0 1 0 0 0 K
0 0 0 1 0 0 0 K
(containing a too-long con\336guration name. Frankly) 189 560.66 T
(, I don\325) 390 560.66 T
(t think it w) 418.98 560.66 T
(ould be w) 462.5 560.66 T
(orth the) 501.84 560.66 T
0 0 0 1 0 0 0 K
0 0 0 1 0 0 0 K
(time it w) 189 548.66 T
(ould tak) 224.46 548.66 T
(e to do this. Ho) 256.86 548.66 T
(we) 318 548.66 T
(v) 329.41 548.66 T
(er) 334.26 548.66 T
(, the basic test can be run as described in section) 341.63 548.66 T
0 0 0 1 0 0 0 K
0 0 0 1 0 0 0 K
(4.3, and it can be observ) 189 536.66 T
(ed on the cluster status panel that the box in the upper left cor-) 286.33 536.66 T
0 0 0 1 0 0 0 K
0 0 0 1 0 0 0 K
(ner labelled \322Con\336g\323 is wider than it used to be. Other than this, I w) 189 524.66 T
(ould suggest run-) 462.2 524.66 T
0 0 0 1 0 0 0 K
0 0 0 1 0 0 0 K
(ning it ag) 189 512.66 T
(ainst li) 226.73 512.66 T
(v) 253.43 512.66 T
(e data for a fe) 258.28 512.66 T
(w weeks and v) 313 512.66 T
(erify that it doesn\325) 372 512.66 T
(t crash.) 445.42 512.66 T
0 0 0 1 0 0 0 K
0 0 0 1 0 0 0 K
0 0 0 1 0 0 0 K
0 0 0 1 0 0 0 K
0 F
(4.5) 166.1 482.66 T
0 0 0 1 0 0 0 K
0 0 0 1 0 0 0 K
(Dif\336culties and/or Questions:) 189 482.66 T
0 0 0 1 0 0 0 K
0 0 0 1 0 0 0 K
1 F
(If you ha) 189 466.66 T
(v) 224.9 466.66 T
(e an) 229.75 466.66 T
(y problems or questions, please call or email Rich Bentle) 245.98 466.66 T
(y) 474.14 466.66 T
(, rbent-) 478.49 466.66 T
0 0 0 1 0 0 0 K
0 0 0 1 0 0 0 K
(le) 189 454.66 T
(y@mamacass.ucsd.edu, 619-534-1254) 196.07 454.66 T
0 0 0 1 0 0 0 K
0 0 0 1 0 0 0 K
0 0 0 1 0 0 0 K
FMENDPAGE
%%EndPage: "6" 1
%%Page: "5" 2
612 792 0 FMBEGINPAGE
[0 0 0 1 0 0 0]
[ 0 1 1 0 1 0 0]
[ 1 0 1 0 0 1 0]
[ 1 1 0 0 0 0 1]
[ 1 0 0 0 0 1 1]
[ 0 1 0 0 1 0 1]
[ 0 0 1 0 1 1 0]
 7 FrameSetSepColors
FrameNoSep
0 0 0 1 0 0 0 K
72 750.68 558 750.68 2 L
2 H
0 Z
0 X
0 0 0 1 0 0 0 K
N
0 0 0 1 0 0 0 K
0 0 0 1 0 0 0 K
0 9 Q
(Discussion of the T) 207 739.85 T
(est) 289.48 739.85 T
0 0 0 1 0 0 0 K
0 0 0 1 0 0 0 K
72 726.98 558 726.98 2 L
0.25 H
N
72 75.33 558 75.33 2 L
2 Z
N
0 0 0 1 0 0 0 K
0 0 0 1 0 0 0 K
(HEXTE Housekeeping Displa) 207 60.96 T
(y T) 330.35 60.96 T
(est Plan) 342.82 60.96 T
0 0 0 1 0 0 0 K
0 0 0 1 0 0 0 K
0 10 Q
(5) 533.38 60.96 T
0 9 Q
( of) 538.94 60.96 T
0 10 Q
(6) 552.44 60.96 T
0 0 0 1 0 0 0 K
0 0 0 1 0 0 0 K
1 F
(ne) 207 680.66 T
(w calibration v) 216.19 680.66 T
(alues will be calculated and displayed. F) 275.93 680.66 T
(or the purposes of v) 437.7 680.66 T
(erifying) 516.98 680.66 T
0 0 0 1 0 0 0 K
0 0 0 1 0 0 0 K
(this DR, the test may be ended after the \336rst numeric claibration v) 207 668.66 T
(alues are displayed.) 470.88 668.66 T
0 0 0 1 0 0 0 K
0 0 0 1 0 0 0 K
0 0 0 1 0 0 0 K
0 0 0 1 0 0 0 K
0 9 Q
(4.4.5) 177.98 645.33 T
0 0 0 1 0 0 0 K
0 0 0 1 0 0 0 K
(DR685: Clic) 207 645.33 T
(king on some items f) 256.83 645.33 T
(or strip c) 346.18 645.33 T
(har) 384.6 645.33 T
(t can crash pr) 398.78 645.33 T
(ogram) 457.62 645.33 T
0 0 0 1 0 0 0 K
0 0 0 1 0 0 0 K
1 10 Q
(Run the basic test as described in section 4.3 by entering the command:) 207 632.66 T
0 0 0 1 0 0 0 K
0 0 0 1 0 0 0 K
(testHxHkDisplays CCSDSRa) 207 608.66 T
(wStatusData) 325.47 608.66 T
0 0 0 1 0 0 0 K
0 0 0 1 0 0 0 K
(Prior to the \336x, there were a small number of items which, when click) 207 584.66 T
(ed on for a strip) 486.58 584.66 T
0 0 0 1 0 0 0 K
0 0 0 1 0 0 0 K
(chart, put up an incorrectly labelled chart with in) 207 572.66 T
(v) 401.84 572.66 T
(alid data and usually caused the pro-) 406.59 572.66 T
0 0 0 1 0 0 0 K
0 0 0 1 0 0 0 K
(gram to crash.  The items are:) 207 560.66 T
0 0 0 1 0 0 0 K
0 0 0 1 0 0 0 K
(     Dwell period, on the status panels) 207 536.66 T
0 0 0 1 0 0 0 K
0 0 0 1 0 0 0 K
(     Arcana, on the status panels) 207 512.66 T
0 0 0 1 0 0 0 K
0 0 0 1 0 0 0 K
(     Gain rate and sigma, on the detectors panels) 207 488.66 T
0 0 0 1 0 0 0 K
0 0 0 1 0 0 0 K
(If the) 207 464.66 T
(y put up a strip chart at all, it w) 228.23 464.66 T
(ould be labelled scienceModeNr) 353.12 464.66 T
(. The program) 482.26 464.66 T
0 0 0 1 0 0 0 K
0 0 0 1 0 0 0 K
(w) 207 452.66 T
(ould usually crash shortly after the graph came up, or in some cases before. T) 214.12 452.66 T
(o v) 523.25 452.66 T
(erify) 535.6 452.66 T
0 0 0 1 0 0 0 K
0 0 0 1 0 0 0 K
(the \336x, click on the items in question. F) 207 440.66 T
(or each one e) 365.19 440.66 T
(xcept for the Arcana items, a strip) 418.07 440.66 T
0 0 0 1 0 0 0 K
0 0 0 1 0 0 0 K
-0.02 (chart will appear with correct title and data and the program will not crash. The Arcana) 207 428.66 P
0 0 0 1 0 0 0 K
0 0 0 1 0 0 0 K
(items do not put up a strip chart. V) 207 416.66 T
(alidation of the data can be done by clicking on dec) 345.05 416.66 T
0 0 0 1 0 0 0 K
0 0 0 1 0 0 0 K
(display mode on the panels and observing that the strip chart is correctly plotting the) 207 404.66 T
0 0 0 1 0 0 0 K
0 0 0 1 0 0 0 K
(numbers on the panel. The correct labels for the items are listed belo) 207 392.66 T
(w:) 480.86 392.66 T
0 0 0 1 0 0 0 K
0 0 0 1 0 0 0 K
(Dwell period: DwellPdApMod) 207 368.66 T
0 0 0 1 0 0 0 K
0 0 0 1 0 0 0 K
(Gain rate: ctLldGcDet[1..4]) 207 344.66 T
0 0 0 1 0 0 0 K
0 0 0 1 0 0 0 K
(Gain sigma: ctLldGcSigDet[1..4]) 207 320.66 T
0 0 0 1 0 0 0 K
0 0 0 1 0 0 0 K
0 0 0 1 0 0 0 K
0 0 0 1 0 0 0 K
0 0 0 1 0 0 0 K
0 0 0 1 0 0 0 K
0 9 Q
(4.4.6) 177.98 279.33 T
0 0 0 1 0 0 0 K
0 0 0 1 0 0 0 K
(DR726: Cluster B perf) 207 279.33 T
(ormance panel displa) 299.83 279.33 T
(ys incorrect v) 391.69 279.33 T
(alue f) 450.04 279.33 T
(or Shield 4 Lo) 473.36 279.33 T
(wer) 532.75 279.33 T
0 0 0 1 0 0 0 K
0 0 0 1 0 0 0 K
(Le) 207 267.33 T
(vel Discriminator Cts) 217.37 267.33 T
0 0 0 1 0 0 0 K
0 0 0 1 0 0 0 K
1 10 Q
(Run the basic test as described in section 4.3 by entering the command:) 207 254.66 T
0 0 0 1 0 0 0 K
0 0 0 1 0 0 0 K
(testHxHkDisplays CCSDSRa) 207 230.66 T
(wStatusData) 325.47 230.66 T
0 0 0 1 0 0 0 K
0 0 0 1 0 0 0 K
-0.35 (Prior to the \336x, the v) 207 206.66 P
-0.35 (alue for Shield 4 Lo) 287.78 206.66 P
-0.35 (wer Le) 366.13 206.66 P
-0.35 (v) 393.57 206.66 P
-0.35 (el Discriminator Cts \050column LLD, ro) 398.42 206.66 P
-0.35 (w) 548.63 206.66 P
0 0 0 1 0 0 0 K
0 0 0 1 0 0 0 K
-0.07 (S4, just belo) 207 194.66 P
-0.07 (w the center of the panel\051 w) 256.33 194.66 P
-0.07 (as remaining at 0. W) 367.43 194.66 P
-0.07 (ith the \336x, the \336rst fe) 449.78 194.66 P
-0.07 (w v) 533.05 194.66 P
-0.07 (al-) 547.45 194.66 P
0 0 0 1 0 0 0 K
0 0 0 1 0 0 0 K
(ues will be some) 207 182.66 T
(what abo) 273.69 182.66 T
(v) 309.92 182.66 T
(e 1000.) 314.77 182.66 T
0 0 0 1 0 0 0 K
0 0 0 1 0 0 0 K
0 0 0 1 0 0 0 K
0 0 0 1 0 0 0 K
0 9 Q
(4.4.7) 177.98 159.33 T
0 0 0 1 0 0 0 K
0 0 0 1 0 0 0 K
(ECP789: Ad) 207 159.33 T
(d HEXTE detector net rates to housekeeping displa) 257.92 159.33 T
(y) 476.3 159.33 T
(.) 480.58 159.33 T
0 0 0 1 0 0 0 K
0 0 0 1 0 0 0 K
1 10 Q
(Run the basic test as described in section 4.3 by entering the command:) 207 146.66 T
0 0 0 1 0 0 0 K
0 0 0 1 0 0 0 K
(testHxHkDisplays CCSDSRa) 207 122.66 T
(wStatusData) 325.47 122.66 T
0 0 0 1 0 0 0 K
0 0 0 1 0 0 0 K
(When the small control panel comes up, click on \322Options\323 and then on \322Select Dis-) 207 104.66 T
0 0 0 1 0 0 0 K
0 0 0 1 0 0 0 K
-0.4 (plays...) 207 92.66 P
-0.4 (\323 When the display selection comes up, click on \322Cluster Performance\323 for either) 234.91 92.66 P
0 0 0 1 0 0 0 K
0 0 0 1 0 0 0 K
0 0 0 1 0 0 0 K
FMENDPAGE
%%EndPage: "5" 2
%%Page: "4" 3
612 792 0 FMBEGINPAGE
[0 0 0 1 0 0 0]
[ 0 1 1 0 1 0 0]
[ 1 0 1 0 0 1 0]
[ 1 1 0 0 0 0 1]
[ 1 0 0 0 0 1 1]
[ 0 1 0 0 1 0 1]
[ 0 0 1 0 1 1 0]
 7 FrameSetSepColors
FrameNoSep
0 0 0 1 0 0 0 K
54 750.68 540 750.68 2 L
2 H
0 Z
0 X
0 0 0 1 0 0 0 K
N
0 0 0 1 0 0 0 K
0 0 0 1 0 0 0 K
0 9 Q
(Discussion of the T) 189 739.85 T
(est) 271.48 739.85 T
0 0 0 1 0 0 0 K
0 0 0 1 0 0 0 K
54 726.98 540 726.98 2 L
0.25 H
N
54 75.33 540 75.33 2 L
2 Z
N
0 0 0 1 0 0 0 K
0 0 0 1 0 0 0 K
0 10 Q
(4) 54 60.96 T
0 9 Q
( of) 59.56 60.96 T
0 10 Q
( 6) 70.56 60.96 T
0 0 0 1 0 0 0 K
0 0 0 1 0 0 0 K
0 9 Q
(HEXTE Housekeeping Displa) 189 60.96 T
(y T) 312.35 60.96 T
(est Plan) 324.82 60.96 T
0 0 0 1 0 0 0 K
0 0 0 1 0 0 0 K
1 10 Q
(The command status reports will resume for time 17:36:00. This concludes the test.) 189 680.66 T
0 0 0 1 0 0 0 K
0 0 0 1 0 0 0 K
-0.12 (Alternati) 189 668.66 P
-0.12 (v) 224.3 668.66 P
-0.12 (ely) 229.15 668.66 P
-0.12 (, the times could be v) 240.72 668.66 P
-0.12 (eri\336ed on an) 325.54 668.66 P
-0.12 (y one of the cluster A display panels, b) 375.15 668.66 P
-0.12 (ut) 529.84 668.66 P
0 0 0 1 0 0 0 K
0 0 0 1 0 0 0 K
(this seemed the easiest approach.) 189 656.66 T
0 0 0 1 0 0 0 K
0 0 0 1 0 0 0 K
0 0 0 1 0 0 0 K
0 0 0 1 0 0 0 K
0 9 Q
(4.4.3) 159.98 633.33 T
0 0 0 1 0 0 0 K
0 0 0 1 0 0 0 K
(ECP649: send a messa) 189 633.33 T
(g) 286.96 633.33 T
(e to the SOC console f) 292.55 633.33 T
(or par) 388.39 633.33 T
(ticular HEXTE malfunction) 414.07 633.33 T
0 0 0 1 0 0 0 K
0 0 0 1 0 0 0 K
1 10 Q
(This test uses a dif) 189 620.66 T
(ferent shell script and data \336le. Since the data \336le containing this) 263.19 620.66 T
0 0 0 1 0 0 0 K
0 0 0 1 0 0 0 K
-0.02 (anomaly spans more than an hour) 189 608.66 P
-0.02 (, the ne) 323.18 608.66 P
-0.02 (w shell script w) 352.04 608.66 P
-0.02 (as de) 414.92 608.66 P
-0.02 (vised to send the data at a) 434.91 608.66 P
0 0 0 1 0 0 0 K
0 0 0 1 0 0 0 K
(f) 189 596.66 T
(aster than realtime rate to speed up the test. The test ahould tak) 192.23 596.66 T
(e about 10 minutes.) 444.03 596.66 T
0 0 0 1 0 0 0 K
0 0 0 1 0 0 0 K
(First, enter the follo) 189 584.66 T
(wing command line:) 268.19 584.66 T
0 0 0 1 0 0 0 K
0 0 0 1 0 0 0 K
(testHxHkDiscrimAnomaly HxHkDiscrimAnomaly) 189 560.66 T
0 0 0 1 0 0 0 K
0 0 0 1 0 0 0 K
(Command status reports will be written to the screen for both cluster A and cluster B.) 189 536.66 T
0 0 0 1 0 0 0 K
0 0 0 1 0 0 0 K
(The starting time of the data is 12:30:12. At 12:55:12 \050actually about three and a half) 189 524.66 T
0 0 0 1 0 0 0 K
0 0 0 1 0 0 0 K
(minutes into the test\051, you should hear a beep and see the follo) 189 512.66 T
(wing message on the) 438.44 512.66 T
0 0 0 1 0 0 0 K
0 0 0 1 0 0 0 K
(screen \050you may ha) 189 500.66 T
(v) 266.83 500.66 T
(e to scroll back up to see it\051:) 271.68 500.66 T
0 0 0 1 0 0 0 K
0 0 0 1 0 0 0 K
(HEXTE pulse shape discriminator error) 189 476.66 T
(, data time: 10/17/95 12:55:12 UT) 348.01 476.66 T
(, Cluster A,) 483.94 476.66 T
0 0 0 1 0 0 0 K
0 0 0 1 0 0 0 K
(detector 2) 189 464.66 T
0 0 0 1 0 0 0 K
0 0 0 1 0 0 0 K
(Then at data time 13:41:20 \050about 9 to 10 minutes into the test\051 you should see the fol-) 189 440.66 T
0 0 0 1 0 0 0 K
0 0 0 1 0 0 0 K
(lo) 189 428.66 T
(wing message on the screen:) 196.53 428.66 T
0 0 0 1 0 0 0 K
0 0 0 1 0 0 0 K
(HEXTE pulse shape discriminator ok, data time: 10/17/95 13:41:20 UT) 189 404.66 T
(, Cluster A,) 474.91 404.66 T
0 0 0 1 0 0 0 K
0 0 0 1 0 0 0 K
(detector 2) 189 392.66 T
0 0 0 1 0 0 0 K
0 0 0 1 0 0 0 K
(The test can then be terminated with a control-C.) 189 368.66 T
0 0 0 1 0 0 0 K
0 0 0 1 0 0 0 K
(The program is using SOCThro) 189 344.66 T
(w\050SOC_RESPONSE, ...\051, so if/when the alarm panel is) 315.41 344.66 T
0 0 0 1 0 0 0 K
0 0 0 1 0 0 0 K
(running, these messages should also be seen on the \324Main console\325, where) 189 332.66 T
(v) 485.64 332.66 T
(er that is.) 490.49 332.66 T
0 0 0 1 0 0 0 K
0 0 0 1 0 0 0 K
0 0 0 1 0 0 0 K
0 0 0 1 0 0 0 K
0 9 Q
(4.4.4) 159.98 309.33 T
0 0 0 1 0 0 0 K
0 0 0 1 0 0 0 K
(DR533: Calibration data not displa) 189 309.33 T
(y) 335.35 309.33 T
(ed on \324Detector) 340.26 309.33 T
(s\325 panel) 405.64 309.33 T
0 0 0 1 0 0 0 K
0 0 0 1 0 0 0 K
1 10 Q
-0.23 (Prior to the \336x, the calibration v) 189 296.66 P
-0.23 (alues remained blank on the \324Detectors\325 panels. Run the) 315.43 296.66 P
0 0 0 1 0 0 0 K
0 0 0 1 0 0 0 K
(program using the discriminator anomaly data as follo) 189 284.66 T
(ws:) 405.67 284.66 T
0 0 0 1 0 0 0 K
0 0 0 1 0 0 0 K
(testHxHkDiscrimAnomaly HxHkDiscrimAnomaly) 189 260.66 T
0 0 0 1 0 0 0 K
0 0 0 1 0 0 0 K
(Choose \324Select Displays\325 from the \324Options\325 menu. When the display selection panel) 189 236.66 T
0 0 0 1 0 0 0 K
0 0 0 1 0 0 0 K
-0.36 (appears, choose \324Detectors\325 for either cluster A or cluster B. When the \324Detectors\325 panel) 189 224.66 P
0 0 0 1 0 0 0 K
0 0 0 1 0 0 0 K
(appears, \336nd the \324Calibration\325 section for each of the four detectors. The one for detec-) 189 212.66 T
0 0 0 1 0 0 0 K
0 0 0 1 0 0 0 K
(tor one, in the upper left quadrant of the panel, has tw) 189 200.66 T
(o additional display items, Cal) 403.58 200.66 T
0 0 0 1 0 0 0 K
0 0 0 1 0 0 0 K
(IDF and Seq#. Cal IDF will display the IDF corresponding to the be) 189 188.66 T
(ginning of the 512) 461.33 188.66 T
0 0 0 1 0 0 0 K
0 0 0 1 0 0 0 K
(second interv) 189 176.66 T
(al during which the calibration data were accumulated. Seq# displays the) 242.35 176.66 T
0 0 0 1 0 0 0 K
0 0 0 1 0 0 0 K
(cal sequence number \0500-31 when v) 189 164.66 T
(alid calibration data is being recei) 328.43 164.66 T
(v) 463.43 164.66 T
(ed\051 of the most) 468.28 164.66 T
0 0 0 1 0 0 0 K
0 0 0 1 0 0 0 K
-0.32 (recently recei) 189 152.66 P
-0.32 (v) 242.57 152.66 P
-0.32 (ed 16-second housek) 247.42 152.66 P
-0.32 (eeping partition. When the test be) 330.55 152.66 P
-0.32 (gins, there will not) 463.78 152.66 P
0 0 0 1 0 0 0 K
0 0 0 1 0 0 0 K
-0.18 (be an) 189 140.66 P
-0.18 (y v) 210.05 140.66 P
-0.18 (alid calibration data and v) 222.13 140.66 P
-0.18 (alues such as \324no chnls\325 or \324no cnts\325 will be displayed) 325.04 140.66 P
0 0 0 1 0 0 0 K
0 0 0 1 0 0 0 K
-0.28 (in the calibration data windo) 189 128.66 P
-0.28 (ws. After se) 302.08 128.66 P
-0.28 (v) 349.32 128.66 P
-0.28 (eral minutes, speci\336cally at IDF 3534496,, the) 354.17 128.66 P
0 0 0 1 0 0 0 K
0 0 0 1 0 0 0 K
(\336rst v) 189 116.66 T
(alid data will ha) 211.81 116.66 T
(v) 275.77 116.66 T
(e been recei) 280.62 116.66 T
(v) 328.12 116.66 T
(ed, and the displays will tak) 332.97 116.66 T
(e on v) 444.53 116.66 T
(alid numeric v) 468.72 116.66 T
(al-) 526.24 116.66 T
0 0 0 1 0 0 0 K
0 0 0 1 0 0 0 K
(ues. Once v) 189 104.66 T
(alid data has been recei) 235.68 104.66 T
(v) 328.73 104.66 T
(ed, each time the Seq# rolls o) 333.58 104.66 T
(v) 451.47 104.66 T
(er from 31 to zero,) 456.32 104.66 T
0 0 0 1 0 0 0 K
0 0 0 1 0 0 0 K
0 0 0 1 0 0 0 K
FMENDPAGE
%%EndPage: "4" 3
%%Page: "3" 4
612 792 0 FMBEGINPAGE
[0 0 0 1 0 0 0]
[ 0 1 1 0 1 0 0]
[ 1 0 1 0 0 1 0]
[ 1 1 0 0 0 0 1]
[ 1 0 0 0 0 1 1]
[ 0 1 0 0 1 0 1]
[ 0 0 1 0 1 1 0]
 7 FrameSetSepColors
FrameNoSep
0 0 0 1 0 0 0 K
72 750.68 558 750.68 2 L
2 H
0 Z
0 X
0 0 0 1 0 0 0 K
N
0 0 0 1 0 0 0 K
0 0 0 1 0 0 0 K
0 9 Q
(Discussion of the T) 207 739.85 T
(est) 289.48 739.85 T
0 0 0 1 0 0 0 K
0 0 0 1 0 0 0 K
72 726.98 558 726.98 2 L
0.25 H
N
72 75.33 558 75.33 2 L
2 Z
N
0 0 0 1 0 0 0 K
0 0 0 1 0 0 0 K
(HEXTE Housekeeping Displa) 207 60.96 T
(y T) 330.35 60.96 T
(est Plan) 342.82 60.96 T
0 0 0 1 0 0 0 K
0 0 0 1 0 0 0 K
0 10 Q
(3) 533.38 60.96 T
0 9 Q
( of) 538.94 60.96 T
0 10 Q
(6) 552.44 60.96 T
0 0 0 1 0 0 0 K
0 0 0 1 0 0 0 K
1 F
(The command windo) 207 680.66 T
(w from which the test is run will display a v) 291.74 680.66 T
(ariety of messages) 467.59 680.66 T
0 0 0 1 0 0 0 K
0 0 0 1 0 0 0 K
(which are not essential to the interpretation of the test and may be ignored. A display) 207 668.66 T
0 0 0 1 0 0 0 K
0 0 0 1 0 0 0 K
-0.1 (panel will appear with a menu bar containing choices for \322File\323, \322Edit\323, and \322Options\323.) 207 656.66 P
0 0 0 1 0 0 0 K
0 0 0 1 0 0 0 K
(Selecting \322Options\323 will drop do) 207 644.66 T
(wn another menu allo) 338.41 644.66 T
(wing the user to select either) 425.09 644.66 T
0 0 0 1 0 0 0 K
0 0 0 1 0 0 0 K
(\322Select Displays\323 or \322Set Diagnostics\323. When \322Select Displays\323 is selected, another) 207 632.66 T
0 0 0 1 0 0 0 K
0 0 0 1 0 0 0 K
(panel appears \050after a fe) 207 620.66 T
(w seconds delay\051 with b) 302.81 620.66 T
(uttons for the user to select a display) 399.26 620.66 T
(.) 544.98 620.66 T
0 0 0 1 0 0 0 K
0 0 0 1 0 0 0 K
-0.02 (When one of these is selected, the appropriate display will appear on the screen \050after a) 207 608.66 P
0 0 0 1 0 0 0 K
0 0 0 1 0 0 0 K
(fe) 207 596.66 T
(w seconds delay\051 with display box) 214.52 596.66 T
(es for all of the housek) 352.41 596.66 T
(eeping items for that cate-) 443.68 596.66 T
0 0 0 1 0 0 0 K
0 0 0 1 0 0 0 K
(gory) 207 584.66 T
(. Some of these are 64 and 128 second items, so there may be a delay of about tw) 224.68 584.66 T
(o) 549.52 584.66 T
0 0 0 1 0 0 0 K
0 0 0 1 0 0 0 K
-0.28 (minutes before the display is fully populated. Clicking on an) 207 572.66 P
-0.28 (y of the box) 446.53 572.66 P
-0.28 (es will generate) 493.58 572.66 P
0 0 0 1 0 0 0 K
0 0 0 1 0 0 0 K
(another display panel containing a strip-chart of up to the pre) 207 560.66 T
(vious 100 v) 451.15 560.66 T
(alues for that) 497.57 560.66 T
0 0 0 1 0 0 0 K
0 0 0 1 0 0 0 K
(item.) 207 548.66 T
0 0 0 1 0 0 0 K
0 0 0 1 0 0 0 K
(A graceful method of terminating the test has not been implemented, so it is necessary) 207 524.66 T
0 0 0 1 0 0 0 K
0 0 0 1 0 0 0 K
(to enter ^C to end the test.) 207 512.66 T
0 0 0 1 0 0 0 K
0 0 0 1 0 0 0 K
0 0 0 1 0 0 0 K
0 0 0 1 0 0 0 K
0 0 0 1 0 0 0 K
0 0 0 1 0 0 0 K
0 F
(4.4) 184.1 464.66 T
0 0 0 1 0 0 0 K
0 0 0 1 0 0 0 K
-0.39 (Interpreting the Results f) 207 464.66 P
-0.39 (or Discrepenc) 323.98 464.66 P
-0.39 (y Repor) 390.17 464.66 P
-0.39 (ts and Engineering Chang) 427.21 464.66 P
-0.39 (e) 550.05 464.66 P
0 0 0 1 0 0 0 K
0 0 0 1 0 0 0 K
(pr) 207 452.66 T
(oposals) 216.8 452.66 T
0 0 0 1 0 0 0 K
0 0 0 1 0 0 0 K
0 0 0 1 0 0 0 K
0 0 0 1 0 0 0 K
0 9 Q
(4.4.1) 177.98 429.33 T
0 0 0 1 0 0 0 K
0 0 0 1 0 0 0 K
(DR534: Strip c) 207 429.33 T
(har) 268.42 429.33 T
(ts ha) 282.61 429.33 T
(ve too man) 303.48 429.33 T
(y tic) 350.81 429.33 T
(ks on the X-axis) 368.64 429.33 T
0 0 0 1 0 0 0 K
0 0 0 1 0 0 0 K
1 10 Q
-0.11 (Prior to the \336x, the numerical labels on the X-axis ticks were so cro) 207 416.66 P
-0.11 (wded that the) 475.28 416.66 P
-0.11 (y were) 528.79 416.66 P
0 0 0 1 0 0 0 K
0 0 0 1 0 0 0 K
(essentially unreadable. After the \336x, the X-axis tick labels should range from -1600 on) 207 404.66 T
0 0 0 1 0 0 0 K
0 0 0 1 0 0 0 K
(the left to 0 on the right, at interv) 207 392.66 T
(als of 200.) 339.24 392.66 T
0 0 0 1 0 0 0 K
0 0 0 1 0 0 0 K
0 0 0 1 0 0 0 K
0 0 0 1 0 0 0 K
0 9 Q
(4.4.2) 177.98 369.33 T
0 0 0 1 0 0 0 K
0 0 0 1 0 0 0 K
(ECP621: Allo) 207 369.33 T
(w selection of ne) 262.88 369.33 T
(wer data onl) 335.27 369.33 T
(y) 387.65 369.33 T
0 0 0 1 0 0 0 K
0 0 0 1 0 0 0 K
1 10 Q
(Prior to the \336x, all data partitions were used as the) 207 356.66 T
(y arri) 407.66 356.66 T
(v) 428.79 356.66 T
(ed. F) 433.64 356.66 T
(or this \336x, a menu choice) 453.49 356.66 T
0 0 0 1 0 0 0 K
0 0 0 1 0 0 0 K
(\324Ne) 207 344.66 T
(wer data only\325 w) 221.74 344.66 T
(as added under \324Options\325 on the main menu bar) 289.12 344.66 T
(. Clicking on this) 479.09 344.66 T
0 0 0 1 0 0 0 K
0 0 0 1 0 0 0 K
(selection will cause the program to ignore all partitions which are not ne) 207 332.66 T
(wer than the) 496.15 332.66 T
0 0 0 1 0 0 0 K
0 0 0 1 0 0 0 K
(one most recently used. T) 207 320.66 T
(o test this feature, run the program with the follo) 309.24 320.66 T
(wing com-) 503.41 320.66 T
0 0 0 1 0 0 0 K
0 0 0 1 0 0 0 K
(mand line:) 207 308.66 T
0 0 0 1 0 0 0 K
0 0 0 1 0 0 0 K
(testHxHkDisplays apid083.ne) 207 284.66 T
(wOldNe) 326.74 284.66 T
(w) 360.37 284.66 T
0 0 0 1 0 0 0 K
0 0 0 1 0 0 0 K
(First, let the program run without making an) 207 260.66 T
(y menu selections. In the windo) 384.62 260.66 T
(w from) 511.58 260.66 T
0 0 0 1 0 0 0 K
0 0 0 1 0 0 0 K
-0.21 (which the program w) 207 248.66 P
-0.21 (as run, w) 291.52 248.66 P
-0.21 (atch the data times displayed as part of the Command Sta-) 327.38 248.66 P
0 0 0 1 0 0 0 K
0 0 0 1 0 0 0 K
(tus report. This test \336le contains data for cluster A only) 207 236.66 T
(. The times you will see should) 427.16 236.66 T
0 0 0 1 0 0 0 K
0 0 0 1 0 0 0 K
(be as follo) 207 224.66 T
(ws:) 248.41 224.66 T
0 0 0 1 0 0 0 K
0 0 0 1 0 0 0 K
(17:35:12, 17:35:28, 17:11:28, 17:11:44, 17:35:12, 17:35:28, 17:36:00 . . .) 207 200.66 T
0 0 0 1 0 0 0 K
0 0 0 1 0 0 0 K
(Stop the program with a control-C and re-run it. This time select Options/Ne) 207 176.66 T
(wer data) 513.11 176.66 T
0 0 0 1 0 0 0 K
0 0 0 1 0 0 0 K
-0.01 (only) 207 164.66 P
-0.01 (. Y) 224.13 164.66 P
-0.01 (ou should see the \336rst tw) 235.24 164.66 P
-0.01 (o times as in the preceeding run, b) 334.84 164.66 P
-0.01 (ut instead of the ne) 471.8 164.66 P
-0.01 (xt) 547.72 164.66 P
0 0 0 1 0 0 0 K
0 0 0 1 0 0 0 K
(four) 207 152.66 T
(, the follo) 223.26 152.66 T
(wing message will be displayed:) 261.62 152.66 T
0 0 0 1 0 0 0 K
0 0 0 1 0 0 0 K
(HxHkDisplays getClusterData> older partition will be ignored) 207 128.66 T
0 0 0 1 0 0 0 K
0 0 0 1 0 0 0 K
0 0 0 1 0 0 0 K
FMENDPAGE
%%EndPage: "3" 4
%%Page: "2" 5
612 792 0 FMBEGINPAGE
[0 0 0 1 0 0 0]
[ 0 1 1 0 1 0 0]
[ 1 0 1 0 0 1 0]
[ 1 1 0 0 0 0 1]
[ 1 0 0 0 0 1 1]
[ 0 1 0 0 1 0 1]
[ 0 0 1 0 1 1 0]
 7 FrameSetSepColors
FrameNoSep
0 0 0 1 0 0 0 K
54 750.68 540 750.68 2 L
2 H
0 Z
0 X
0 0 0 1 0 0 0 K
N
0 0 0 1 0 0 0 K
0 0 0 1 0 0 0 K
0 9 Q
(General Discussion of He) 189 739.85 T
(xte Classes Being T) 297.9 739.85 T
(ested) 382.39 739.85 T
0 0 0 1 0 0 0 K
0 0 0 1 0 0 0 K
54 726.98 540 726.98 2 L
0.25 H
N
54 75.33 540 75.33 2 L
2 Z
N
0 0 0 1 0 0 0 K
0 0 0 1 0 0 0 K
0 10 Q
(2) 54 60.96 T
0 9 Q
( of) 59.56 60.96 T
0 10 Q
( 6) 70.56 60.96 T
0 0 0 1 0 0 0 K
0 0 0 1 0 0 0 K
0 9 Q
(HEXTE Housekeeping Displa) 189 60.96 T
(y T) 312.35 60.96 T
(est Plan) 324.82 60.96 T
0 0 0 1 0 0 0 K
54 672.33 540 675.33 C
0 0 0 1 0 0 0 K
189 674.48 540 674.48 2 L
0.25 H
2 Z
0 X
0 0 0 1 0 0 0 K
N
54 674.48 180 674.48 2 L
0 Z
N
0 0 0 1 0 0 0 K
0 0 612 792 C
0 0 0 1 0 0 0 K
0 0 0 1 0 0 0 K
0 0 0 1 0 0 0 K
0 12 Q
0 X
0 0 0 1 0 0 0 K
(3.0) 163.32 679.33 T
0 0 0 1 0 0 0 K
0 0 0 1 0 0 0 K
(General Discussion of He) 189 679.33 T
(xte Classes Being T) 334.2 679.33 T
(ested) 446.86 679.33 T
0 0 0 1 0 0 0 K
0 0 0 1 0 0 0 K
1 10 Q
(The follo) 189 651.66 T
(wing partition classes are used for housek) 225.69 651.66 T
(eeping. Each partition contains data) 392.78 651.66 T
0 0 0 1 0 0 0 K
0 0 0 1 0 0 0 K
(for one of the tw) 189 639.66 T
(o He) 255.55 639.66 T
(xte clusters.) 274.56 639.66 T
0 0 0 1 0 0 0 K
0 0 0 1 0 0 0 K
2 11 Q
(\245) 189 621.66 T
0 0 0 1 0 0 0 K
0 0 0 1 0 0 0 K
1 10 Q
(HxHkP) 202.74 621.66 T
(art - He) 232.6 621.66 T
(xte housek) 262.98 621.66 T
(eeping partition base class.) 305.93 621.66 T
0 0 0 1 0 0 0 K
0 0 0 1 0 0 0 K
(This is the class from which all other He) 202.74 606.66 T
(xte housek) 364.8 606.66 T
(eeping partition classes are) 407.74 606.66 T
0 0 0 1 0 0 0 K
0 0 0 1 0 0 0 K
(deri) 202.74 594.66 T
(v) 218.04 594.66 T
(ed.) 222.9 594.66 T
0 0 0 1 0 0 0 K
0 0 0 1 0 0 0 K
2 11 Q
(\245) 189 579.66 T
0 0 0 1 0 0 0 K
0 0 0 1 0 0 0 K
1 10 Q
(HxHk16P) 202.74 579.66 T
(art - 16 second He) 242.6 579.66 T
(xte housek) 315.76 579.66 T
(eeping partition class.) 358.7 579.66 T
0 0 0 1 0 0 0 K
0 0 0 1 0 0 0 K
(This partition contains housek) 202.74 564.66 T
(eeping data corresponding to 1 Instrument Data) 323.48 564.66 T
0 0 0 1 0 0 0 K
0 0 0 1 0 0 0 K
(Frame. V) 202.74 552.66 T
(alues of all He) 239.4 552.66 T
(xte housek) 297.3 552.66 T
(eeping items, e) 340.24 552.66 T
(v) 400.27 552.66 T
(en those with longer than 16-sec-) 405.11 552.66 T
0 0 0 1 0 0 0 K
0 0 0 1 0 0 0 K
-0.02 (ond subcom c) 202.74 540.66 P
-0.02 (ycles, can be obtained from this partition at some point in the full 512-) 258.1 540.66 P
0 0 0 1 0 0 0 K
0 0 0 1 0 0 0 K
(second c) 202.74 528.66 T
(ycle.) 237.3 528.66 T
0 0 0 1 0 0 0 K
54 485.33 540 488.33 C
0 0 0 1 0 0 0 K
189 487.48 540 487.48 2 L
0.25 H
2 Z
0 X
0 0 0 1 0 0 0 K
N
54 487.48 180 487.48 2 L
0 Z
N
0 0 0 1 0 0 0 K
0 0 612 792 C
0 0 0 1 0 0 0 K
0 0 0 1 0 0 0 K
0 0 0 1 0 0 0 K
0 12 Q
0 X
0 0 0 1 0 0 0 K
(4.0) 163.32 492.33 T
0 0 0 1 0 0 0 K
0 0 0 1 0 0 0 K
(Discussion of the T) 189 492.33 T
(est) 298.97 492.33 T
0 0 0 1 0 0 0 K
0 0 0 1 0 0 0 K
0 0 0 1 0 0 0 K
0 0 0 1 0 0 0 K
0 10 Q
(4.1) 166.1 458.66 T
0 0 0 1 0 0 0 K
0 0 0 1 0 0 0 K
(General Description) 189 458.66 T
0 0 0 1 0 0 0 K
0 0 0 1 0 0 0 K
1 F
(A shell script \336le called testHxHkDisplays is in) 189 434.66 T
(v) 378.87 434.66 T
(ok) 383.67 434.66 T
(ed with an ar) 393.57 434.66 T
(gument specifying the) 445.32 434.66 T
0 0 0 1 0 0 0 K
0 0 0 1 0 0 0 K
(name of a test data \336le containing HEXTE housek) 189 422.66 T
(eeping data for both clusters of the) 389.98 422.66 T
0 0 0 1 0 0 0 K
0 0 0 1 0 0 0 K
-0.02 (instrument. This script will run the program he) 189 410.66 P
-0.02 (xteRtClient, which tak) 375.92 410.66 P
-0.02 (es in He) 466.06 410.66 P
-0.02 (xte house-) 498.64 410.66 P
0 0 0 1 0 0 0 K
0 0 0 1 0 0 0 K
(k) 189 398.66 T
(eeping pack) 193.9 398.66 T
(ets from the test data \336le and assembles them into HxHkP) 241.84 398.66 T
(art partitions.) 473.34 398.66 T
0 0 0 1 0 0 0 K
0 0 0 1 0 0 0 K
(Whene) 189 386.66 T
(v) 217.07 386.66 T
(er it has a complete partition, it will in) 221.92 386.66 T
(v) 374.57 386.66 T
(ok) 379.37 386.66 T
(e its HxHkP) 389.27 386.66 T
(art handler function to) 438.01 386.66 T
0 0 0 1 0 0 0 K
0 0 0 1 0 0 0 K
-0.15 (send the partition to the display client, which will then update the data displayed on an) 189 374.66 P
-0.15 (y) 532.65 374.66 P
0 0 0 1 0 0 0 K
0 0 0 1 0 0 0 K
(user) 189 362.66 T
(-selected display panels. The shell script will supply a complete partition approxi-) 205.46 362.66 T
0 0 0 1 0 0 0 K
0 0 0 1 0 0 0 K
(mately e) 189 350.66 T
(v) 222.91 350.66 T
(ery 16 seconds to simulate real-time conditions.) 227.76 350.66 T
0 0 0 1 0 0 0 K
0 0 0 1 0 0 0 K
0 0 0 1 0 0 0 K
0 0 0 1 0 0 0 K
0 F
(4.2) 166.1 320.66 T
0 0 0 1 0 0 0 K
0 0 0 1 0 0 0 K
(T) 189 320.66 T
(est Data Files) 194.51 320.66 T
0 0 0 1 0 0 0 K
0 0 0 1 0 0 0 K
1 F
-0.16 (The data \336le CCSDSRa) 189 304.66 P
-0.16 (wStatusData,which is installed by the PktHe) 283.64 304.66 P
-0.16 (xte b) 460.45 304.66 P
-0.16 (uild, is used to) 479.81 304.66 P
0 0 0 1 0 0 0 K
0 0 0 1 0 0 0 K
-0.32 (pro) 189 292.66 P
-0.32 (vide test data for the test. The follo) 202.18 292.66 P
-0.32 (wing test \336les ha) 339.66 292.66 P
-0.32 (v) 406 292.66 P
-0.32 (e been added for testing speci\336c) 410.85 292.66 P
0 0 0 1 0 0 0 K
0 0 0 1 0 0 0 K
(DRs or ECPs and are installed by the b) 189 280.66 T
(uild of this process:) 344.9 280.66 T
0 0 0 1 0 0 0 K
0 0 0 1 0 0 0 K
(apid083.ne) 189 256.66 T
(wOldNe) 232.91 256.66 T
(w for ECP 621) 266.54 256.66 T
0 0 0 1 0 0 0 K
0 0 0 1 0 0 0 K
(HxHkDiscrimAnomaly for ECP 649) 189 232.66 T
0 0 0 1 0 0 0 K
0 0 0 1 0 0 0 K
0 0 0 1 0 0 0 K
0 0 0 1 0 0 0 K
0 F
(4.3) 166.1 202.66 T
0 0 0 1 0 0 0 K
0 0 0 1 0 0 0 K
(Running the T) 189 202.66 T
(est) 255.62 202.66 T
0 0 0 1 0 0 0 K
0 0 0 1 0 0 0 K
1 F
-0.3 (T) 189 178.66 P
-0.3 (o run the test, it is necessary to ha) 194.31 178.66 P
-0.3 (v) 327 178.66 P
-0.3 (e SOCHOME and ARCH de\336ned as appropriate for) 331.85 178.66 P
0 0 0 1 0 0 0 K
0 0 0 1 0 0 0 K
(the latest b) 189 166.66 T
(uild, and to ha) 232.13 166.66 T
(v) 289.15 166.66 T
(e SOCOME/bin/ARCH in your path. Then enter the name of) 294 166.66 T
0 0 0 1 0 0 0 K
0 0 0 1 0 0 0 K
-0.11 (the shell script \336le follo) 189 154.66 P
-0.11 (wed by the abo) 283.3 154.66 P
-0.11 (v) 343.64 154.66 P
-0.11 (e named test data \336le. It is not necessary for the) 348.49 154.66 P
0 0 0 1 0 0 0 K
0 0 0 1 0 0 0 K
(test conductor to lno) 189 142.66 T
(w the directory location of the test data \336les. F) 270.69 142.66 T
(or e) 456.63 142.66 T
(xample,) 471.75 142.66 T
0 0 0 1 0 0 0 K
0 0 0 1 0 0 0 K
(testHxHkDisplays CCSDSRa) 189 118.66 T
(wStatusData) 307.47 118.66 T
0 0 0 1 0 0 0 K
0 0 0 1 0 0 0 K
0 0 0 1 0 0 0 K
FMENDPAGE
%%EndPage: "2" 5
%%Page: "1" 6
612 792 0 FMBEGINPAGE
[0 0 0 1 0 0 0]
[ 0 1 1 0 1 0 0]
[ 1 0 1 0 0 1 0]
[ 1 1 0 0 0 0 1]
[ 1 0 0 0 0 1 1]
[ 0 1 0 0 1 0 1]
[ 0 0 1 0 1 1 0]
 7 FrameSetSepColors
FrameNoSep
0 0 0 1 0 0 0 K
72 750.68 558 750.68 2 L
2 H
0 Z
0 X
0 0 0 1 0 0 0 K
N
0 0 0 1 0 0 0 K
0 0 0 1 0 0 0 K
0 9 Q
(September 6, 1997) 72 737.98 T
0 0 0 1 0 0 0 K
0 0 0 1 0 0 0 K
72 444.68 558 444.68 2 L
2 Z
N
72 75.33 558 75.33 2 L
0.25 H
N
0 0 0 1 0 0 0 K
0 0 0 1 0 0 0 K
0 10 Q
(1) 533.38 60.96 T
0 9 Q
( of) 538.94 60.96 T
0 10 Q
(6) 552.44 60.96 T
0 0 0 1 0 0 0 K
0 0 0 1 0 0 0 K
1 24 Q
-0.17 (HEXTE Housek) 207 677 S
-0.17 (eeping) 362.75 677 S
0 0 0 1 0 0 0 K
207 629 558 639 C
0 0 0 1 0 0 0 K
207 630 459 630 2 L
0.25 H
0 Z
0 X
0 0 0 1 0 0 0 K
N
0 0 0 1 0 0 0 K
0 0 612 792 C
0 0 0 1 0 0 0 K
1 24 Q
0 X
0 0 0 1 0 0 0 K
-0.17 (Display T) 207 647 S
-0.17 (est Plan) 299.16 647 S
0 0 0 1 0 0 0 K
0 0 0 1 0 0 0 K
3 12 Q
(Richard Bentley) 207 605 T
0 0 0 1 0 0 0 K
0 0 0 1 0 0 0 K
0 9 Q
(A description of a test pr) 207 545 T
(ocedure f) 312.84 545 T
(or verifying) 353.17 545 T
0 0 0 1 0 0 0 K
0 0 0 1 0 0 0 K
(the operation of the HEXTE Housekeeping) 207 533 T
0 0 0 1 0 0 0 K
0 0 0 1 0 0 0 K
(displa) 207 521 T
(y pr) 232.83 521 T
(ocess.) 249.16 521 T
0 0 0 1 0 0 0 K
0 0 0 1 0 0 0 K
0 0 0 1 0 0 0 K
72 417 558 420 C
0 0 0 1 0 0 0 K
207 419.15 558 419.15 2 L
0.25 H
2 Z
0 X
0 0 0 1 0 0 0 K
N
72 419.15 198 419.15 2 L
0 Z
N
0 0 0 1 0 0 0 K
0 0 612 792 C
0 0 0 1 0 0 0 K
0 0 0 1 0 0 0 K
0 0 0 1 0 0 0 K
0 12 Q
0 X
0 0 0 1 0 0 0 K
(1.0) 181.32 424 T
0 0 0 1 0 0 0 K
0 0 0 1 0 0 0 K
(Intr) 207 424 T
(oduction) 226.09 424 T
0 0 0 1 0 0 0 K
0 0 0 1 0 0 0 K
1 10 Q
(This document pro) 207 396.33 T
(vides a description of a test of the He) 282.4 396.33 T
(xte Housek) 431.11 396.33 T
(eeping display pro-) 476.28 396.33 T
0 0 0 1 0 0 0 K
0 0 0 1 0 0 0 K
(cess.) 207 384.33 T
0 0 0 1 0 0 0 K
72 341 558 344 C
0 0 0 1 0 0 0 K
207 343.15 558 343.15 2 L
0.25 H
2 Z
0 X
0 0 0 1 0 0 0 K
N
72 343.15 198 343.15 2 L
0 Z
N
0 0 0 1 0 0 0 K
0 0 612 792 C
0 0 0 1 0 0 0 K
0 0 0 1 0 0 0 K
0 0 0 1 0 0 0 K
0 12 Q
0 X
0 0 0 1 0 0 0 K
(2.0) 181.32 348 T
0 0 0 1 0 0 0 K
0 0 0 1 0 0 0 K
(Related Documentation) 207 348 T
0 0 0 1 0 0 0 K
0 0 0 1 0 0 0 K
1 10 Q
(A general discussion of the He) 207 320.33 T
(xte housek) 329.88 320.33 T
(eeping partitions rele) 372.83 320.33 T
(v) 457.01 320.33 T
(ant to this test will be) 461.76 320.33 T
0 0 0 1 0 0 0 K
0 0 0 1 0 0 0 K
(gi) 207 308.33 T
(v) 214.53 308.33 T
(en in the ne) 219.38 308.33 T
(xt section of this document. F) 265.61 308.33 T
(or a more detailed description of these) 384.35 308.33 T
0 0 0 1 0 0 0 K
0 0 0 1 0 0 0 K
(classes and their public methods, see the follo) 207 296.33 T
(wing man pages.) 390.06 296.33 T
0 0 0 1 0 0 0 K
0 0 0 1 0 0 0 K
2 11 Q
(\245) 207 278.33 T
0 0 0 1 0 0 0 K
0 0 0 1 0 0 0 K
1 10 Q
($SOCHOME/man/man3/HxHkP) 220.74 278.33 T
(art.cat3) 352.27 278.33 T
0 0 0 1 0 0 0 K
0 0 0 1 0 0 0 K
2 11 Q
(\245) 207 263.33 T
0 0 0 1 0 0 0 K
0 0 0 1 0 0 0 K
1 10 Q
($SOCHOME/man/man3/HxHk16P) 220.74 263.33 T
(art.cat3) 362.27 263.33 T
0 0 0 1 0 0 0 K
0 0 0 1 0 0 0 K
(The HEXTE Housek) 207 239.33 T
(eeping display process, HxHkDisplays, is described in the follo) 290.77 239.33 T
(w-) 544.38 239.33 T
0 0 0 1 0 0 0 K
0 0 0 1 0 0 0 K
(ing man page:) 207 227.33 T
0 0 0 1 0 0 0 K
0 0 0 1 0 0 0 K
2 11 Q
(\245) 207 209.33 T
0 0 0 1 0 0 0 K
0 0 0 1 0 0 0 K
1 10 Q
($SOCHOME/man/man1/HxHkDisplays.1) 220.74 209.33 T
0 0 0 1 0 0 0 K
0 0 0 1 0 0 0 K
(The real-time client de) 207 185.33 T
(v) 297.56 185.33 T
(eloped for science monitoring is also used in this test. It is) 302.41 185.33 T
0 0 0 1 0 0 0 K
0 0 0 1 0 0 0 K
(described in the follo) 207 173.33 T
(wing man page:) 291.46 173.33 T
0 0 0 1 0 0 0 K
0 0 0 1 0 0 0 K
2 11 Q
(\245) 207 155.33 T
0 0 0 1 0 0 0 K
0 0 0 1 0 0 0 K
1 10 Q
($SOCHOME/man/man1/he) 220.74 155.33 T
(xteRtClient.1) 331.7 155.33 T
0 0 0 1 0 0 0 K
0 0 0 1 0 0 0 K
0 0 0 1 0 0 0 K
FMENDPAGE
%%EndPage: "1" 6
%%Trailer
%%BoundingBox: 0 0 612 792
%%PageOrder: Descend
%%Pages: 6
%%DocumentFonts: Helvetica-Bold
%%+ Times-Roman
%%+ Courier-Bold
%%+ Times-Bold
%%EOF
