%!PS-Adobe-1.0
%%Creator: rgb:dj (Deron Dann Johnson)
%%Title: stdin (ditroff)
%%CreationDate: Tue Jul 20 10:33:38 1993
%%EndComments
% lib/psdit.pro -- prolog for psdit (ditroff) files
% Copyright (c) 1984, 1985 Adobe Systems Incorporated. All Rights Reserved.
% last edit: shore Sat Nov 23 20:28:03 1985
% RCSID: $Header: psdit.pro,v 2.1 85/11/24 12:19:43 shore Rel $

/$DITroff 140 dict def $DITroff begin
/fontnum 1 def /fontsize 10 def /fontheight 10 def /fontslant 0 def
/xi {0 72 11 mul translate 72 resolution div dup neg scale 0 0 moveto
  /fontnum 1 def /fontsize 10 def /fontheight 10 def /fontslant 0 def F
  /pagesave save def}def
/xiL {72 8.25 mul 72 11 mul translate -90 rotate
  72 resolution div dup neg scale 0 0 moveto
  /fontnum 1 def /fontsize 10 def /fontheight 10 def /fontslant 0 def F
  /pagesave save def}def
/PB{save /psv exch def currentpoint translate 
  resolution 72 div dup neg scale 0 0 moveto}def
/PE{psv restore}def
/arctoobig 90 def /arctoosmall .05 def
/m1 matrix def /m2 matrix def /m3 matrix def /oldmat matrix def
/tan{dup sin exch cos div}def
/point{resolution 72 div mul}def
/dround	{transform round exch round exch itransform}def
/xT{/devname exch def}def
/xr{/mh exch def /my exch def /resolution exch def}def
/xp{}def
/xs{docsave restore end}def
/xt{}def
/xf{/fontname exch def /slotno exch def fontnames slotno get fontname eq not
 {fonts slotno fontname findfont put fontnames slotno fontname put}if}def
/xH{/fontheight exch def F}def
/xS{/fontslant exch def F}def
/s{/fontsize exch def /fontheight fontsize def F}def
/f{/fontnum exch def F}def
/F{fontheight 0 le {/fontheight fontsize def}if
   fonts fontnum get fontsize point 0 0 fontheight point neg 0 0 m1 astore
   fontslant 0 ne{1 0 fontslant tan 1 0 0 m2 astore m3 concatmatrix}if
   makefont setfont .04 fontsize point mul 0 dround pop setlinewidth}def
/X{exch currentpoint exch pop moveto show}def
/N{3 1 roll moveto show}def
/Y{exch currentpoint pop exch moveto show}def
/S{show}def
/ditpush{}def/ditpop{}def
/AX{3 -1 roll currentpoint exch pop moveto 0 exch ashow}def
/AN{4 2 roll moveto 0 exch ashow}def
/AY{3 -1 roll currentpoint pop exch moveto 0 exch ashow}def
/AS{0 exch ashow}def
/MX{currentpoint exch pop moveto}def
/MY{currentpoint pop exch moveto}def
/MXY{moveto}def
/cb{pop}def	% action on unknown char -- nothing for now
/n{}def/w{}def
/p{pop showpage pagesave restore /pagesave save def}def
% sun logo
/u{newpath
  -28 7.5 moveto
  15 7.5 lineto
  15.5 15 7.5 270 90 arc
  -28 22.5 lineto
  stroke} def
/un{
  gsave 30 30 translate
  u 180 rotate u
  grestore
  90 rotate} def
/logo{
  gsave
  un un un un
  grestore} def
% Manual Feed Definitions
/SetStTime{statusdict /manualfeedtimeout 120 put} def
/SetStatus{statusdict /manualfeed true put
   statusdict /product get (LaserWriter) eq 
   {version (23.0) eq  % Don't redefine showpage if printer is not "Classic LW"
     {/p {
	 {statusdict /printerstatus get exec 16#22000000 and 0 eq{exit}if}loop
	 pop showpage pagesave restore /pagesave save def}def}if }if}def
/abspoint{currentpoint exch pop add exch currentpoint pop add exch}def
/distance{dup mul exch dup mul add sqrt}def
/dstroke{currentpoint stroke moveto}def
/Dl{2 copy gsave rlineto stroke grestore rmoveto}def
/arcellipse{/diamv exch def /diamh exch def oldmat currentmatrix pop
 currentpoint translate 1 diamv diamh div scale /rad diamh 2 div def
 currentpoint exch rad add exch rad -180 180 arc oldmat setmatrix}def
/Dc{dup arcellipse dstroke}def
/De{arcellipse dstroke}def
/Da{/endv exch def /endh exch def /centerv exch def /centerh exch def
 /cradius centerv centerv mul centerh centerh mul add sqrt def
 /eradius endv endv mul endh endh mul add sqrt def
 /endang endv endh atan def
 /startang centerv neg centerh neg atan def
 /sweep startang endang sub dup 0 lt{360 add}if def
 sweep arctoobig gt
 {/midang startang sweep 2 div sub def /midrad cradius eradius add 2 div def
  /midh midang cos midrad mul def /midv midang sin midrad mul def
  midh neg midv neg endh endv centerh centerv midh midv Da
  currentpoint moveto Da}
 {sweep arctoosmall ge
  {/controldelt 1 sweep 2 div cos sub 3 sweep 2 div sin mul div 4 mul def
  centerv neg controldelt mul centerh controldelt mul
  endv neg controldelt mul centerh add endh add
  endh controldelt mul centerv add endv add
  centerh endh add centerv endv add rcurveto dstroke}
 {centerh endh add centerv endv add rlineto dstroke}ifelse}ifelse}def

/Barray 200 array def % 200 values in a wiggle
/D~{mark}def
/D~~{counttomark Barray exch 0 exch getinterval astore /Bcontrol exch def pop
 /Blen Bcontrol length def Blen 4 ge Blen 2 mod 0 eq and
 {Bcontrol 0 get Bcontrol 1 get abspoint /Ycont exch def /Xcont exch def
  Bcontrol 0 2 copy get 2 mul put Bcontrol 1 2 copy get 2 mul put
  Bcontrol Blen 2 sub 2 copy get 2 mul put
  Bcontrol Blen 1 sub 2 copy get 2 mul put
  /Ybi /Xbi currentpoint 3 1 roll def def 0 2 Blen 4 sub
  {/i exch def
   Bcontrol i get 3 div Bcontrol i 1 add get 3 div
   Bcontrol i get 3 mul Bcontrol i 2 add get add 6 div
   Bcontrol i 1 add get 3 mul Bcontrol i 3 add get add 6 div
   /Xbi Xcont Bcontrol i 2 add get 2 div add def
   /Ybi Ycont Bcontrol i 3 add get 2 div add def
   /Xcont Xcont Bcontrol i 2 add get add def
   /Ycont Ycont Bcontrol i 3 add get add def
   Xbi currentpoint pop sub Ybi currentpoint exch pop sub rcurveto
  }for dstroke}if}def
end
/ditstart{$DITroff begin
 /nfonts 60 def			% NFONTS makedev/ditroff dependent!
 /fonts[nfonts{0}repeat]def
 /fontnames[nfonts{()}repeat]def
/docsave save def
}def

% character outcalls
/oc {/pswid exch def /cc exch def /name exch def
   /ditwid pswid fontsize mul resolution mul 72000 div def
   /ditsiz fontsize resolution mul 72 div def
   ocprocs name known{ocprocs name get exec}{name cb}
   ifelse}def
/fractm [.65 0 0 .6 0 0] def
/fraction
 {/fden exch def /fnum exch def gsave /cf currentfont def
  cf fractm makefont setfont 0 .3 dm 2 copy neg rmoveto
  fnum show rmoveto currentfont cf setfont(\244)show setfont fden show 
  grestore ditwid 0 rmoveto} def
/oce {grestore ditwid 0 rmoveto}def
/dm {ditsiz mul}def

/ocprocs 50 dict def ocprocs begin
(14){(1)(4)fraction}def
(12){(1)(2)fraction}def
(34){(3)(4)fraction}def
(13){(1)(3)fraction}def
(23){(2)(3)fraction}def
(18){(1)(8)fraction}def
(38){(3)(8)fraction}def
(58){(5)(8)fraction}def
(78){(7)(8)fraction}def
(sr){gsave 0 .06 dm rmoveto(\326)show oce}def
(is){gsave 0 .15 dm rmoveto(\362)show oce}def
(->){gsave 0 .02 dm rmoveto(\256)show oce}def
(<-){gsave 0 .02 dm rmoveto(\254)show oce}def
(==){gsave 0 .05 dm rmoveto(\272)show oce}def
end

% an attempt at a PostScript FONT to implement ditroff special chars
% this will enable us to 
%	cache the little buggers
%	generate faster, more compact PS out of psdit
%	confuse everyone (including myself)!
50 dict dup begin
/FontType 3 def
/FontName /DIThacks def
/FontMatrix [.001 0 0 .001 0 0] def
/FontBBox [-260 -300 1000 1000] def% a lie but ...
/Encoding 256 array def
0 1 255{Encoding exch /.notdef put}for
Encoding
 dup 8#040/space put %space
 dup 8#224/rc put %right ceil
 dup 8#213/lt put %left  top curl
 dup 8#210/bv put %bold vert
 dup 8#217/lk put %left  mid curl
 dup 8#214/lb put %left  bot curl
 dup 8#215/rt put %right top curl
 dup 8#220/rk put %right mid curl
 dup 8#216/rb put %right bot curl
 dup 8#222/rf put %right floor
 dup 8#221/lf put %left  floor
 dup 8#223/lc put %left  ceil
 dup 8#204/sq put %square
 dup 8#205/bx put %box
 dup 8#206/ci put %circle
 dup 8#207/br put %box rule
 dup 8#140/rn put %root extender
 dup 8#145/vr put %vertical rule
 dup 8#146/ob put %outline bullet
 dup 8#267/bu put %bullet
 dup 8#211/ru put %rule
 dup 8#137/ul put %underline
 dup 8#212/su put %sun logo
 pop
/DITfd 100 dict def
/BuildChar{0 begin
 /cc exch def /fd exch def
 /charname fd /Encoding get cc get def
 /charwid fd /Metrics get charname get def
 /charproc fd /CharProcs get charname get def
 charwid 0 fd /FontBBox get aload pop setcachedevice
 2 setlinejoin 40 setlinewidth
 newpath 0 0 moveto gsave charproc grestore
 end}def
/BuildChar load 0 DITfd put
%/UniqueID 5 def
/CharProcs 50 dict def
CharProcs begin
/space{}def
/.notdef{}def
/ru{500 0 rls}def
/rn{0 800 moveto 500 0 rls}def
/vr{0 800 moveto 0 -800 rls}def
/bv{0 800 moveto 0 -1000 rls}def
/br{0 800 moveto 0 -1000 rls}def
/ul{0 -200 moveto 500 0 rls}def
/ob{200 250 rmoveto currentpoint newpath 200 0 360 arc closepath stroke}def
/bu{200 250 rmoveto currentpoint newpath 200 0 360 arc closepath fill}def
/sq{80 0 rmoveto currentpoint dround newpath moveto
    640 0 rlineto 0 640 rlineto -640 0 rlineto closepath stroke}def
/bx{80 0 rmoveto currentpoint dround newpath moveto
    640 0 rlineto 0 640 rlineto -640 0 rlineto closepath fill}def
/ci{360 280 rmoveto currentpoint newpath 333 0 360 arc
    50 setlinewidth stroke}def

/lt{0 -200 moveto 0 550 rlineto currx 800 2cx s4 add exch s4 a4p stroke}def
/lb{0 800 moveto 0 -550 rlineto currx -200 2cx s4 add exch s4 a4p stroke}def
/rt{0 -200 moveto 0 550 rlineto currx 800 2cx s4 sub exch s4 a4p stroke}def
/rb{0 800 moveto 0 -500 rlineto currx -200 2cx s4 sub exch s4 a4p stroke}def
/lk{0 800 moveto 0 300 -300 300 s4 arcto pop pop 1000 sub
    0 300 4 2 roll s4 a4p 0 -200 lineto stroke}def
/rk{0 800 moveto 0 300 s2 300 s4 arcto pop pop 1000 sub
    0 300 4 2 roll s4 a4p 0 -200 lineto stroke}def
/lf{0 800 moveto 0 -1000 rlineto s4 0 rls}def
/rf{0 800 moveto 0 -1000 rlineto s4 neg 0 rls}def
/lc{0 -200 moveto 0 1000 rlineto s4 0 rls}def
/rc{0 -200 moveto 0 1000 rlineto s4 neg 0 rls}def
/su{10 setlinewidth
    480 240 translate
    45 rotate
    -7 7 scale
    logo} def
end

/Metrics 50 dict def Metrics begin
/.notdef 0 def
/space 500 def
/ru 500 def
/br 0 def
/lt 416 def
/lb 416 def
/rt 416 def
/rb 416 def
/lk 416 def
/rk 416 def
/rc 416 def
/lc 416 def
/rf 416 def
/lf 416 def
/bv 416 def
/ob 350 def
/bu 350 def
/ci 750 def
/bx 750 def
/sq 750 def
/rn 500 def
/ul 500 def
/vr 0 def
/su 900 def
end

DITfd begin
/s2 500 def /s4 250 def /s3 333 def
/a4p{arcto pop pop pop pop}def
/2cx{2 copy exch}def
/rls{rlineto stroke}def
/currx{currentpoint pop}def
/dround{transform round exch round exch itransform} def
end
end
/DIThacks exch definefont pop
/link-text { pop pop } def
/link-dest { pop pop } def
ditstart
(psc)xT
576 1 1 xr
1(Times-Roman)xf 1 f
2(Times-Italic)xf 2 f
3(Times-Bold)xf 3 f
4(Times-BoldItalic)xf 4 f
5(Helvetica)xf 5 f
6(Helvetica-Bold)xf 6 f
7(Courier)xf 7 f
8(Courier-Bold)xf 8 f
9(Symbol)xf 9 f
10(DIThacks)xf 10 f
10 s
1 f
xi
%%EndProlog

%%Page: 1 1
10 s 0 xH 0 xS 1 f
8 s
3 f
12 s
1005 960(Extending)N
1450(X)X
1543(for)X
1690(Double-Buffering,)X
2458(Multi-Buffering,)X
3163(and)X
3341(Stereo)X
2 f
10 s
2022 1152(Jeffrey)N
2261(Friedberg)X
2109 1248(Larry)N
2311(Seiler)X
2127 1344(Jeff)N
2263(Vroom)X
1 f
2117 1488(Version)N
2391(3.2)X
1982 1584(September)N
2345(11,)X
2465(1989)X
2004 1776(For)N
2135(Public)X
2359(Review)X
3 f
576 2256(Introduction)N
1 f
576 2380(Several)N
847(proposals)X
1184(have)X
1366(been)X
1548(written)X
1805(that)X
1955(address)X
2226(some)X
2425(of)X
2522(the)X
2650(issues)X
2871(surrounding)X
3289(the)X
3418(support)X
3689(of)X
3787(double-)X
576 2476(buffered,)N
889(multi-buffered,)X
1397(and)X
1533(stereo)X
1745(windows)X
2054(in)X
2136(the)X
2254(X)X
2332(Window)X
2628(System:)X
10 f
576 2600(\267)N
2 f
776(Extending)X
1121(X)X
1190(for)X
1303(Double-Buffering,)X
1 f
1908(Jeffrey)X
2152(Friedberg,)X
2504(Larry)X
2703(Seiler,)X
2930(Randi)X
3141(Rost.)X
10 f
576 2724(\267)N
2 f
776(\(Proposal)X
1116(for\))X
1256(Double-Buffering)X
1841(Extensions)X
1 f
2188(,)X
2228(Jeff)X
2369(Vroom.)X
10 f
576 2848(\267)N
2 f
776(An)X
885(Extension)X
1221(to)X
1303(X.11)X
1472(for)X
1585(Displays)X
1885(with)X
2042(Multiple)X
2333(Buffers,)X
1 f
2604(David)X
2820(S.H.)X
2982(Rosenthal.)X
10 f
576 2972(\267)N
2 f
776(A)X
845(Multiple)X
1136(Buffering/Stereo)X
1685(Proposal)X
1 f
1978(,)X
2018(Mark)X
2212(Patrick.)X
576 3096(The)N
725(authors)X
985(of)X
1076(this)X
1215(proposal)X
1515(have)X
1691(tried)X
1863(to)X
1950(unify)X
2144(the)X
2267(above)X
2484(documents)X
2856(to)X
2943(yield)X
3128(a)X
3189(proposal)X
3490(that)X
3635(incorporates)X
576 3192(support)N
845(for)X
968(double-buffering,)X
1561(multi-buffering,)X
2104(and)X
2249(stereo)X
2470(in)X
2561(a)X
2626(way)X
2789(that)X
2937(is)X
3018(acceptable)X
3386(to)X
3476(all)X
3584(concerned.)X
3983(It)X
576 3288(also)N
728(incorporates)X
1148(comments)X
1500(from)X
1680(the)X
1802(July)X
1959(MIT)X
2130(X)X
2212(Workshop.)X
2610(Hopefully,)X
2979(the)X
3101(X)X
3183(consortium)X
3567(will)X
3715(adopt)X
3917(this)X
576 3384(proposal)N
872(so)X
963(that)X
1103(a)X
1159(portable)X
1442(method)X
1702(for)X
1816(these)X
2001(features)X
2276(will)X
2420(be)X
2516(identi\256ed.)X
3 f
576 3576(Goals)N
1 f
576 3700(Clients)N
822(should)X
1055(be)X
1151(able)X
1305(to:)X
10 f
576 3824(\267)N
1 f
776(Associate)X
1108(multiple)X
1394(buffers)X
1642(with)X
1804(a)X
1860(window.)X
10 f
576 3948(\267)N
1 f
776(Paint)X
960(in)X
1042(any)X
1178(buffer)X
1395(associated)X
1745(with)X
1907(a)X
1963(window.)X
10 f
576 4072(\267)N
1 f
776(Display)X
1045(any)X
1181(buffer)X
1398(associated)X
1748(with)X
1910(a)X
1966(window.)X
10 f
576 4196(\267)N
1 f
776(Display)X
1045(a)X
1101(series)X
1304(of)X
1391(buffers)X
1639(in)X
1721(a)X
1777(window)X
2055(in)X
2137(rapid)X
2322(succession)X
2685(to)X
2767(achieve)X
3033(a)X
2 f
3089(smooth)X
1 f
3340(animation.)X
10 f
576 4320(\267)N
1 f
776(Request)X
1054(simultaneous)X
1496(display)X
1747(of)X
1834(different)X
2131(buffers)X
2379(in)X
2461(different)X
2758(windows.)X
576 4444(In)N
663(addition,)X
965(the)X
1083(extension)X
1410(should:)X
10 f
576 4568(\267)N
1 f
776(Allow)X
996(existing)X
1269(X)X
1347(applications)X
1754(to)X
1836(run)X
1963(unchanged.)X
10 f
576 4692(\267)N
1 f
776(Support)X
1049(a)X
1105(range)X
1304(of)X
1391(implementation)X
1913(methods)X
2204(that)X
2344(can)X
2476(capitalize)X
2804(on)X
2904(existing)X
3177(hardware)X
3497(features.)X
8 s
10 f
576 5184(\211\211\211\211\211\211\211\211\211\211\211\211\211\211\211\211\211\211)N
1 f
576 5264(Copyright)N
9 f
852(\323)X
1 f
919(1989,)X
1079(Massachusetts)X
1464(Institute)X
1690(of)X
1759(Technology)X
2080(and)X
2188(Digital)X
2382(Equipment)X
2679(Corporation.)X
576 5344(Permission)N
886(to)X
961(use,)X
1087(copy,)X
1252(modify,)X
1478(and)X
1595(distribute)X
1862(this)X
1980(documentation)X
2385(for)X
2484(any)X
2601(purpose)X
2828(and)X
2945(without)X
3166(fee)X
3269(is)X
3338(hereby)X
3537(granted,)X
576 5424(provided)N
830(that)X
953(the)X
1058(above)X
1237(copyright)X
1508(notice)X
1690(and)X
1808(this)X
1927(permission)X
2234(notice)X
2416(appear)X
2611(in)X
2687(all)X
2777(copies.)X
2998(MIT)X
3141(and)X
3259(Digital)X
3463(Equipment)X
576 5504(Corporation)N
913(make)X
1079(no)X
1171(representations)X
1585(about)X
1755(the)X
1861(suitability)X
2146(for)X
2248(any)X
2368(purpose)X
2598(of)X
2679(the)X
2785(information)X
3116(in)X
3195(this)X
3317(document.)X
3630(This)X
576 5584(documentation)N
974(is)X
1035(provided)X
1280("as)X
1377(is")X
1464(without)X
1678(express)X
1887(or)X
1958(implied)X
2172(warranty.)X
2448(This)X
2580(document)X
2850(is)X
2911(only)X
3043(a)X
3089(draft)X
3227(standard)X
3461(of)X
3532(the)X
3627(MIT)X
576 5664(X)N
638(Consortium)X
957(and)X
1065(is)X
1124(therefore)X
1369(subject)X
1566(to)X
1632(change.)X

2 p
%%Page: 2 2
8 s 0 xH 0 xS 1 f
10 s
2237 384(-)N
2284(2)X
2344(-)X
3 f
576 672(Image)N
810(Buffers)X
1 f
576 796(Normal)N
841(windows)X
1150(are)X
1269(created)X
1522(using)X
1715(the)X
1833(standard)X
3 f
2125(CreateWindow)X
1 f
2666(request:)X
8 f
864 940(CreateWindow)N
1064 1036(parent)N
1832(:)X
1928(WINDOW)X
1064 1132(w_id)N
1832(:)X
1928(WINDOW)X
1064 1228(depth)N
1832(:)X
1928(CARD8)X
1064 1324(visual)N
1832(:)X
1928(VISUALID)X
2360(or)X
2504(CopyFromParent)X
1064 1420(x,)N
1208(y)X
1832(:)X
1928(INT16)X
1064 1516(width,)N
1400(height)X
1832(:)X
1928(INT16)X
1064 1612(border_width)N
1832(:)X
1928(INT16)X
1064 1708(value_mask)N
1832(:)X
1928(BITMASK)X
1064 1804(value_list)N
1832(:)X
1928(LISTofVALUE)X
1 f
576 1976(This)N
739(request)X
992(allocates)X
1294(a)X
1352(set)X
1463(of)X
1552(window)X
1832(attributes)X
2152(and)X
2290(a)X
2348(buffer)X
2567(into)X
2713(which)X
2931(an)X
3029(image)X
3247(can)X
3381(be)X
3479(drawn.)X
3742(The)X
3889(con-)X
576 2072(tents)N
747(of)X
834(this)X
2 f
969(image)X
1185(buffer)X
1 f
1396(will)X
1540(be)X
1636(displayed)X
1963(when)X
2157(the)X
2275(window)X
2553(is)X
2626(mapped)X
2900(to)X
2982(the)X
3100(screen.)X
576 2196(To)N
686(support)X
947(double-buffering)X
1512(and)X
1649(multi-buffering,)X
2184(we)X
2299(introduce)X
2623(the)X
2742(notion)X
2968(that)X
3110(additional)X
3452(image)X
3670(buffers)X
3920(can)X
576 2292(be)N
672(created)X
925(and)X
1061(bound)X
1281(together)X
1564(to)X
1646(form)X
1822(groups.)X
2100(The)X
2245(following)X
2576(rules)X
2752(will)X
2896(apply:)X
10 f
576 2416(\267)N
1 f
776(All)X
909(image)X
1136(buffers)X
1395(in)X
1488(a)X
1555(group)X
1773(will)X
1928(have)X
2111(the)X
2240(same)X
2437(visual)X
2660(type,)X
2850(depth,)X
3080(and)X
3228(geometry)X
3563(\(ie:)X
3702(width)X
3916(and)X
776 2512(height\).)N
10 f
576 2636(\267)N
1 f
776(Only)X
956(one)X
1092(image)X
1308(buffer)X
1525(per)X
1648(group)X
1855(can)X
1987(be)X
2083(displayed)X
2410(at)X
2488(a)X
2544(time.)X
10 f
576 2760(\267)N
1 f
776(Draw)X
975(operations)X
1329(can)X
1461(occur)X
1660(to)X
1742(any)X
1878(image)X
2094(buffer)X
2311(at)X
2389(any)X
2525(time.)X
10 f
576 2884(\267)N
1 f
776(Window)X
1080(management)X
1518(requests)X
1810(\()X
3 f
1837(MapWindow)X
1 f
2285(,)X
3 f
2334(DestroyWindow)X
1 f
2890(,)X
3 f
2939(Con\256gureWindow)X
1 f
3569(,)X
3618(etc...\))X
3848(affect)X
776 2980(all)N
876(image)X
1092(buffers)X
1340(associated)X
1690(with)X
1852(a)X
1908(window.)X
10 f
576 3104(\267)N
1 f
776(Appropriate)X
1185(resize)X
1394(and)X
1531(exposure)X
1842(events)X
2068(will)X
2213(be)X
2310(generated)X
2644(for)X
2759(every)X
2959(image)X
3176(buffer)X
3395(that)X
3537(is)X
3612(affected)X
3894(by)X
3996(a)X
776 3200(window)N
1054(management)X
1484(operation.)X
576 3324(By)N
692(allowing)X
995(draw)X
1179(operations)X
1536(to)X
1621(occur)X
1823(on)X
1926(any)X
2065(image)X
2284(buffer)X
2504(at)X
2586(any)X
2726(time,)X
2912(a)X
2972(client)X
3174(could,)X
3396(on)X
3500(a)X
3560(multi-threaded)X
576 3420(multi-processor)N
1101(server,)X
1340(simultaneously)X
1846(build)X
2032(up)X
2134(images)X
2383(for)X
2498(display.)X
2790(To)X
2900(support)X
3161(this,)X
3317(each)X
3486(buffer)X
3704(must)X
3880(have)X
576 3516(its)N
679(own)X
845(resource)X
1147(ID.)X
1281(Since)X
1488(buffers)X
1745(are)X
1873(different)X
2179(than)X
2346(windows)X
2664(and)X
2809(pixmaps)X
3109(\(buffers)X
3393(are)X
3521(not)X
3652(hierarchical)X
576 3612(and)N
718(pixmaps)X
1015(cannot)X
1255(be)X
1357(displayed\))X
1717(a)X
1778(new)X
1937(resource,)X
3 f
2255(Buffer)X
1 f
2478(,)X
2523(is)X
2601(introduced.)X
3009(Furthermore,)X
3455(a)X
3 f
3516(Buffer)X
1 f
3764(is)X
3842(also)X
3996(a)X
3 f
576 3708(Drawable)N
1 f
910(,)X
957(thus)X
1117(draw)X
1305(operations)X
1667(may)X
1833(also)X
1990(be)X
2094(performed)X
2457(on)X
2565(buffers)X
2821(simply)X
3066(by)X
3174(passing)X
3442(a)X
3506(buffer)X
3731(ID)X
3844(to)X
3934(the)X
576 3804(existing)N
849(pixmap/window)X
1389(interface.)X
576 3928(To)N
685(allow)X
883(existing)X
1156(X)X
1234(applications)X
1641(to)X
1723(work)X
1908(unchanged,)X
2296(we)X
2410(assume)X
2666(a)X
2723(window)X
3002(ID)X
3108(passed)X
3343(in)X
3426(a)X
3483(draw)X
3665(request,)X
3938(for)X
576 4024(a)N
640(multi-buffered)X
1136(window,)X
1442(will)X
1594(be)X
1698(an)X
2 f
1802(alias)X
1 f
1985(for)X
2107(the)X
2233(ID)X
2346(of)X
2441(the)X
2567(currently)X
2885(displayed)X
3219(image)X
3442(buffer.)X
3706(Any)X
3871(draw)X
576 4120(requests)N
859(\(eq:)X
3 f
1004(GetImage)X
1 f
1343(\))X
1390(on)X
1490(the)X
1608(window)X
1886(will)X
2030(be)X
2126(relative)X
2387(to)X
2469(the)X
2587(displayed)X
2914(image)X
3130(buffer.)X
576 4244(In)N
664(window)X
943(management)X
1374(requests,)X
1678(only)X
1841(a)X
1898(window)X
2177(ID)X
2283(will)X
2428(be)X
2525(accepted.)X
2869(Requests)X
3180(like)X
3 f
3322(QueryTree)X
1 f
3701(,)X
3743(will)X
3889(con-)X
576 4340(tinue)N
776(to)X
878(return)X
1110(only)X
1292(window)X
1590(ID's.)X
1813(Most)X
2017(events)X
2262(will)X
2426(return)X
2658(just)X
2813(the)X
2951(window)X
3249(ID.)X
3413(Some)X
3634(new)X
3807(events,)X
576 4436(described)N
904(in)X
986(a)X
1042(subsequent)X
1418(section,)X
1685(will)X
1829(return)X
2041(a)X
2097(buffer)X
2314(ID.)X

3 p
%%Page: 3 3
10 s 0 xH 0 xS 1 f
2237 384(-)N
2284(3)X
2344(-)X
3 f
576 672(New)N
748(Requests)X
1 f
576 796(The)N
726(new)X
885(request,)X
3 f
1162 0.2132(CreateImageBuffers)AX
1 f
1863(,)X
1908(creates)X
2157(a)X
2218(group)X
2430(of)X
2522(image)X
2743(buffers)X
2996(and)X
3137(associates)X
3483(them)X
3668(with)X
3836(a)X
3898(nor-)X
576 892(mal)N
716(X)X
794(window:)X
8 f
864 1036(CreateImageBuffers)N
1064 1132(w_id)N
1784(:)X
1880(WINDOW)X
1064 1228(buffers)N
1784(:)X
1880(LISTofBUFFER)X
1064 1324(update_action)N
1784(:)X
1880({Undefined,Background,Untouched,Copied})X
1064 1420(update_hint)N
1784(:)X
1880({Frequent,Intermittent,Static})X
1064 1516(=>)N
1064 1612(number_buffers)N
1784(:)X
1880(CARD16)X
1064 1804(\(Errors:)N
1496(Window,)X
1880(IDChoice,)X
2360(Value\))X
1 f
576 1948(One)N
730(image)X
946(buffer)X
1163(will)X
1307(be)X
1403(associated)X
1753(with)X
1915(each)X
2083(ID)X
2188(passed)X
2422(in)X
2 f
2504(buffers)X
1 f
2726(.)X
2786(The)X
2931(\256rst)X
3076(buffer)X
3294(of)X
3382(the)X
3501(list)X
3619(is)X
3693(referred)X
3970(to)X
576 2044(as)N
665(buffer[0],)X
998(the)X
1118(next)X
1278(buffer[1],)X
1611(and)X
1749(so)X
1842(on.)X
1984(Each)X
2167(buffer)X
2386(will)X
2532(have)X
2706(the)X
2826(same)X
3013(visual)X
3226(type)X
3385(and)X
3522(geometry)X
3846(as)X
3934(the)X
576 2140(window.)N
901(Buffer[0])X
1232(will)X
1383(refer)X
1563(to)X
1652(the)X
1777(image)X
2000(buffer)X
2224(already)X
2488(associated)X
2845(with)X
3014(the)X
3140(window)X
3426(ID)X
3539(and)X
3683(remain)X
3934(the)X
2 f
576 2236(displayed)N
1 f
913(image)X
1139(buffer.)X
1406(Image)X
1637(buffers)X
1895(for)X
2019(the)X
2147(remaining)X
2502(ID's)X
2675(\(buffer[1],)X
3043(...\))X
3160(will)X
3314(be)X
3420(allocated)X
3740(and)X
3885(their)X
576 2332(contents)N
864(will)X
1009(be)X
1106(unde\256ned.)X
1483(If)X
1558(the)X
1677(window)X
1956(already)X
2214(has)X
2342(a)X
2399(group)X
2608(of)X
2697(image)X
2915(buffers)X
3165(associated)X
3517(with)X
3681(it)X
3747(\(ie:)X
3876(from)X
576 2428(a)N
641(previous)X
3 f
946 0.2132(CreateImageBuffers)AX
1 f
1676(request\))X
1964(the)X
2091(actions)X
2347(described)X
2684(for)X
3 f
2806(DestroyImageBuffers)X
1 f
3570(are)X
3697(performed)X
576 2524(\256rst)N
724(\(this)X
890(will)X
1038(delete)X
1254(the)X
1376(association)X
1756(of)X
1847(the)X
1970(previous)X
2271(buffer)X
2493(ID's)X
2661(and)X
2802(their)X
2974(buffers)X
3227(as)X
3319(well)X
3482(as)X
3574(de-allocate)X
3952(all)X
576 2620(buffers)N
824(except)X
1054(for)X
1168(the)X
1286(one)X
1422(already)X
1679(associated)X
2029(with)X
2191(the)X
2309(window)X
2587(ID\).)X
576 2744(To)N
693(allow)X
899(a)X
963(server)X
1188(implementation)X
1718(to)X
1808(ef\256ciently)X
2161(allocate)X
2439(the)X
2565(buffers,)X
2841(the)X
2967(total)X
3137(number)X
3411(of)X
3507(buffers)X
3764(required)X
576 2840(and)N
715(the)X
836(update)X
1073(action)X
1292(\(how)X
1480(they)X
1641(will)X
1788(behave)X
2039(during)X
2271(an)X
2369(update\))X
2632(is)X
2707(speci\256ed)X
3014("up)X
3149(front")X
3360(in)X
3444(the)X
3564(request.)X
3858(If)X
3934(the)X
576 2936(server)N
808(cannot)X
1057(allocate)X
1342(all)X
1458(the)X
1592(buffers)X
1856(requested,)X
2220(the)X
2354(total)X
2532(number)X
2813(of)X
2916(buffers)X
3180(actually)X
3470(allocated)X
3796(will)X
3956(be)X
576 3032(returned.)N
925(No)X
3 f
1064(Alloc)X
1 f
1282(errors)X
1510(will)X
1674(be)X
1790(generated)X
9 f
2143(-)X
1 f
2227(buffer[0])X
2558(can)X
2710(always)X
2973(be)X
3089(associated)X
3459(with)X
3641(the)X
3779(existing)X
576 3128(displayed)N
903(image)X
1119(buffer.)X
576 3252(For)N
711(example,)X
1027(an)X
1127(application)X
1507(that)X
1652(wants)X
1864(to)X
1951(animate)X
2230(a)X
2291(short)X
2476(movie)X
2701(loop)X
2868(may)X
3031(request)X
3288(64)X
3393(image)X
3614(buffers.)X
3907(The)X
576 3348(server)N
795(may)X
955(only)X
1119(be)X
1217(able)X
1373(to)X
1457(support)X
1719(16)X
1821(image)X
2039(buffers)X
2289(of)X
2378(this)X
2515(type,)X
2695(size,)X
2862(and)X
2999(depth.)X
3238(The)X
3384(application)X
3761(can)X
3894(then)X
576 3444(decide)N
807(16)X
908(buffers)X
1157(is)X
1231(suf\256cient)X
1550(and)X
1687(may)X
1846(truncate)X
2126(the)X
2245(movie)X
2466(loop,)X
2649(or)X
2737(it)X
2802(may)X
2961(decide)X
3192(it)X
3258(really)X
3463(needs)X
3668(64)X
3770(and)X
3908(will)X
576 3540(free)N
722(the)X
840(buffers)X
1088(and)X
1224(complain)X
1542(to)X
1624(the)X
1742(user.)X
576 3664(One)N
737(might)X
950(be)X
1053(tempted)X
1338(to)X
1427(provide)X
1699(a)X
1762(request)X
2021(that)X
2168(inquires)X
2453(whether)X
2 f
2739(n)X
1 f
2806(buffers)X
3062(of)X
3157(a)X
3221(particular)X
3557(type,)X
3743(size,)X
3916(and)X
576 3760(depth)N
2 f
785(could)X
1 f
994(be)X
1101(allocated.)X
1462(But)X
1608(if)X
1688(the)X
1817(query)X
2030(is)X
2113(decoupled)X
2473(from)X
2659(the)X
2787(actual)X
3009(allocation,)X
3375(another)X
3646(client)X
3854(could)X
576 3856(sneak)N
779(in)X
861(and)X
997(take)X
1151(the)X
1269(buffers)X
1517(before)X
1743(the)X
1861(original)X
2130(client)X
2328(has)X
2455(allocated)X
2765(them.)X
576 3980(While)N
792(any)X
928(buffer)X
1145(of)X
1232(a)X
1288(group)X
1495(can)X
1627(be)X
1723(selected)X
2002(for)X
2116(display,)X
2387(some)X
2576(applications)X
2983(may)X
3141(display)X
3393(buffers)X
3642(in)X
3725(a)X
3782(predict-)X
576 4076(able)N
731(order)X
922(\(ie:)X
1050(the)X
1169(movie)X
1390(loop)X
1553(application\).)X
1997(The)X
2 f
2143(list)X
2261(order)X
1 f
2460(\(buffer[0],)X
2819(buffer[1],)X
3151(...\))X
3258(will)X
3402(be)X
3498(used)X
3665(as)X
3752(a)X
3808(hint)X
3952(by)X
576 4172(the)N
694(server)X
911(as)X
998(to)X
1080(which)X
1296(buffer)X
1513(will)X
1657(be)X
1753(displayed)X
2080(next.)X
2278(A)X
2356(client)X
2554(displaying)X
2907(buffers)X
3155(in)X
3237(this)X
3372(order)X
3562(may)X
3721(see)X
3845(a)X
3902(per-)X
576 4268(formance)N
900(improvement.)X
2 f
576 4392(update_action)N
1 f
1071(indicates)X
1393(what)X
1586(should)X
1836(happen)X
2105(to)X
2204(a)X
2278(previously)X
2654(displayed)X
2999(buffer)X
3234(when)X
3446(a)X
3520(different)X
3835(buffer)X
576 4488(becomes)N
877(displayed.)X
1244(Possible)X
1530(actions)X
1777(are:)X
2 f
576 4612(Unde\256ned)N
1 f
1176(The)X
1339(contents)X
1644(of)X
1749(the)X
1885(buffer)X
2121(that)X
2280(was)X
2444(last)X
2594(displayed)X
2940(will)X
3103(become)X
3392(unde\256ned)X
3747(after)X
3934(the)X
1176 4708(update.)N
1456(This)X
1624(is)X
1703(the)X
1827(most)X
2008(ef\256cient)X
2297(action)X
2519(since)X
2710(it)X
2780(allows)X
3015(the)X
3139(implementation)X
3666(to)X
3753(trash)X
3934(the)X
1176 4804(contents)N
1463(of)X
1550(the)X
1668(buffer)X
1885(if)X
1954(it)X
2018(needs)X
2221(to.)X
2 f
576 4928(Background)N
1 f
1176(The)X
1328(contents)X
1622(of)X
1717(the)X
1843(buffer)X
2068(that)X
2216(was)X
2369(last)X
2508(displayed)X
2843(will)X
2995(be)X
3099(set)X
3216(to)X
3306(the)X
3432(background)X
3839(of)X
3934(the)X
1176 5024(window)N
1456(after)X
1625(the)X
1744(update.)X
2019(The)X
2165(background)X
2565(action)X
2782(allows)X
3012(devices)X
3274(to)X
3357(use)X
3485(a)X
3542(fast)X
3679(clear)X
3857(capa-)X
1176 5120(bility)N
1364(during)X
1593(an)X
1689(update.)X
2 f
576 5244(Untouched)N
1 f
1176(The)X
1331(contents)X
1628(of)X
1725(the)X
1853(buffer)X
2080(that)X
2230(was)X
2385(last)X
2526(displayed)X
2863(will)X
3018(be)X
3125(untouched)X
3490(after)X
3669(the)X
3798(update.)X
1176 5340(Used)N
1361(primarily)X
1679(when)X
1873(cycling)X
2129(through)X
2398(images)X
2645(that)X
2785(have)X
2957(already)X
3214(been)X
3386(drawn.)X
2 f
576 5464(Copied)N
1 f
1176(The)X
1322(contents)X
1610(of)X
1698(the)X
1817(buffer)X
2035(that)X
2177(was)X
2324(last)X
2457(displayed)X
2786(will)X
2932(become)X
3204(the)X
3324(same)X
3511(as)X
3600(those)X
3791(that)X
3933(are)X
1176 5560(being)N
1374(displayed)X
1701(after)X
1869(the)X
1987(update.)X
2261(This)X
2423(is)X
2496(useful)X
2712(when)X
2906(incrementally)X
3367(adding)X
3605(to)X
3687(an)X
3783(image.)X

4 p
%%Page: 4 4
10 s 0 xH 0 xS 1 f
2237 384(-)N
2284(4)X
2344(-)X
2 f
576 672(update_hint)N
1 f
987(indicates)X
1301(how)X
1468(often)X
1662(the)X
1789(client)X
1996(will)X
2149(request)X
2410(a)X
2475(different)X
2781(buffer)X
3007(to)X
3099(be)X
3205(displayed.)X
3582(This)X
3754(hint)X
3908(will)X
576 768(allow)N
776(smart)X
976(server)X
1195(implementations)X
1750(to)X
1834(choose)X
2079(the)X
2198(most)X
2374(ef\256cient)X
2658(means)X
2884(to)X
2967(support)X
3228(a)X
3285(multi-buffered)X
3774(window)X
576 864(based)N
779(on)X
879(the)X
997(current)X
1245(need)X
1417(of)X
1504(the)X
1622(application)X
1998(\(dumb)X
2227(implementations)X
2780(may)X
2938(choose)X
3181(to)X
3263(ignore)X
3489(this)X
3625(hint\).)X
3837(Possi-)X
576 960(ble)N
694(hints)X
869(are:)X
2 f
576 1084(Frequent)N
1 f
1176(An)X
1297(animation)X
1640(or)X
1730(movie)X
1953(loop)X
2118(is)X
2194(being)X
2395(attempted)X
2734(and)X
2873(the)X
2994(fastest,)X
3243(most)X
3422(ef\256cient)X
3709(means)X
3938(for)X
1176 1180(multi-buffering)N
1690(should)X
1923(be)X
2019(employed.)X
2 f
576 1304(Intermittent)N
1 f
1176(The)X
1328(displayed)X
1662(image)X
1885(will)X
2037(be)X
2141(changed)X
2437(every)X
2644(so)X
2743(often.)X
2976(This)X
3146(is)X
3227(common)X
3535(for)X
3657(images)X
3912(that)X
1176 1400(are)N
1301(displayed)X
1634(at)X
1717(a)X
1778(rate)X
1924(slower)X
2163(than)X
2326(a)X
2387(second.)X
2675(For)X
2811(example,)X
3128(a)X
3189(clock)X
3388(that)X
3533(is)X
3611(updated)X
3890(only)X
1176 1496(once)N
1348(a)X
1404(minute.)X
2 f
576 1620(Static)N
1 f
1176(The)X
1333(displayed)X
1672(image)X
1901(buffer)X
2131(will)X
2288(not)X
2423(be)X
2532(changed)X
2833(any)X
2982(time)X
3157(soon.)X
3381(Typically)X
3721(set)X
3843(by)X
3956(an)X
1176 1716(application)N
1552(whenever)X
1885(there)X
2066(is)X
2139(a)X
2195(pause)X
2398(in)X
2480(the)X
2598(animation.)X
576 1840(To)N
685(display)X
936(an)X
1032(image)X
1248(buffer)X
1465(the)X
1583(following)X
1914(request)X
2166(can)X
2298(be)X
2394(used:)X
8 f
864 1984(DisplayImageBuffers)N
1064 2080(buffers)N
1832(:)X
1928(LISTofBUFFER)X
1064 2176(min_delay)N
1832(:)X
1928(CARD16)X
1064 2272(max_delay)N
1832(:)X
1928(CARD16)X
1064 2464(\(Errors:)N
1496(Buffer,)X
1880(Match\))X
1 f
576 2608(The)N
722(image)X
940(buffers)X
1190(listed)X
1385(will)X
1531(become)X
1803(displayed)X
2132(as)X
2221(simultaneously)X
2727(as)X
2816(possible)X
3100(and)X
3238(the)X
3358(update)X
3594(action,)X
3832(bound)X
576 2704(at)N
3 f
654 0.2132(CreateImageBuffers)AX
1 f
1375(time,)X
1557(will)X
1701(be)X
1797(performed.)X
576 2828(A)N
657(list)X
777(of)X
867(buffers)X
1118(is)X
1194(speci\256ed)X
1502(to)X
1587(allow)X
1788(the)X
1909(server)X
2129(to)X
2214(ef\256ciently)X
2563(change)X
2815(the)X
2937(display)X
3192(of)X
3283(more)X
3472(than)X
3634(one)X
3774(window)X
576 2924(at)N
661(a)X
724(time)X
892(\(ie:)X
1025(when)X
1225(a)X
1287(global)X
1513(screen)X
1745(swap)X
1936(method)X
2202(is)X
2281(used\).)X
2521(Attempting)X
2911(to)X
2999(simultaneously)X
3509(display)X
3766(multiple)X
576 3020(image)N
801(buffers)X
1058(from)X
1243(the)X
1371(same)X
1566(window)X
1854(is)X
1937(an)X
2043(error)X
2230(\()X
3 f
2257(Match)X
1 f
2480(\))X
2537(since)X
2732(it)X
2806(violates)X
3085(the)X
3213(rule)X
3368(that)X
3518(only)X
3690(one)X
3836(image)X
576 3116(buffer)N
793(per)X
916(group)X
1123(can)X
1255(be)X
1351(displayed)X
1678(at)X
1756(a)X
1812(time.)X
576 3240(If)N
662(a)X
730(speci\256ed)X
1047(buffer)X
1276(is)X
1361(already)X
1630(displayed,)X
1989(any)X
2137(delays)X
2374(and)X
2523(update)X
2770(action)X
2999(will)X
3156(still)X
3308(be)X
3417(performed)X
3785(for)X
3912(that)X
576 3336(buffer.)N
846(In)X
946(this)X
1094(instance,)X
1410(only)X
1585(the)X
1716(update)X
1963(action)X
2191(of)X
2 f
2290(Background)X
1 f
2714(\(and)X
2889(possibly)X
2 f
3187(Unde\256ned)X
1 f
3517(\))X
3576(will)X
3732(have)X
3916(any)X
576 3432(affect)N
783(on)X
886(the)X
1007(contents)X
1297(of)X
1387(the)X
1508(displayed)X
1838(buffer.)X
2098(These)X
2313(semantics)X
2652(allow)X
2854(an)X
2954(animation)X
3298(application)X
3678(to)X
3764(success-)X
576 3528(fully)N
747(execute)X
1013(even)X
1185(when)X
1379(there)X
1560(is)X
1633(only)X
1795(a)X
1851(single)X
2062(buffer)X
2279(available)X
2589(for)X
2703(a)X
2759(window.)X
2 f
576 3652(min_delay)N
1 f
937(and)X
2 f
1080(max_delay)X
1 f
1455(put)X
1584(a)X
1647(bound)X
1874(on)X
1981(how)X
2146(long)X
2315(the)X
2440(server)X
2664(should)X
2904(wait)X
3070(before)X
3304(processing)X
3675(the)X
3801(display)X
576 3748(request.)N
877(For)X
1016(each)X
1192(of)X
1287(the)X
1413(windows)X
1730(to)X
1820(be)X
1924(updated)X
2206(by)X
2314(this)X
2457(request,)X
2737(at)X
2823(least)X
2 f
2998(min_delay)X
1 f
3360(milli-seconds)X
3819(should)X
576 3844(elapse)N
804(since)X
996(the)X
1121(last)X
1259(time)X
1428(any)X
1571(of)X
1665(the)X
1790(windows)X
2106(were)X
2290(updated;)X
2593(conversely,)X
2989(no)X
3097(window)X
3383(should)X
3624(have)X
3804(to)X
3894(wait)X
576 3940(more)N
761(than)X
2 f
919(max_delay)X
1 f
1287(milli-seconds)X
1738(before)X
1964(being)X
2162(updated.)X
2 f
576 4064(min_delay)N
1 f
934(allows)X
1167(an)X
1267(application)X
1647(to)X
2 f
1733(slow)X
1903(down)X
1 f
2100(an)X
2200(animation)X
2544(or)X
2635(movie)X
2859(loop)X
3025(so)X
3120(that)X
3264(it)X
3333(appears)X
3604(synchronized)X
576 4160(at)N
666(a)X
734(rate)X
887(the)X
1017(server)X
1246(can)X
1390(support)X
1662(given)X
1872(the)X
2002(current)X
2262(load.)X
2472(For)X
2614(example,)X
2937(a)X
2 f
3004(min_delay)X
1 f
3369(of)X
3467(100)X
3618(indicates)X
3934(the)X
576 4256(server)N
806(should)X
1052(wait)X
1223(at)X
1314(least)X
1494(1/10)X
1669(of)X
1770(a)X
1840(second)X
2097(since)X
2296(the)X
2428(last)X
2573(time)X
2749(any)X
2899(of)X
3000(the)X
3132(windows)X
3455(were)X
3646(updated.)X
3974(A)X
2 f
576 4352(min_delay)N
1 f
930(of)X
1017(zero)X
1176(indicates)X
1481(no)X
1581(waiting)X
1841(is)X
1914(necessary.)X
2 f
576 4476(max_delay)N
1 f
944(can)X
1076(be)X
1172(thought)X
1436(of)X
1523(as)X
1610(an)X
1706(additional)X
2046(delay)X
2240(beyond)X
2 f
2496(min_delay)X
1 f
2851(the)X
2970(server)X
3188(is)X
3262(allowed)X
3537(to)X
3620(wait)X
3779(to)X
3862(facil-)X
576 4572(itate)N
744(such)X
921(things)X
1146(as)X
1243(ef\256cient)X
1536(update)X
1780(of)X
1877(multiple)X
2173(windows.)X
2532(If)X
2 f
2615(max_delay)X
1 f
2992(would)X
3221(require)X
3478(an)X
3583(update)X
3826(before)X
2 f
576 4668(min_delay)N
1 f
932(is)X
1008(satis\256ed,)X
1313(then)X
1474(the)X
1595(server)X
1815(should)X
2051(process)X
2315(the)X
2436(display)X
2690(request)X
2945(as)X
3035(soon)X
3209(as)X
3299(the)X
2 f
3420(min_delay)X
1 f
3777(require-)X
576 4764(ment)N
756(is)X
829(met.)X
1009(A)X
1087(typical)X
1325(value)X
1519(for)X
2 f
1633(max_delay)X
1 f
2001(is)X
2074(zero.)X
576 4888(To)N
685(implement)X
1047(the)X
1165(above)X
1377(functionality,)X
1827(the)X
1946(time)X
2109(since)X
2295(the)X
2414(last)X
2546(update)X
2781(by)X
2882(a)X
3 f
2939(DisplayImageBuffers)X
1 f
3685(request)X
3938(for)X
576 4984(each)N
750(multi-buffered)X
1244(window)X
1528(needs)X
1737(to)X
1825(be)X
1927(saved)X
2136(as)X
2229(state)X
2402(by)X
2508(the)X
2632(server.)X
2894(The)X
3044(server)X
3266(may)X
3429(delay)X
3628(execution)X
3965(of)X
576 5080(the)N
3 f
695(DisplayImageBuffers)X
1 f
1442(request)X
1696(until)X
1864(the)X
1984(appropriate)X
2372(time)X
2536(\(e.g.)X
2701(by)X
2803(requeuing)X
3146(the)X
3266(request)X
3520(after)X
3690(computing)X
576 5176(the)N
699(timeout\);)X
1017(however,)X
1339(the)X
1462(entire)X
1670(request)X
1927(must)X
2107(be)X
2208(processed)X
2550(in)X
2637(one)X
2778(operation.)X
3146(Request)X
3429(execution)X
3766(indivisi-)X
576 5272(bility)N
772(must)X
955(be)X
1059(maintained.)X
1483(When)X
1703(a)X
1767(server)X
1993(is)X
2075(implemented)X
2522(with)X
2693(internal)X
2967(concurrency,)X
3414(the)X
3541(extension)X
3877(must)X
576 5368(adhere)N
811(to)X
893(the)X
1011(same)X
1196(concurrency)X
1614(semantics)X
1950(as)X
2037(those)X
2226(de\256ned)X
2482(for)X
2596(the)X
2714(core)X
2873(protocol.)X
576 5492(The)N
723(group)X
932(of)X
1021(image)X
1239(buffers)X
1489(allocated)X
1801(by)X
1903(a)X
3 f
1962 0.2132(CreateImageBuffers)AX
1 f
2686(request)X
2941(can)X
3076(be)X
3175(destroyed)X
3510(with)X
3675(the)X
3796(follow-)X
576 5588(ing)N
698(request:)X

5 p
%%Page: 5 5
10 s 0 xH 0 xS 1 f
2237 384(-)N
2284(5)X
2344(-)X
8 f
864 720(DestroyImageBuffers)N
1064 816(w_id)N
1464(:)X
1560(WINDOW)X
1064 1008(\(Error:)N
1448(Window\))X
1 f
576 1180(The)N
730(association)X
1115(between)X
1413(the)X
1541(buffer)X
1768(ID's)X
1941(and)X
2087(their)X
2264(corresponding)X
2753(image)X
2979(buffers)X
3237(are)X
3366(deleted.)X
3668(Any)X
3836(image)X
576 1276(buffers)N
824(not)X
946(being)X
1144(displayed)X
1471(are)X
1590(de-allocated.)X
2043(If)X
2117(the)X
2235(window)X
2513(is)X
2586(not)X
2708(multi-buffered,)X
3216(the)X
3334(request)X
3586(is)X
3659(ignored.)X
3 f
576 1468(Attributes)N
1 f
576 1592(The)N
721(following)X
1052(attributes)X
1370(will)X
1514(be)X
1610(associated)X
1960(with)X
2122(each)X
2290(window)X
2568(that)X
2708(is)X
2781(multi-buffered:)X
8 f
1064 1736(displayed_buffer)N
1880(:)X
1976(CARD16)X
1064 1832(update_action)N
1880(:)X
1976({Undefined,Background,Untouched,Copied})X
1064 1928(update_hint)N
1880(:)X
1976({Frequent,Intermittent,Static})X
1064 2024(window_mode)N
1880(:)X
1976({Mono,Stereo})X
1064 2120(buffers)N
1880(:)X
1976(LISTofBUFFER)X
2 f
576 2292(displayed_buffer)N
1 f
1134(is)X
1207(set)X
1316(to)X
1398(the)X
2 f
1516(index)X
1 f
1710(of)X
1797(the)X
1916(currently)X
2227(displayed)X
2555(image)X
2772(buffer)X
2990(\(for)X
3132(stereo)X
3345(windows,)X
3675(this)X
3811(will)X
3956(be)X
576 2388(the)N
706(index)X
916(of)X
1015(the)X
1145(left)X
1284(buffer)X
9 f
1513(-)X
1 f
1589(the)X
1719(index)X
1928(of)X
2026(the)X
2155(right)X
2337(buffer)X
2565(is)X
2649(simply)X
2 f
2897(index)X
1 f
3071(+1\).)X
2 f
3254(window_mode)X
1 f
3747(indicates)X
576 2484(whether)N
857(this)X
994(window)X
1274(is)X
2 f
1349(Mono)X
1 f
1558(or)X
2 f
1647(Stereo)X
1 f
1852(.)X
1914(The)X
2061(ID)X
2168(for)X
2284(each)X
2454(buffer)X
2673(associated)X
3025(with)X
3189(the)X
3309(window)X
3589(is)X
3665(recorded)X
3970(in)X
576 2580(the)N
2 f
694(buffers)X
1 f
936(list.)X
1093(The)X
1238(above)X
1450(attributes)X
1768(can)X
1900(be)X
1996(queried)X
2257(with)X
2419(the)X
2537(following)X
2868(request:)X
8 f
864 2724(GetMultiBufferAttributes)N
1064 2820(w_id)N
1880(:)X
1976(WINDOW)X
1064 2916(=>)N
1064 3012(displayed_buffer)N
1880(:)X
1976(CARD16)X
1064 3108(update_action)N
1880(:)X
1976({Undefined,Background,Untouched,Copied})X
1064 3204(update_hint)N
1880(:)X
1976({Frequent,Intermittent,Static})X
1064 3300(window_mode)N
1880(:)X
1976({Mono,Stereo})X
1064 3396(buffers)N
1880(:)X
1976(LISTofBUFFER)X
1064 3588(\(Errors:)N
1496(Window,)X
1880(Access,)X
2264(Value\))X
1 f
576 3760(If)N
653(the)X
775(window)X
1057(is)X
1134(not)X
1260(multi-buffered,)X
1772(a)X
3 f
1832(Access)X
1 f
2084(error)X
2265(will)X
2413(be)X
2513(generated.)X
2890(The)X
3039(only)X
3205(multi-buffer)X
3621(attribute)X
3912(that)X
576 3856(can)N
715(be)X
818(explicitly)X
1146(set)X
1261(is)X
2 f
1340(update_hint)X
1 f
1722(.)X
1788(Rather)X
2028(than)X
2192(have)X
2370(a)X
2432(speci\256c)X
2703(request)X
2961(to)X
3049(set)X
3164(this)X
3305(attribute,)X
3618(a)X
3680(generic)X
3943(set)X
576 3952(request)N
828(is)X
901(provided)X
1206(to)X
1288(allow)X
1486(for)X
1600(future)X
1812(expansion:)X
8 f
864 4096(SetMultiBufferAttributes)N
1064 4192(w_id)N
1832(:)X
1928(WINDOW)X
1064 4288(value_mask)N
1832(:)X
1928(BITMASK)X
1064 4384(value_list)N
1832(:)X
1928(LISTofVALUE)X
1064 4576(\(Errors:)N
1496(Window,)X
1880(Match,)X
2216(Value\))X
1 f
576 4748(If)N
655(the)X
778(window)X
1062(is)X
1141(not)X
1269(multi-buffered,)X
1783(a)X
3 f
1845(Match)X
1 f
2094(error)X
2277(will)X
2427(be)X
2529(generated.)X
2908(The)X
3059(following)X
3396(attributes)X
3720(are)X
3845(main-)X
576 4844(tained)N
792(for)X
906(each)X
1074(buffer)X
1291(of)X
1378(a)X
1434(multi-buffered)X
1922(window:)X
8 f
1064 4988(window)N
1880(:)X
1976(WINDOW)X
1064 5084(event_mask)N
1880(:)X
1976(SETofEVENT)X
1064 5180(index)N
1880(:)X
1976(CARD16)X
1064 5276(side)N
1880(:)X
1976({Mono,Left,Right})X
2 f
576 5448(window)N
1 f
845(indicates)X
1151(the)X
1270(window)X
1549(this)X
1685(buffer)X
1903(is)X
1977(associated)X
2328(with.)X
2 f
2531(event_mask)X
1 f
2927(speci\256es)X
3224(which)X
3442(events,)X
3689(relevant)X
3970(to)X
576 5544(buffers,)N
848(will)X
996(be)X
1096(sent)X
1249(back)X
1425(to)X
1511(the)X
1633(client)X
1835(via)X
1956(the)X
2077(associated)X
2430(buffer)X
2650(ID)X
2758(\(initially)X
3056(no)X
3159(events)X
3387(are)X
3509(selected\).)X
2 f
3858(index)X
1 f
576 5640(is)N
652(the)X
773(list)X
893(position)X
1173(\(0,)X
1283(1,)X
1366(...\))X
1476(of)X
1566(the)X
1687(buffer.)X
2 f
1948(side)X
1 f
2101(indicates)X
2410(whether)X
2693(this)X
2832(buffer)X
3053(is)X
3130(associated)X
3484(with)X
3650(the)X
3772(left)X
3903(side)X
576 5736(or)N
670(right)X
847(side)X
1002(of)X
1095(a)X
1157(stereo)X
1375(window.)X
1679(For)X
1816(non-stereo)X
2181(windows,)X
2516(this)X
2657(attribute)X
2950(will)X
3100(be)X
3202(set)X
3317(to)X
2 f
3405(Mono)X
1 f
3592(.)X
3658(These)X
3876(attri-)X
576 5832(butes)N
765(can)X
897(be)X
993(queried)X
1254(with)X
1416(the)X
1534(following)X
1865(request:)X

6 p
%%Page: 6 6
10 s 0 xH 0 xS 1 f
2237 384(-)N
2284(6)X
2344(-)X
8 f
864 720(GetBufferAttributes)N
1064 816(buffer)N
1832(:)X
1928(BUFFER)X
1064 912(=>)N
1064 1008(window)N
1880(:)X
1976(WINDOW)X
1064 1104(event_mask)N
1880(:)X
1976(SETofEVENT)X
1064 1200(index)N
1880(:)X
1976(CARD16)X
1064 1296(side)N
1880(:)X
1976({Mono,Left,Right})X
1064 1488(\(Errors:)N
1496(Buffer,)X
1880(Value\))X
1 f
576 1660(The)N
721(only)X
883(buffer)X
1100(attribute)X
1387(that)X
1527(can)X
1659(be)X
1755(explicitly)X
2077(set)X
2186(is)X
2 f
2259(event_mask)X
1 f
2634(.)X
2694(The)X
2839(only)X
3001(events)X
3226(that)X
3367(are)X
3487(valid)X
3668(are)X
3 f
3788(Expose)X
1 f
576 1756(and)N
720(the)X
846(new)X
3 f
1008(ClobberNotify)X
1 f
1529(and)X
3 f
1672(UpdateNotify)X
1 f
2162(event)X
2363(\(see)X
2520(Events)X
2765(section)X
3019(below\).)X
3309(A)X
3 f
3394(Value)X
1 f
3621(error)X
3805(will)X
3956(be)X
576 1852(generated)N
912(if)X
984(an)X
1084(event)X
1282(not)X
1408(selectable)X
1749(for)X
1867(a)X
1927(buffer)X
2148(is)X
2225(speci\256ed)X
2534(in)X
2620(an)X
2720(event)X
2918(mask.)X
3151(Rather)X
3389(than)X
3551(have)X
3727(a)X
3787(speci\256c)X
576 1948(request)N
828(to)X
910(set)X
1019(this)X
1154(attribute,)X
1461(a)X
1517(generic)X
1774(set)X
1883(request)X
2135(is)X
2208(provided)X
2513(to)X
2595(allow)X
2793(for)X
2907(future)X
3119(expansion:)X
8 f
864 2092(SetBufferAttributes)N
1064 2188(buffer)N
1832(:)X
1928(BUFFER)X
1064 2284(value_mask)N
1832(:)X
1928(BITMASK)X
1064 2380(value_list)N
1832(:)X
1928(LISTofVALUE)X
1064 2572(\(Errors:)N
1496(Buffer,)X
1880(Value\))X
1 f
576 2744(Clients)N
827(may)X
990(want)X
1171(to)X
1258(query)X
1466(the)X
1589(server)X
1811(about)X
2014(basic)X
2204(multi-buffer)X
2621(and)X
2763(stereo)X
2981(capability)X
3323(on)X
3429(a)X
3491(per)X
3620(screen)X
3852(basis.)X
576 2840(The)N
728(following)X
1066(request)X
1325(returns)X
1575(a)X
1638(large)X
1826(list)X
1950(of)X
2044(information)X
2449(that)X
2596(would)X
2823(most)X
3005(likely)X
3214(be)X
3317(read)X
3483(once)X
3662(by)X
3769(Xlib)X
3938(for)X
576 2936(each)N
744(screen,)X
990(and)X
1126(used)X
1293(as)X
1380(a)X
1436(data)X
1590(base)X
1753(for)X
1867(other)X
2052(Xlib)X
2214(queries:)X
8 f
864 3080(GetBufferInfo)N
1064 3176(root)N
1832(:)X
1928(WINDOW)X
1064 3272(=>)N
1064 3368(info)N
1832(:)X
1928(LISTofSCREEN_INFO)X
1 f
576 3540(Where)N
3 f
811(SCREEN_INFO)X
1 f
1395(and)X
3 f
1531(BUFFER_INFO)X
1 f
2111(are)X
2230(de\256ned)X
2486(as:)X
8 f
1064 3780(SCREEN_INFO)N
1832(:)X
1928([)X
2024(normal_info)X
2600(:)X
2696(LISTofBUFFER_INFO,)X
2024 3876(stereo_info)N
2600(:)X
2696(LISTofBUFFER_INFO)X
3560(])X
1064 4068(BUFFER_INFO)N
1832(:)X
1928([)X
2024(visual)X
2600(:)X
2696(VISUALID,)X
2024 4164(max_buffers)N
2600(:)X
2696(CARD16,)X
2024 4260(depth)N
2600(:)X
2696(CARD8)X
2984(])X
1 f
576 4432(Information)N
983(regarding)X
1315(multi-buffering)X
1833(of)X
1924(normal)X
2175(\(mono\))X
2435(windows)X
2748(is)X
2825(returned)X
3117(in)X
3203(the)X
2 f
3325(normal_info)X
1 f
3745(list.)X
3907(The)X
2 f
576 4528(stereo_info)N
1 f
957(list)X
1075(contains)X
1363(information)X
1762(about)X
1961(stereo)X
2174(windows.)X
2524(If)X
2599(the)X
2 f
2718(stereo_info)X
1 f
3099(list)X
3217(is)X
3291(empty,)X
3531(stereo)X
3743(windows)X
576 4624(are)N
697(not)X
821(supported)X
1159(on)X
1261(the)X
1381(screen.)X
1649(If)X
2 f
1725(max_buffers)X
1 f
2143(is)X
2218(zero,)X
2400(the)X
2521(maximum)X
2868(number)X
3136(of)X
3226(buffers)X
3477(for)X
3594(the)X
3715(depth)X
3916(and)X
576 4720(visual)N
787(is)X
860(a)X
916(function)X
1203(of)X
1290(the)X
1408(size)X
1553(of)X
1640(the)X
1758(created)X
2011(window)X
2289(and)X
2425(current)X
2673(memory)X
2960(limitations.)X
576 4844(The)N
721(following)X
1052(request)X
1304(returns)X
1547(the)X
1665(major)X
1872(and)X
2008(minor)X
2219(version)X
2475(numbers)X
2771(of)X
2858(this)X
2993(extension:)X
8 f
864 4988(GetBufferVersion)N
1064 5084(=>)N
1064 5180(major_number)N
1832(:)X
1928(CARD8)X
1064 5276(minor_number)N
1832(:)X
1928(CARD8)X
1 f
576 5448(The)N
722(version)X
979(numbers)X
1276(are)X
1396(an)X
1493(escape)X
1729(hatch)X
1924(in)X
2007(case)X
2167(future)X
2381(revisions)X
2692(of)X
2781(the)X
2901(protocol)X
3190(are)X
3311(necessary.)X
3686(In)X
3775(general,)X
576 5544(the)N
699(major)X
911(version)X
1172(would)X
1397(increment)X
1743(for)X
1862(imcompatible)X
2327(changes,)X
2631(and)X
2772(the)X
2894(minor)X
3109(version)X
3369(would)X
3593(increment)X
3938(for)X
576 5640(small)N
778(upward)X
1048(compatible)X
1433(changes.)X
1761(Barring)X
2035(changes,)X
2343(the)X
2470(major)X
2686(version)X
2951(will)X
3105(be)X
3211(1,)X
3301(and)X
3447(the)X
3575(minor)X
3796(version)X
576 5736(will)N
720(be)X
816(0.)X

7 p
%%Page: 7 7
10 s 0 xH 0 xS 1 f
2237 384(-)N
2284(7)X
2344(-)X
3 f
576 672(Events)N
1 f
576 796(All)N
699(events)X
925(normally)X
1235(generated)X
1570(for)X
1686(single-buffered)X
2199(windows)X
2510(are)X
2631(also)X
2782(generated)X
3117(for)X
3233(multi-buffered)X
3723(windows.)X
576 892(Most)N
763(of)X
853(these)X
1041(events)X
1269(\(ie:)X
3 f
1399(Con\256gureNotify)X
1 f
1955(\))X
2005(will)X
2152(only)X
2317(be)X
2416(generated)X
2751(for)X
2867(the)X
2987(window)X
3267(and)X
3405(not)X
3529(for)X
3645(each)X
3815(buffer.)X
576 988(These)N
788(events)X
1013(will)X
1157(return)X
1369(a)X
1425(window)X
1703(ID.)X
3 f
576 1112(Expose)N
1 f
849(events)X
1083(will)X
1236(be)X
1341(generated)X
1683(for)X
1806(both)X
1977(the)X
2104(window)X
2391(and)X
2536(any)X
2681(buffer)X
2907(affected.)X
3236(When)X
3457(this)X
3602(event)X
3806(is)X
3889(gen-)X
576 1208(erated)N
799(for)X
919(a)X
981(buffer,)X
1224(the)X
1348(same)X
1539(event)X
1739(structure)X
2046(will)X
2196(be)X
2298(used)X
2471(but)X
2599(a)X
2661(buffer)X
2884(ID)X
2995(is)X
3074(returned)X
3368(instead)X
3621(of)X
3713(a)X
3774(window)X
576 1304(ID.)N
723(Clients,)X
991(when)X
1188(processing)X
1554(these)X
1742(events,)X
1990(will)X
2137(know)X
2338(whether)X
2620(an)X
2719(ID)X
2827(returned)X
3118(in)X
3203(an)X
3302(event)X
3499(structure)X
3803(is)X
3879(for)X
3996(a)X
576 1400(window)N
859(or)X
951(a)X
1012(buffer)X
1234(by)X
1339(comparing)X
1707(the)X
1830(returned)X
2123(ID)X
2233(to)X
2320(the)X
2443(ones)X
2615(returned)X
2908(when)X
3107(the)X
3230(window)X
3513(and)X
3654(buffer)X
3875(were)X
576 1496(created.)N
3 f
576 1620(GraphicsExposure)N
1 f
1241(and)X
3 f
1383(NoExposure)X
1 f
1831(are)X
1956(generated)X
2295(using)X
2494(whatever)X
2815(ID)X
2926(is)X
3005(speci\256ed)X
3316(in)X
3404(the)X
3528(graphics)X
3826(opera-)X
576 1716(tion.)N
768(If)X
850(a)X
914(window)X
1200(ID)X
1313(is)X
1394(speci\256ed,)X
1727(the)X
1853(event)X
2055(will)X
2207(contain)X
2471(the)X
2597(window)X
2883(ID.)X
3036(If)X
3118(a)X
3182(buffer)X
3407(ID)X
3520(is)X
3601(speci\256ed,)X
3934(the)X
576 1812(event)N
770(will)X
914(contain)X
1170(the)X
1288(buffer)X
1505(ID.)X
576 1936(In)N
669(some)X
864(implementations,)X
1443(moving)X
1713(a)X
1775(window)X
2059(over)X
2228(a)X
2290(multi-buffered)X
2784(window)X
3068(may)X
3232(cause)X
3437(one)X
3579(or)X
3672(more)X
3863(of)X
3957(its)X
576 2032(buffers)N
831(to)X
920(get)X
1045(overwritten)X
1442(or)X
1536(become)X
1813(unwritable.)X
2223(To)X
2339(allow)X
2544(a)X
2607(client)X
2812(drawing)X
3102(into)X
3253(one)X
3396(of)X
3489(these)X
3680(buffers)X
3934(the)X
576 2128(opportunity)N
969(to)X
1051(stop)X
1204(drawing)X
1487(until)X
1653(some)X
1842(portion)X
2093(of)X
2180(the)X
2298(buffer)X
2515(is)X
2588(writable,)X
2891(the)X
3009(following)X
3340(event)X
3534(is)X
3607(added:)X
8 f
864 2272(ClobberNotify)N
1064 2368(buffer)N
1784(:)X
1928(BUFFER)X
1064 2464(state)N
1784(:)X
1880({Unclobbered,PartiallyClobbered,FullyClobbered})X
1 f
576 2636(The)N
3 f
729(ClobberNotify)X
1 f
1251(event)X
1453(is)X
1534(reported)X
1831(to)X
1922(clients)X
2160(selecting)X
2 f
2474(ClobberNotify)X
1 f
2960(on)X
3069(a)X
3134(buffer.)X
3400(When)X
3621(a)X
3686(buffer)X
3912(that)X
576 2732(was)N
729(fully)X
908(or)X
1003(partially)X
1298(clobbered)X
1643(becomes)X
1952(unclobbered,)X
2397(an)X
2501(event)X
2702(with)X
2 f
2871(Unclobbered)X
1 f
3317(is)X
3397(generated.)X
3777(When)X
3996(a)X
576 2828(buffer)N
800(that)X
947(was)X
1099(unclobbered)X
1523(becomes)X
1832(partially)X
2127(clobbered,)X
2492(an)X
2596(event)X
2798(with)X
2 f
2968(PartiallyClobbered)X
1 f
3618(is)X
3699(generated.)X
576 2924(When)N
794(a)X
856(buffer)X
1079(that)X
1225(was)X
1376(unclobbered)X
1799(or)X
1891(partially)X
2183(clobbered)X
2525(becomes)X
2831(fully)X
3007(clobbered,)X
3369(an)X
3470(event)X
3669(with)X
2 f
3836(Fully-)X
576 3020(Clobbered)N
1 f
934(is)X
1007(generated.)X
3 f
576 3144(ClobberNotify)N
1 f
1090(events)X
1315(on)X
1415(a)X
1471(given)X
1669(buffer)X
1886(are)X
2005(generated)X
2338(before)X
2564(any)X
3 f
2700(Expose)X
1 f
2964(events)X
3189(on)X
3289(that)X
3430(buffer,)X
3668(but)X
3791(it)X
3856(is)X
3930(not)X
576 3240(required)N
864(that)X
1004(all)X
3 f
1104(ClobberNotify)X
1 f
1618(events)X
1843(on)X
1943(all)X
2043(buffers)X
2291(be)X
2387(generated)X
2720(before)X
2946(all)X
3 f
3046(Expose)X
1 f
3310(events)X
3535(on)X
3635(all)X
3735(buffers.)X
576 3364(The)N
721(ordering)X
1013(of)X
3 f
1100(ClobberNotify)X
1 f
1614(events)X
1839(with)X
2001(respect)X
2249(to)X
3 f
2331(VisibilityNotify)X
1 f
2875(events)X
3100(is)X
3173(not)X
3295(constrained.)X
576 3488(If)N
651(multiple)X
938(buffers)X
1187(were)X
1365(used)X
1533(as)X
1621(an)X
1718(image)X
1935(FIFO)X
2129(between)X
2418(an)X
2515(image)X
2732(server)X
2950(and)X
3087(the)X
3206(X)X
3285(display)X
3537(server,)X
3775(then)X
3934(the)X
576 3584(FIFO)N
772(manager)X
1072(would)X
1295(like)X
1438(to)X
1523(know)X
1724(when)X
1921(a)X
1980(buffer)X
2200(that)X
2343(was)X
2491(previously)X
2852(displayed,)X
3202(has)X
3332(been)X
3507(undisplayed)X
3916(and)X
576 3680(updated,)N
872(as)X
961(the)X
1082(side)X
1234(effect)X
1441(of)X
1531(a)X
3 f
1590(DisplayImageBuffers)X
1 f
2338(request.)X
2633(This)X
2798(allows)X
3030(the)X
3151(FIFO)X
3347(manager)X
3647(to)X
3732(load)X
3893(up)X
3996(a)X
576 3776(future)N
788(frame)X
996(as)X
1083(soon)X
1254(as)X
1341(a)X
1397(buffer)X
1614(becomes)X
1915(available.)X
2265(To)X
2374(support)X
2634(this,)X
2789(the)X
2907(following)X
3238(event)X
3432(is)X
3505(added:)X
8 f
864 3920(UpdateNotify)N
1064 4016(buffer)N
1784(:)X
1928(BUFFER)X
1 f
576 4188(The)N
3 f
734(UpdateNotify)X
1 f
1230(event)X
1437(is)X
1523(reported)X
1824(to)X
1919(clients)X
2161(selecting)X
2 f
2480(UpdateNotify)X
1 f
2945(on)X
3059(a)X
3129(buffer.)X
3400(Whenever)X
3765(a)X
3835(buffer)X
576 4284(becomes)N
2 f
895(updated)X
1 f
1191(\(e.g.)X
1372(its)X
1485(update)X
1737(action)X
1971(is)X
2062(performed)X
2435(as)X
2539(part)X
2701(of)X
2805(a)X
3 f
2878(DisplayImageBuffers)X
1 f
3640(request\),)X
3956(an)X
3 f
576 4380(UpdateNotify)N
1 f
1059(event)X
1253(is)X
1326(generated.)X
3 f
576 4572(Errors)N
1 f
576 4696(The)N
721(following)X
1052(error)X
1229(type)X
1387(has)X
1514(been)X
1686(added)X
1898(to)X
1980(support)X
2240(this)X
2375(extension:)X
3 f
576 4820(Buffer)N
1 f
1176(A)X
1254(value)X
1448(for)X
1562(a)X
1618(BUFFER)X
1939(argument)X
2262(does)X
2429(not)X
2551(name)X
2745(a)X
2801(de\256ned)X
3057(BUFFER.)X

8 p
%%Page: 8 8
10 s 0 xH 0 xS 1 f
2237 384(-)N
2284(8)X
2344(-)X
3 f
576 672(Double-Buffering)N
1196(Normal)X
1479(Windows)X
1 f
576 796(The)N
721(following)X
1052(pseudo-code)X
1478(fragment)X
1788(illustrates)X
2119(how)X
2277(to)X
2359(create)X
2572(and)X
2708(display)X
2959(a)X
3015(double-buffered)X
3553(image:)X
8 f
864 940(/*)N
912 1036(*)N
1008(Create)X
1344(a)X
1440(normal)X
1776(window)X
912 1132(*/)N
864 1228(CreateWindow\()N
1536(W,)X
1680(...)X
1872(\))X
864 1420(/*)N
912 1516(*)N
1008(Create)X
1344(two)X
1536(image)X
1824(buffers.)X
2304(Assume)X
2640(after)X
2928(display,)X
3360(buffer)X
912 1612(*)N
1008(contents)X
1440(become)X
1776("undefined".)X
2448(Assume)X
2784(we)X
2928(will)X
3168("frequently")X
912 1708(*)N
1008(update)X
1344(the)X
1536(display.)X
2016(Abort)X
2304(if)X
2448(we)X
2592(don't)X
2880(get)X
3072(two)X
3264(buffers,)X
912 1804(*/)N
864 1900(n)N
960(=)X
1056(CreateImageBuffers\()X
2016(W,)X
2160([B0,B1],)X
2592(Undefined,)X
3120(Frequent)X
3552(\))X
864 1996(if)N
1008(\(n)X
1152(!=)X
1296(2\))X
1440(<abort>)X
864 2188(/*)N
912 2284(*)N
1008(Map)X
1200(window)X
1536(to)X
1680(the)X
1872(screen)X
912 2380(*/)N
864 2476(MapWindow\()N
1392(W)X
1488(\))X
864 2668(/*)N
912 2764(*)N
1008(Draw)X
1248(images)X
1584(using)X
1872(alternate)X
2352(buffers,)X
2784(display)X
3168(every)X
912 2860(*)N
1008(1/10)X
1248(of)X
1392(a)X
1488(second.)X
1920(Note)X
2160(we)X
2304(draw)X
2544(B1)X
2688(first)X
2976(so)X
3120(it)X
3264(will)X
912 2956(*)N
1008("pop")X
1296(on)X
1440(the)X
1632(screen)X
912 3052(*/)N
864 3148(while)N
1152(animating)X
864 3244({)N
1064 3340(<draw)N
1352(picture)X
1736(using)X
2024(B1>)X
1064 3436(DisplayImageBuffers\()N
2072([B1],)X
2360(100,)X
2600(0)X
2696(\))X
1064 3628(<draw)N
1352(picture)X
1736(using)X
2024(B0>)X
1064 3724(DisplayImageBuffers\()N
2072([B0],)X
2360(100,)X
2600(0)X
2696(\))X
864 3820(})N
864 4012(/*)N
912 4108(*)N
1008(Strip)X
1296(image)X
1584(buffers)X
1968(and)X
2160(leave)X
2448(window)X
2784(with)X
912 4204(*)N
1008(contents)X
1440(of)X
1584(last)X
1824(displayed)X
2304(image)X
2592(buffer.)X
912 4300(*/)N
864 4396(DestroyImageBuffers\()N
1872(W)X
1968(\))X

9 p
%%Page: 9 9
10 s 0 xH 0 xS 8 f
1 f
2237 384(-)N
2284(9)X
2344(-)X
3 f
576 672(Multi-Buffering)N
1143(Normal)X
1426(Windows)X
1 f
576 796(Multi-buffered)N
1083(images)X
1340(are)X
1469(also)X
1628(supported)X
1974(by)X
2084(these)X
2279(requests.)X
2612(The)X
2768(following)X
3110(pseudo-code)X
3547(fragment)X
3868(illus-)X
576 892(trates)N
770(how)X
928(to)X
1010(create)X
1223(a)X
1279(a)X
1335(multi-buffered)X
1823(image)X
2039(and)X
2175(cycle)X
2365(through)X
2634(the)X
2752(images)X
2999(to)X
3081(simulate)X
3372(a)X
3428(movie)X
3648(loop:)X
8 f
864 1036(/*)N
912 1132(*)N
1008(Create)X
1344(a)X
1440(normal)X
1776(window)X
912 1228(*/)N
864 1324(CreateWindow\()N
1536(W,)X
1680(...)X
1872(\))X
864 1516(/*)N
912 1612(*)N
1008(Create)X
1344('N')X
1536(image)X
1824(buffers.)X
2304(Assume)X
2640(after)X
2928(display,)X
3360(buffer)X
912 1708(*)N
1008(contents)X
1440(are)X
1632("untouched".)X
2304(Assume)X
2640(we)X
2784(will)X
3024("frequently")X
912 1804(*)N
1008(update)X
1344(the)X
1536(display.)X
2016(Abort)X
2304(if)X
2448(we)X
2592(don't)X
2880(get)X
3072(all)X
3264(the)X
3456(buffers.)X
912 1900(*/)N
864 1996(n)N
960(=)X
1056(CreateImageBuffers\()X
2016(W,)X
2160([B0,B1,...,B\(N-1\)],)X
3120(Untouched,)X
3648(Frequent)X
4080(\))X
864 2092(if)N
1008(\(n)X
1152(!=)X
1296(N\))X
1440(<abort>)X
864 2284(/*)N
912 2380(*)N
1008(Map)X
1200(window)X
1536(to)X
1680(screen)X
912 2476(*/)N
864 2572(MapWindow\()N
1392(W)X
1488(\))X
864 2764(/*)N
912 2860(*)N
1008(Draw)X
1248(each)X
1488(frame)X
1776(of)X
1920(movie)X
2208(one)X
2400(per)X
2592(buffer)X
912 2956(*/)N
864 3052(foreach)N
1248(frame)X
1064 3148(<draw)N
1352(frame)X
1640(using)X
1928(B\(i\)>)X
864 3340(/*)N
912 3436(*)N
1008(Cycle)X
1296(through)X
1680(frames,)X
2064(one)X
2256(frame)X
2544(every)X
2832(1/10)X
3072(of)X
3216(a)X
3312(second.)X
912 3532(*/)N
864 3628(while)N
1152(animating)X
864 3724({)N
1064 3820(foreach)N
1448(frame)X
1264 3916(DisplayImageBuffers\()N
2272([B\(i\)],)X
2656(100,)X
2896(0)X
2992(\))X
864 4012(})N

10 p
%%Page: 10 10
10 s 0 xH 0 xS 8 f
1 f
2217 384(-)N
2264(10)X
2364(-)X
3 f
576 672(Stereo)N
815(Windows)X
2 f
576 796(How)N
1 f
754(stereo)X
973(windows)X
1289(are)X
1415(supported)X
1758(on)X
1865(a)X
1928(server)X
2152(is)X
2232(implementation)X
2761(dependent.)X
3158(A)X
3243(server)X
3468(may)X
3634(contain)X
3898(spe-)X
576 892(cialized)N
851(hardware)X
1176(that)X
1321(allows)X
1555(left)X
1687(and)X
1828(right)X
2004(images)X
2256(to)X
2343(be)X
2444(toggled)X
2709(at)X
2792(\256eld)X
2959(or)X
3051(frame)X
3264(rates.)X
3481(The)X
3631(stereo)X
3848(affect)X
576 988(may)N
740(only)X
908(be)X
1010(perceived)X
1349(with)X
1517(the)X
1641(aid)X
1765(of)X
1858(special)X
2107(viewing)X
2391(glasses.)X
2684(The)X
2 f
2835(display)X
1 f
3092(of)X
3185(a)X
3247(stereo)X
3466(picture)X
3716(should)X
3956(be)X
576 1084(independent)N
999(of)X
1097(how)X
1266(often)X
1462(the)X
1591(contents)X
1888(of)X
1985(the)X
2113(picture)X
2366(are)X
2 f
2495(updated)X
1 f
2783(by)X
2893(an)X
2999(application.)X
3425(Double)X
3691(and)X
3837(multi-)X
576 1180(buffering)N
895(of)X
982(images)X
1229(should)X
1462(be)X
1558(possible)X
1840(regardless)X
2186(of)X
2273(whether)X
2552(the)X
2670(image)X
2886(is)X
2959(displayed)X
3286(normally)X
3595(or)X
3682(in)X
3764(stereo.)X
576 1304(To)N
685(achieve)X
951(this)X
1086(goal,)X
1264(a)X
1320(simple)X
1553(extension)X
1880(to)X
1962(normal)X
2209(windows)X
2518(is)X
2591(suggested.)X
2967(Stereo)X
3192(windows)X
3501(are)X
3621(just)X
3757(like)X
3898(nor-)X
576 1400(mal)N
723(windows)X
1039(except)X
1276(the)X
1401(displayed)X
1735(image)X
1958(is)X
2038(made)X
2238(up)X
2344(of)X
2437(a)X
2499(left)X
2632(image)X
2854(buffer)X
3077(and)X
3219(a)X
3281(right)X
3458(image)X
3680(buffer.)X
3943(To)X
576 1496(create)N
789(a)X
845(stereo)X
1057(window,)X
1355(a)X
1411(client)X
1609(makes)X
1834(the)X
1952(following)X
2283(request:)X
8 f
864 1640(CreateStereoWindow)N
1064 1736(parent)N
1832(:)X
1928(WINDOW)X
1064 1832(w_id)N
1832(:)X
1928(WINDOW)X
1064 1928(left,)N
1352(right)X
1832(:)X
1928(BUFFER)X
1064 2024(depth)N
1832(:)X
1928(CARD8)X
1064 2120(visual)N
1832(:)X
1928(VISUALID)X
2360(or)X
2504(CopyFromParent)X
1064 2216(x,)N
1208(y)X
1832(:)X
1928(INT16)X
1064 2312(width,)N
1400(height)X
1832(:)X
1928(INT16)X
1064 2408(border_width)N
1832(:)X
1928(INT16)X
1064 2504(value_mask)N
1832(:)X
1928(BITMASK)X
1064 2600(value_list)N
1832(:)X
1928(LISTofVALUE)X
1064 2792(\(Errors:)N
1496(Alloc,)X
1832(Color,)X
2168(Cursor,)X
2552(Match,)X
1496 2888(Pixmap,)N
1880(Value,)X
2216(Window\))X
1 f
576 3060(This)N
741(request,)X
1016(modeled)X
1315(after)X
1486(the)X
3 f
1607(CreateWindow)X
1 f
2151(request,)X
2426(adds)X
2596(just)X
2735(two)X
2879(new)X
3037(parameters:)X
2 f
3436(left)X
1 f
3562(and)X
2 f
3702(right)X
1 f
3857(.)X
3921(For)X
576 3156(stereo,)N
810(it)X
875(is)X
949(essential)X
1246(that)X
1387(one)X
1524(can)X
1657(distinguish)X
2028(whether)X
2308(a)X
2365(draw)X
2547(operation)X
2871(is)X
2945(to)X
3028(occur)X
3228(on)X
3329(the)X
3448(left)X
3576(image)X
3793(or)X
3881(right)X
576 3252(image.)N
833(While)X
1050(an)X
1147(internal)X
1413(mode)X
1612(could)X
1811(have)X
1984(been)X
2157(added)X
2370(to)X
2453(achieve)X
2720(this,)X
2876(using)X
3070(two)X
3211(buffer)X
3429(ID's)X
3593(allows)X
3823(clients)X
576 3348(to)N
659(simultaneously)X
1164(build)X
1349(up)X
1450(the)X
1569(left)X
1697(and)X
1834(right)X
2006(components)X
2414(of)X
2502(a)X
2559(stereo)X
2772(image.)X
3029(These)X
3242(ID's)X
3406(always)X
3650(refer)X
3824(to)X
3906(\(are)X
576 3444(an)N
672(alias)X
839(for\))X
980(the)X
1098(left)X
1225(and)X
1361(right)X
1532(image)X
1748(buffers)X
1996(that)X
2136(are)X
2255(currently)X
2 f
2565(displayed)X
1 f
2872(.)X
576 3568(Like)N
753(normal)X
1010(windows,)X
1349(the)X
1477(window)X
1765(ID)X
1881(is)X
1965(used)X
2143(whenever)X
2487(a)X
2554(window)X
2843(management)X
3284(operation)X
3618(is)X
3702(to)X
3795(be)X
3902(per-)X
576 3664(formed.)N
872(Window)X
1172(queries)X
1428(would)X
1652(also)X
1805(return)X
2021(this)X
2160(window)X
2441(ID)X
2549(\(eg:)X
3 f
2697(QueryTree)X
1 f
3076(\))X
3126(as)X
3216(would)X
3439(most)X
3617(events.)X
3885(Like)X
576 3760(the)N
694(window)X
972(ID,)X
1097(the)X
1215(left)X
1343(and)X
1480(right)X
1652(buffer)X
1870(ID's)X
2034(each)X
2203(have)X
2376(their)X
2544(own)X
2703(event)X
2898(mask.)X
3128(They)X
3314(can)X
3447(be)X
3544(set)X
3654(and)X
3791(queried)X
576 3856(using)N
769(the)X
3 f
887(Set/GetBufferAttributes)X
1 f
1736(requests.)X
576 3980(Using)N
800(the)X
931(window)X
1222(ID)X
1340(of)X
1441(a)X
1511(stereo)X
1737(window)X
2029(in)X
2125(a)X
2195(draw)X
2390(request)X
2656(\(eg:)X
3 f
2815(GetImage)X
1 f
3154(\))X
3215(results)X
3458(in)X
3554(pixels)X
3779(that)X
3933(are)X
2 f
576 4076(unde\256ned)N
1 f
888(.)X
949(Possible)X
1236(semantics)X
1573(are)X
1693(that)X
1834(both)X
1997(left)X
2125(and)X
2262(right)X
2434(images)X
2682(get)X
2801(drawn,)X
3043(or)X
3131(just)X
3266(a)X
3322(single)X
3533(side)X
3682(is)X
3755(operated)X
576 4172(on)N
677(\(existing)X
978(applications)X
1386(will)X
1531(have)X
1704(to)X
1787(be)X
1884(re-written)X
2222(to)X
2305(explicitly)X
2628(use)X
2756(the)X
2875(left)X
3003(and)X
3140(right)X
3312(buffer)X
3530(ID's)X
3694(in)X
3778(order)X
3970(to)X
576 4268(successfully)N
988(create,)X
1221(fetch,)X
1422(and)X
1558(store)X
1734(stereo)X
1946(images\).)X
576 4392(Having)N
845(an)X
954(explicit)X
3 f
1227(CreateStereoWindow)X
1 f
2000(request)X
2265(is)X
2351(helpful)X
2611(in)X
2706(that)X
2859(a)X
2929(server)X
3160(implementation)X
3696(will)X
3854(know)X
576 4488(from)N
753(the)X
872(onset)X
1062(whether)X
1342(a)X
1399(stereo)X
1612(window)X
1891(is)X
1965(desired)X
2218(and)X
2355(can)X
2487(return)X
2699(appropriate)X
3085(status)X
3287(to)X
3369(the)X
3487(client)X
3685(if)X
3754(it)X
3818(cannot)X
576 4584(support)N
836(this)X
971(functionality.)X
576 4708(Some)N
782(hardware)X
1106(may)X
1269(support)X
1534(separate)X
1823(stereo)X
2040(and)X
2181(non-stereo)X
2545(modes,)X
2799(perhaps)X
3074(with)X
3241(different)X
3543(vertical)X
3809(resolu-)X
576 4804(tions.)N
796(For)X
932(example,)X
1248(the)X
1370(vertical)X
1635(resolution)X
1979(in)X
2065(stereo)X
2281(mode)X
2483(may)X
2645(be)X
2745(half)X
2894(that)X
3038(of)X
3129(non-stereo)X
3492(mode.)X
3734(Selecting)X
576 4900(one)N
722(mode)X
930(or)X
1027(the)X
1155(other)X
1350(must)X
1535(be)X
1641(done)X
1827(through)X
2107(some)X
2307(means)X
2543(outside)X
2805(of)X
2903(this)X
3049(extension)X
3387(\(eg:)X
3543(by)X
3654(providing)X
3996(a)X
576 4996(separate)N
861(screen)X
1088(for)X
1203(each)X
1372(hardware)X
1693(display)X
1945(mode\).)X
2211(The)X
2356(screen)X
2582(attributes)X
2900(\(ie:)X
3027(x/y)X
3149(resolution\))X
3516(for)X
3630(a)X
3686(screen)X
3912(that)X
576 5092(supports)N
872(normal)X
1124(windows,)X
1458(may)X
1621(differ)X
1825(from)X
2006(a)X
2067(screen)X
2298(that)X
2443(supports)X
2739(stereo)X
2957(windows;)X
3294(however,)X
3617(all)X
3723(windows,)X
576 5188(regardless)N
934(of)X
1033(type,)X
1223(displayed)X
1562(on)X
1674(the)X
1804(same)X
2001(screen)X
2239(must)X
2426(have)X
2610(the)X
2740(same)X
2936(screen)X
3173(attributes)X
3502(\(ie:)X
3640(pixel)X
3831(aspect)X
576 5284(ratio\).)N
576 5408(If)N
656(a)X
718(screen)X
950(that)X
1096(supports)X
1393(stereo)X
1611(windows)X
1926(also)X
2081(supports)X
2378(normal)X
2631(windows,)X
2966(then)X
3131(the)X
3256(images)X
3510(presented)X
3845(to)X
3934(the)X
576 5504(left)N
703(and)X
839(right)X
1010(eyes)X
1173(for)X
1287(normal)X
1534(windows)X
1843(should)X
2076(be)X
2172(the)X
2290(same)X
2475(\(ie:)X
2602(have)X
2774(no)X
2874(stereo)X
3086(offset\).)X

11 p
%%Page: 11 11
10 s 0 xH 0 xS 1 f
2217 384(-)N
2264(11)X
2364(-)X
3 f
576 768(Single-Buffered)N
1134(Stereo)X
1373(Windows)X
1 f
576 892(The)N
721(following)X
1052(shows)X
1272(how)X
1430(to)X
1512(create)X
1725(and)X
1861(display)X
2112(a)X
2168(single-buffered)X
2679(stereo)X
2891(image:)X
8 f
864 1036(/*)N
912 1132(*)N
1008(Create)X
1344(the)X
1536(stereo)X
1872(window,)X
2256(map)X
2448(it)X
2592(the)X
2784(screen,)X
912 1228(*)N
1008(and)X
1200(draw)X
1440(the)X
1632(left)X
1872(and)X
2064(right)X
2352(images)X
912 1324(*/)N
864 1420(CreateStereoWindow\()N
1824(W,)X
1968(L,)X
2112(R,)X
2256(...)X
2448(\))X
864 1612(MapWindow\()N
1392(W)X
1488(\))X
864 1804(<draw)N
1152(picture)X
1536(using)X
1824(L,R>)X

12 p
%%Page: 12 12
10 s 0 xH 0 xS 8 f
1 f
2217 384(-)N
2264(12)X
2364(-)X
3 f
576 672(Double-Buffering)N
1196(Stereo)X
1435(Windows)X
1 f
576 796(Additional)N
946(image)X
1170(buffers)X
1426(may)X
1592(be)X
1696(added)X
1916(to)X
2007(a)X
2072(stereo)X
2293(window)X
2580(to)X
2671(allow)X
2878(double)X
3125(or)X
3221(multi-buffering)X
3744(of)X
3840(stereo)X
576 892(images.)N
876(Simply)X
1139(use)X
1279(the)X
1410(the)X
3 f
1541 0.2132(CreateImageBuffers)AX
1 f
2275(request.)X
2580(Even)X
2778(numbered)X
3132(buffers)X
3393(\(0,2,...\))X
3660(will)X
3817(be)X
3925(left)X
576 988(buffers.)N
875(Odd)X
1044(numbered)X
1396(buffers)X
1655(\(1,3,...\))X
1920(will)X
2075(be)X
2182(right)X
2364(buffers.)X
2663(Displayable)X
3077(stereo)X
3300(images)X
3558(are)X
3688(formed)X
3952(by)X
576 1084(consecutive)N
981(left/right)X
1287(pairs)X
1469(of)X
1562(image)X
1784(buffers.)X
2078(For)X
2215(example,)X
2533 0.2750(\(buffer[0],buffer[1]\))AX
3214(form)X
3395(the)X
3518(\256rst)X
3667(displayable)X
576 1180(stereo)N
788(image;)X
1026 0.2750(\(buffer[2],buffer[3]\))AX
1702(the)X
1820(next;)X
2000(and)X
2136(so)X
2227(on.)X
576 1304(The)N
3 f
722 0.2132(CreateImageBuffers)AX
1 f
1444(request)X
1697(will)X
1842(only)X
2005(create)X
2219(pairs)X
2396(of)X
2485(left)X
2614(and)X
2752(right)X
2925(image)X
3143(buffers)X
3393(for)X
3509(stereo)X
3723(windows.)X
576 1400(By)N
697(always)X
948(pairing)X
1203(left)X
1338(and)X
1482(right)X
1661(image)X
1885(buffers)X
2141(together,)X
2451(implementations)X
3011(might)X
3224(be)X
3327(able)X
3488(to)X
3577(perform)X
3863(some)X
576 1496(type)N
742(of)X
837(optimization.)X
1309(If)X
1391(an)X
1495(odd)X
1643(number)X
1916(of)X
2011(buffers)X
2267(is)X
2348(speci\256ed,)X
2681(a)X
3 f
2745(Value)X
1 f
2973(error)X
3158(is)X
3239(generated.)X
3620(All)X
3750(the)X
3876(rules)X
576 1592(mentioned)N
934(at)X
1012(the)X
1130(start)X
1288(of)X
1375(this)X
1510(proposal)X
1806(still)X
1945(apply)X
2143(to)X
2225(the)X
2343(image)X
2559(buffers)X
2807(supported)X
3143(by)X
3243(a)X
3299(stereo)X
3511(window.)X
576 1716(To)N
687(display)X
940(a)X
998(image)X
1216(buffer)X
1436(pair)X
1584(of)X
1674(a)X
1733(multi-buffered)X
2224(stereo)X
2439(image,)X
2678(either)X
2884(the)X
3005(left)X
3135(buffer)X
3355(ID)X
3463(or)X
3553(right)X
3727(buffer)X
3947(ID)X
576 1812(may)N
734(be)X
830(speci\256ed)X
1135(in)X
1217(a)X
3 f
1273(DisplayImageBuffers)X
1 f
2018(request,)X
2290(but)X
2412(not)X
2534(both.)X
576 1936(To)N
685(double-buffer)X
1147(a)X
1203(stereo)X
1415(window:)X
8 f
864 2080(/*)N
912 2176(*)N
1008(Create)X
1344(stereo)X
1680(window)X
2016(and)X
2208(map)X
2400(it)X
2544(to)X
2688(the)X
2880(screen)X
912 2272(*/)N
864 2368(CreateStereoWindow\()N
1824(W,)X
1968(L,)X
2112(R,)X
2256(...)X
2448(\))X
864 2560(/*)N
912 2656(*)N
1008(Create)X
1344(two)X
1536(pairs)X
1824(of)X
1968(image)X
2256(buffers.)X
2736(Assume)X
3072(after)X
3360(display,)X
912 2752(*)N
1008(buffer)X
1344(contents)X
1776(become)X
2112("undefined".)X
2784(Assume)X
3120(we)X
3264(will)X
3504("frequently")X
912 2848(*)N
1008(update)X
1344(the)X
1536(display.)X
2016(Abort)X
2304(if)X
2448(we)X
2592(did)X
2784(get)X
2976(all)X
3168(the)X
3360(buffers.)X
912 2944(*/)N
864 3040(n)N
960(=)X
1056(CreateImageBuffers\()X
2016(W,)X
2160([L0,R0,L1,R1],)X
2880(Undefined,)X
3408(Frequently)X
3936(\))X
864 3136(if)N
1008(\(n)X
1152(!=)X
1296(4\))X
1440(<abort>)X
864 3328(/*)N
912 3424(*)N
1008(Map)X
1200(window)X
1536(to)X
1680(the)X
1872(screen)X
912 3520(*/)N
864 3616(MapWindow\()N
1392(W)X
1488(\))X
864 3808(/*)N
912 3904(*)N
1008(Draw)X
1248(images)X
1584(using)X
1872(alternate)X
2352(buffers,)X
912 4000(*)N
1008(display)X
1392(every)X
1680(1/10)X
1920(of)X
2064(a)X
2160(second.)X
912 4096(*/)N
864 4192(while)N
1152(animating)X
864 4288({)N
1064 4384(<draw)N
1352(picture)X
1736(using)X
2024(L1,R1>)X
1064 4480(DisplayImageBuffers\()N
2072([L1],)X
2360(100,)X
2600(0)X
2696(\))X
1064 4672(<draw)N
1352(picture)X
1736(using)X
2024(L0,R0>)X
1064 4768(DisplayImageBuffers\()N
2072([L0],)X
2360(100,)X
2600(0)X
2696(\))X
864 4864(})N

13 p
%%Page: 13 13
10 s 0 xH 0 xS 8 f
1 f
2217 384(-)N
2264(13)X
2364(-)X
3 f
576 672(Multi-Buffering)N
1143(Stereo)X
1382(Windows)X
1 f
576 796(To)N
685(cycle)X
875(through)X
2 f
1144(N)X
1 f
1217(stereo)X
1429(images:)X
8 f
864 940(/*)N
912 1036(*)N
1008(Create)X
1344(stereo)X
1680(window)X
912 1132(*/)N
864 1228(CreateStereoWindow\()N
1824(W,)X
1968(L,)X
2112(R,)X
2256(...)X
2448(\))X
864 1420(/*)N
912 1516(*)N
1008(Create)X
1344(N)X
1440(pairs)X
1728(of)X
1872(image)X
2160(buffers.)X
2640(Assume)X
2976(after)X
3264(display,)X
912 1612(*)N
1008(buffer)X
1344(contents)X
1776(are)X
1968("untouched".)X
2640(Assume)X
2976(we)X
3120(will)X
3360("frequently")X
912 1708(*)N
1008(update)X
1344(the)X
1536(display.)X
2016(Abort)X
2304(if)X
2448(we)X
2592(don't)X
2880(get)X
3072(all)X
3264(the)X
3456(buffers.)X
912 1804(*/)N
864 1900(n)N
960(=)X
1056(CreateImageBuffers\()X
2016(W,)X
2160([L0,R0,...,L\(N-1\),R\(N-1\)],)X
3456(Untouched,)X
3984(Frequently)X
4512(\))X
864 1996(if)N
1008(\(n)X
1152(!=)X
1296(N*2\))X
1536(<abort>)X
864 2188(/*)N
912 2284(*)N
1008(Map)X
1200(window)X
1536(to)X
1680(screen)X
912 2380(*/)N
864 2476(MapWindow\()N
1392(W)X
1488(\))X
864 2668(/*)N
912 2764(*)N
1008(Draw)X
1248(the)X
1440(left)X
1680(and)X
1872(right)X
2160(halves)X
2496(of)X
2640(each)X
2880(image)X
912 2860(*/)N
864 2956(foreach)N
1248(stereo)X
1584(image)X
1064 3052(<draw)N
1352(picture)X
1736(using)X
2024(L\(i\),R\(i\)>)X
864 3244(/*)N
912 3340(*)N
1008(Cycle)X
1296(through)X
1680(images)X
2016(every)X
2304(1/10)X
2544(of)X
2688(a)X
2784(second)X
912 3436(*/)N
864 3532(while)N
1152(animating)X
864 3628({)N
1064 3724(foreach)N
1448(stereo)X
1784(image)X
1264 3820(DisplayImageBuffers\()N
2272([L\(i\)],)X
2656(100,)X
2896(0)X
2992(\))X
864 3916(})N

14 p
%%Page: 14 14
10 s 0 xH 0 xS 8 f
1 f
2217 384(-)N
2264(14)X
2364(-)X
3 f
576 672(Protocol)N
886(Encoding)X
1 f
576 796(The)N
725(of\256cial)X
976(name)X
1175(of)X
1267(this)X
1407(extension)X
1739(is)X
1817("Multi-Buffering".)X
2464(When)X
2681(this)X
2821(string)X
3028(passed)X
3267(to)X
3 f
3354(QueryExtension)X
1 f
3934(the)X
576 892(information)N
974(returned)X
1262(should)X
1495(be)X
1591(interpreted)X
1959(as)X
2046(follows:)X
2 f
576 1016(major-opcode)N
1 f
1176(Speci\256es)X
1494(the)X
1621(major)X
1837(opcode)X
2098(of)X
2194(this)X
2338(extension.)X
2714(The)X
2868(\256rst)X
3021(byte)X
3188(of)X
3285(each)X
3463(extension)X
3800(request)X
1176 1112(should)N
1409(specify)X
1661(this)X
1796(value.)X
2 f
576 1236(\256rst-event)N
1 f
1176(Speci\256es)X
1485(the)X
1603(code)X
1775(that)X
1915(will)X
2059(be)X
2155(returned)X
2443(when)X
3 f
2637(ClobberNotify)X
1 f
3151(events)X
3376(are)X
3495(generated.)X
2 f
576 1360(\256rst-error)N
1 f
1176(Speci\256es)X
1485(the)X
1603(code)X
1775(that)X
1915(will)X
2059(be)X
2155(returned)X
2443(when)X
3 f
2637(Buffer)X
1 f
2880(errors)X
3088(are)X
3207(generated.)X
576 1484(The)N
721(following)X
1052(sections)X
1330(describe)X
1618(the)X
1736(protocol)X
2023(encoding)X
2337(for)X
2451(this)X
2586(extension.)X
3 f
576 1676(TYPES)N
1 f
576 1800(BUFFER_INFO)N
576 1944(4)N
984(VISUALID)X
1968(visual)X
576 2040(2)N
984(CARD16)X
1968(max-buffers)X
576 2136(1)N
984(CARD8)X
1968(depth)X
576 2232(1)N
1968(unused)X
576 2404(SETofBUFFER_EVENT)N
984 2548(#x00008000)N
1968(Exposure)X
984 2644(#x02000000)N
1968(ClobberNotify)X
984 2740(#x04000000)N
1968(UpdateNotify)X
3 f
576 2980(EVENTS)N
576 3104(ClobberNotify)N
1 f
576 3248(1)N
984(see)X
2 f
1107(\256rst-event)X
1 f
1968(code)X
576 3344(1)N
1968(unused)X
576 3440(2)N
984(CARD16)X
1968(sequence)X
2283(number)X
576 3536(4)N
984(BUFFER)X
1968(buffer)X
576 3632(1)N
1968(state)X
984 3728(0)N
1044(Unclobbered)X
984 3824(1)N
1044(PartiallyClobbered)X
984 3920(2)N
1044(FullyClobbered)X
576 4016(23)N
1968(unused)X
3 f
576 4188(UpdateNotify)N
1 f
576 4332(1)N
2 f
984(\256rst-event)X
1 f
1305(+1)X
1968(code)X
576 4428(1)N
1968(unused)X
576 4524(2)N
984(CARD16)X
1968(sequence)X
2283(number)X
576 4620(4)N
984(BUFFER)X
1968(buffer)X
576 4716(24)N
1968(unused)X
3 f
576 4956(ERRORS)N
576 5080(Buffer)N
1 f
576 5224(1)N
984(0)X
1968(Error)X
576 5320(1)N
984(see)X
2 f
1107(\256rst-error)X
1 f
1968(code)X
576 5416(2)N
984(CARD16)X
1968(sequence)X
2283(number)X
576 5512(4)N
984(CARD32)X
1968(bad)X
2104(resource)X
2397(id)X
576 5608(2)N
984(CARD16)X
1968(minor-opcode)X
576 5704(1)N
984(CARD8)X
1968(major-opcode)X
576 5800(21)N
1968(unused)X

15 p
%%Page: 15 15
10 s 0 xH 0 xS 1 f
2217 384(-)N
2264(15)X
2364(-)X
3 f
576 672(REQUESTS)N
576 796(GetBufferVersion)N
1 f
576 940(1)N
984(see)X
2 f
1107(major-opcode)X
1 f
1968(major-opcode)X
576 1036(1)N
984(0)X
1968(minor-opcode)X
576 1132(2)N
984(1)X
1968(request)X
2220(length)X
9 f
576 1228 MXY
(->)174 987 oc
1 f
576 1324(1)N
984(1)X
1968(Reply)X
576 1420(1)N
1968(unused)X
576 1516(2)N
984(CARD16)X
1968(sequence)X
2283(number)X
576 1612(4)N
984(0)X
1968(reply)X
2153(length)X
576 1708(1)N
984(CARD8)X
1968(major)X
2175(version)X
2431(number)X
576 1804(1)N
984(CARD8)X
1968(minor)X
2179(version)X
2435(number)X
576 1900(22)N
1968(unused)X
3 f
576 2072 0.2132(CreateImageBuffers)AN
1 f
576 2216(1)N
984(see)X
2 f
1107(major-opcode)X
1 f
1968(major-opcode)X
576 2312(1)N
984(1)X
1968(minor-opcode)X
576 2408(2)N
984(3+n)X
1968(request)X
2220(length)X
576 2504(4)N
984(WINDOW)X
1968(wid)X
576 2600(1)N
1968(update-action)X
984 2696(0)N
1044(Unde\256ned)X
984 2792(1)N
1044(Background)X
984 2888(2)N
1044(Untouched)X
984 2984(3)N
1044(Copied)X
576 3080(1)N
1968(update-hint)X
984 3176(0)N
1044(Frequent)X
984 3272(1)N
1044(Intermittent)X
984 3368(2)N
1044(Static)X
576 3464(2)N
1968(unused)X
576 3560(4n)N
984(LISTofBUFFER)X
1968(buffer-list)X
9 f
576 3656 MXY
(->)174 987 oc
1 f
576 3752(1)N
984(1)X
1968(Reply)X
576 3848(1)N
1968(unused)X
576 3944(2)N
984(CARD16)X
1968(sequence)X
2283(number)X
576 4040(4)N
984(0)X
1968(reply)X
2153(length)X
576 4136(2)N
984(CARD16)X
1968(number-buffers)X
576 4232(22)N
1968(unused)X
3 f
576 4404(DestroyImageBuffers)N
1 f
576 4548(1)N
984(see)X
2 f
1107(major-opcode)X
1 f
1968(major-opcode)X
576 4644(1)N
984(2)X
1968(minor-opcode)X
576 4740(2)N
984(2)X
1968(request)X
2220(length)X
576 4836(4)N
984(WINDOW)X
1968(wid)X
3 f
576 5008(DisplayImageBuffers)N
1 f
576 5152(1)N
984(see)X
2 f
1107(major-opcode)X
1 f
1968(major-opcode)X
576 5248(1)N
984(3)X
1968(minor-opcode)X
576 5344(2)N
984(2+n)X
1968(request)X
2220(length)X
576 5440(2)N
984(CARD16)X
1968(min-delay)X
576 5536(2)N
984(CARD16)X
1968(max-delay)X
576 5632(4n)N
984(LISTofBUFFER)X
1968(buffer-list)X

16 p
%%Page: 16 16
10 s 0 xH 0 xS 1 f
2217 384(-)N
2264(16)X
2364(-)X
3 f
576 700(SetMultiBufferAttributes)N
1 f
576 844(1)N
999(see)X
2 f
1122(major-opcode)X
1 f
1983(major-opcode)X
576 940(1)N
999(4)X
1983(minor-opcode)X
576 1036(2)N
999(3+n)X
1983(request)X
2235(length)X
576 1132(4)N
999(WINDOW)X
1983(wid)X
576 1324(4)N
999(BITMASK)X
1983(value-mask)X
2373(\(has)X
2527(n)X
2587(bits)X
2722(set)X
2831(to)X
2913(1\))X
999 1420(#x00000001)N
1419(update-hint)X
576 1612(4n)N
999(LISTofVALUE)X
1983(value-list)X
576 1804(VALUEs)N
576 1900(1)N
1983(update-hint)X
999 1996(0)N
1059(Frequent)X
999 2092(1)N
1059(Intermittent)X
999 2188(2)N
1059(Static)X
3 f
576 2360(GetMultiBufferAttributes)N
1 f
576 2504(1)N
984(see)X
2 f
1107(major-opcode)X
1 f
1968(major-opcode)X
576 2600(1)N
984(5)X
1968(minor-opcode)X
576 2696(2)N
984(2)X
1968(request)X
2220(length)X
576 2792(4)N
984(WINDOW)X
1968(wid)X
9 f
576 2888 MXY
(->)174 987 oc
1 f
576 2984(1)N
984(1)X
1968(Reply)X
576 3080(1)N
1968(unused)X
576 3176(2)N
984(CARD16)X
1968(sequence)X
2283(number)X
576 3272(4)N
984(n)X
1968(reply)X
2153(length)X
576 3368(2)N
984(CARD16)X
1968(displayed-buffer)X
576 3464(1)N
1968(update-action)X
984 3560(0)N
1044(Unde\256ned)X
984 3656(1)N
1044(Background)X
984 3752(2)N
1044(Untouched)X
984 3848(3)N
1044(Copied)X
576 3944(1)N
1968(update-hint)X
984 4040(0)N
1044(Frequent)X
984 4136(1)N
1044(Intermittent)X
984 4232(2)N
1044(Static)X
576 4328(1)N
1968(window-mode)X
984 4424(0)N
1044(Mono)X
984 4520(1)N
1044(Stereo)X
576 4616(19)N
1968(unused)X
576 4712(4n)N
984(LISTofBUFFER)X
1968(buffer)X
2185(list)X

17 p
%%Page: 17 17
10 s 0 xH 0 xS 1 f
2217 384(-)N
2264(17)X
2364(-)X
3 f
576 700(SetBufferAttributes)N
1 f
576 844(1)N
999(see)X
2 f
1122(major-opcode)X
1 f
1983(major-opcode)X
576 940(1)N
999(6)X
1983(minor-opcode)X
576 1036(2)N
999(3+n)X
1983(request)X
2235(length)X
576 1132(4)N
999(BUFFER)X
1983(buffer)X
576 1324(4)N
999(BITMASK)X
1983(value-mask)X
2373(\(has)X
2527(n)X
2587(bits)X
2722(set)X
2831(to)X
2913(1\))X
999 1420(#x00000001)N
1419(event-mask)X
576 1612(4n)N
999(LISTofVALUE)X
1983(value-list)X
576 1804(VALUEs)N
576 1900(4)N
999(SETofBUFFER_EVENT)X
1983(event-mask)X
3 f
576 2072(GetBufferAttributes)N
1 f
576 2216(1)N
984(see)X
2 f
1107(major-opcode)X
1 f
1968(major-opcode)X
576 2312(1)N
984(7)X
1968(minor-opcode)X
576 2408(2)N
984(2)X
1968(request)X
2220(length)X
576 2504(4)N
984(BUFFER)X
1968(buffer)X
9 f
576 2600 MXY
(->)174 987 oc
1 f
576 2696(1)N
984(1)X
1968(Reply)X
576 2792(1)N
1968(unused)X
576 2888(2)N
984(CARD16)X
1968(sequence)X
2283(number)X
576 2984(4)N
984(0)X
1968(reply)X
2153(length)X
576 3080(4)N
984(WINDOW)X
1968(wid)X
576 3176(4)N
984(SETofBUFFER_EVENT)X
1968(event-mask)X
576 3272(2)N
984(CARD16)X
1968(index)X
576 3368(1)N
1968(side)X
984 3464(0)N
1044(Mono)X
984 3560(1)N
1044(Left)X
984 3656(2)N
1044(Right)X
576 3752(13)N
1968(unused)X
3 f
576 3924(GetBufferInfo)N
1 f
576 4068(1)N
984(see)X
2 f
1107(major-opcode)X
1 f
1968(major-opcode)X
576 4164(1)N
984(8)X
1968(minor-opcode)X
576 4260(2)N
984(2)X
1968(request)X
2220(length)X
576 4356(4)N
984(WINDOW)X
1968(root)X
9 f
576 4452 MXY
(->)174 987 oc
1 f
576 4548(1)N
984(1)X
1968(Reply)X
576 4644(1)N
1968(unused)X
576 4740(2)N
984(CARD16)X
1968(sequence)X
2283(number)X
576 4836(4)N
984(2\(n+m\))X
1968(reply)X
2153(length)X
576 4932(2)N
984(n)X
1968(number)X
2233(BUFFER_INFO)X
2781(in)X
2863(normal-info)X
576 5028(2)N
984(m)X
1968(number)X
2233(BUFFER_INFO)X
2781(in)X
2863(stereo-info)X
576 5124(20)N
1968(unused)X
576 5220(8n)N
984(LISTofBUFFER_INFO)X
1968(normal-info)X
576 5316(8m)N
984(LISTofBUFFER_INFO)X
1968(stereo-info)X

18 p
%%Page: 18 18
10 s 0 xH 0 xS 1 f
2217 384(-)N
2264(18)X
2364(-)X
3 f
576 700(CreateStereoWindow)N
1 f
576 844(1)N
984(see)X
2 f
1107(major-opcode)X
1 f
1968(major-opcode)X
576 940(1)N
984(9)X
1968(minor-opcode)X
576 1036(2)N
984(11+n)X
1968(request)X
2220(length)X
576 1132(3)N
1968(unused)X
576 1228(1)N
984(CARD8)X
1968(depth)X
576 1324(4)N
984(WINDOW)X
1968(wid)X
576 1420(4)N
984(WINDOW)X
1968(parent)X
576 1516(4)N
984(BUFFER)X
1968(left)X
576 1612(4)N
984(BUFFER)X
1968(right)X
576 1708(2)N
984(INT16)X
1968(x)X
576 1804(2)N
984(INT16)X
1968(y)X
576 1900(2)N
984(CARD16)X
1968(width)X
576 1996(2)N
984(CARD16)X
1968(height)X
576 2092(2)N
984(CARD16)X
1968(border-width)X
576 2188(2)N
1968(class)X
984 2284(0)N
1044(CopyFromParent)X
984 2380(1)N
1044(InputOutput)X
984 2476(2)N
1044(InputOnly)X
576 2668(4)N
984(VISUALID)X
1968(visual)X
984 2764(0)N
1044(CopyFromParent)X
576 2956(4)N
984(BITMASK)X
1968(value-mask)X
2358(\(has)X
2512(n)X
2572(bits)X
2707(set)X
2816(to)X
2898(1\))X
2 f
984 3052(encodings)N
1329(are)X
1456(the)X
1574(same)X
984 3148(as)N
1075(for)X
1188(CreateWindow)X
1 f
576 3340(4n)N
984(LISTofVALUE)X
1968(value-list)X
2 f
984 3436(encodings)N
1329(are)X
1456(the)X
1574(same)X
984 3532(as)N
1075(for)X
1188(CreateWindow)X

18 p
%%Trailer
xt

xs
