#define noname_width 32
#define noname_height 32
static char noname_bits[] = {
 0x00,0x00,0x00,0x00,0x24,0x55,0x92,0x72,0x00,0x18,0x00,0x10,0x02,0x8c,0x00,
 0x1a,0x00,0x2a,0x00,0x44,0x04,0x19,0x21,0x10,0x8a,0x88,0x02,0x45,0x4c,0x28,
 0x03,0x16,0x38,0x18,0x86,0x82,0x12,0x4f,0xa4,0x4b,0x00,0x15,0x41,0x35,0x02,
 0x03,0xd0,0x54,0x00,0x29,0x40,0x0b,0xf4,0x03,0xfc,0x44,0x50,0x89,0xa4,0x12,
 0x04,0x00,0x59,0x00,0x22,0x85,0x26,0xa9,0x08,0x40,0x09,0x02,0x00,0xb0,0x00,
 0x08,0x24,0x32,0x01,0x46,0x00,0x2c,0x00,0x12,0x16,0xb3,0x48,0x06,0xa8,0x10,
 0x00,0x52,0x52,0x30,0x01,0x06,0x28,0x10,0x00,0x92,0x01,0xbe,0xc0,0x07,0x04,
 0x22,0x40,0x29,0x00,0x8a,0xc4,0x00,0x02,0x06,0x40,0x92,0xf0,0xa7,0xfc,0x04,
 0x42,0x01,0x92,0x50,0x10,0x90,0x00,0x02};
