/* XPM */
static char *exit-up[] = {
/* width height num_colors chars_per_pixel */
"    32    32        6            1",
/* colors */
". c #555555",
"# c #a9a9a9",
"a c #cbcbcb s backgroundToolBarColor",
"b c #dcdcdc",
"c c #ff0000",
"d c #ffff00",
/* pixels */
"aaaaaaaaaaaaaaaaaaaaaaaaaaaaaaaa",
"aaaaaaaaaaaaaaaaaaaaaaaaaaaaaaaa",
"aaaa########################aaaa",
"aaaa########################.aaa",
"aaaa##aaaaaaaaaaaaaaaaaaaa##.aaa",
"aaaa##a##################a##.aaa",
"aaaa##a#................#a##.aaa",
"aaaa##a#.aaaaaaaaaaaaaab#a##.aaa",
"aaaa##a#.acccacacacacccb#a##.aaa",
"aaaa##a#.acaaaacaacaacab#a##.aaa",
"aaaa##a#.accaaacaacaacab#a##.aaa",
"aaaa##a#.acaaaacaacaacab#a##.aaa",
"aaaa##a#.acccacacacaacab#a##.aaa",
"aaaa##a#.aaaaaaaaaaaaaab#a##.aaa",
"aaaa##a#bbbbbbbbbbbbbbbb#a##.aaa",
"aaaa##a##############ddd#a##.aaa",
"aaaa##aaaaaaaaaaaaaaadddaa##.aaa",
"aaaa##a#########a####ddd#a##.aaa",
"aaaa##a#......b#a#......#a##.aaa",
"aaaa##a#.aaaaab#a#.aaaab#a##.aaa",
"aaaa##a#.aaaaab#a#.aaaab#a##.aaa",
"aaaa##a#.aaaaab#a#.aaaab#a##.aaa",
"aaaa##a#.aaaaab#a#.aaaab#a##.aaa",
"aaaa##a#.aaaaab#a#.aaaab#a##.aaa",
"aaaa##a#.aaaaab#a#.aaaab#a##.aaa",
"aaaa##a#bbbbbbb#a#bbbbbb#a##.aaa",
"aaaa##a#########a########a##.aaa",
"aaaa##aaaaaaaaaaaaaaaaaaaa##.aaa",
"aaaa########################.aaa",
"aaaa########################.aaa",
"aaaaa........................aaa",
"aaaaaaaaaaaaaaaaaaaaaaaaaaaaaaaa"
};
