#define noname_width 32
#define noname_height 32
static char noname_bits[] = {
 0x00,0x00,0x00,0x00,0xa4,0x2a,0x49,0x49,0x00,0x80,0x00,0x20,0x94,0x24,0x54,
 0x0a,0xf0,0x00,0x01,0x20,0x95,0x05,0x00,0x10,0x90,0x20,0xa2,0x52,0x90,0xc2,
 0x02,0x30,0x9a,0x01,0x20,0x15,0x90,0x21,0x00,0x50,0x92,0x04,0x20,0x31,0x90,
 0x01,0x03,0x30,0x92,0x00,0xa0,0x90,0x90,0x45,0x02,0x32,0x9a,0x00,0xe0,0x3f,
 0x90,0x23,0xa1,0x2a,0x94,0x00,0x60,0x80,0x91,0x02,0x65,0x24,0x90,0x01,0x20,
 0x01,0x94,0xa1,0x60,0x50,0x90,0x04,0x60,0x02,0x9a,0x01,0x62,0x48,0x90,0x04,
 0x20,0x01,0x92,0xa1,0x62,0x52,0xdc,0x03,0x30,0x00,0x08,0xf3,0x7f,0x49,0x92,
 0xa8,0x15,0x04,0xe8,0x02,0x40,0x41,0x40,0x48,0x12,0x14,0x14,0x02,0x00,0x01,
 0x42,0xa8,0x4a,0x28,0x10,0x02,0x00,0x02};
