#define noname_width 32
#define noname_height 32
static char noname_bits[] = {
 0x00,0x04,0x00,0x00,0x48,0xa1,0x48,0x49,0x02,0x84,0x0c,0x04,0x00,0x00,0x08,
 0x40,0x02,0x00,0x07,0x14,0x60,0x1a,0xd5,0x04,0x22,0x89,0x00,0x2c,0x00,0x00,
 0xa1,0x4c,0x42,0x15,0x02,0x04,0x00,0x00,0xad,0x54,0x04,0x02,0x00,0x0c,0x01,
 0x00,0x19,0x24,0xa0,0x14,0x00,0x8c,0x04,0x00,0x10,0x14,0x20,0x05,0xff,0x4f,
 0x02,0x00,0xab,0x0a,0x40,0x0a,0x45,0x10,0x02,0x00,0x13,0x45,0x40,0x14,0x01,
 0x10,0x04,0x00,0xa7,0x04,0x20,0x09,0x11,0x50,0x02,0x00,0x05,0x05,0x40,0x2a,
 0x23,0x10,0x04,0x00,0x8b,0x44,0x20,0x09,0x21,0x00,0x02,0x00,0x0b,0x52,0x40,
 0x14,0xa1,0x08,0x04,0x00,0x0b,0x00,0xf8,0xff,0x45,0xa5,0x52,0xab,0x12,0x00,
 0x80,0x40,0x40,0x4a,0x24,0x14,0x14,0x00};
