#define noname_width 32
#define noname_height 32
static char noname_bits[] = {
 0x00,0x00,0x10,0x00,0xa4,0x4a,0x04,0x22,0x10,0x20,0x20,0x88,0x04,0x04,0x81,
 0x02,0x50,0x81,0x00,0x28,0x05,0x00,0x46,0x02,0x90,0x20,0x04,0x48,0x04,0x90,
 0x22,0x12,0x50,0x48,0x13,0x40,0x04,0xa4,0x48,0x08,0x10,0xd2,0x84,0x20,0x05,
 0x31,0x00,0x01,0x80,0x08,0x09,0x24,0x40,0x9c,0x10,0x01,0x0a,0x4a,0x08,0x50,
 0x10,0x21,0x41,0x08,0x22,0x93,0x22,0x94,0x58,0x48,0x84,0x3a,0x90,0xa0,0x08,
 0x0c,0x72,0x11,0x9d,0x56,0x68,0x92,0x4e,0x0b,0xc2,0x25,0x86,0x03,0xa8,0x89,
 0xd3,0xa8,0x02,0x93,0xe1,0x02,0x48,0x27,0x34,0x08,0x01,0x5c,0x5a,0x42,0x54,
 0x9a,0x2c,0x08,0x80,0x70,0x0e,0x42,0x02,0xea,0xa3,0x08,0xa8,0xa0,0x0a,0x40,
 0x00,0x82,0x20,0x25,0x4a,0x28,0x09,0x00};
