%!PS-AdobeFont-1.0
%%Title: Download font: Hershey Greek Narrow
%%Pages: 0
%%EndComments
%%BeginResource: font Hershey-Greek-Narrow
30 dict begin
/bodies [
  ()
  dup
  dup
  dup
  dup
  dup
  dup
  dup
  dup
  dup
  dup
  dup
  dup
  dup
  dup
  dup
  dup
  dup
  dup
  dup
  dup
  dup
  dup
  dup
  dup
  dup
  dup
  dup
  dup
  dup
  dup
  dup
  dup
  (RFRT RYQZR[SZRY)
  (NFNM VFVM)
  (SBLb YBRb LOZO KUYU)
  (PBP_ TBT_ YIWGTFPFMGKIKKLMMNOOUQWRXSYUYXWZT[P[MZKX)
  ([FI[ NFPHPJOLMMKMIKIIJGLFNFPGSHVHYG[F WTUUTWTYV[X[ZZ[X[VYTWT)
  (\\O\\N[MZMYNXPVUTXRZP[L[JZIYHWHUISJRQNRMSKSIRGPFNGMIMKNNPQUXWZY[[[\\Z\\Y)
  (RHQGRFSGSIRKQL)
  (VBTDRGPKOPOTPYR]T`Vb)
  (NBPDRGTKUPUTTYR]P`Nb)
  (RFRR MIWO WIMO)
  (RIR[ IR[R)
  (SZR[QZRYSZS\\R^Q_)
  (IR[R)
  (RYQZR[SZRY)
  ([BIb)
  (QFNGLJKOKRLWNZQ[S[VZXWYRYOXJVGSFQF)
  (NJPISFS[)
  (LKLJMHNGPFTFVGWHXJXLWNUQK[Y[)
  (MFXFRNUNWOXPYSYUXXVZS[P[MZLYKW)
  (UFKTZT UFU[)
  (WFMFLOMNPMSMVNXPYSYUXXVZS[P[MZLYKW)
  (XIWGTFRFOGMJLOLTMXOZR[S[VZXXYUYTXQVOSNRNOOMQLT)
  (YFO[ KFYF)
  (PFMGLILKMMONSOVPXRYTYWXYWZT[P[MZLYKWKTLRNPQOUNWMXKXIWGTFPF)
  (XMWPURRSQSNRLPKMKLLINGQFRFUGWIXMXRWWUZR[P[MZLX)
  (RMQNROSNRM RYQZR[SZRY)
  (RMQNROSNRM SZR[QZRYSZS\\R^Q_)
  (ZIJRZ[)
  (IO[O IU[U)
  (JIZRJ[)
  (LKLJMHNGPFTFVGWHXJXLWNVORQRT RYQZR[SZRY)
  (WNVLTKQKOLNMMPMSNUPVSVUUVS QKOMNPNSOUPV WKVSVUXVZV\\T]Q]O\\L[JYHWGTFQFNGLHJJILHOHRIUJWLYNZQ[T[WZYYZX XKWSWUXV)
  (RFJ[ RFZ[ MTWT)
  (KFK[ KFTFWGXHYJYLXNWOTP KPTPWQXRYTYWXYWZT[K[)
  (LFL[ LFXF)
  (RFJ[ RFZ[ J[Z[)
  (LFL[ LFYF LPTP L[Y[)
  (YFK[ KFYF K[Y[)
  (KFK[ YFY[ KPYP)
  (PFNGLIKKJNJSKVLXNZP[T[VZXXYVZSZNYKXIVGTFPF OPUP)
  (RFR[)
  (KFK[ YFKT POY[)
  (RFJ[ RFZ[)
  (JFJ[ JFR[ ZFR[ ZFZ[)
  (KFK[ KFY[ YFY[)
  (KFYF OPUP K[Y[)
  (PFNGLIKKJNJSKVLXNZP[T[VZXXYVZSZNYKXIVGTFPF)
  (KFK[ YFY[ KFYF)
  (KFK[ KFTFWGXHYJYMXOWPTQKQ)
  (KFRPK[ KFYF K[Y[)
  (RFR[ KFYF)
  (KKKILGMFOFPGQIRMR[ YKYIXGWFUFTGSIRM)
  (RFR[ PKMLLMKOKRLTMUPVTVWUXTYRYOXMWLTKPK)
  (KFY[ K[YF)
  (RFR[ ILJLKMLQMSNTQUSUVTWSXQYMZL[L)
  (K[O[LTKPKLLINGQFSFVGXIYLYPXTU[Y[)
  ()
  dup
  (OBOb PBPb OBVB ObVb)
  (KFY^)
  (TBTb UBUb NBUB NbUb)
  (PLRITL MORJWO RJR[)
  (J]Z])
  (SFRGQIQKRLSKRJ)
  (QMONMPLRKUKXLZN[P[RZUWWTYPZM QMSMTNUPWXXZY[Z[)
  (UFSGQIOMNPMTLZKb UFWFYHYKXMWNUORO ROTPVRWTWWVYUZS[Q[OZNYMV)
  (JPLNNMOMQNROSRSVR[ ZMYPXRR[P_Ob)
  (TMQMONMPLSLVMYNZP[R[TZVXWUWRVOTMRKQIQGRFTFVGXI)
  (WOVNTMQMONOPPRSS SSOTMVMXNZP[S[UZWX)
  (TFRGQHQIRJUKXK XKTMQONRMUMWNYP[S]T_TaSbQbP`)
  (IQJOLMNMONOPNTL[ NTPPRNTMVMXOXRWWTb)
  (HQIOKMMMNNNPMUMXNZO[Q[SZUWVUWRXMXJWGUFSFRHRJSMUPWRZT)
  (RMPTOXOZP[R[TYUW)
  (OMK[ YNXMWMUNQROSNS NSPTQUSZT[U[VZ)
  (KFMFOGPHX[ RML[)
  (OMIb NQMVMYO[Q[SZUXWT YMWTVXVZW[Y[[Y\\W)
  (LMOMNSMXL[ YMXPWRUURXOZL[)
  (TFRGQHQIRJUKXK UKRLPMOOOQQSTTVT TTPUNVMXMZO\\S^T_TaRbPb)
  (RMPNNPMSMVNYOZQ[S[UZWXXUXRWOVNTMRM)
  (PML[ UMVSWXX[ IPKNNM[M)
  (MSMVNYOZQ[S[UZWXXUXRWOVNTMRMPNNPMSIb)
  ([MQMONMPLSLVMYNZP[R[TZVXWUWRVOUNSM)
  (SMP[ JPLNOMZM)
  (IQJOLMNMONOPMVMYO[Q[TZVXXTYPYM)
  (ONMOKQJTJWKYLZN[Q[TZWXYUZRZOXMVMTORSPXMb)
  (KMMMOOU`WbYb ZMYOWRM]K`Jb)
  (VFNb GQHOJMLMMNMPLULXMZO[Q[TZVXXUZP[M)
  (NMLNJQITIWJZK[M[OZQW RSQWRZS[U[WZYWZTZQYNXM)
  ()
  dup
  (TBRCQDPFPHQJRKSMSOQQ RCQEQGRISJTLTNSPORSTTVTXSZR[Q]Q_Ra QSSUSWRYQZP\\P^Q`RaTb)
  (RBRb)
  (PBRCSDTFTHSJRKQMQOSQ RCSESGRIQJPLPNQPURQTPVPXQZR[S]S_Ra SSQUQWRYSZT\\T^S`RaPb)
  (IUISJPLONOPPTSVTXTZS[Q ISJQLPNPPQTTVUXUZT[Q[O)
  (QFOGNINKOMQNSNUMVKVIUGSFQF)
  ()
  dup
  dup
  dup
  dup
  dup
  dup
  dup
  dup
  dup
  dup
  dup
  dup
  dup
  dup
  dup
  dup
  dup
  dup
  dup
  dup
  dup
  dup
  dup
  dup
  dup
  dup
  dup
  dup
  dup
  dup
  dup
  dup
  dup
  dup
  dup
  dup
  dup
  dup
  dup
  dup
  dup
  dup
  dup
  dup
  dup
  dup
  dup
  dup
  dup
  dup
  dup
  dup
  dup
  dup
  dup
  dup
  dup
  dup
  dup
  dup
  dup
  dup
  dup
  dup
  dup
  dup
  dup
  dup
  dup
  dup
  dup
  dup
  dup
  dup
  dup
  dup
  dup
  dup
  dup
  dup
  dup
  dup
  dup
  dup
  dup
  dup
  dup
  dup
  dup
  dup
  dup
  dup
  dup
  dup
  dup
  dup
  dup
  dup
  dup
  dup
  dup
  dup
  dup
  dup
  dup
  dup
  dup
  dup
  dup
  dup
  dup
  dup
  dup
  dup
  dup
  dup
  dup
  dup
  dup
  dup
  dup
  dup
  dup
  dup
  dup
  dup
  dup
] def
/width [
  0
  0
  0
  0
  0
  0
  0
  0
  0
  0
  0
  0
  0
  0
  0
  0
  0
  0
  0
  0
  0
  0
  0
  0
  0
  0
  0
  0
  0
  0
  0
  0
  16
  10
  16
  21
  20
  24
  26
  10
  14
  14
  16
  26
  10
  26
  10
  22
  20
  20
  20
  20
  20
  20
  20
  20
  20
  20
  10
  10
  24
  26
  24
  18
  27
  18
  21
  17
  18
  19
  20
  22
  22
  8
  21
  18
  24
  22
  18
  22
  22
  21
  18
  16
  18
  20
  20
  22
  20
  16
  16
  14
  14
  14
  16
  16
  10
  21
  19
  19
  18
  16
  15
  20
  21
  11
  18
  16
  21
  18
  16
  17
  22
  18
  20
  20
  20
  22
  18
  23
  23
  16
  16
  14
  8
  14
  24
  14
  0
  0
  0
  0
  0
  0
  0
  0
  0
  0
  0
  0
  0
  0
  0
  0
  0
  0
  0
  0
  0
  0
  0
  0
  0
  0
  0
  0
  0
  0
  0
  0
  0
  0
  0
  0
  0
  0
  0
  0
  0
  0
  0
  0
  0
  0
  0
  0
  0
  0
  0
  0
  0
  0
  0
  0
  0
  0
  0
  0
  0
  0
  0
  0
  0
  0
  0
  0
  0
  0
  0
  0
  0
  0
  0
  0
  0
  0
  0
  0
  0
  0
  0
  0
  0
  0
  0
  0
  0
  0
  0
  0
  0
  0
  0
  0
  0
  0
  0
  0
  0
  0
  0
  0
  0
  0
  0
  0
  0
  0
  0
  0
  0
  0
  0
  0
  0
  0
  0
  0
  0
  0
  0
  0
  0
  0
  0
  0
] def
/left [
  0
  0
  0
  0
  0
  0
  0
  0
  0
  0
  0
  0
  0
  0
  0
  0
  0
  0
  0
  0
  0
  0
  0
  0
  0
  0
  0
  0
  0
  0
  0
  0
  -8
  -5
  -8
  -10
  -10
  -12
  -13
  -5
  -7
  -7
  -8
  -13
  -5
  -13
  -5
  -11
  -10
  -10
  -10
  -10
  -10
  -10
  -10
  -10
  -10
  -10
  -5
  -5
  -12
  -13
  -12
  -9
  -13
  -9
  -11
  -10
  -9
  -10
  -10
  -11
  -11
  -4
  -11
  -9
  -12
  -11
  -9
  -11
  -11
  -11
  -9
  -8
  -9
  -10
  -10
  -11
  -10
  -8
  -8
  -7
  -7
  -7
  -8
  -8
  -5
  -10
  -9
  -9
  -9
  -8
  -8
  -10
  -11
  -6
  -9
  -8
  -10
  -9
  -8
  -8
  -11
  -9
  -9
  -10
  -10
  -11
  -9
  -12
  -12
  -8
  -8
  -7
  -4
  -7
  -12
  -7
  0
  0
  0
  0
  0
  0
  0
  0
  0
  0
  0
  0
  0
  0
  0
  0
  0
  0
  0
  0
  0
  0
  0
  0
  0
  0
  0
  0
  0
  0
  0
  0
  0
  0
  0
  0
  0
  0
  0
  0
  0
  0
  0
  0
  0
  0
  0
  0
  0
  0
  0
  0
  0
  0
  0
  0
  0
  0
  0
  0
  0
  0
  0
  0
  0
  0
  0
  0
  0
  0
  0
  0
  0
  0
  0
  0
  0
  0
  0
  0
  0
  0
  0
  0
  0
  0
  0
  0
  0
  0
  0
  0
  0
  0
  0
  0
  0
  0
  0
  0
  0
  0
  0
  0
  0
  0
  0
  0
  0
  0
  0
  0
  0
  0
  0
  0
  0
  0
  0
  0
  0
  0
  0
  0
  0
  0
  0
  0
] def
/FontName /Hershey-Greek-Narrow def
/BuildCharPath { 
	newpath
	/domove true def
	/isx true def
	0 0 moveto
	bodies charcode get { 
	    isx {
		dup 32 eq { pop /domove true def } 
			  { 82 sub left charcode get sub
			    /isx false def } ifelse
	    } { neg 91 add
		domove	{ moveto /domove false def } 
			{ lineto } ifelse
		/isx true def } 
	    ifelse
	} forall
} def
/BuildChar { 
    exch begin
    10 dict begin
	/charcode exch def
	BuildCharPath
	width charcode get 0
	pathbbox 1 add exch 1 add exch 4 2 roll 1 sub exch 1 sub exch 4 2 roll
	setcachedevice
	0 setlinewidth
	0 setlinewidth 0 setlinejoin
	BuildCharPath stroke
    end end
} def

/FontType 3 def
/FontMatrix [ 1 33 div 0 0 1 33 div 0 0 ] def
/FontBBox [ -7 -15 35 40 ] def
/Encoding 256 array def 0 1 255 { Encoding exch dup put } for
currentdict FontName exch definefont end pop
%%EndResource
