%!PS-AdobeFont-1.0
%%Title: Download font: Hershey Gothic
%%Pages: 0
%%EndComments
%%BeginResource: font Hershey-Gothic
30 dict begin
/bodies [
  ()
  dup
  dup
  dup
  dup
  dup
  dup
  dup
  dup
  dup
  dup
  dup
  dup
  dup
  dup
  dup
  dup
  dup
  dup
  dup
  dup
  dup
  dup
  dup
  dup
  dup
  dup
  dup
  dup
  dup
  dup
  dup
  dup
  (RFQGOHQIRT RISHRGQHRIRT RFSGUHSIRT RXPZR[TZRX RYQZSZRY)
  (NFMGMM NGMM NFOGMM WFVGVM WGVM WFXGVM)
  (SFLb YFRb LQZQ KWYW)
  (PBP_ TBT_ TFVGWIWKYJXHWGTFPFMGKIKLLNOPURWSXUXXWZ XJWH LLMNOOUQWRXT MYLW MGLILKMMONUPXRYTYWXYWZT[P[MZLYKWMVMXNZP[)
  ([FI[ NFPHPJOLMMKMIKIIJGLFNFPGSHVHYG[F WTUUTWTYV[X[ZZ[X[VYTWT)
  (YNZO[O\\N XOYP[P XPYQZQ[P\\N YNST RUL[HVNP OOSKOFJLPRTXVZX[Z[[Z\\X LZIV RKOG KLPQTWVYXZ[Z MZIU RLNG KKQQUWVXXY[Y\\X)
  (RLRJPHRFSHSJRLPM RGQHRIRG)
  (UBSDQGOKNPNTOYQ]S`Ub QHPKOOOUPYQ\\ SDRFQIPOPUQ[R^S`)
  (OBQDSGUKVPVTUYS]Q`Ob SHTKUOUUTYS\\ QDRFSITOTUS[R^Q`)
  (RFQGSQRR RFRR RFSGQQRR MINIVOWO MIWO MIMJWNWO WIVINOMO WIMO WIWJMNMO)
  (RIRZSZ RISISZ JQ[Q[R JQJR[R)
  (R^R\\PZRXSZS\\R^P_ RYQZR[RY)
  (JQ[Q[R JQJR[R)
  (RXPZR[TZRX RYQZSZRY)
  ([BIbJb [B\\BJb)
  (LHLXJY MIMXPZ NHNXPYQZ LHNHSGUF SGTHVIVY TGWIWX UFVGXHZHXIXY JYLYNZO[QZVYXY)
  (OHPIQKQXOY QIPHQGRIRYTZ OHRFSHSXUYVY OYPYRZS[TZVY)
  (LHNHPGQFSGVHXH PHRG LHNIPIRHSG VHVP WIWO XHXPQPNQLSKVK[ K[OYSXVXZY NZQYVYYZ K[PZUZX[ZY)
  (LHMHOGPFRGVHXH OHQG LHNIPIRG VHVO WIWN XHXOVOSPQQ QPSQVRXRXY WSWX VRVY KYMXOXQYRZ OYQZ KYMYOZP[RZVYXY)
  (UFKPKUTU VUZU[V[TZU LPLT MNMU TGTXRY UJVHUGUYWZ UFWHVJVXXYYY RYSYUZV[WZYY)
  (LFLO LFXF MGVG LHUHWGXF VLUMSNOOLO SNTNVOVY UMWNWX VLWMYNZNXOXY KYMXOXQYRZ OYQZ KYMYOZP[RZVYXY)
  (LHLXJY MIMXPZ NHNXPYQZ LHNHRGTFUGWHXH SGUH RGTIVIXH NPOPSOUNVM SOTOVPVY UNWPWX VMWNYOZOXPXY JYLYNZO[QZVYXY)
  (KHMFPGUGZF LGOHTHWG KHOIRIVHZF ZFYHWKSOQRPUPXQ[ RQQTQWRZ UMSPRSRVSYQ[)
  (LILO MJMN NINO LINISHUGVF SHTHVIVO UGWHWN VFWGYHZHXIXO LONOVRXR XOVONRLR LRLXJY MSMXPZ NRNXPYQZ VRVY WSWX XRXY JYLYNZO[QZVYXY)
  (LHLQJR MIMROS NHNQPRQR LHNHSGUF SGTHVIVY TGWIWX UFVGXHZHXIXY JRKRMSNTOSQRUQVQ KYMXOXQYRZ OYQZ KYMYOZP[RZVYXY)
  (RMPORPTORM RNQOSORN RXPZR[TZRX RYQZSZRY)
  (RMPORPTORM RNQOSORN R^R\\PZRXSZS\\R^P_ RYQZR[RY)
  (ZIJRZ[)
  (JM[M[N JMJN[N JU[U[V JUJV[V)
  (JIZRJ[)
  (LJMHNGQFSFVGWHXJXLWNUPSQ MJNH VHWIWMVN LJNKNIOGQF SFUGVIVMUOSQ RQRTSQQQRT RXPZR[TZRX RYQZSZRY)
  (WNVLTKQKOLNMMPMSNUPVSVUUVS QKOMNPNSOUPV WKVSVUXVZV\\T]Q]O\\L[JYHWGTFQFNGLHJJILHOHRIUJWLYNZQ[T[WZYYZX XKWSWUXV)
  (LINGPFRFSGZW[X]X QGRHYXZZ[YYX NGPGQHXXYZZ[[[]X LMMLOKPKQL PLPM MLOLPN G[IYKXNXPY JYNYOZ G[JZMZN[PY RJLX NSVS)
  (HHJFMFOGQF KGNG HHJGLHOHQF MKLLKNKOIOHPHRIQKQKW LMLU IPLP MKMTLVKW RIQJPLPU QKQS RIRRQTPU RIXFZG[I[KYMUO XGZIZK VGXHYIYLWN WNZP[R[X YPZRZW WNXOYQYX J[MYPXTXWY LZOYTYVZ J[NZSZU[WYYX[X UOUX URYR UUYU)
  (NGLHJJILHOHSIVJXMZP[S[VZXYZW[U JKINISKWNYQZTZWY NGLIKKJNJRKUNXQYTYWXYW[U PJPV QJQT RIRSQUPV PJRIUFWGYGZF TGVHXH SHUIWIYHZF WIWX)
  (IFWFYGZIZX KGWGYIYW IFJGLHWHXIXX OKNLMNMOKOJPJRKQMQMV NMNT KPNP OKOSNUMV I[LYOXSXVY KZNYSYUZ I[MZRZT[VYXXZX RHRX RMTNVNXM RSTRVRXS)
  (IHKFMFOGQF LGNG IHKGMHOHQF NKMLLNLOJOIPIRJQLQLW MMMU JPMP NKNTMVLW QMRJSHTGVFXF[G THVGXGZH RJSIUHWHYI[G QURRSPTOVOXP TPVPWQ RRSQUQVRXP K[NYRXWX[Y MZPYWYZZ K[OZVZY[[Y QMQX)
  (JHLFOFQGSF MGPG JHLGNHQHSF PKOLNNNOLOKPKRLQNQNV OMOT LPOP PKPSOUNV SJSYRZQZMXKXIYG[ TJTX TPXP PZOZMYJY UIUOXO XQUQUWTYP[N[LZJZG[ SJUIXFZG\\G]F WGYH[H VHXIZI\\H]F XIXW)
  (NGLHJJILHOHRIUJWLYNZQ[U[XZZX[V[SZQYPWOUO JKINISJV NGLIKKJNJSKVLXNZ YXZWZSYQ U[WZXYYWYSXQWPUO PJPW QJQU RIRTQVPW PJRIUFWGYGZF TGVHXH SHUIWIYHZF YHUOU[ USYS UVYV)
  (HHJFMFOGQF KGNG HHJGLHOHQF MKLLKNKOIOHPHRIQKQKW LMLU IPLP MKMTLVKW J[MYPXSXUY LZOYRYTZ J[NZQZS[UY RIQJPLPU QKQS RIRRQTPU RITGVFXFZG WGXGYH TGVGXIZG UOWNYLZM[P[TZXX[ XMYNZPZUYX WNXNYPYUX[ UOUY URYR UUYU)
  (LHNFQFTGVF OGSG LHNGQHTHVF SKRLQNQOOONPNROQQQQV RMRT OPRP SKSSRUQV YHWJVMVXUZSZOXMXKYI[ WKWW RZQZOYLY YHXJXVWXUZS[P[NZKZI[)
  (LHNFQFTGVF OGSG LHNGQHTHVF SKRLQNQOOONPNROQQQQV RMRT OPRP SKSSRUQV YHWJVMVXUZ WKWW YHXJXVWXUZR[O[LZJXJVKULUMVLWKW JVMV)
  (HHJFMFOGQF KGNG HHJGLHOHQF MKLLKNKOIOHPHRIQKQKW LMLU IPLP MKMTLVKW J[MYPXSXUY LZNYRYTZ J[NZQZS[UY RIQJPLPU QKQS RIRRQTPU RITGVFXFZG WGXGYH TGVGXIZG UOXLYM[N WMYN[N [NYQWSUU WSYTZX[Z\\Z YVZZ WSXTYZZ[[[\\Z UOUY)
  (IHKFNFPGRF LGOG IHKGMHPHRF NKMLLNLOJOIPIRJQLQLW MMMU JPMP NKNTMVLW K[NYRXWX[Y MZPYWYZZ K[OZVZY[[Y SIRJQLQU RKRS SISRRTQU SIUGWFYF[G XGYGZH UGWGYI[G WGWX)
  (LJKKJMJOHOGPGRHQJQJU KLKS HPKP LJLRKTJU E[GYIXKXMYNYOX HYKYMZ E[GZJZL[M[NZOX LJPFTJTWUYVY PGSJSXRYSZTYSX PPSP NHOHRKROOO OQRQRXQYS[VYWX TJXF\\J\\W]Y^Y XG[J[X]Z XP[P VHWHZKZOWO WQZQZY\\[^Y OHOX WHWX)
  (GIIGKFMFOGQJVUXXYY MGOIPKVWYZ IGKGMHOKTVVYWZY[ VHXIZI\\H]F WGYH[H VHXFZG\\G]F KOIOHPHRIQKQ IPKP G[IYKXNXPY JYMYOZ G[JZMZN[PY KGKX YIY[ RLSMUNWNYM KTMSQSST)
  (NFLGJIIKHNHRIUJWLYNZQ[S[VZXYZW[U\\R\\N[KZIXGVFUGRIOJ JJIMISJV NFLHKJJMJSKVLXNZ ZV[S[MYIXH VZXXYVZSZMYKWHUG OJOW PJPU QJQTPVOW UGUZ UMWNXNZM USWRXRZS)
  (KFLGMIMOKOJPJRKQMQMYJ[MZMbO` MHNJN` KPNP KFMGNHOJO` OKRIVFZJZX VGYJYX THUHXKXY RXUXXY SYUYWZ RZTZV[XYZX RIR_ RMTNVNXM RSTRVRXS)
  (NFLGJIIKHNHRIUJWLYNZP[T[VZXYZW[U\\R\\N[KZIXGVFUGRIOJ JJIMISJV NFLHKJJMJSKVLXNZ ZV[S[MYIXH VZXXYVZSZMYKWHUG OJOW PJPU QJQTPVOW UGUZ UMWNXNZM USWRXRZS P[QZRZT[X`Za[a T\\V_XaYa RZS[VaXbZb[a)
  (HHJFMFOGQF KGNG HHJGLHOHQF MKLLKNKOIOHPHRIQKQKW LMLU IPLP MKMTLVKW J[MYPXRXUY LZNYRYTZ J[NZQZS[UY RIQJPLPU QKQS RIRRQTPU RIUGWFYGZIZLYNXOTQRR WGXGYIYMXN UGWHXJXMWOTQ TQVRWSZX[Y\\Y WTYX[Z TQVSXYZ[\\Y)
  (UITHRGOF VHTG WGSFOFLGKHJJKLLMONWNYOZPZRYU KKLLOMXMZN[O[QZS KHKJLKOLYL[M\\O\\QYUU[ IOJPLQUQVRVSUU JQLRTRUS IOIPJRLSSSUTUU I[LYPXSXVY KZNYRYUZ I[MZRZU[ WGUISL RNPQ OSMUKVJVJUKV)
  (JJILHOHSIVKYMZP[S[VZXYZW[U ISJVLXNYQZTZWY JJIMIQJTLWNXQYTYWXYW[U HIIGKFOFUGYG[F PGTHXH HIIHKGNGTIWIYH[F SIRJPKPV QKQT RJRSQUPV WIWX)
  (HHJFLFOGQF KGNG HHJGMHOHQF KJJLIOISJVKXMZP[S[VZXYZ[\\Y JSKVNYQZTZ KJJNJQKTLVNXQYUYXX UIQJPLPV QKQT RJRSQUPV UIWHYFZG\\HZIZW[Y\\Y YIZHYGXHYIYX[Z WHXIXX UIUY UNXN URXR)
  (JFKGLILOJOIPIRJQLQLXJY LHMJMX JPMP NYQYSZ JFLGMHNJNXRXUY JYMYPZR[UYXXZX RJUIWHYFZG\\HZIZX YIZHYGXHYIYW WHXIXX RJRX RMTNVNXM RSTRVRXS)
  (HFIGJIJOHOGPGRHQJQJXHY JHKJKX HPKP LYNYPZ HFJGKHLJLXOXQY HYKYNZO[QYTXVYW[YY\\X OHRFTHTXWXYY RGSHSX OHQHRIRXQY WYXZ WHZF\\H\\X ZG[H[X WHYHZIZXYY OHOX WHWX ONRN ORRR WNZN WRZR)
  (HIJGLFNFOGWYXZZZ MGNHVYWZ JGLGMHUZV[X[ZZ\\X WFYG[G\\F WGXHZH VHWIYI[H\\F H[IYKXMXNY JYLYMZ H[IZKZM[ WFSO QRM[ LPPP SPXP)
  (JFKGLILOJOIPIRJQLQLXJY LHMJMX JPMP NYQYSZ JFLGMHNJNXRXUY JYMYPZR[UYXX RJUIWHYFZG\\HZIZ^Y`WbUaQ`L` YIZHYGXHYIYY WHXIXXZ[ XaV`S` Y`V_P_L` RJRX RMTNVNXM RSTRVRXS)
  (XGWIROOSMWJ[ VKNV ZFWJUNRRMXLZ JHLFOGUGZF KGOHSHWG JHNIRIVHXG LZNYRXVXZY MZQYUYYZ J[OZUZX[ZY MPQP TPXP)
  (OBOb PBPb OBVB ObVb)
  (KFY^)
  (TBTb UBUb NBUB NbUb)
  (PLRITL MORJWO RJR[)
  (J]Z])
  (TFRGQIQKRMTKRIRG RJRLSKRJ)
  (PRNTMVMXNZP[RYUX MVNXOYQZ NTNVOXQYRY NPPPSOUNVMXOWPWXXYYY ONNOQO TOWOVNVYWZ MOOMPNROUPUYW[YY MORT)
  (LHMJMXKY NJMHNGNXQZ LHOFOXQYRZ KYMYOZP[RZUYWY OPROTNUMVNXOYOWPWY TNVOVX ROSOUPUY)
  (NONXLYMYOZP[ OOOYQZ POPXRYSYQZP[ NORNTMUNWOXO SNTOVO PORNTPVPXO)
  (RMPNMOMXKY NONXQZ RMOOOXQYRZ KYMYOZP[RZUYWY MHPFQIWOWY PINHOGPIVOVX MHUPUY)
  (NONXLYMYOZP[ OOOYQZ POPXRYSYQZP[ NORNTMWQURPU SNVQ PORNUR)
  (NHNXLYMYOZP[ OHOYQZ PHPXRYSYQZP[ NHQGSFTGVHWH RGSHUH PHQGSIUIWH KMNM PMTM)
  (MOMXKYLYNZO[PZRYUX NPNYPZ OOOXQYRY MOOORNTMUNWOYOWPW\\V_TaRbQaO`M` SNVPV\\ SaQ`P` RNSOUPUZV]V_ TaS`Q_O_M`)
  (LHMJMXKYLYNZO[ NJMHNGNYPZ LHOFOXQYO[ OPROTNUMVNXOYOWPWYU[T] TNVOVYU[ ROSOUPUYT]T`UbVbT`)
  (RFPHRITHRF RGQHSHRG RMQNOOQPQYS[UY RPSORNQORPRYSZ RMSNUOSPSXTYUY)
  (RFPHRITHRF RGQHSHRG RMQNOOQPQYS[T] RPSORNQORPRYS[ RMSNUOSPSYT]T`RbPbPaRb)
  (LHMJMXKYLYNZO[ NJMHNGNYPZ LHOFOXQYO[ OPRNTMVPSROU SNUP RNTQ SRTSVXWYXY SSTTUYVZ RSSTTYV[XY)
  (PHQJQXOYPYRZS[ RJQHRGRYTZ PHSFSXUYVYTZS[)
  (GOHOIPIXGYHYJZK[ INJOJYLZ GOIMKOKXMYK[ KPNOPNQMSOSXUYS[ PNRORYTZ NOOOQPQXPYRZS[ SPVOXNYMZN\\O]O[P[X\\Y]Y XNZOZY[Z VOWOYPYY[[]Y)
  (KOLOMPMXKYLYNZO[ MNNONYPZ KOMMOOOXQYO[ OPROTNUMVNXOYOWPWXXYYY TNVOVYWZ ROSOUPUYW[YY)
  (MOMXKY NPNXQZ OOOXQYRZ KYMYOZP[RZUYWY MOOORNTMUNWOYOWPWY SNVPVX RNSOUPUY)
  (LMMOMXKYMYMb MNNONaO`N^ NYOYQZ LMNNOOOXQYRZ OZP[RZUYWY OZO^P`Mb OPROTNUMVNXOYOWPWY TNVOVX ROSOUPUY)
  (MOMXKY NPNYPZ OOOXQYRY KYLYNZO[PZRYUX MOOORNTMUNWOYOWPWb SNVPVaU`V^ RNSOUPU^T`Wb)
  (LOMONPNXLYMYOZP[ MNOOOYQZ LONMPOPXRYSYQZP[ POTMUNWOXO SNTOVO RNTPVPXO)
  (MOMSOTUTWUWY NONS VUVY PNOOOSQT STUUUYTZ MOPNRMTNVNWM QNSN PNROTOVN WYTZR[PZNZL[ SZQZ TZRYOYL[ WMVOTROWL[)
  (PHQJQXOYPYRZS[ RJQHRGRYTZ PHSFSXUYVYTZS[ NMQM SMVM)
  (KOLOMPMXKY LNNONYPZ KOMMOOOXQYRY KYLYNZO[PZRYUX UMVNXOYOWPWXXYYY TNVOVYWZ UMSOUPUYW[YY)
  (LMMOMXP[RYUXWX MNNONXQZ LMNNOOOWPXRY UMVNXOYOWPWX TNVOVW UMSOUPUX)
  (HMIOIXL[NYQX INJOJXMZ HMJNKOKWLXNY QMOOQPQXT[VYYX[X PNRORXUZ QMRNTOSPSWTXVY YMZN\\O]O[P[X XNZOZW YMWOYPYX)
  (KOLONPOQSYTZV[XY MNOOTYVZ KOMMONPOTWUXWYXY RSUMVNXNYM UNVOWO TOVPXOYM QUN[MZKZJ[ NZMYLY OYMXKYJ[ MTPT STVT)
  (KOLOMPMXKY LNNONYPZ KOMMOOOXQYRY KYLYNZO[PZRYUX UMVNXOYOWPW\\V_TaRbQaO`M` TNVOV\\ SaQ`P` UMSOUPUZV]V_ TaS`Q_O_M`)
  (XML[ LONPQPTOXM MNOOSO LONMPNTNXM L[PYSXVXXY QYUYWZ L[PZTZV[XY NTVT)
  (TBRCQDPFPHQJRKSMSOQQ RCQEQGRISJTLTNSPORSTTVTXSZR[Q]Q_Ra QSSUSWRYQZP\\P^Q`RaTb)
  (RBRb)
  (PBRCSDTFTHSJRKQMQOSQ RCSESGRIQJPLPNQPURQTPVPXQZR[S]S_Ra SSQUQWRYSZT\\T^S`RaPb)
  (IUISJPLONOPPTSVTXTZS[Q ISJQLPNPPQTTVUXUZT[Q[O)
  (QFOGNINKOMQNSNUMVKVIUGSFQF QFNIOMSNVKUGQF SFOGNKQNUMVISF)
  ()
  dup
  dup
  dup
  dup
  dup
  dup
  dup
  dup
  dup
  dup
  dup
  dup
  dup
  dup
  dup
  dup
  dup
  dup
  dup
  dup
  dup
  dup
  dup
  dup
  dup
  dup
  dup
  dup
  dup
  dup
  dup
  dup
  dup
  dup
  dup
  dup
  dup
  dup
  dup
  dup
  dup
  dup
  dup
  dup
  dup
  dup
  dup
  dup
  dup
  dup
  dup
  dup
  dup
  dup
  dup
  dup
  dup
  dup
  dup
  dup
  dup
  dup
  dup
  dup
  dup
  dup
  dup
  dup
  dup
  dup
  dup
  dup
  dup
  dup
  dup
  dup
  dup
  dup
  dup
  dup
  dup
  dup
  dup
  dup
  dup
  dup
  dup
  dup
  dup
  dup
  dup
  dup
  dup
  dup
  dup
  dup
  dup
  dup
  dup
  dup
  dup
  dup
  dup
  dup
  dup
  dup
  dup
  dup
  dup
  dup
  dup
  dup
  dup
  dup
  dup
  dup
  dup
  dup
  dup
  dup
  dup
  dup
  dup
  dup
  dup
  dup
  dup
] def
/width [
  0
  0
  0
  0
  0
  0
  0
  0
  0
  0
  0
  0
  0
  0
  0
  0
  0
  0
  0
  0
  0
  0
  0
  0
  0
  0
  0
  0
  0
  0
  0
  0
  16
  12
  18
  21
  20
  24
  26
  12
  14
  14
  16
  25
  12
  25
  12
  23
  20
  20
  20
  20
  20
  20
  20
  20
  20
  20
  12
  12
  24
  25
  24
  18
  27
  22
  24
  24
  23
  22
  23
  25
  24
  19
  20
  24
  22
  28
  25
  26
  22
  26
  24
  23
  24
  24
  23
  27
  22
  23
  20
  14
  14
  14
  16
  16
  12
  17
  18
  14
  17
  14
  13
  18
  18
  10
  10
  17
  10
  26
  18
  18
  18
  18
  14
  16
  10
  18
  18
  26
  19
  18
  18
  14
  8
  14
  24
  14
  0
  0
  0
  0
  0
  0
  0
  0
  0
  0
  0
  0
  0
  0
  0
  0
  0
  0
  0
  0
  0
  0
  0
  0
  0
  0
  0
  0
  0
  0
  0
  0
  0
  0
  0
  0
  0
  0
  0
  0
  0
  0
  0
  0
  0
  0
  0
  0
  0
  0
  0
  0
  0
  0
  0
  0
  0
  0
  0
  0
  0
  0
  0
  0
  0
  0
  0
  0
  0
  0
  0
  0
  0
  0
  0
  0
  0
  0
  0
  0
  0
  0
  0
  0
  0
  0
  0
  0
  0
  0
  0
  0
  0
  0
  0
  0
  0
  0
  0
  0
  0
  0
  0
  0
  0
  0
  0
  0
  0
  0
  0
  0
  0
  0
  0
  0
  0
  0
  0
  0
  0
  0
  0
  0
  0
  0
  0
  0
] def
/left [
  0
  0
  0
  0
  0
  0
  0
  0
  0
  0
  0
  0
  0
  0
  0
  0
  0
  0
  0
  0
  0
  0
  0
  0
  0
  0
  0
  0
  0
  0
  0
  0
  -8
  -6
  -9
  -10
  -10
  -12
  -13
  -6
  -7
  -7
  -8
  -12
  -6
  -12
  -6
  -11
  -10
  -10
  -10
  -10
  -10
  -10
  -10
  -10
  -10
  -10
  -6
  -6
  -12
  -12
  -12
  -9
  -13
  -11
  -12
  -13
  -11
  -11
  -12
  -13
  -12
  -9
  -10
  -12
  -11
  -14
  -13
  -13
  -10
  -13
  -12
  -11
  -13
  -12
  -11
  -13
  -11
  -11
  -10
  -7
  -7
  -7
  -8
  -8
  -6
  -8
  -9
  -8
  -9
  -8
  -8
  -9
  -9
  -5
  -5
  -9
  -5
  -13
  -9
  -9
  -9
  -9
  -8
  -8
  -5
  -9
  -9
  -13
  -10
  -9
  -9
  -7
  -4
  -7
  -12
  -7
  0
  0
  0
  0
  0
  0
  0
  0
  0
  0
  0
  0
  0
  0
  0
  0
  0
  0
  0
  0
  0
  0
  0
  0
  0
  0
  0
  0
  0
  0
  0
  0
  0
  0
  0
  0
  0
  0
  0
  0
  0
  0
  0
  0
  0
  0
  0
  0
  0
  0
  0
  0
  0
  0
  0
  0
  0
  0
  0
  0
  0
  0
  0
  0
  0
  0
  0
  0
  0
  0
  0
  0
  0
  0
  0
  0
  0
  0
  0
  0
  0
  0
  0
  0
  0
  0
  0
  0
  0
  0
  0
  0
  0
  0
  0
  0
  0
  0
  0
  0
  0
  0
  0
  0
  0
  0
  0
  0
  0
  0
  0
  0
  0
  0
  0
  0
  0
  0
  0
  0
  0
  0
  0
  0
  0
  0
  0
  0
] def
/FontName /Hershey-Gothic def
/BuildCharPath { 
	newpath
	/domove true def
	/isx true def
	0 0 moveto
	bodies charcode get { 
	    isx {
		dup 32 eq { pop /domove true def } 
			  { 82 sub left charcode get sub
			    /isx false def } ifelse
	    } { neg 91 add
		domove	{ moveto /domove false def } 
			{ lineto } ifelse
		/isx true def } 
	    ifelse
	} forall
} def
/BuildChar { 
    exch begin
    10 dict begin
	/charcode exch def
	BuildCharPath
	width charcode get 0
	pathbbox 1 add exch 1 add exch 4 2 roll 1 sub exch 1 sub exch 4 2 roll
	setcachedevice
	0 setlinewidth
	0 setlinewidth 0 setlinejoin
	BuildCharPath stroke
    end end
} def

/FontType 3 def
/FontMatrix [ 1 33 div 0 0 1 33 div 0 0 ] def
/FontBBox [ -7 -15 35 40 ] def
/Encoding 256 array def 0 1 255 { Encoding exch dup put } for
currentdict FontName exch definefont end pop
%%EndResource
