%!PS-AdobeFont-1.0
%%Title: Download font: Hershey Italic Wide
%%Pages: 0
%%EndComments
%%BeginResource: font Hershey-Italic-Wide
30 dict begin
/bodies [
  ()
  dup
  dup
  dup
  dup
  dup
  dup
  dup
  dup
  dup
  dup
  dup
  dup
  dup
  dup
  dup
  dup
  dup
  dup
  dup
  dup
  dup
  dup
  dup
  dup
  dup
  dup
  dup
  dup
  dup
  dup
  dup
  dup
  (VFUFTGRT VGUGRT VGVHRT VFWGWHRT PXOYOZP[Q[RZRYQXPX PYPZQZQYPY)
  (PFOGMM PGMM PFQGMM ZFYGWM ZGWM ZF[GWM)
  (SFLb YFRb LQZQ KWYW)
  (TBL_ YBQ_ ZKZJYJYL[L[JZHYGVFRFOGMIMLNNPPVSWUWXVZ NLONVRWT OGNINKOMUPWRXTXWWYVZS[O[LZKYJWJULULWKWKV)
  ([FI[ NFPHPJOLMMKMIKIIJGLFNFPGSHVHYG[F WTUUTWTYV[X[ZZ[X[VYTWT)
  (\\O\\N[N[P]P]N\\M[MYNWPRXPZN[K[HZGXGVHTISKRPPROTMUKUITGRFPGOIOLPRQURWTZV[X[YYYX L[HZ IZHXHVITJSLR PPQSTYVZ K[JZIXIVJTKSMRRO OLPOQRSVUYWZXZYY)
  (VIUITHTGUFVFWGWIVKULSM UGUHVHVGUG VIVJUL)
  (ZBXCUERHPKNOMSMXN\\O_Qb SHQKOONTN\\ ZBWDTGRJQLPOOSN\\ NTO]P`Qb)
  (SBUEVHWLWQVUTYR\\O_LaJb VHVPUUSYQ\\ SBTDUGVP VHUQTUSXRZP]M`Jb)
  (TFSGUQTR TFTR TFUGSQTR OIPIXOYO OIYO OIOJYNYO YIXIPOOO YIOO YIYJONOO)
  (RIRZSZ RISISZ JQ[Q[R JQJR[R)
  (Q[P[OZOYPXQXRYR[Q]P^N_ PYPZQZQYPY Q[Q\\P^)
  (JQ[Q[R JQJR[R)
  (PXOYOZP[Q[RZRYQXPX PYPZQZQYPY)
  (_BEbFb _B`BFb)
  (TFQGOIMLLOKSKVLYMZO[Q[TZVXXUYRZNZKYHXGVFTF QHOJNLMOLSLWMY TYVWWUXRYNYJXH TFRGPJOLNOMSMXNZO[ Q[SZUWVUWRXNXIWGVF)
  (TJO[Q[ WFUJP[ WFQ[ WFTIQKOL TJRKOL)
  (OKOJPJPLNLNJOHPGSFVFYGZIZKYMWOMUKWI[ XGYIYKXMVOSQ VFWGXIXKWMUOMU JYKXMXRYWYXX MXRZWZ MXR[U[WZXXXW)
  (OKOJPJPLNLNJOHPGSFVFYGZIZKYMXNVOSP XGYIYKXMWN VFWGXIXKWMUOSP QPSPVQWRXTXWWYUZR[O[LZKYJWJULULWKWKV VRWTWWVY SPUQVSVWUYTZR[)
  (WJR[T[ ZFXJS[ ZFT[ ZFJUZU)
  (QFLP QF[F QGYG PHUHYG[F LPMOPNSNVOWPXRXUWXUZQ[N[LZKYJWJULULWKWKV VPWRWUVXTZ SNUOVQVUUXSZQ[)
  (YJYIXIXKZKZIYGWFTFQGOIMLLOKSKVLYMZO[R[UZWXXVXSWQVPTOQOOPNQMS PINLMOLSLWMY VXWVWSVQ TFRGPJOLNOMSMXNZO[ R[TZUYVVVRUPTO)
  (NFLL [FZIXLTQRTQWP[ RSPWO[ XLRRPUOWN[P[ MIPFRFWI OGRGWI MIOHRHWIYIZH[F)
  (SFPGOHNJNMOOQPTPWOYNZLZIYGWFSF UFPG PHOJONPO OORP SPWO XNYLYIXG YGUF SFQHPJPNQP TPVOWNXLXHWF QPMQKSJUJXKZN[R[VZWYXWXTWRVQTP RPMQ NQLSKUKXLZ KZP[VZ VYWWWTVR VQSP QPOQMSLULXMZN[ R[TZUYVWVSUQTP)
  (XNWPVQTRQROQNPMNMKNIPGSFVFXGYHZKZNYRXUVXTZQ[N[LZKXKVMVMXLXLW OPNNNKOI XHYJYNXRWUUX QRPQOOOKPHQGSF VFWGXIXNWRVUUWSZQ[)
  (SMRNROSPTPUOUNTMSM SNSOTOTNSN PXOYOZP[Q[RZRYQXPX PYPZQZQYPY)
  (SMRNROSPTPUOUNTMSM SNSOTOTNSN Q[P[OZOYPXQXRYR[Q]P^N_ PYPZQZQYPY Q[Q\\P^)
  (ZIJRZ[)
  (JM[M[N JMJN[N JU[U[V JUJV[V)
  (JIZRJ[)
  (OKOJPJPLNLNJOHPGSFWFZG[I[KZMYNWOSPQQQSSTTT UFZG YGZIZKYMXNVO WFXGYIYKXMWNSPRQRSST PXOYOZP[Q[RZRYQXPX PYPZQZQYPY)
  (WNVLTKQKOLNMMPMSNUPVSVUUVS QKOMNPNSOUPV WKVSVUXVZV\\T]Q]O\\L[JYHWGTFQFNGLHJJILHOHRIUJWLYNZQ[T[WZYYZX XKWSWUXV)
  (UFIZ SJT[ THUZ UFUHVYV[ LUTU F[L[ Q[X[ IZG[ IZK[ TZR[ TYS[ VYW[)
  (OFI[ PFJ[ QFK[ LFWFZG[I[KZNYOVP YGZIZKYNXO WFXGYIYKXNVP NPVPXQYSYUXXVZR[F[ WQXSXUWXUZ VPWRWUVXTZR[ MFPG NFOH RFPH SFPG JZG[ JYH[ KYL[ JZM[)
  (ZH[H\\F[L[JZHYGWFTFQGOIMLLOKSKVLYMZP[S[UZWXXV QHOJNLMOLSLWMY TFRGPJOLNOMSMXNZP[)
  (OFI[ PFJ[ QFK[ LFUFXGYHZKZOYSWWUYSZO[F[ WGXHYKYOXSVWTY UFWHXKXOWSUWRZO[ MFPG NFOH RFPH SFPG JZG[ JYH[ KYL[ JZM[)
  (OFI[ PFJ[ QFK[ ULST LF[FZL NPTP F[U[WV MFPG NFOH RFPH SFPG WFZG XFZH YFZI ZFZL ULSPST TNRPSR TOQPSQ JZG[ JYH[ KYL[ JZM[ P[UZ R[UY UYWV)
  (OFI[ PFJ[ QFK[ ULST LF[FZL NPTP F[N[ MFPG NFOH RFPH SFPG WFZG XFZH YFZI ZFZL ULSPST TNRPSR TOQPSQ JZG[ JYH[ KYL[ JZM[)
  (ZH[H\\F[L[JZHYGWFTFQGOIMLLOKSKVLYMZP[R[UZWXYT QHOJNLMOLSLWMY VXWWXT TFRGPJOLNOMSMXNZP[ R[TZVWWT TT\\T UTWU VTWW ZTXV [TXU)
  (NFH[ OFI[ PFJ[ ZFT[ [FU[ \\FV[ KFSF WF_F LPXP E[M[ Q[Y[ LFOG MFNH QFOH RFOG XF[G YFZH ]F[H ^F[G IZF[ IYG[ JYK[ IZL[ UZR[ UYS[ VYW[ UZX[)
  (TFN[ UFO[ VFP[ QFYF K[S[ RFUG SFTH WFUH XFUG OZL[ OYM[ PYQ[ OZR[)
  (WFRWQYO[ XFTSSVRX YFUSSXQZO[M[KZJXJVKULUMVMWLXKX KVKWLWLVKV TF\\F UFXG VFWH ZFXH [FXG)
  (OFI[ PFJ[ QFK[ \\GMR QOU[ ROV[ SNWZ LFTF YF_F F[N[ R[Y[ MFPG NFOH RFPH SFPG ZF\\G ^F\\G JZG[ JYH[ KYL[ JZM[ UZS[ UYT[ VYX[)
  (QFK[ RFL[ SFM[ NFVF H[W[YU OFRG PFQH TFRH UFRG LZI[ LYJ[ MYN[ LZO[ R[WZ T[XX V[YU)
  (MFGZ MGNYN[ NFOY OFPX [FPXN[ [FU[ \\FV[ ]FW[ JFOF [F`F D[J[ R[Z[ KFMG LFMH ^F\\H _F\\G GZE[ GZI[ VZS[ VYT[ WYX[ VZY[)
  (OFIZ OFV[ PFVX QFWX \\GWXV[ LFQF YF_F F[L[ MFPG NFPH ZF\\G ^F\\G IZG[ IZK[)
  (SFPGNILLKOJSJVKYLZN[Q[TZVXXUYRZNZKYHXGVFSF OIMLLOKSKWLY UXWUXRYNYJXH SFQGOJNLMOLSLXMZN[ Q[SZUWVUWRXNXIWGVF)
  (OFI[ PFJ[ QFK[ LFXF[G\\I\\K[NYPUQMQ ZG[I[KZNXP XFYGZIZKYNWPUQ F[N[ MFPG NFOH RFPH SFPG JZG[ JYH[ KYL[ JZM[)
  (SFPGNILLKOJSJVKYLZN[Q[TZVXXUYRZNZKYHXGVFSF OIMLLOKSKWLY UXWUXRYNYJXH SFQGOJNLMOLSLXMZN[ Q[SZUWVUWRXNXIWGVF LXMVOUPURVSXT]U^V^W] T^U_V_ SXS_T`V`W]W\\)
  (OFI[ PFJ[ QFK[ LFWFZG[I[KZNYOVPNP YGZIZKYNXO WFXGYIYKXNVP RPTQURWXXYYYZX WYXZYZ URVZW[Y[ZXZW F[N[ MFPG NFOH RFPH SFPG JZG[ JYH[ KYL[ JZM[)
  (ZH[H\\F[L[JZHYGVFRFOGMIMLNNPPVSWUWXVZ NLONVRWT OGNINKOMUPWRXTXWWYVZS[O[LZKYJWJUI[JYKY)
  (TFN[ UFO[ VFP[ MFKL ]F\\L MF]F K[S[ NFKL PFLI RFMG YF\\G ZF\\H [F\\I \\F\\L OZL[ OYM[ PYQ[ OZR[)
  (NFKQJUJXKZN[R[UZWXXU\\G OFLQKUKYLZ PFMQLULYN[ KFSF YF_F LFOG MFNH QFOH RFOG ZF\\G ^F\\G)
  (NFNHOYO[ OGPX PFQW [GO[ LFSF XF^F MFNH QFPH RFOG YF[G ]F[G)
  (MFMHKYK[ NGLX OFMW UFMWK[ UFUHSYS[ VGTX WFUW ]GUWS[ JFRF UFWF ZF`F KFNG LFMH PFNI QFNG [F]G _F]G)
  (NFT[ OFU[ PFV[ [GIZ LFSF XF^F F[L[ Q[X[ MFOH QFPH RFPG YF[G ]F[G IZG[ IZK[ TZR[ TYS[ UYW[)
  (MFQPN[ NFRPO[ OFSPP[ \\GSP KFRF YF_F K[S[ LFNG PFOH QFNG ZF\\G ^F\\G OZL[ OYM[ PYQ[ OZR[)
  (ZFH[ [FI[ \\FJ[ \\FNFLL H[V[XU OFLL PFMI RFNG R[VZ T[WX U[XU)
  (OBOb PBPb OBVB ObVb)
  (KFY^)
  (TBTb UBUb NBUB NbUb)
  (PLRITL MORJWO RJR[)
  (J]Z])
  (WFUGTHSJSLTMUMVLVKUJTJ UGTITJ TKTLULUKTK)
  (WMUTUXVZW[Y[[Y\\W XMVTVZ WMYMWTVX UTUQTNRMPMMNKQJTJVKYLZN[P[RZSYTWUT NNLQKTKWLY PMNOMQLTLWMZN[)
  (PFNMMSMWNYOZQ[S[VZXWYTYRXOWNUMSMQNPOOQNT QFOMNQNWOZ VYWWXTXQWO MFRFPMNT S[UYVWWTWQVNUM NFQG OFPH)
  (WQWPVPVRXRXPWNUMRMONMQLTLVMYNZP[R[UZWW OONQMTMWNY RMPOOQNTNWOZP[)
  (YFVQUUUXVZW[Y[[Y\\W ZFWQVUVZ VF[FWTVX UTUQTNRMPMMNKQJTJVKYLZN[P[RZSYTWUT MOLQKTKWLY PMNOMQLTLWMZN[ WFZG XFYH)
  (MVQUTTWRXPWNUMRMONMQLTLVMYNZP[R[UZWX OONQMTMWNY RMPOOQNTNWOZP[)
  (ZHZGYGYI[I[GZFXFVGTISKRNQRO[N^M`Kb TJSMRRP[O^ XFVHUJTMSRQZP]O_MaKbIbHaH_J_JaIaI` NMYM)
  (XMT[S^QaOb YMU[S_ XMZMV[T_RaObLbJaI`I^K^K`J`J_ VTVQUNSMQMNNLQKTKVLYMZO[Q[SZTYUWVT NOMQLTLWMY QMOONQMTMWNZO[)
  (OFI[K[ PFJ[ LFQFK[ MTOPQNSMUMWNXPXSVX WNWRVVVZ WPUUUXVZW[Y[[Y\\W MFPG NFOH)
  (SFSHUHUFSF TFTH SGUG LQMOOMQMRNSPSSQX RNRRQVQZ RPPUPXQZR[T[VYWW)
  (UFUHWHWFUF VFVH UGWG MQNOPMRMSNTPTSRZQ]P_NaLbJbIaI_K_KaJaJ` SNSSQZP]O_ SPRTP[O^N`Lb)
  (OFI[K[ PFJ[ LFQFK[ YOYNXNXPZPZNYMWMUNQROS MSOSQTRUTYUZWZ QUSYTZ OSPTRZS[U[WZYW MFPG NFOH)
  (TFQQPUPXQZR[T[VYWW UFRQQUQZ QFVFRTQX RFUG SFTH)
  (AQBODMFMGNHPHSF[ GNGSE[ GPFTD[F[ HSJPLNNMPMRNSPSSQ[ RNRSP[ RPQTO[Q[ SSUPWNYM[M]N^P^S\\X ]N]R\\V\\Z ]P[U[X\\Z][_[aYbW)
  (GQHOJMLMMNNPNSL[ MNMSK[ MPLTJ[L[ NSPPRNTMVMXNYPYSWX XNXRWVWZ XPVUVXWZX[Z[\\Y]W)
  (QMNNLQKTKVLYMZP[S[VZXWYTYRXOWNTMQM NOMQLTLWMY VYWWXTXQWO QMOONQMTMWNZP[ S[UYVWWTWQVNTM)
  (HQIOKMMMNNOPOSNWKb NNNSMWJb NPMTIb OTPQQORNTMVMXNYOZRZTYWWZT[R[PZOWOT XOYQYTXWWY VMWNXQXTWWVYT[ FbNb JaGb J`Hb K`Lb JaMb)
  (WMQb XMRb WMYMSb UTUQTNRMPMMNKQJTJVKYLZN[P[RZSYTWUT MOLQKTKWLY PMNOMQLTLWMZN[ NbVb RaOb R`Pb S`Tb RaUb)
  (JQKOMMOMPNQPQTO[ PNPTN[ PPOTM[O[ YOYNXNXPZPZNYMWMUNSPQT)
  (XPXOWOWQYQYOXNUMRMONNONQOSQTTUVVWX ONNQ ORQSTTVU WVVZ NOOQQRTSVTWVWXVZS[P[MZLYLWNWNYMYMX)
  (TFQQPUPXQZR[T[VYWW UFRQQUQZ TFVFRTQX NMXM)
  (GQHOJMLMMNNPNSLX MNMRLVLZ MPKUKXLZN[P[RZTXVU XMVUVXWZX[Z[\\Y]W YMWUWZ XMZMXTWX)
  (IQJOLMNMONPPPSNX ONORNVNZ OPMUMXNZP[R[TZVXXUYQYMXMXNYP)
  (DQEOGMIMJNKPKSIX JNJRIVIZ JPHUHXIZK[M[OZQXRU TMRURXSZU[W[YZ[X]U^Q^M]M]N^P UMSUSZ TMVMTTSX)
  (JQLNNMPMRNSPSR PMQNQRPVOXMZK[I[HZHXJXJZIZIY RORRQVQY ZOZNYNYP[P[NZMXMVNTPSRRVRZS[ PVPXQZS[U[WZYW)
  (HQIOKMMMNNOPOSMX NNNRMVMZ NPLULXMZO[Q[SZUXWT YMU[T^RaPb ZMV[T_ YM[MW[U_SaPbMbKaJ`J^L^L`K`K_)
  (YMXOVQNWLYK[ XOOOMPLR VORNONNO VORMOMMOLR LYUYWXXV NYRZUZVY NYR[U[WYXV)
  (TBRCQDPFPHQJRKSMSOQQ RCQEQGRISJTLTNSPORSTTVTXSZR[Q]Q_Ra QSSUSWRYQZP\\P^Q`RaTb)
  (RBRb)
  (PBRCSDTFTHSJRKQMQOSQ RCSESGRIQJPLPNQPURQTPVPXQZR[S]S_Ra SSQUQWRYSZT\\T^S`RaPb)
  (IUISJPLONOPPTSVTXTZS[Q ISJQLPNPPQTTVUXUZT[Q[O)
  (SFQGPIPKQMSNUNWMXKXIWGUFSF SFPIQMUNXKWGSF UFQGPKSNWMXIUF)
  ()
  dup
  dup
  dup
  dup
  dup
  dup
  dup
  dup
  dup
  dup
  dup
  dup
  dup
  dup
  dup
  dup
  dup
  dup
  dup
  dup
  dup
  dup
  dup
  dup
  dup
  dup
  dup
  dup
  dup
  dup
  dup
  dup
  dup
  dup
  dup
  dup
  dup
  dup
  dup
  dup
  dup
  dup
  dup
  dup
  dup
  dup
  dup
  dup
  dup
  dup
  dup
  dup
  dup
  dup
  dup
  dup
  dup
  dup
  dup
  dup
  dup
  dup
  dup
  dup
  dup
  dup
  dup
  dup
  dup
  dup
  dup
  dup
  dup
  dup
  dup
  dup
  dup
  dup
  dup
  dup
  dup
  dup
  dup
  dup
  dup
  dup
  dup
  dup
  dup
  dup
  dup
  dup
  dup
  dup
  dup
  dup
  dup
  dup
  dup
  dup
  dup
  dup
  dup
  dup
  dup
  dup
  dup
  dup
  dup
  dup
  dup
  dup
  dup
  dup
  dup
  dup
  dup
  dup
  dup
  dup
  dup
  dup
  dup
  dup
  dup
  dup
  dup
] def
/width [
  0
  0
  0
  0
  0
  0
  0
  0
  0
  0
  0
  0
  0
  0
  0
  0
  0
  0
  0
  0
  0
  0
  0
  0
  0
  0
  0
  0
  0
  0
  0
  0
  16
  11
  20
  21
  21
  24
  26
  11
  16
  16
  17
  25
  11
  25
  11
  23
  21
  21
  21
  21
  21
  21
  21
  21
  21
  21
  11
  11
  24
  25
  24
  21
  27
  20
  24
  21
  23
  23
  22
  22
  26
  14
  19
  23
  20
  28
  25
  22
  23
  22
  24
  23
  22
  25
  20
  26
  22
  22
  22
  14
  14
  14
  16
  16
  11
  22
  19
  18
  22
  18
  16
  21
  22
  13
  13
  22
  12
  35
  24
  20
  22
  21
  18
  17
  14
  24
  20
  30
  22
  22
  20
  14
  8
  14
  24
  15
  0
  0
  0
  0
  0
  0
  0
  0
  0
  0
  0
  0
  0
  0
  0
  0
  0
  0
  0
  0
  0
  0
  0
  0
  0
  0
  0
  0
  0
  0
  0
  0
  0
  0
  0
  0
  0
  0
  0
  0
  0
  0
  0
  0
  0
  0
  0
  0
  0
  0
  0
  0
  0
  0
  0
  0
  0
  0
  0
  0
  0
  0
  0
  0
  0
  0
  0
  0
  0
  0
  0
  0
  0
  0
  0
  0
  0
  0
  0
  0
  0
  0
  0
  0
  0
  0
  0
  0
  0
  0
  0
  0
  0
  0
  0
  0
  0
  0
  0
  0
  0
  0
  0
  0
  0
  0
  0
  0
  0
  0
  0
  0
  0
  0
  0
  0
  0
  0
  0
  0
  0
  0
  0
  0
  0
  0
  0
  0
] def
/left [
  0
  0
  0
  0
  0
  0
  0
  0
  0
  0
  0
  0
  0
  0
  0
  0
  0
  0
  0
  0
  0
  0
  0
  0
  0
  0
  0
  0
  0
  0
  0
  0
  -8
  -5
  -10
  -10
  -10
  -12
  -13
  -5
  -8
  -8
  -8
  -12
  -5
  -12
  -5
  -11
  -10
  -10
  -10
  -10
  -10
  -10
  -10
  -10
  -10
  -10
  -5
  -5
  -12
  -12
  -12
  -10
  -13
  -10
  -12
  -10
  -12
  -12
  -12
  -10
  -13
  -7
  -9
  -12
  -10
  -14
  -12
  -11
  -12
  -11
  -12
  -11
  -11
  -12
  -10
  -13
  -11
  -11
  -11
  -7
  -7
  -7
  -8
  -8
  -5
  -11
  -9
  -9
  -11
  -9
  -8
  -10
  -11
  -7
  -7
  -11
  -6
  -18
  -12
  -10
  -11
  -11
  -9
  -8
  -7
  -12
  -10
  -15
  -11
  -11
  -10
  -7
  -4
  -7
  -12
  -7
  0
  0
  0
  0
  0
  0
  0
  0
  0
  0
  0
  0
  0
  0
  0
  0
  0
  0
  0
  0
  0
  0
  0
  0
  0
  0
  0
  0
  0
  0
  0
  0
  0
  0
  0
  0
  0
  0
  0
  0
  0
  0
  0
  0
  0
  0
  0
  0
  0
  0
  0
  0
  0
  0
  0
  0
  0
  0
  0
  0
  0
  0
  0
  0
  0
  0
  0
  0
  0
  0
  0
  0
  0
  0
  0
  0
  0
  0
  0
  0
  0
  0
  0
  0
  0
  0
  0
  0
  0
  0
  0
  0
  0
  0
  0
  0
  0
  0
  0
  0
  0
  0
  0
  0
  0
  0
  0
  0
  0
  0
  0
  0
  0
  0
  0
  0
  0
  0
  0
  0
  0
  0
  0
  0
  0
  0
  0
  0
] def
/FontName /Hershey-Italic-Wide def
/BuildCharPath { 
	newpath
	/domove true def
	/isx true def
	0 0 moveto
	bodies charcode get { 
	    isx {
		dup 32 eq { pop /domove true def } 
			  { 82 sub left charcode get sub
			    /isx false def } ifelse
	    } { neg 91 add
		domove	{ moveto /domove false def } 
			{ lineto } ifelse
		/isx true def } 
	    ifelse
	} forall
} def
/BuildChar { 
    exch begin
    10 dict begin
	/charcode exch def
	BuildCharPath
	width charcode get 0
	pathbbox 1 add exch 1 add exch 4 2 roll 1 sub exch 1 sub exch 4 2 roll
	setcachedevice
	0 setlinewidth
	0 setlinewidth 0 setlinejoin
	BuildCharPath stroke
    end end
} def

/FontType 3 def
/FontMatrix [ 1 33 div 0 0 1 33 div 0 0 ] def
/FontBBox [ -7 -15 35 40 ] def
/Encoding 256 array def 0 1 255 { Encoding exch dup put } for
currentdict FontName exch definefont end pop
%%EndResource
