%!PS-AdobeFont-1.0
%%Title: Download font: Hershey Roman Narrow
%%Pages: 0
%%EndComments
%%BeginResource: font Hershey-Roman-Narrow
30 dict begin
/bodies [
  ()
  dup
  dup
  dup
  dup
  dup
  dup
  dup
  dup
  dup
  dup
  dup
  dup
  dup
  dup
  dup
  dup
  dup
  dup
  dup
  dup
  dup
  dup
  dup
  dup
  dup
  dup
  dup
  dup
  dup
  dup
  dup
  dup
  (RFRT RYQZR[SZRY)
  (NFNM VFVM)
  (SBLb YBRb LOZO KUYU)
  (PBP_ TBT_ YIWGTFPFMGKIKKLMMNOOUQWRXSYUYXWZT[P[MZKX)
  ([FI[ NFPHPJOLMMKMIKIIJGLFNFPGSHVHYG[F WTUUTWTYV[X[ZZ[X[VYTWT)
  (\\O\\N[MZMYNXPVUTXRZP[L[JZIYHWHUISJRQNRMSKSIRGPFNGMIMKNNPQUXWZY[[[\\Z\\Y)
  (RHQGRFSGSIRKQL)
  (VBTDRGPKOPOTPYR]T`Vb)
  (NBPDRGTKUPUTTYR]P`Nb)
  (RFRR MIWO WIMO)
  (RIR[ IR[R)
  (SZR[QZRYSZS\\R^Q_)
  (IR[R)
  (RYQZR[SZRY)
  ([BIb)
  (QFNGLJKOKRLWNZQ[S[VZXWYRYOXJVGSFQF)
  (NJPISFS[)
  (LKLJMHNGPFTFVGWHXJXLWNUQK[Y[)
  (MFXFRNUNWOXPYSYUXXVZS[P[MZLYKW)
  (UFKTZT UFU[)
  (WFMFLOMNPMSMVNXPYSYUXXVZS[P[MZLYKW)
  (XIWGTFRFOGMJLOLTMXOZR[S[VZXXYUYTXQVOSNRNOOMQLT)
  (YFO[ KFYF)
  (PFMGLILKMMONSOVPXRYTYWXYWZT[P[MZLYKWKTLRNPQOUNWMXKXIWGTFPF)
  (XMWPURRSQSNRLPKMKLLINGQFRFUGWIXMXRWWUZR[P[MZLX)
  (RMQNROSNRM RYQZR[SZRY)
  (RMQNROSNRM SZR[QZRYSZS\\R^Q_)
  (ZIJRZ[)
  (IO[O IU[U)
  (JIZRJ[)
  (LKLJMHNGPFTFVGWHXJXLWNVORQRT RYQZR[SZRY)
  (WNVLTKQKOLNMMPMSNUPVSVUUVS QKOMNPNSOUPV WKVSVUXVZV\\T]Q]O\\L[JYHWGTFQFNGLHJJILHOHRIUJWLYNZQ[T[WZYYZX XKWSWUXV)
  (RFJ[ RFZ[ MTWT)
  (KFK[ KFTFWGXHYJYLXNWOTP KPTPWQXRYTYWXYWZT[K[)
  (ZKYIWGUFQFOGMILKKNKSLVMXOZQ[U[WZYXZV)
  (KFK[ KFRFUGWIXKYNYSXVWXUZR[K[)
  (LFL[ LFYF LPTP L[Y[)
  (LFL[ LFYF LPTP)
  (ZKYIWGUFQFOGMILKKNKSLVMXOZQ[U[WZYXZVZS USZS)
  (KFK[ YFY[ KPYP)
  (RFR[)
  (VFVVUYTZR[P[NZMYLVLT)
  (KFK[ YFKT POY[)
  (LFL[ L[X[)
  (JFJ[ JFR[ ZFR[ ZFZ[)
  (KFK[ KFY[ YFY[)
  (PFNGLIKKJNJSKVLXNZP[T[VZXXYVZSZNYKXIVGTFPF)
  (KFK[ KFTFWGXHYJYMXOWPTQKQ)
  (PFNGLIKKJNJSKVLXNZP[T[VZXXYVZSZNYKXIVGTFPF SWY])
  (KFK[ KFTFWGXHYJYLXNWOTPKP RPY[)
  (YIWGTFPFMGKIKKLMMNOOUQWRXSYUYXWZT[P[MZKX)
  (RFR[ KFYF)
  (KFKULXNZQ[S[VZXXYUYF)
  (JFR[ ZFR[)
  (HFM[ RFM[ RFW[ \\FW[)
  (KFY[ YFK[)
  (JFRPR[ ZFRP)
  (YFK[ KFYF K[Y[)
  (OBOb PBPb OBVB ObVb)
  (KFY^)
  (TBTb UBUb NBUB NbUb)
  (PLRITL MORJWO RJR[)
  (J]Z])
  (SFRGQIQKRLSKRJ)
  (XMX[ XPVNTMQMONMPLSLUMXOZQ[T[VZXX)
  (LFL[ LPNNPMSMUNWPXSXUWXUZS[P[NZLX)
  (XPVNTMQMONMPLSLUMXOZQ[T[VZXX)
  (XFX[ XPVNTMQMONMPLSLUMXOZQ[T[VZXX)
  (LSXSXQWOVNTMQMONMPLSLUMXOZQ[T[VZXX)
  (WFUFSGRJR[ OMVM)
  (XMX]W`VaTbQbOa XPVNTMQMONMPLSLUMXOZQ[T[VZXX)
  (MFM[ MQPNRMUMWNXQX[)
  (QFRGSFREQF RMR[)
  (RFSGTFSERF SMS^RaPbNb)
  (MFM[ WMMW QSX[)
  (RFR[)
  (GMG[ GQJNLMOMQNRQR[ RQUNWMZM\\N]Q][)
  (MMM[ MQPNRMUMWNXQX[)
  (QMONMPLSLUMXOZQ[T[VZXXYUYSXPVNTMQM)
  (LMLb LPNNPMSMUNWPXSXUWXUZS[P[NZLX)
  (XMXb XPVNTMQMONMPLSLUMXOZQ[T[VZXX)
  (OMO[ OSPPRNTMWM)
  (XPWNTMQMNNMPNRPSUTWUXWXXWZT[Q[NZMX)
  (RFRWSZU[W[ OMVM)
  (MMMWNZP[S[UZXW XMX[)
  (LMR[ XMR[)
  (JMN[ RMN[ RMV[ ZMV[)
  (MMX[ XMM[)
  (LMR[ XMR[P_NaLbKb)
  (XMM[ MMXM M[X[)
  (TBRCQDPFPHQJRKSMSOQQ RCQEQGRISJTLTNSPORSTTVTXSZR[Q]Q_Ra QSSUSWRYQZP\\P^Q`RaTb)
  (RBRb)
  (PBRCSDTFTHSJRKQMQOSQ RCSESGRIQJPLPNQPURQTPVPXQZR[S]S_Ra SSQUQWRYSZT\\T^S`RaPb)
  (IUISJPLONOPPTSVTXTZS[Q ISJQLPNPPQTTVUXUZT[Q[O)
  (QFOGNINKOMQNSNUMVKVIUGSFQF)
  ()
  dup
  dup
  dup
  dup
  dup
  dup
  dup
  dup
  dup
  dup
  dup
  dup
  dup
  dup
  dup
  dup
  dup
  dup
  dup
  dup
  dup
  dup
  dup
  dup
  dup
  dup
  dup
  dup
  dup
  dup
  dup
  dup
  dup
  dup
  dup
  dup
  dup
  dup
  dup
  dup
  dup
  dup
  dup
  dup
  dup
  dup
  dup
  dup
  dup
  dup
  dup
  dup
  dup
  dup
  dup
  dup
  dup
  dup
  dup
  dup
  dup
  dup
  dup
  dup
  dup
  dup
  dup
  dup
  dup
  dup
  dup
  dup
  dup
  dup
  dup
  dup
  dup
  dup
  dup
  dup
  dup
  dup
  dup
  dup
  dup
  dup
  dup
  dup
  dup
  dup
  dup
  dup
  dup
  dup
  dup
  dup
  dup
  dup
  dup
  dup
  dup
  dup
  dup
  dup
  dup
  dup
  dup
  dup
  dup
  dup
  dup
  dup
  dup
  dup
  dup
  dup
  dup
  dup
  dup
  dup
  dup
  dup
  dup
  dup
  dup
  dup
  dup
] def
/width [
  0
  0
  0
  0
  0
  0
  0
  0
  0
  0
  0
  0
  0
  0
  0
  0
  0
  0
  0
  0
  0
  0
  0
  0
  0
  0
  0
  0
  0
  0
  0
  0
  16
  10
  16
  21
  20
  24
  26
  10
  14
  14
  16
  26
  10
  26
  10
  22
  20
  20
  20
  20
  20
  20
  20
  20
  20
  20
  10
  10
  24
  26
  24
  18
  27
  18
  21
  21
  21
  19
  18
  21
  22
  8
  16
  21
  17
  24
  22
  22
  21
  22
  21
  20
  16
  22
  18
  24
  20
  18
  20
  14
  14
  14
  16
  16
  10
  19
  19
  18
  19
  18
  12
  19
  19
  8
  10
  17
  8
  30
  19
  19
  19
  19
  13
  17
  12
  19
  16
  22
  17
  16
  17
  14
  8
  14
  24
  14
  0
  0
  0
  0
  0
  0
  0
  0
  0
  0
  0
  0
  0
  0
  0
  0
  0
  0
  0
  0
  0
  0
  0
  0
  0
  0
  0
  0
  0
  0
  0
  0
  0
  0
  0
  0
  0
  0
  0
  0
  0
  0
  0
  0
  0
  0
  0
  0
  0
  0
  0
  0
  0
  0
  0
  0
  0
  0
  0
  0
  0
  0
  0
  0
  0
  0
  0
  0
  0
  0
  0
  0
  0
  0
  0
  0
  0
  0
  0
  0
  0
  0
  0
  0
  0
  0
  0
  0
  0
  0
  0
  0
  0
  0
  0
  0
  0
  0
  0
  0
  0
  0
  0
  0
  0
  0
  0
  0
  0
  0
  0
  0
  0
  0
  0
  0
  0
  0
  0
  0
  0
  0
  0
  0
  0
  0
  0
  0
] def
/left [
  0
  0
  0
  0
  0
  0
  0
  0
  0
  0
  0
  0
  0
  0
  0
  0
  0
  0
  0
  0
  0
  0
  0
  0
  0
  0
  0
  0
  0
  0
  0
  0
  -8
  -5
  -8
  -10
  -10
  -12
  -13
  -5
  -7
  -7
  -8
  -13
  -5
  -13
  -5
  -11
  -10
  -10
  -10
  -10
  -10
  -10
  -10
  -10
  -10
  -10
  -5
  -5
  -12
  -13
  -12
  -9
  -13
  -9
  -11
  -10
  -11
  -10
  -10
  -10
  -11
  -4
  -8
  -11
  -10
  -12
  -11
  -11
  -11
  -11
  -11
  -10
  -8
  -11
  -9
  -12
  -10
  -9
  -10
  -7
  -7
  -7
  -8
  -8
  -5
  -9
  -10
  -9
  -9
  -9
  -5
  -9
  -9
  -4
  -5
  -9
  -4
  -15
  -9
  -9
  -10
  -9
  -7
  -8
  -5
  -9
  -8
  -11
  -8
  -8
  -8
  -7
  -4
  -7
  -12
  -7
  0
  0
  0
  0
  0
  0
  0
  0
  0
  0
  0
  0
  0
  0
  0
  0
  0
  0
  0
  0
  0
  0
  0
  0
  0
  0
  0
  0
  0
  0
  0
  0
  0
  0
  0
  0
  0
  0
  0
  0
  0
  0
  0
  0
  0
  0
  0
  0
  0
  0
  0
  0
  0
  0
  0
  0
  0
  0
  0
  0
  0
  0
  0
  0
  0
  0
  0
  0
  0
  0
  0
  0
  0
  0
  0
  0
  0
  0
  0
  0
  0
  0
  0
  0
  0
  0
  0
  0
  0
  0
  0
  0
  0
  0
  0
  0
  0
  0
  0
  0
  0
  0
  0
  0
  0
  0
  0
  0
  0
  0
  0
  0
  0
  0
  0
  0
  0
  0
  0
  0
  0
  0
  0
  0
  0
  0
  0
  0
] def
/FontName /Hershey-Roman-Narrow def
/BuildCharPath { 
	newpath
	/domove true def
	/isx true def
	0 0 moveto
	bodies charcode get { 
	    isx {
		dup 32 eq { pop /domove true def } 
			  { 82 sub left charcode get sub
			    /isx false def } ifelse
	    } { neg 91 add
		domove	{ moveto /domove false def } 
			{ lineto } ifelse
		/isx true def } 
	    ifelse
	} forall
} def
/BuildChar { 
    exch begin
    10 dict begin
	/charcode exch def
	BuildCharPath
	width charcode get 0
	pathbbox 1 add exch 1 add exch 4 2 roll 1 sub exch 1 sub exch 4 2 roll
	setcachedevice
	0 setlinewidth
	0 setlinewidth 0 setlinejoin
	BuildCharPath stroke
    end end
} def

/FontType 3 def
/FontMatrix [ 1 33 div 0 0 1 33 div 0 0 ] def
/FontBBox [ -7 -15 35 40 ] def
/Encoding 256 array def 0 1 255 { Encoding exch dup put } for
currentdict FontName exch definefont end pop
%%EndResource
