%!PS-AdobeFont-1.0
%%Title: Download font: Hershey Roman Wide
%%Pages: 0
%%EndComments
%%BeginResource: font Hershey-Roman-Wide
30 dict begin
/bodies [
  ()
  dup
  dup
  dup
  dup
  dup
  dup
  dup
  dup
  dup
  dup
  dup
  dup
  dup
  dup
  dup
  dup
  dup
  dup
  dup
  dup
  dup
  dup
  dup
  dup
  dup
  dup
  dup
  dup
  dup
  dup
  dup
  dup
  (RFQGQIRQ RFRTST RFSFST SFTGTISQ RXQYQZR[S[TZTYSXRX RYRZSZSYRY)
  (NFMGMM NGMM NFOGMM WFVGVM WGVM WFXGVM)
  (SFLb YFRb LQZQ KWYW)
  (PBP_ TBT_ XKXJWJWLYLYJXHWGTFPFMGKIKLLNOPURWSXUXXWZ LLMNOOUQWRXT MGLILKMMONUPXRYTYWXYWZT[P[MZLYKWKUMUMWLWLV)
  ([FI[ NFPHPJOLMMKMIKIIJGLFNFPGSHVHYG[F WTUUTWTYV[X[ZZ[X[VYTWT)
  ([O[NZNZP\\P\\N[MZMYNXPVUTXRZP[L[JZIXIUJSPORMSKSIRGPFNGMIMLNOPRTWWZY[[[\\Y\\X KZJXJUKSLR RMSI SKRG NGMK NNPQTVWYYZ N[LZKXKULSPO MINMQQUVXYZZ[Z\\Y)
  (THSIRIQHQGRFSFTGTJSLQM RGRHSHSGRG SITJ THSL)
  (UBSDQGOKNPNTOYQ]S`Ub QHPKOOOUPYQ\\ SDRFQIPOPUQ[R^S`)
  (OBQDSGUKVPVTUYS]Q`Ob SHTKUOUUTYS\\ QDRFSITOTUS[R^Q`)
  (RFQGSQRR RFRR RFSGQQRR MINIVOWO MIWO MIMJWNWO WIVINOMO WIMO WIWJMNMO)
  (RIRZSZ RISISZ JQ[Q[R JQJR[R)
  (TZS[R[QZQYRXSXTYT\\S^Q_ RYRZSZSYRY S[T\\ TZS^)
  (JQ[Q[R JQJR[R)
  (RXQYQZR[S[TZTYSXRX RYRZSZSYRY)
  ([BIbJb [B\\BJb)
  (QFNGLJKOKRLWNZQ[S[VZXWYRYOXJVGSFQF NHMJLNLSMWNY VYWWXSXNWJVH QFOGNIMNMSNXOZQ[ S[UZVXWSWNVIUGSF)
  (QHQ[ RHRZ SFS[ SFPINJ M[W[ QZO[ QYP[ SYT[ SZU[)
  (LJLKMKMJLJ LIMINJNKMLLLKKKJLHMGPFTFWGXHYJYLXNUPPRNSLUKXK[ WHXJXLWN TFVGWJWLVNTPPR KYLXNXSYWYYX NXSZWZXY NXS[W[XZYXYV)
  (LJLKMKMJLJ LIMINJNKMLLLKKKJLHMGPFTFWGXIXLWNTO VGWIWLVN SFUGVIVLUNSO QOTOVPXRYTYWXYWZT[P[MZLYKWKVLUMUNVNWMXLX WRXTXWWY SOUPVQWTWWVZT[ LVLWMWMVLV)
  (SIS[ THTZ UFU[ UFJUZU P[X[ SZQ[ SYR[ UYV[ UZW[)
  (MFKPMNPMSMVNXPYSYUXXVZS[P[MZLYKWKVLUMUNVNWMXLX WPXRXVWX SMUNVOWRWVVYUZS[ LVLWMWMVLV MFWF MGUG MHQHUGWF)
  (VIVJWJWIVI WHVHUIUJVKWKXJXIWGUFRFOGMILKKOKULXNZQ[S[VZXXYUYTXQVOSNQNOONPMR NIMKLOLUMXNY WXXVXSWQ RFPGOHNJMNMUNXOZQ[ S[UZVYWVWSVPUOSN)
  (KFKL YFYIXLTQSSRWR[ SRRTQWQ[ XLSQQTPWP[R[ KJLHNFPFUIWIXHYF MHNGPGRH KJLINHPHUI)
  (PFMGLILLMNPOTOWNXLXIWGTFPF NGMIMLNN VNWLWIVG PFOGNINLONPO TOUNVLVIUGTF POMPLQKSKWLYMZP[T[WZXYYWYSXQWPTO MQLSLWMY WYXWXSWQ PONPMSMWNZP[ T[VZWWWSVPTO)
  (MWMXNXNWMW WOVQURSSQSNRLPKMKLLINGQFSFVGXIYLYRXVWXUZR[O[MZLXLWMVNVOWOXNYMY MPLNLKMI VHWIXLXRWVVX QSORNQMNMKNHOGQF SFUGVIWLWSVWUYTZR[)
  (RMQNQORPSPTOTNSMRM RNROSOSNRN RXQYQZR[S[TZTYSXRX RYRZSZSYRY)
  (RMQNQORPSPTOTNSMRM RNROSOSNRN TZS[R[QZQYRXSXTYT\\S^Q_ RYRZSZSYRY S[T\\ TZS^)
  (ZIJRZ[)
  (JM[M[N JMJN[N JU[U[V JUJV[V)
  (JIZRJ[)
  (MKMJNJNLLLLJMHNGPFTFWGXHYJYLXNWOSQ WHXIXMWN TFVGWIWMVOUP RQRTSTSQRQ RXQYQZR[S[TZTYSXRX RYRZSZSYRY)
  (WNVLTKQKOLNMMPMSNUPVSVUUVS QKOMNPNSOUPV WKVSVUXVZV\\T]Q]O\\L[JYHWGTFQFNGLHJJILHOHRIUJWLYNZQ[T[WZYYZX XKWSWUXV)
  (RFKZ QIW[ RIX[ RFY[ MUVU I[O[ T[[[ KZJ[ KZM[ WZU[ WYV[ XYZ[)
  (LFL[ MGMZ NFN[ IFUFXGYHZJZLYNXOUP XHYJYLXN UFWGXIXMWOUP NPUPXQYRZTZWYYXZU[I[ XRYTYWXY UPWQXSXXWZU[ JFLG KFLH OFNH PFNG LZJ[ LYK[ NYO[ NZP[)
  (XIYFYLXIVGTFQFNGLIKKJNJSKVLXNZQ[T[VZXXYV MILKKNKSLVMX QFOGMJLNLSMWOZQ[)
  (LFL[ MGMZ NFN[ IFSFVGXIYKZNZSYVXXVZS[I[ WIXKYNYSXVWX SFUGWJXNXSWWUZS[ JFLG KFLH OFNH PFNG LZJ[ LYK[ NYO[ NZP[)
  (LFL[ MGMZ NFN[ IFYFYL NPTP TLTT I[Y[YU JFLG KFLH OFNH PFNG TFYG VFYH WFYI XFYL TLSPTT TNRPTR TOPPTQ LZJ[ LYK[ NYO[ NZP[ T[YZ V[YY W[YX X[YU)
  (LFL[ MGMZ NFN[ IFYFYL NPTP TLTT I[Q[ JFLG KFLH OFNH PFNG TFYG VFYH WFYI XFYL TLSPTT TNRPTR TOPPTQ LZJ[ LYK[ NYO[ NZP[)
  (XIYFYLXIVGTFQFNGLIKKJNJSKVLXNZQ[T[VZXZY[YS MILKKNKSLVMX QFOGMJLNLSMWOZQ[ XTXY WSWYVZ TS\\S USWT VSWU ZSYU [SYT)
  (KFK[ LGLZ MFM[ WFW[ XGXZ YFY[ HFPF TF\\F MPWP H[P[ T[\\[ IFKG JFKH NFMH OFMG UFWG VFWH ZFYH [FYG KZI[ KYJ[ MYN[ MZO[ WZU[ WYV[ YYZ[ YZ[[)
  (QFQ[ RGRZ SFS[ NFVF N[V[ OFQG PFQH TFSH UFSG QZO[ QYP[ SYT[ SZU[)
  (SFSWRZQ[ TGTWSZ UFUWTZQ[O[MZLXLVMUNUOVOWNXMX MVMWNWNVMV PFXF QFSG RFSH VFUH WFUG)
  (KFK[ LGLZ MFM[ XGMR PPW[ QPX[ QNY[ HFPF UF[F H[P[ T[[[ IFKG JFKH NFMH OFMG WFXG ZFXG KZI[ KYJ[ MYN[ MZO[ WYU[ WYZ[)
  (NFN[ OGOZ PFP[ KFSF K[Z[ZU LFNG MFNH QFPH RFPG NZL[ NYM[ PYQ[ PZR[ U[ZZ W[ZY X[ZX Y[ZU)
  (JFJZ JFQ[ KFQX LFRX XFQ[ XFX[ YGYZ ZFZ[ GFLF XF]F G[M[ U[][ HFJG [FZH \\FZG JZH[ JZL[ XZV[ XYW[ ZY[[ ZZ\\[)
  (KFKZ KFY[ LFXX MFYX YGY[ HFMF VF\\F H[N[ IFKG WFYG [FYG KZI[ KZM[)
  (QFNGLIKKJOJRKVLXNZQ[S[VZXXYVZRZOYKXIVGSFQF MILKKNKSLVMX WXXVYSYNXKWI QFOGMJLNLSMWOZQ[ S[UZWWXSXNWJUGSF)
  (LFL[ MGMZ NFN[ IFUFXGYHZJZMYOXPUQNQ XHYJYMXO UFWGXIXNWPUQ I[Q[ JFLG KFLH OFNH PFNG LZJ[ LYK[ NYO[ NZP[)
  (QFNGLIKKJOJRKVLXNZQ[S[VZXXYVZRZOYKXIVGSFQF MILKKNKSLVMX WXXVYSYNXKWI QFOGMJLNLSMWOZQ[ S[UZWWXSXNWJUGSF NXOVQURUTVUXV^W`Y`Z^Z\\ V\\W^X_Y_ UXW]X^Y^Z])
  (LFL[ MGMZ NFN[ IFUFXGYHZJZLYNXOUPNP XHYJYLXN UFWGXIXMWOUP RPTQUSWYX[Z[[Y[W WWXYYZZZ TQURXXYYZY[X I[Q[ JFLG KFLH OFNH PFNG LZJ[ LYK[ NYO[ NZP[)
  (XIYFYLXIVGSFPFMGKIKLLNOPURWSXUXXWZ LLMNOOUQWRXT MGLILKMMONUPXRYTYWXYWZT[Q[NZLXKUK[LX)
  (JFJL QFQ[ RGRZ SFS[ ZFZL JFZF N[V[ KFJL LFJI MFJH OFJG UFZG WFZH XFZI YFZL QZO[ QYP[ SYT[ SZU[)
  (KFKULXNZQ[S[VZXXYUYG LGLVMX MFMVNYOZQ[ HFPF VF\\F IFKG JFKH NFMH OFMG WFYG [FYG)
  (KFR[ LFRXR[ MFSX YGR[ IFPF UF[F JFLH NFMH OFMG WFYG ZFYG)
  (JFN[ KFNVN[ LFOV RFOVN[ RFV[ SFVVV[ TFWV ZGWVV[ GFOF RFTF WF]F HFKG IFKH MFLH NFLG XFZG \\FZG)
  (KFW[ LFX[ MFY[ XGLZ IFPF UF[F I[O[ T[[[ JFMH NFMH OFMG VFXG ZFXG LZJ[ LZN[ WZU[ WYV[ WYZ[)
  (JFQQQ[ KFRQRZ LFSQS[ YGSQ HFOF VF\\F N[V[ IFKG NFLG WFYG [FYG QZO[ QYP[ SYT[ SZU[)
  (YFKFKL WFK[ XFL[ YFM[ K[Y[YU LFKL MFKI NFKH PFKG T[YZ V[YY W[YX X[YU)
  (OBOb PBPb OBVB ObVb)
  (KFY^)
  (TBTb UBUb NBUB NbUb)
  (PLRITL MORJWO RJR[)
  (J]Z])
  (TFRGQIQLRMSMTLTKSJRJQK RKRLSLSKRK RGQK QIRJ)
  (NPNOOOOQMQMONNPMTMVNWOXQXXYZZ[ VOWQWXXZ TMUNVPVXWZZ[[[ VRUSPTMULWLXMZP[S[UZVX NUMWMXNZ USQTOUNWNXOZP[)
  (LFL[MZOZ MGMY IFNFNZ NPONQMSMVNXPYSYUXXVZS[Q[OZNX WPXRXVWX SMUNVOWRWVVYUZS[ JFLG KFLH)
  (WQWPVPVRXRXPVNTMQMNNLPKSKULXNZQ[S[VZXX MPLRLVMX QMONNOMRMVNYOZQ[)
  (VFV[[[ WGWZ SFXFX[ VPUNSMQMNNLPKSKULXNZQ[S[UZVX MPLRLVMX QMONNOMRMVNYOZQ[ TFVG UFVH XYY[ XZZ[)
  (MSXSXQWOVNSMQMNNLPKSKULXNZQ[S[VZXX WRWQVO MPLRLVMX VSVPUNSM QMONNOMRMVNYOZQ[)
  (WHWGVGVIXIXGWFTFRGQHPKP[ RHQKQZ TFSGRIR[ MMVM M[U[ PZN[ PYO[ RYS[ RZT[)
  (XNYOZNYMXMVNUO QMONNOMQMSNUOVQWSWUVVUWSWQVOUNSMQM OONQNSOU UUVSVQUO QMPNOPOTPVQW SWTVUTUPTNSM NUMVLXLYM[N\\Q]U]X^Y_ N[Q\\U\\X] LYMZP[U[X\\Y^Y_XaUbObLaK_K^L\\O[ ObMaL_L^M\\O[)
  (LFL[ MGMZ IFNFN[ NQOOPNRMUMWNXOYRY[ WOXRXZ UMVNWQW[ I[Q[ T[\\[ JFLG KFLH LZJ[ LYK[ NYO[ NZP[ WZU[ WYV[ YYZ[ YZ[[)
  (QFQHSHSFQF RFRH QGSG QMQ[ RNRZ NMSMS[ N[V[ OMQN PMQO QZO[ QYP[ SYT[ SZU[)
  (RFRHTHTFRF SFSH RGTG RMR^QaPb SNS]R` OMTMT]S`RaPbMbLaL_N_NaMaM` PMRN QMRO)
  (LFL[ MGMZ IFNFN[ WNNW RSY[ RTX[ QTW[ TM[M I[Q[ T[[[ JFLG KFLH UMWN ZMWN LZJ[ LYK[ NYO[ NZP[ WYU[ VYZ[)
  (QFQ[ RGRZ NFSFS[ N[V[ OFQG PFQH QZO[ QYP[ SYT[ SZU[)
  (FMF[ GNGZ CMHMH[ HQIOJNLMOMQNROSRS[ QORRRZ OMPNQQQ[ SQTOUNWMZM\\N]O^R^[ \\O]R]Z ZM[N\\Q\\[ C[K[ N[V[ Y[a[ DMFN EMFO FZD[ FYE[ HYI[ HZJ[ QZO[ QYP[ SYT[ SZU[ \\ZZ[ \\Y[[ ^Y_[ ^Z`[)
  (LML[ MNMZ IMNMN[ NQOOPNRMUMWNXOYRY[ WOXRXZ UMVNWQW[ I[Q[ T[\\[ JMLN KMLO LZJ[ LYK[ NYO[ NZP[ WZU[ WYV[ YYZ[ YZ[[)
  (QMNNLPKSKULXNZQ[S[VZXXYUYSXPVNSMQM MPLRLVMX WXXVXRWP QMONNOMRMVNYOZQ[ S[UZVYWVWRVOUNSM)
  (LMLb MNMa IMNMNb NPONQMSMVNXPYSYUXXVZS[Q[OZNX WPXRXVWX SMUNVOWRWVVYUZS[ IbQb JMLN KMLO LaJb L`Kb N`Ob NaPb)
  (VNVb WOWa UNWNXMXb VPUNSMQMNNLPKSKULXNZQ[S[UZVX MPLRLVMX QMONNOMRMVNYOZQ[ Sb[b VaTb V`Ub X`Yb XaZb)
  (NMN[ ONOZ KMPMP[ WOWNVNVPXPXNWMUMSNQPPS K[S[ LMNN MMNO NZL[ NYM[ PYQ[ PZR[)
  (WOXMXQWOVNTMPMNNMOMQNSPTUUWVXY NNMQ NRPSUTWU XVWZ MONQPRUSWTXVXYWZU[Q[OZNYMWM[NY)
  (PHPVQYRZT[V[XZYX QHQWRY PHRFRWSZT[ MMVM)
  (LMLVMYNZP[S[UZVYWW MNMWNY IMNMNWOZP[ WMW[\\[ XNXZ TMYMY[ JMLN KMLO YYZ[ YZ[[)
  (LMR[ MMRY NMSY XNSYR[ JMQM TMZM KMNO PMNN VMXN YMXN)
  (JMN[ KMNX LMOX RMOXN[ RMV[ SMVX RMTMWX ZNWXV[ GMOM WM]M HMKN NMLN XMZN \\MZN)
  (LMV[ MMW[ NMX[ WNMZ JMQM TMZM J[P[ S[Z[ KMMN PMNN UMWN YMWN MZK[ MZO[ VZT[ WZY[)
  (LMR[ MMRY NMSY XNSYP_NaLbJbIaI_K_KaJaJ` JMQM TMZM KMNO PMNN VMXN YMXN)
  (VML[ WMM[ XMN[ XMLMLQ L[X[XW MMLQ NMLP OMLO QMLN S[XZ U[XY V[XX W[XW)
  (TBRCQDPFPHQJRKSMSOQQ RCQEQGRISJTLTNSPORSTTVTXSZR[Q]Q_Ra QSSUSWRYQZP\\P^Q`RaTb)
  (RBRb)
  (PBRCSDTFTHSJRKQMQOSQ RCSESGRIQJPLPNQPURQTPVPXQZR[S]S_Ra SSQUQWRYSZT\\T^S`RaPb)
  (IUISJPLONOPPTSVTXTZS[Q ISJQLPNPPQTTVUXUZT[Q[O)
  (QFOGNINKOMQNSNUMVKVIUGSFQF QFNIOMSNVKUGQF SFOGNKQNUMVISF)
  ()
  dup
  dup
  dup
  dup
  dup
  dup
  dup
  dup
  dup
  dup
  dup
  dup
  dup
  dup
  dup
  dup
  dup
  dup
  dup
  dup
  dup
  dup
  dup
  dup
  dup
  dup
  dup
  dup
  dup
  dup
  dup
  dup
  dup
  dup
  dup
  dup
  dup
  dup
  dup
  dup
  dup
  dup
  dup
  dup
  dup
  dup
  dup
  dup
  dup
  dup
  dup
  dup
  dup
  dup
  dup
  dup
  dup
  dup
  dup
  dup
  dup
  dup
  dup
  dup
  dup
  dup
  dup
  dup
  dup
  dup
  dup
  dup
  dup
  dup
  dup
  dup
  dup
  dup
  dup
  dup
  dup
  dup
  dup
  dup
  dup
  dup
  dup
  dup
  dup
  dup
  dup
  dup
  dup
  dup
  dup
  dup
  dup
  dup
  dup
  dup
  dup
  dup
  dup
  dup
  dup
  dup
  dup
  dup
  dup
  dup
  dup
  dup
  dup
  dup
  dup
  dup
  dup
  dup
  dup
  dup
  dup
  dup
  dup
  dup
  dup
  dup
  dup
] def
/width [
  0
  0
  0
  0
  0
  0
  0
  0
  0
  0
  0
  0
  0
  0
  0
  0
  0
  0
  0
  0
  0
  0
  0
  0
  0
  0
  0
  0
  0
  0
  0
  0
  16
  11
  18
  21
  20
  24
  26
  11
  14
  14
  16
  25
  11
  25
  11
  23
  20
  20
  20
  20
  20
  20
  20
  20
  20
  20
  11
  11
  24
  25
  24
  19
  27
  20
  22
  21
  22
  21
  20
  23
  24
  12
  15
  22
  18
  26
  24
  22
  22
  22
  22
  20
  20
  24
  20
  24
  20
  22
  20
  14
  14
  14
  16
  16
  11
  20
  21
  19
  21
  19
  14
  19
  23
  12
  13
  22
  12
  34
  23
  20
  21
  20
  17
  17
  15
  23
  18
  24
  20
  19
  18
  14
  8
  14
  24
  14
  0
  0
  0
  0
  0
  0
  0
  0
  0
  0
  0
  0
  0
  0
  0
  0
  0
  0
  0
  0
  0
  0
  0
  0
  0
  0
  0
  0
  0
  0
  0
  0
  0
  0
  0
  0
  0
  0
  0
  0
  0
  0
  0
  0
  0
  0
  0
  0
  0
  0
  0
  0
  0
  0
  0
  0
  0
  0
  0
  0
  0
  0
  0
  0
  0
  0
  0
  0
  0
  0
  0
  0
  0
  0
  0
  0
  0
  0
  0
  0
  0
  0
  0
  0
  0
  0
  0
  0
  0
  0
  0
  0
  0
  0
  0
  0
  0
  0
  0
  0
  0
  0
  0
  0
  0
  0
  0
  0
  0
  0
  0
  0
  0
  0
  0
  0
  0
  0
  0
  0
  0
  0
  0
  0
  0
  0
  0
  0
] def
/left [
  0
  0
  0
  0
  0
  0
  0
  0
  0
  0
  0
  0
  0
  0
  0
  0
  0
  0
  0
  0
  0
  0
  0
  0
  0
  0
  0
  0
  0
  0
  0
  0
  -8
  -5
  -9
  -10
  -10
  -12
  -13
  -5
  -7
  -7
  -8
  -12
  -5
  -12
  -5
  -11
  -10
  -10
  -10
  -10
  -10
  -10
  -10
  -10
  -10
  -10
  -5
  -5
  -12
  -12
  -12
  -9
  -13
  -10
  -11
  -11
  -11
  -11
  -11
  -11
  -12
  -6
  -8
  -12
  -9
  -13
  -12
  -11
  -11
  -11
  -11
  -10
  -10
  -12
  -10
  -12
  -10
  -11
  -10
  -7
  -7
  -7
  -8
  -8
  -5
  -9
  -11
  -10
  -10
  -10
  -7
  -9
  -11
  -6
  -7
  -11
  -6
  -17
  -11
  -10
  -11
  -10
  -9
  -8
  -7
  -11
  -9
  -12
  -10
  -10
  -9
  -7
  -4
  -7
  -12
  -7
  0
  0
  0
  0
  0
  0
  0
  0
  0
  0
  0
  0
  0
  0
  0
  0
  0
  0
  0
  0
  0
  0
  0
  0
  0
  0
  0
  0
  0
  0
  0
  0
  0
  0
  0
  0
  0
  0
  0
  0
  0
  0
  0
  0
  0
  0
  0
  0
  0
  0
  0
  0
  0
  0
  0
  0
  0
  0
  0
  0
  0
  0
  0
  0
  0
  0
  0
  0
  0
  0
  0
  0
  0
  0
  0
  0
  0
  0
  0
  0
  0
  0
  0
  0
  0
  0
  0
  0
  0
  0
  0
  0
  0
  0
  0
  0
  0
  0
  0
  0
  0
  0
  0
  0
  0
  0
  0
  0
  0
  0
  0
  0
  0
  0
  0
  0
  0
  0
  0
  0
  0
  0
  0
  0
  0
  0
  0
  0
] def
/FontName /Hershey-Roman-Wide def
/BuildCharPath { 
	newpath
	/domove true def
	/isx true def
	0 0 moveto
	bodies charcode get { 
	    isx {
		dup 32 eq { pop /domove true def } 
			  { 82 sub left charcode get sub
			    /isx false def } ifelse
	    } { neg 91 add
		domove	{ moveto /domove false def } 
			{ lineto } ifelse
		/isx true def } 
	    ifelse
	} forall
} def
/BuildChar { 
    exch begin
    10 dict begin
	/charcode exch def
	BuildCharPath
	width charcode get 0
	pathbbox 1 add exch 1 add exch 4 2 roll 1 sub exch 1 sub exch 4 2 roll
	setcachedevice
	0 setlinewidth
	0 setlinewidth 0 setlinejoin
	BuildCharPath stroke
    end end
} def

/FontType 3 def
/FontMatrix [ 1 33 div 0 0 1 33 div 0 0 ] def
/FontBBox [ -7 -15 35 40 ] def
/Encoding 256 array def 0 1 255 { Encoding exch dup put } for
currentdict FontName exch definefont end pop
%%EndResource
