%!PS-AdobeFont-1.0
%%Title: Download font: Hershey Greekp
%%Pages: 0
%%EndComments
%%BeginResource: font Hershey-Greekp
30 dict begin
/bodies [
  ()
  dup
  dup
  dup
  dup
  dup
  dup
  dup
  dup
  dup
  dup
  dup
  dup
  dup
  dup
  dup
  dup
  dup
  dup
  dup
  dup
  dup
  dup
  dup
  dup
  dup
  dup
  dup
  dup
  dup
  dup
  dup
  dup
  (RMRR SMSR RURVSVSURU)
  (PMPQ TMTQ)
  (RLPW ULSW OPVP OSVS)
  (UNSMQMONOPQQTRUSUUSVQVOU RLRW)
  (XKLX OKPLPNOOMOLNLLMKOKSLVLXK UTTUTWUXWXXWXUWTUT)
  (VRURTSSURVOVNUNSORRQSPSNRMPMONOPQSSUUVVV)
  (SNRNRMSMSORQ)
  (TLRNQPQSRUTW)
  (PLRNSPSSRUPW)
  (RJRP OKUO UKOO)
  (RNRV NRVR)
  (SVRVRUSUSWRY)
  (NRVR)
  (RURVSVSURU)
  (VLNW)
  (RMPNOPOSPURVTUUSUPTNRM)
  (PORMRV)
  (ONQMSMUNUPTROVUV)
  (ONQMSMUNUPSQ RQSQURUUSVQVOU)
  (SMSV SMNSVS)
  (PMOQQPRPTQUSTURVQVOU PMTM)
  (TMRMPNOPOSPURVTUUSTQRPPQOS)
  (UMQV OMUM)
  (QMONOPQQSQUPUNSMQM QQOROUQVSVUUURSQ)
  (UPTRRSPROPPNRMTNUPUSTURVPV)
  (RPRQSQSPRP RURVSVSURU)
  (RPRQSQSPRP SVRVRUSUSWRY)
  (WLMRWX)
  (NPVP NTVT)
  (MLWRMX)
  (PNRMSMUNUPRQRRSRSQUP RURVSVSURU)
  (UPSOQOPQPRQTSTUS UOUSVTXTYRYQXNVLSKRKOLMNLQLRMUOWRXSXVW)
  (RMNV RMVV PSTS)
  (OMOV OMSMUNUPSQ OQSQURUUSVOV)
  (OMOV OMUM)
  (RMNV RMVV NVVV)
  (OMOV OMUM OQSQ OVUV)
  (UMOV OMUM OVUV)
  (OMOV UMUV OQUQ)
  (RMPNOPOSPURVSVUUVSVPUNSMRM QQTR TQQR)
  (RMRV)
  (OMOV UMOS QQUV)
  (RMNV RMVV)
  (NMNV NMRV VMRV VMVV)
  (OMOV OMUV UMUV)
  (OMUM PQTR TQPR OVUV)
  (RMPNOPOSPURVSVUUVSVPUNSMRM)
  (OMOV UMUV OMUM)
  (OMOV OMSMUNUQSROR)
  (OMRQOV OMUM OVUV)
  (RMRV NMVM)
  (NONNOMPMQNRPRV VOVNUMTMSNRP)
  (RMRV PONPNSPTTTVSVPTOPO)
  (OMUV UMOV)
  (RMRV NOOPOSQTSTUSUPVO)
  (OVQVOROPPNRMSMUNVPVRTVVV)
  ()
  dup
  (PHP\\ QHQ\\ PHUH P\\U\\)
  (MMWW)
  (SHS\\ THT\\ OHTH O\\T\\)
  (RMRX OPPORLTOUP PORMTO)
  (MXWX)
  (SMRORQSQSPRP)
  (RMNV RMVV PSTS)
  (OMOV OMSMUNUPSQ OQSQURUUSVOV)
  (OMOV OMUM)
  (RMNV RMVV NVVV)
  (OMOV OMUM OQSQ OVUV)
  (UMOV OMUM OVUV)
  (OMOV UMUV OQUQ)
  (RMPNOPOSPURVSVUUVSVPUNSMRM QQTR TQQR)
  (RMRV)
  (OMOV UMOS QQUV)
  (RMNV RMVV)
  (NMNV NMRV VMRV VMVV)
  (OMOV OMUV UMUV)
  (OMUM PQTR TQPR OVUV)
  (RMPNOPOSPURVSVUUVSVPUNSMRM)
  (OMOV UMUV OMUM)
  (OMOV OMSMUNUQSROR)
  (OMRQOV OMUM OVUV)
  (RMRV NMVM)
  (NONNOMPMQNRPRV VOVNUMTMSNRP)
  (RMRV PONPNSPTTTVSVPTOPO)
  (OMUV UMOV)
  (RMRV NOOPOSQTSTUSUPVO)
  (OVQVOROPPNRMSMUNVPVRTVVV)
  ()
  dup
  (SHQIPJPLRNSP QIPL SNRQ PJQLSNSPRQPRRSSTSVQXPZ RSSV PXQ[ STRVPXPZQ[S\\)
  (RLRW)
  (QHSITJTLRNQP SITL QNRQ TJSLQNQPRQTRRSQTQVSXTZ RSQV TXS[ QTRVTXTZS[Q\\)
  (LTLRMPOPUSWSXR LRMQOQUTWTXRXP)
  (QMPNPPQQSQTPTNSMQM)
  ()
  dup
  dup
  dup
  dup
  dup
  dup
  dup
  dup
  dup
  dup
  dup
  dup
  dup
  dup
  dup
  dup
  dup
  dup
  dup
  dup
  dup
  dup
  dup
  dup
  dup
  dup
  dup
  dup
  dup
  dup
  dup
  dup
  dup
  dup
  dup
  dup
  dup
  dup
  dup
  dup
  dup
  dup
  dup
  dup
  dup
  dup
  dup
  dup
  dup
  dup
  dup
  dup
  dup
  dup
  dup
  dup
  dup
  dup
  dup
  dup
  dup
  dup
  dup
  dup
  dup
  dup
  dup
  dup
  dup
  dup
  dup
  dup
  dup
  dup
  dup
  dup
  dup
  dup
  dup
  dup
  dup
  dup
  dup
  dup
  dup
  dup
  dup
  dup
  dup
  dup
  dup
  dup
  dup
  dup
  dup
  dup
  dup
  dup
  dup
  dup
  dup
  dup
  dup
  dup
  dup
  dup
  dup
  dup
  dup
  dup
  dup
  dup
  dup
  dup
  dup
  dup
  dup
  dup
  dup
  dup
  dup
  dup
  dup
  dup
  dup
  dup
  dup
] def
/width [
  0
  0
  0
  0
  0
  0
  0
  0
  0
  0
  0
  0
  0
  0
  0
  0
  0
  0
  0
  0
  0
  0
  0
  0
  0
  0
  0
  0
  0
  0
  0
  0
  8
  5
  8
  11
  10
  16
  12
  5
  7
  7
  10
  12
  5
  12
  5
  10
  10
  10
  10
  10
  10
  10
  10
  10
  10
  10
  5
  5
  16
  12
  16
  9
  17
  10
  10
  9
  10
  10
  10
  10
  11
  4
  10
  10
  12
  10
  10
  11
  10
  10
  10
  10
  10
  12
  10
  12
  11
  8
  8
  10
  10
  10
  10
  10
  5
  10
  10
  9
  10
  10
  10
  10
  11
  4
  10
  10
  12
  10
  10
  11
  10
  10
  10
  10
  10
  12
  10
  12
  11
  8
  8
  11
  4
  11
  16
  8
  0
  0
  0
  0
  0
  0
  0
  0
  0
  0
  0
  0
  0
  0
  0
  0
  0
  0
  0
  0
  0
  0
  0
  0
  0
  0
  0
  0
  0
  0
  0
  0
  0
  0
  0
  0
  0
  0
  0
  0
  0
  0
  0
  0
  0
  0
  0
  0
  0
  0
  0
  0
  0
  0
  0
  0
  0
  0
  0
  0
  0
  0
  0
  0
  0
  0
  0
  0
  0
  0
  0
  0
  0
  0
  0
  0
  0
  0
  0
  0
  0
  0
  0
  0
  0
  0
  0
  0
  0
  0
  0
  0
  0
  0
  0
  0
  0
  0
  0
  0
  0
  0
  0
  0
  0
  0
  0
  0
  0
  0
  0
  0
  0
  0
  0
  0
  0
  0
  0
  0
  0
  0
  0
  0
  0
  0
  0
  0
] def
/left [
  0
  0
  0
  0
  0
  0
  0
  0
  0
  0
  0
  0
  0
  0
  0
  0
  0
  0
  0
  0
  0
  0
  0
  0
  0
  0
  0
  0
  0
  0
  0
  0
  -4
  -2
  -4
  -5
  -5
  -8
  -6
  -2
  -3
  -4
  -5
  -6
  -2
  -6
  -2
  -5
  -5
  -5
  -5
  -5
  -5
  -5
  -5
  -5
  -5
  -5
  -2
  -2
  -8
  -6
  -8
  -4
  -8
  -5
  -5
  -5
  -5
  -5
  -5
  -5
  -5
  -2
  -5
  -5
  -6
  -5
  -5
  -5
  -5
  -5
  -5
  -5
  -5
  -6
  -5
  -6
  -5
  -4
  -4
  -5
  -5
  -5
  -5
  -5
  -2
  -5
  -5
  -5
  -5
  -5
  -5
  -5
  -5
  -2
  -5
  -5
  -6
  -5
  -5
  -5
  -5
  -5
  -5
  -5
  -5
  -6
  -5
  -6
  -5
  -4
  -4
  -6
  -2
  -5
  -8
  -4
  0
  0
  0
  0
  0
  0
  0
  0
  0
  0
  0
  0
  0
  0
  0
  0
  0
  0
  0
  0
  0
  0
  0
  0
  0
  0
  0
  0
  0
  0
  0
  0
  0
  0
  0
  0
  0
  0
  0
  0
  0
  0
  0
  0
  0
  0
  0
  0
  0
  0
  0
  0
  0
  0
  0
  0
  0
  0
  0
  0
  0
  0
  0
  0
  0
  0
  0
  0
  0
  0
  0
  0
  0
  0
  0
  0
  0
  0
  0
  0
  0
  0
  0
  0
  0
  0
  0
  0
  0
  0
  0
  0
  0
  0
  0
  0
  0
  0
  0
  0
  0
  0
  0
  0
  0
  0
  0
  0
  0
  0
  0
  0
  0
  0
  0
  0
  0
  0
  0
  0
  0
  0
  0
  0
  0
  0
  0
  0
] def
/FontName /Hershey-Greekp def
/BuildCharPath { 
	newpath
	/domove true def
	/isx true def
	0 0 moveto
	bodies charcode get { 
	    isx {
		dup 32 eq { pop /domove true def } 
			  { 82 sub left charcode get sub
			    /isx false def } ifelse
	    } { neg 91 add
		domove	{ moveto /domove false def } 
			{ lineto } ifelse
		/isx true def } 
	    ifelse
	} forall
} def
/BuildChar { 
    exch begin
    10 dict begin
	/charcode exch def
	BuildCharPath
	width charcode get 0
	pathbbox 1 add exch 1 add exch 4 2 roll 1 sub exch 1 sub exch 4 2 roll
	setcachedevice
	0 setlinewidth
	0 setlinewidth 0 setlinejoin
	BuildCharPath stroke
    end end
} def

/FontType 3 def
/FontMatrix [ 1 33 div 0 0 1 33 div 0 0 ] def
/FontBBox [ -7 -15 35 40 ] def
/Encoding 256 array def 0 1 255 { Encoding exch dup put } for
currentdict FontName exch definefont end pop
%%EndResource
