%!PS-AdobeFont-1.0
%%Title: Download font: Hershey Italic
%%Pages: 0
%%EndComments
%%BeginResource: font Hershey-Italic
30 dict begin
/bodies [
  ()
  dup
  dup
  dup
  dup
  dup
  dup
  dup
  dup
  dup
  dup
  dup
  dup
  dup
  dup
  dup
  dup
  dup
  dup
  dup
  dup
  dup
  dup
  dup
  dup
  dup
  dup
  dup
  dup
  dup
  dup
  dup
  dup
  (UFTGRS UGRS UFVGRS PYOZP[QZPY)
  (PFNM QFNM YFWM ZFWM)
  (SFLb YFRb LQZQ KWYW)
  (TBL_ YBQ_ ZJYKZL[K[JZHYGVFRFOGMIMKNMONVRXT MKOMVQWRXTXWWYVZS[O[LZKYJWJVKULVKW)
  ([FI[ NFPHPJOLMMKMIKIIJGLFNFPGSHVHYG[F WTUUTWTYV[X[ZZ[X[VYTWT)
  (\\N[O\\P]O]N\\M[MYNWPRXPZN[K[HZGXGVHTISKRPPROTMUKUITGRFPGOIOLPRQUSXUZW[Y[ZYZX K[IZHXHVITJSPP OLPQQTSWUYWZYZZY)
  (UHTGUFVGVHUJSL)
  (ZBVESHQKOONTNXO]P`Qb VESIQMPPOUOZP_Qb)
  (SBTDUGVLVPUUSYQ\\N_Jb SBTEUJUOTTSWQ[N_)
  (TFTR OIYO YIOO)
  (RIR[ IR[R)
  (P[OZPYQZQ[P]N_)
  (IR[R)
  (PYOZP[QZPY)
  (_BEb)
  (TFQGOIMLLOKSKVLYMZO[Q[TZVXXUYRZNZKYHXGVFTF TFRGPINLMOLSLVMYO[ Q[SZUXWUXRYNYKXHVF)
  (TJO[ VFP[ VFSIPKNL UIQKNL)
  (OJPKOLNKNJOHPGSFVFYGZIZKYMWOTQPSMUKWI[ VFXGYIYKXMVOPS JYKXMXRZUZWYXW MXR[U[WZXW)
  (OJPKOLNKNJOHPGSFVFYGZIZKYMVOSP VFXGYIYKXMVO QPSPVQWRXTXWWYVZS[O[LZKYJWJVKULVKW SPUQVRWTWWVYUZS[)
  (XGR[ YFS[ YFJUZU)
  (QFLP QF[F QGVG[F LPMOPNSNVOWPXRXUWXUZR[O[LZKYJWJVKULVKW SNUOVPWRWUVXTZR[)
  (YIXJYKZJZIYGWFTFQGOIMLLOKSKWLYMZO[R[UZWXXVXSWQVPTOQOOPMRLT TFRGPINLMOLSLXMZ R[TZVXWVWRVP)
  (NFLL [FZIXLSRQUPWO[ XLRRPUOWN[ MIPFRFWI NHPGRGWIYIZH[F)
  (SFPGOHNJNMOOQPTPXOYNZLZIYGVFSF SFQGPHOJOMPOQP TPWOXNYLYIXGVF QPMQKSJUJXKZN[R[VZWYXWXTWRVQTP QPNQLSKUKXLZN[ R[UZVYWWWSVQ)
  (YMXOVQTRQROQNPMNMKNIPGSFVFXGYHZJZNYRXUVXTZQ[N[LZKXKWLVMWLX OQNONKOIQGSF XGYIYNXRWUUXSZQ[)
  (SMRNSOTNSM PYOZP[QZ)
  (SMRNSOTNSM P[OZPYQZQ[P]N_)
  (ZIJRZ[)
  (IO[O IU[U)
  (JIZRJ[)
  (OJPKOLNKNJOHPGSFWFZG[I[KZMYNSPQQQSRTTT WFYGZIZKYMXNVO PYOZP[QZPY)
  (WNVLTKQKOLNMMPMSNUPVSVUUVS QKOMNPNSOUPV WKVSVUXVZV\\T]Q]O\\L[JYHWGTFQFNGLHJJILHOHRIUJWLYNZQ[T[WZYYZX XKWSWUXV)
  (UFH[ UFV[ THU[ LUUU F[L[ R[X[)
  (OFI[ PFJ[ LFWFZG[I[KZNYOVP WFYGZIZKYNXOVP MPVPXQYSYUXXVZR[F[ VPWQXSXUWXUZR[)
  (ZH[H\\F[L[JZHYGWFTFQGOIMLLOKSKVLYMZP[S[UZWXXV TFRGPINLMOLSLVMYNZP[)
  (OFI[ PFJ[ LFUFXGYHZKZOYSWWUYSZO[F[ UFWGXHYKYOXSVWTYRZO[)
  (OFI[ PFJ[ TLRT LF[FZLZF MPSP F[U[WVT[)
  (OFI[ PFJ[ TLRT LF[FZLZF MPSP F[M[)
  (ZH[H\\F[L[JZHYGWFTFQGOIMLLOKSKVLYMZP[R[UZWXYT TFRGPINLMOLSLVMYNZP[ R[TZVXXT UT\\T)
  (NFH[ OFI[ [FU[ \\FV[ KFRF XF_F LPXP E[L[ R[Y[)
  (UFO[ VFP[ RFYF L[S[)
  (XFSWRYQZO[M[KZJXJVKULVKW WFRWQYO[ TF[F)
  (OFI[ PFJ[ ]FLS SOW[ ROV[ LFSF YF_F F[M[ S[Y[)
  (QFK[ RFL[ NFUF H[W[YUV[)
  (NFH[ NFO[ OFPY \\FO[ \\FV[ ]FW[ KFOF \\F`F E[K[ S[Z[)
  (OFI[ OFVX OIV[ \\FV[ LFOF YF_F F[L[)
  (SFPGNILLKOJSJVKYLZN[Q[TZVXXUYRZNZKYHXGVFSF SFQGOIMLLOKSKVLYN[ Q[SZUXWUXRYNYKXHVF)
  (OFI[ PFJ[ LFXF[G\\I\\K[NYPUQMQ XFZG[I[KZNXPUQ F[M[)
  (SFPGNILLKOJSJVKYLZN[Q[TZVXXUYRZNZKYHXGVFSF SFQGOIMLLOKSKVLYN[ Q[SZUXWUXRYNYKXHVF LYLXMVOUPURVSXS_T`V`W^W] SXT^U_V_W^)
  (OFI[ PFJ[ LFWFZG[I[KZNYOVPMP WFYGZIZKYNXOVP RPTQURVZW[Y[ZYZX URWYXZYZZY F[M[)
  (ZH[H\\F[L[JZHYGVFRFOGMIMKNMONVRXT MKOMVQWRXTXWWYVZS[O[LZKYJWJUI[JYKY)
  (UFO[ VFP[ OFLLNF]F\\L\\F L[S[)
  (NFKQJUJXKZN[R[UZWXXU\\F OFLQKUKXLZN[ KFRF YF_F)
  (NFO[ OFPY \\FO[ LFRF XF^F)
  (MFK[ NFLY UFK[ UFS[ VFTY ]FS[ JFQF ZF`F)
  (NFU[ OFV[ \\FH[ LFRF XF^F F[L[ R[X[)
  (NFRPO[ OFSPP[ ]FSP LFRF YF_F L[S[)
  ([FH[ \\FI[ OFLLNF\\F H[V[XUU[)
  (OBOb PBPb OBVB ObVb)
  (KFY^)
  (TBTb UBUb NBUB NbUb)
  (PLRITL MORJWO RJR[)
  (J]Z])
  (VFTHSJSKTLUKTJ)
  (XMVTUXUZV[Y[[Y\\W YMWTVXVZW[ VTVQUNSMQMNNLQKTKWLYMZO[Q[SZUWVT QMONMQLTLXMZ)
  (PFLSLVMYNZ QFMS MSNPPNRMTMVNWOXQXTWWUZR[P[NZMWMS VNWPWTVWTZR[ MFQF)
  (WPWQXQXPWNUMRMONMQLTLWMYNZP[R[UZWW RMPNNQMTMXNZ)
  (ZFVTUXUZV[Y[[Y\\W [FWTVXVZW[ VTVQUNSMQMNNLQKTKWLYMZO[Q[SZUWVT QMONMQLTLXMZ WF[F)
  (MVQUTTWRXPWNUMRMONMQLTLWMYNZP[R[UZWX RMPNNQMTMXNZ)
  (ZGYHZI[H[GZFXFVGUHTJSMP[O_Na XFVHUJTNRWQ[P^O`NaLbJbIaI`J_K`Ja OMYM)
  (YMU[T^RaObLbJaI`I_J^K_J` XMT[S^QaOb VTVQUNSMQMNNLQKTKWLYMZO[Q[SZUWVT QMONMQLTLXMZ)
  (PFJ[ QFK[ MTOPQNSMUMWNXOXQVWVZW[ UMWOWQUWUZV[Y[[Y\\W MFQF)
  (UFTGUHVGUF MQNOPMSMTNTQRWRZS[ RMSNSQQWQZR[U[WYXW)
  (VFUGVHWGVF NQOOQMTMUNUQR[Q^P`OaMbKbJaJ`K_L`Ka SMTNTQQ[P^O`Mb)
  (PFJ[ QFK[ XNWOXPYOYNXMWMUNQROSMS OSQTSZT[ OSPTRZS[U[WZYW MFQF)
  (UFQTPXPZQ[T[VYWW VFRTQXQZR[ RFVF)
  (BQCOEMHMINIPHTF[ GMHNHPGTE[ HTJPLNNMPMRNSOSQP[ PMRORQO[ RTTPVNXMZM\\N]O]Q[W[Z\\[ ZM\\O\\QZWZZ[[^[`YaW)
  (GQHOJMMMNNNPMTK[ LMMNMPLTJ[ MTOPQNSMUMWNXOXQVWVZW[ UMWOWQUWUZV[Y[[Y\\W)
  (RMONMQLTLWMYNZP[R[UZWWXTXQWOVNTMRM RMPNNQMTMXNZ R[TZVWWTWPVN)
  (HQIOKMNMONOPNTJb MMNNNPMTIb NTOQQNSMUMWNXOYQYTXWVZS[Q[OZNWNT WNXPXTWWUZS[ FbMb)
  (XMRb YMSb VTVQUNSMQMNNLQKTKWLYMZO[Q[SZUWVT QMONMQLTLXMZ ObVb)
  (JQKOMMPMQNQPPTN[ OMPNPPOTM[ PTRPTNVMXMYNYOXPWOXN)
  (XOXPYPYOXNUMRMONNONQORVVWW NPOQVUWVWYVZS[P[MZLYLXMXMY)
  (TFPTOXOZP[S[UYVW UFQTPXPZQ[ NMWM)
  (GQHOJMMMNNNQLWLYN[ LMMNMQKWKYLZN[P[RZTXVT XMVTUXUZV[Y[[Y\\W YMWTVXVZW[)
  (IQJOLMOMPNPQNWNYP[ NMONOQMWMYNZP[Q[TZVXXUYQYMXMYO)
  (DQEOGMJMKNKQIWIYK[ IMJNJQHWHYIZK[M[OZQXRV TMRVRYSZU[W[YZ[X\\V]R]M\\M]O UMSVSYU[)
  (KQMNOMRMSOSR QMRORRQVPXNZL[K[JZJYKXLYKZ QVQYR[U[WZYW YNXOYPZOZNYMXMVNTPSRRVRYS[)
  (HQIOKMNMONOQMWMYO[ MMNNNQLWLYMZO[Q[SZUXWT ZMV[U^SaPbMbKaJ`J_K^L_K` YMU[T^RaPb)
  (YMXOVQNWLYK[ LQMOOMRMVO MOONRNVOXO LYNYRZUZWY NYR[U[WYXW)
  (TBRCQDPFPHQJRKSMSOQQ RCQEQGRISJTLTNSPORSTTVTXSZR[Q]Q_Ra QSSUSWRYQZP\\P^Q`RaTb)
  (RBRb)
  (PBRCSDTFTHSJRKQMQOSQ RCSESGRIQJPLPNQPURQTPVPXQZR[S]S_Ra SSQUQWRYSZT\\T^S`RaPb)
  (IUISJPLONOPPTSVTXTZS[Q ISJQLPNPPQTTVUXUZT[Q[O)
  (SFQGPIPKQMSNUNWMXKXIWGUFSF)
  ()
  dup
  dup
  dup
  dup
  dup
  dup
  dup
  dup
  dup
  dup
  dup
  dup
  dup
  dup
  dup
  dup
  dup
  dup
  dup
  dup
  dup
  dup
  dup
  dup
  dup
  dup
  dup
  dup
  dup
  dup
  dup
  dup
  dup
  dup
  dup
  dup
  dup
  dup
  dup
  dup
  dup
  dup
  dup
  dup
  dup
  dup
  dup
  dup
  dup
  dup
  dup
  dup
  dup
  dup
  dup
  dup
  dup
  dup
  dup
  dup
  dup
  dup
  dup
  dup
  dup
  dup
  dup
  dup
  dup
  dup
  dup
  dup
  dup
  dup
  dup
  dup
  dup
  dup
  dup
  dup
  dup
  dup
  dup
  dup
  dup
  dup
  dup
  dup
  dup
  dup
  dup
  dup
  dup
  dup
  dup
  dup
  dup
  dup
  dup
  dup
  dup
  dup
  dup
  dup
  dup
  dup
  dup
  dup
  dup
  dup
  dup
  dup
  dup
  dup
  dup
  dup
  dup
  dup
  dup
  dup
  dup
  dup
  dup
  dup
  dup
  dup
  dup
] def
/width [
  0
  0
  0
  0
  0
  0
  0
  0
  0
  0
  0
  0
  0
  0
  0
  0
  0
  0
  0
  0
  0
  0
  0
  0
  0
  0
  0
  0
  0
  0
  0
  0
  16
  11
  18
  21
  21
  24
  26
  11
  15
  15
  17
  26
  11
  26
  11
  22
  21
  21
  21
  21
  21
  21
  21
  21
  21
  21
  11
  11
  24
  26
  24
  21
  27
  20
  24
  21
  23
  23
  22
  22
  26
  13
  18
  23
  20
  27
  25
  22
  23
  22
  24
  23
  21
  25
  20
  26
  22
  21
  22
  14
  14
  14
  16
  16
  11
  21
  19
  18
  21
  18
  15
  20
  21
  13
  13
  20
  12
  33
  23
  18
  21
  20
  17
  17
  14
  23
  20
  29
  20
  21
  20
  14
  8
  14
  24
  15
  0
  0
  0
  0
  0
  0
  0
  0
  0
  0
  0
  0
  0
  0
  0
  0
  0
  0
  0
  0
  0
  0
  0
  0
  0
  0
  0
  0
  0
  0
  0
  0
  0
  0
  0
  0
  0
  0
  0
  0
  0
  0
  0
  0
  0
  0
  0
  0
  0
  0
  0
  0
  0
  0
  0
  0
  0
  0
  0
  0
  0
  0
  0
  0
  0
  0
  0
  0
  0
  0
  0
  0
  0
  0
  0
  0
  0
  0
  0
  0
  0
  0
  0
  0
  0
  0
  0
  0
  0
  0
  0
  0
  0
  0
  0
  0
  0
  0
  0
  0
  0
  0
  0
  0
  0
  0
  0
  0
  0
  0
  0
  0
  0
  0
  0
  0
  0
  0
  0
  0
  0
  0
  0
  0
  0
  0
  0
  0
] def
/left [
  0
  0
  0
  0
  0
  0
  0
  0
  0
  0
  0
  0
  0
  0
  0
  0
  0
  0
  0
  0
  0
  0
  0
  0
  0
  0
  0
  0
  0
  0
  0
  0
  -8
  -5
  -9
  -10
  -10
  -12
  -13
  -5
  -7
  -8
  -8
  -13
  -5
  -13
  -5
  -11
  -10
  -10
  -10
  -10
  -10
  -10
  -10
  -10
  -10
  -10
  -5
  -5
  -12
  -13
  -12
  -10
  -13
  -10
  -12
  -10
  -12
  -12
  -12
  -10
  -13
  -6
  -9
  -12
  -10
  -13
  -12
  -11
  -12
  -11
  -12
  -11
  -10
  -12
  -10
  -13
  -11
  -10
  -11
  -7
  -7
  -7
  -8
  -8
  -5
  -10
  -10
  -9
  -10
  -9
  -7
  -10
  -10
  -6
  -6
  -10
  -5
  -17
  -12
  -9
  -11
  -10
  -9
  -8
  -7
  -12
  -10
  -15
  -10
  -11
  -10
  -7
  -4
  -7
  -12
  -7
  0
  0
  0
  0
  0
  0
  0
  0
  0
  0
  0
  0
  0
  0
  0
  0
  0
  0
  0
  0
  0
  0
  0
  0
  0
  0
  0
  0
  0
  0
  0
  0
  0
  0
  0
  0
  0
  0
  0
  0
  0
  0
  0
  0
  0
  0
  0
  0
  0
  0
  0
  0
  0
  0
  0
  0
  0
  0
  0
  0
  0
  0
  0
  0
  0
  0
  0
  0
  0
  0
  0
  0
  0
  0
  0
  0
  0
  0
  0
  0
  0
  0
  0
  0
  0
  0
  0
  0
  0
  0
  0
  0
  0
  0
  0
  0
  0
  0
  0
  0
  0
  0
  0
  0
  0
  0
  0
  0
  0
  0
  0
  0
  0
  0
  0
  0
  0
  0
  0
  0
  0
  0
  0
  0
  0
  0
  0
  0
] def
/FontName /Hershey-Italic def
/BuildCharPath { 
	newpath
	/domove true def
	/isx true def
	0 0 moveto
	bodies charcode get { 
	    isx {
		dup 32 eq { pop /domove true def } 
			  { 82 sub left charcode get sub
			    /isx false def } ifelse
	    } { neg 91 add
		domove	{ moveto /domove false def } 
			{ lineto } ifelse
		/isx true def } 
	    ifelse
	} forall
} def
/BuildChar { 
    exch begin
    10 dict begin
	/charcode exch def
	BuildCharPath
	width charcode get 0
	pathbbox 1 add exch 1 add exch 4 2 roll 1 sub exch 1 sub exch 4 2 roll
	setcachedevice
	0 setlinewidth
	0 setlinewidth 0 setlinejoin
	BuildCharPath stroke
    end end
} def

/FontType 3 def
/FontMatrix [ 1 33 div 0 0 1 33 div 0 0 ] def
/FontBBox [ -7 -15 35 40 ] def
/Encoding 256 array def 0 1 255 { Encoding exch dup put } for
currentdict FontName exch definefont end pop
%%EndResource
