%!PS-AdobeFont-1.0
%%Title: Download font: Hershey Greek
%%Pages: 0
%%EndComments
%%BeginResource: font Hershey-Greek
30 dict begin
/bodies [
  ()
  dup
  dup
  dup
  dup
  dup
  dup
  dup
  dup
  dup
  dup
  dup
  dup
  dup
  dup
  dup
  dup
  dup
  dup
  dup
  dup
  dup
  dup
  dup
  dup
  dup
  dup
  dup
  dup
  dup
  dup
  dup
  dup
  (RFQHRTSHRF RHRN RYQZR[SZRY)
  (RMQNROSNRM R[QZRYSZS\\R^Q_)
  (SFLb YFRb LQZQ KWYW)
  (PBP_ TBT_ XIWJXKYJYIWGTFPFMGKIKKLMMNOOUQWRYT KKMMONUPWQXRYTYXWZT[P[MZKXKWLVMWLX)
  ([FI[ NFPHPJOLMMKMIKIIJGLFNFPGSHVHYG[F WTUUTWTYV[X[ZZ[X[VYTWT)
  ([NZO[P\\O\\N[MZMYNXPVUTXRZP[M[JZIXIUJSPORMSKSIRGPFNGMIMKNNPQUXWZZ[[[\\Z\\Y M[KZJXJUKSMQ MKNMVXXZZ[)
  (RHQGRFSGSIRKQL)
  (VBTDRGPKOPOTPYR]T`Vb TDRHQKPPPTQYR\\T`)
  (NBPDRGTKUPUTTYR]P`Nb PDRHSKTPTTSYR\\P`)
  (RFRR MIWO WIMO)
  (RIR[ IR[R)
  (R[QZRYSZS\\R^Q_)
  (IR[R)
  (RYQZR[SZRY)
  ([BIb)
  (QFNGLJKOKRLWNZQ[S[VZXWYRYOXJVGSFQF QFOGNHMJLOLRMWNYOZQ[ S[UZVYWWXRXOWJVHUGSF)
  (NJPISFS[ RGR[ N[W[)
  (LJMKLLKKKJLHMGPFTFWGXHYJYLXNUPPRNSLUKXK[ TFVGWHXJXLWNTPPR KYLXNXSZVZXYYX NXS[W[XZYXYV)
  (LJMKLLKKKJLHMGPFTFWGXIXLWNTOQO TFVGWIWLVNTO TOVPXRYTYWXYWZT[P[MZLYKWKVLUMVLW WQXTXWWYVZT[)
  (THT[ UFU[ UFJUZU Q[X[)
  (MFKP KPMNPMSMVNXPYSYUXXVZS[P[MZLYKWKVLUMVLW SMUNWPXSXUWXUZS[ MFWF MGRGWF)
  (WIVJWKXJXIWGUFRFOGMILKKOKULXNZQ[S[VZXXYUYTXQVOSNRNOOMQLT RFPGNIMKLOLUMXOZQ[ S[UZWXXUXTWQUOSN)
  (KFKL KJLHNFPFUIWIXHYF LHNGPGUI YFYIXLTQSSRVR[ XLSQRSQVQ[)
  (PFMGLILLMNPOTOWNXLXIWGTFPF PFNGMIMLNNPO TOVNWLWIVGTF POMPLQKSKWLYMZP[T[WZXYYWYSXQWPTO PONPMQLSLWMYNZP[ T[VZWYXWXSWQVPTO)
  (XMWPURRSQSNRLPKMKLLINGQFSFVGXIYLYRXVWXUZR[O[MZLXLWMVNWMX QSORMPLMLLMIOGQF SFUGWIXLXRWVVXTZR[)
  (RMQNROSNRM RYQZR[SZRY)
  (RMQNROSNRM R[QZRYSZS\\R^Q_)
  (ZIJRZ[)
  (IO[O IU[U)
  (JIZRJ[)
  (MJNKMLLKLJMHNGPFSFVGWHXJXLWNVORQRT SFUGVHWJWLVNTP RYQZR[SZRY)
  (WNVLTKQKOLNMMPMSNUPVSVUUVS QKOMNPNSOUPV WKVSVUXVZV\\T]Q]O\\L[JYHWGTFQFNGLHJJILHOHRIUJWLYNZQ[T[WZYYZX XKWSWUXV)
  (RFK[ RFY[ RIX[ MUVU I[O[ U[[[)
  (LFL[ MFM[ IFUFXGYHZJZLYNXOUP UFWGXHYJYLXNWOUP MPUPXQYRZTZWYYXZU[I[ UPWQXRYTYWXYWZU[)
  (NFN[ OFO[ KFZFZLYF K[R[)
  (RFJ[ RFZ[ RIY[ KZYZ J[Z[)
  (LFL[ MFM[ SLST IFYFYLXF MPSP I[Y[YUX[)
  (XFK[ YFL[ LFKLKFYF K[Y[YUX[)
  (KFK[ LFL[ XFX[ YFY[ HFOF UF\\F LPXP H[O[ U[\\[)
  (QFNGLIKKJOJRKVLXNZQ[S[VZXXYVZRZOYKXIVGSFQF QFOGMILKKOKRLVMXOZQ[ S[UZWXXVYRYOXKWIUGSF OMOT UMUT OPUP OQUQ)
  (RFR[ SFS[ OFVF O[V[)
  (KFK[ LFL[ YFLS QOY[ POX[ HFOF UF[F H[O[ U[[[)
  (RFK[ RFY[ RIX[ I[O[ U[[[)
  (KFK[ LFRX KFR[ YFR[ YFY[ ZFZ[ HFLF YF]F H[N[ V[][)
  (LFL[ MFYY MHY[ YFY[ IFMF VF\\F I[O[)
  (KEJJ ZEYJ ONNS VNUS KWJ\\ ZWY\\ KGYG KHYH OPUP OQUQ KYYY KZYZ)
  (QFNGLIKKJOJRKVLXNZQ[S[VZXXYVZRZOYKXIVGSFQF QFOGMILKKOKRLVMXOZQ[ S[UZWXXVYRYOXKWIUGSF)
  (KFK[ LFL[ XFX[ YFY[ HF\\F H[O[ U[\\[)
  (LFL[ MFM[ IFUFXGYHZJZMYOXPUQMQ UFWGXHYJYMXOWPUQ I[P[)
  (KFRPJ[ JFQP JFYFZLXF KZXZ J[Y[ZUX[)
  (RFR[ SFS[ LFKLKFZFZLYF O[V[)
  (KKKILGMFOFPGQIRMR[ KIMGOGQI ZKZIYGXFVFUGTISMS[ ZIXGVGTI O[V[)
  (RFR[ SFS[ PKMLLMKOKRLTMUPVUVXUYTZRZOYMXLUKPK PKNLMMLOLRMTNUPV UVWUXTYRYOXMWLUK OFVF O[V[)
  (KFX[ LFY[ YFK[ IFOF UF[F I[O[ U[[[)
  (RFR[ SFS[ IMJLLMMQNSOTQU JLKMLQMSNTQUTUWTXSYQZM[L TUVTWSXQYM[L\\M OFVF O[V[)
  (JXK[O[MWKSJPJLKIMGPFTFWGYIZLZPYSWWU[Y[ZX MWLTKPKLLINGPF TFVGXIYLYPXTWW KZNZ VZYZ)
  ()
  dup
  (OBOb PBPb OBVB ObVb)
  (KFY^)
  (TBTb UBUb NBUB NbUb)
  (PLRITL MORJWO RJR[)
  (J]Z])
  (SFRGQIQKRLSKRJ)
  (QMNNLPKRJUJXKZN[P[RZUWWTYPZM QMONMPLRKUKXLZN[ QMSMUNVPXXYZZ[ SMTNUPWXXZZ[[[)
  (TFQGOIMMLPKTJZIb TFRGPINMMPLTKZJb TFVFXGYHYKXMWNTOPO VFXHXKWMVNTO POTPVRWTWWVYUZR[P[NZMYLV POSPURVTVWUYTZR[)
  (IPKNMMOMQNROSRSVRZOb JOLNPNRO ZMYPXRSYP^Nb YMXPWRSY)
  (VNTMRMONMQLTLWMYNZP[R[UZWWXTXQWOSJRHRFSEUEWFYH RMPNNQMTMXNZ R[TZVWWTWPVNTKSISGTFVFYH)
  (XPVNTMPMNNNPPRSS PMONOPQRSS SSNTLVLXMZP[S[UZWX SSOTMVMXNZP[)
  (TFRGQHQIRJUKZKZJWKSMPOMRLULWMYP[S]T_TaSbQbPa ULQONRMUMWNYP[)
  (HQIOKMNMONOPNTL[ MMNNNPMTK[ NTPPRNTMVMXNYOYRXWUb VMXOXRWWTb)
  (GQHOJMMMNNNPMUMXNZO[ LMMNMPLULXMZO[Q[SZUXWUXRYMYIXGVFTFRHRJSMUPWRZT SZUWVUWRXMXIWGVF)
  (RMPTOXOZP[S[UYVW SMQTPXPZQ[)
  (NMJ[ OMK[ XMYNZNYMWMUNQROSMS OSQTSZT[ OSPTRZS[U[WZYW)
  (KFMFOGPHQJWXXZY[ MFOHPJVXWZY[Z[ RMJ[ RMK[)
  (MMGb NMHb MPLVLYN[P[RZTXVU XMUXUZV[Y[[Y\\W YMVXVZW[)
  (NML[ OMNSMXL[ YMXQVU ZMYPXRVUTWQYOZL[ KMOM)
  (TFRGQHQIRJUKXK UKQLOMNONQPSSTVT UKRLPMOOOQQSST STOUMVLXLZN\\S^T_TaRbPb STPUNVMXMZO\\S^)
  (RMONMQLTLWMYNZP[R[UZWWXTXQWOVNTMRM RMPNNQMTMXNZ R[TZVWWTWPVN)
  (PNL[ PNM[ VNV[ VNW[ IPKNNM[M IPKONN[N)
  (LVMYNZP[R[UZWWXTXQWOVNTMRMONMQLTHb R[TZVWWTWPVN RMPNNQMTIb)
  ([MQMNNLQKTKWLYMZO[Q[TZVWWTWQVOUNSM QMONMQLTLXMZ Q[SZUWVTVPUN UN[N)
  (SNP[ SNQ[ JPLNOMZM JPLOONZN)
  (IQJOLMOMPNPPNVNYP[ NMONOPMVMYNZP[Q[TZVXXUYRYOXMWNXOYR XUYO)
  (ONMOKQJTJWKYLZN[Q[TZWXYUZRZOXMVMTORSPXMb JWLYNZQZTYWWYU ZOXNVNTPRSPYNb)
  (KMMMONPPU_VaWb MMNNOPT_UaWbYb ZMYOWRM]K`Jb)
  (UFOb VFNb GQHOJMMMNNNPMUMXOZRZTYWVYS LMMNMPLULXMZO[R[TZVXXUYS[M)
  (JQLOONNMLNJQITIWJZK[M[OZQWRT IWJYKZMZOYQW QTQWRZS[U[WZYWZTZQYNXMWNYOZQ QWRYSZUZWYYW)
  ()
  dup
  (TBRCQDPFPHQJRKSMSOQQ RCQEQGRISJTLTNSPORSTTVTXSZR[Q]Q_Ra QSSUSWRYQZP\\P^Q`RaTb)
  (RBRb)
  (PBRCSDTFTHSJRKQMQOSQ RCSESGRIQJPLPNQPURQTPVPXQZR[S]S_Ra SSQUQWRYSZT\\T^S`RaPb)
  (IUISJPLONOPPTSVTXTZS[Q ISJQLPNPPQTTVUXUZT[Q[O)
  (QFOGNINKOMQNSNUMVKVIUGSFQF)
  ()
  dup
  dup
  dup
  dup
  dup
  dup
  dup
  dup
  dup
  dup
  dup
  dup
  dup
  dup
  dup
  dup
  dup
  dup
  dup
  dup
  dup
  dup
  dup
  dup
  dup
  dup
  dup
  dup
  dup
  dup
  dup
  dup
  dup
  dup
  dup
  dup
  dup
  dup
  dup
  dup
  dup
  dup
  dup
  dup
  dup
  dup
  dup
  dup
  dup
  dup
  dup
  dup
  dup
  dup
  dup
  dup
  dup
  dup
  dup
  dup
  dup
  dup
  dup
  dup
  dup
  dup
  dup
  dup
  dup
  dup
  dup
  dup
  dup
  dup
  dup
  dup
  dup
  dup
  dup
  dup
  dup
  dup
  dup
  dup
  dup
  dup
  dup
  dup
  dup
  dup
  dup
  dup
  dup
  dup
  dup
  dup
  dup
  dup
  dup
  dup
  dup
  dup
  dup
  dup
  dup
  dup
  dup
  dup
  dup
  dup
  dup
  dup
  dup
  dup
  dup
  dup
  dup
  dup
  dup
  dup
  dup
  dup
  dup
  dup
  dup
  dup
  dup
] def
/width [
  0
  0
  0
  0
  0
  0
  0
  0
  0
  0
  0
  0
  0
  0
  0
  0
  0
  0
  0
  0
  0
  0
  0
  0
  0
  0
  0
  0
  0
  0
  0
  0
  16
  10
  10
  21
  20
  24
  25
  10
  14
  14
  16
  26
  10
  26
  10
  22
  20
  20
  20
  20
  20
  20
  20
  20
  20
  20
  10
  10
  24
  26
  24
  18
  27
  20
  22
  18
  20
  21
  20
  24
  22
  11
  22
  20
  25
  23
  22
  22
  24
  22
  21
  19
  19
  21
  20
  23
  22
  16
  16
  14
  14
  14
  16
  16
  10
  23
  21
  20
  19
  18
  18
  22
  23
  12
  20
  20
  23
  20
  17
  18
  22
  19
  21
  20
  20
  22
  18
  23
  23
  16
  16
  14
  8
  14
  24
  14
  0
  0
  0
  0
  0
  0
  0
  0
  0
  0
  0
  0
  0
  0
  0
  0
  0
  0
  0
  0
  0
  0
  0
  0
  0
  0
  0
  0
  0
  0
  0
  0
  0
  0
  0
  0
  0
  0
  0
  0
  0
  0
  0
  0
  0
  0
  0
  0
  0
  0
  0
  0
  0
  0
  0
  0
  0
  0
  0
  0
  0
  0
  0
  0
  0
  0
  0
  0
  0
  0
  0
  0
  0
  0
  0
  0
  0
  0
  0
  0
  0
  0
  0
  0
  0
  0
  0
  0
  0
  0
  0
  0
  0
  0
  0
  0
  0
  0
  0
  0
  0
  0
  0
  0
  0
  0
  0
  0
  0
  0
  0
  0
  0
  0
  0
  0
  0
  0
  0
  0
  0
  0
  0
  0
  0
  0
  0
  0
] def
/left [
  0
  0
  0
  0
  0
  0
  0
  0
  0
  0
  0
  0
  0
  0
  0
  0
  0
  0
  0
  0
  0
  0
  0
  0
  0
  0
  0
  0
  0
  0
  0
  0
  -8
  -5
  -5
  -10
  -10
  -12
  -12
  -5
  -7
  -7
  -8
  -13
  -5
  -13
  -5
  -11
  -10
  -10
  -10
  -10
  -10
  -10
  -10
  -10
  -10
  -10
  -5
  -5
  -12
  -13
  -12
  -9
  -13
  -10
  -11
  -9
  -10
  -11
  -10
  -12
  -11
  -5
  -12
  -10
  -12
  -11
  -11
  -11
  -12
  -11
  -10
  -9
  -9
  -10
  -10
  -11
  -11
  -8
  -8
  -7
  -7
  -7
  -8
  -8
  -5
  -11
  -11
  -10
  -9
  -9
  -9
  -11
  -12
  -6
  -10
  -10
  -12
  -10
  -9
  -9
  -11
  -10
  -10
  -10
  -10
  -11
  -9
  -12
  -12
  -8
  -8
  -7
  -4
  -7
  -12
  -7
  0
  0
  0
  0
  0
  0
  0
  0
  0
  0
  0
  0
  0
  0
  0
  0
  0
  0
  0
  0
  0
  0
  0
  0
  0
  0
  0
  0
  0
  0
  0
  0
  0
  0
  0
  0
  0
  0
  0
  0
  0
  0
  0
  0
  0
  0
  0
  0
  0
  0
  0
  0
  0
  0
  0
  0
  0
  0
  0
  0
  0
  0
  0
  0
  0
  0
  0
  0
  0
  0
  0
  0
  0
  0
  0
  0
  0
  0
  0
  0
  0
  0
  0
  0
  0
  0
  0
  0
  0
  0
  0
  0
  0
  0
  0
  0
  0
  0
  0
  0
  0
  0
  0
  0
  0
  0
  0
  0
  0
  0
  0
  0
  0
  0
  0
  0
  0
  0
  0
  0
  0
  0
  0
  0
  0
  0
  0
  0
] def
/FontName /Hershey-Greek def
/BuildCharPath { 
	newpath
	/domove true def
	/isx true def
	0 0 moveto
	bodies charcode get { 
	    isx {
		dup 32 eq { pop /domove true def } 
			  { 82 sub left charcode get sub
			    /isx false def } ifelse
	    } { neg 91 add
		domove	{ moveto /domove false def } 
			{ lineto } ifelse
		/isx true def } 
	    ifelse
	} forall
} def
/BuildChar { 
    exch begin
    10 dict begin
	/charcode exch def
	BuildCharPath
	width charcode get 0
	pathbbox 1 add exch 1 add exch 4 2 roll 1 sub exch 1 sub exch 4 2 roll
	setcachedevice
	0 setlinewidth
	0 setlinewidth 0 setlinejoin
	BuildCharPath stroke
    end end
} def

/FontType 3 def
/FontMatrix [ 1 33 div 0 0 1 33 div 0 0 ] def
/FontBBox [ -7 -15 35 40 ] def
/Encoding 256 array def 0 1 255 { Encoding exch dup put } for
currentdict FontName exch definefont end pop
%%EndResource
