%!PS-AdobeFont-1.0
%%Title: Download font: Hershey Roman
%%Pages: 0
%%EndComments
%%BeginResource: font Hershey-Roman
30 dict begin
/bodies [
  ()
  dup
  dup
  dup
  dup
  dup
  dup
  dup
  dup
  dup
  dup
  dup
  dup
  dup
  dup
  dup
  dup
  dup
  dup
  dup
  dup
  dup
  dup
  dup
  dup
  dup
  dup
  dup
  dup
  dup
  dup
  dup
  dup
  (RFQHRTSHRF RHRN RYQZR[SZRY)
  (RMQNROSNRM R[QZRYSZS\\R^Q_)
  (SFLb YFRb LQZQ KWYW)
  (PBP_ TBT_ XIWJXKYJYIWGTFPFMGKIKKLMMNOOUQWRYT KKMMONUPWQXRYTYXWZT[P[MZKXKWLVMWLX)
  ([FI[ NFPHPJOLMMKMIKIIJGLFNFPGSHVHYG[F WTUUTWTYV[X[ZZ[X[VYTWT)
  ([NZO[P\\O\\N[MZMYNXPVUTXRZP[M[JZIXIUJSPORMSKSIRGPFNGMIMKNNPQUXWZZ[[[\\Z\\Y M[KZJXJUKSMQ MKNMVXXZZ[)
  (RHQGRFSGSIRKQL)
  (VBTDRGPKOPOTPYR]T`Vb TDRHQKPPPTQYR\\T`)
  (NBPDRGTKUPUTTYR]P`Nb PDRHSKTPTTSYR\\P`)
  (RFRR MIWO WIMO)
  (RIR[ IR[R)
  (R[QZRYSZS\\R^Q_)
  (IR[R)
  (RYQZR[SZRY)
  ([BIb)
  (QFNGLJKOKRLWNZQ[S[VZXWYRYOXJVGSFQF QFOGNHMJLOLRMWNYOZQ[ S[UZVYWWXRXOWJVHUGSF)
  (NJPISFS[ RGR[ N[W[)
  (LJMKLLKKKJLHMGPFTFWGXHYJYLXNUPPRNSLUKXK[ TFVGWHXJXLWNTPPR KYLXNXSZVZXYYX NXS[W[XZYXYV)
  (LJMKLLKKKJLHMGPFTFWGXIXLWNTOQO TFVGWIWLVNTO TOVPXRYTYWXYWZT[P[MZLYKWKVLUMVLW WQXTXWWYVZT[)
  (THT[ UFU[ UFJUZU Q[X[)
  (MFKP KPMNPMSMVNXPYSYUXXVZS[P[MZLYKWKVLUMVLW SMUNWPXSXUWXUZS[ MFWF MGRGWF)
  (WIVJWKXJXIWGUFRFOGMILKKOKULXNZQ[S[VZXXYUYTXQVOSNRNOOMQLT RFPGNIMKLOLUMXOZQ[ S[UZWXXUXTWQUOSN)
  (KFKL KJLHNFPFUIWIXHYF LHNGPGUI YFYIXLTQSSRVR[ XLSQRSQVQ[)
  (PFMGLILLMNPOTOWNXLXIWGTFPF PFNGMIMLNNPO TOVNWLWIVGTF POMPLQKSKWLYMZP[T[WZXYYWYSXQWPTO PONPMQLSLWMYNZP[ T[VZWYXWXSWQVPTO)
  (XMWPURRSQSNRLPKMKLLINGQFSFVGXIYLYRXVWXUZR[O[MZLXLWMVNWMX QSORMPLMLLMIOGQF SFUGWIXLXRWVVXTZR[)
  (RMQNROSNRM RYQZR[SZRY)
  (RMQNROSNRM R[QZRYSZS\\R^Q_)
  (ZIJRZ[)
  (IO[O IU[U)
  (JIZRJ[)
  (MJNKMLLKLJMHNGPFSFVGWHXJXLWNVORQRT SFUGVHWJWLVNTP RYQZR[SZRY)
  (WNVLTKQKOLNMMPMSNUPVSVUUVS QKOMNPNSOUPV WKVSVUXVZV\\T]Q]O\\L[JYHWGTFQFNGLHJJILHOHRIUJWLYNZQ[T[WZYYZX XKWSWUXV)
  (RFK[ RFY[ RIX[ MUVU I[O[ U[[[)
  (LFL[ MFM[ IFUFXGYHZJZLYNXOUP UFWGXHYJYLXNWOUP MPUPXQYRZTZWYYXZU[I[ UPWQXRYTYWXYWZU[)
  (XIYLYFXIVGSFQFNGLIKKJNJSKVLXNZQ[S[VZXXYV QFOGMILKKNKSLVMXOZQ[)
  (LFL[ MFM[ IFSFVGXIYKZNZSYVXXVZS[I[ SFUGWIXKYNYSXVWXUZS[)
  (LFL[ MFM[ SLST IFYFYLXF MPSP I[Y[YUX[)
  (LFL[ MFM[ SLST IFYFYLXF MPSP I[P[)
  (XIYLYFXIVGSFQFNGLIKKJNJSKVLXNZQ[S[VZXX QFOGMILKKNKSLVMXOZQ[ XSX[ YSY[ US\\S)
  (KFK[ LFL[ XFX[ YFY[ HFOF UF\\F LPXP H[O[ U[\\[)
  (RFR[ SFS[ OFVF O[V[)
  (UFUWTZR[P[NZMXMVNUOVNW TFTWSZR[ QFXF)
  (KFK[ LFL[ YFLS QOY[ POX[ HFOF UF[F H[O[ U[[[)
  (NFN[ OFO[ KFRF K[Z[ZUY[)
  (KFK[ LFRX KFR[ YFR[ YFY[ ZFZ[ HFLF YF]F H[N[ V[][)
  (LFL[ MFYY MHY[ YFY[ IFMF VF\\F I[O[)
  (QFNGLIKKJOJRKVLXNZQ[S[VZXXYVZRZOYKXIVGSFQF QFOGMILKKOKRLVMXOZQ[ S[UZWXXVYRYOXKWIUGSF)
  (LFL[ MFM[ IFUFXGYHZJZMYOXPUQMQ UFWGXHYJYMXOWPUQ I[P[)
  (QFNGLIKKJOJRKVLXNZQ[S[VZXXYVZRZOYKXIVGSFQF QFOGMILKKOKRLVMXOZQ[ S[UZWXXVYRYOXKWIUGSF NYNXOVQURUTVUXV_W`Y`Z^Z] UXV\\W^X_Y_Z^)
  (LFL[ MFM[ IFUFXGYHZJZLYNXOUPMP UFWGXHYJYLXNWOUP I[P[ RPTQURXYYZZZ[Y TQUSWZX[Z[[Y[X)
  (XIYFYLXIVGSFPFMGKIKKLMMNOOUQWRYT KKMMONUPWQXRYTYXWZT[Q[NZLXKUK[LX)
  (RFR[ SFS[ LFKLKFZFZLYF O[V[)
  (KFKULXNZQ[S[VZXXYUYF LFLUMXOZQ[ HFOF VF\\F)
  (KFR[ LFRX YFR[ IFOF UF[F)
  (JFN[ KFNV RFN[ RFV[ SFVV ZFV[ GFNF WF]F)
  (KFX[ LFY[ YFK[ IFOF UF[F I[O[ U[[[)
  (KFRQR[ LFSQS[ ZFSQ IFOF VF\\F O[V[)
  (XFK[ YFL[ LFKLKFYF K[Y[YUX[)
  (OBOb PBPb OBVB ObVb)
  (KFY^)
  (TBTb UBUb NBUB NbUb)
  (PLRITL MORJWO RJR[)
  (J]Z])
  (SFRGQIQKRLSKRJ)
  (NONPMPMONNPMTMVNWOXQXXYZZ[ WOWXXZZ[[[ WQVRPSMTLVLXMZP[S[UZWX PSNTMVMXNZP[)
  (LFL[ MFM[ MPONQMSMVNXPYSYUXXVZS[Q[OZMX SMUNWPXSXUWXUZS[ IFMF)
  (WPVQWRXQXPVNTMQMNNLPKSKULXNZQ[S[VZXX QMONMPLSLUMXOZQ[)
  (WFW[ XFX[ WPUNSMQMNNLPKSKULXNZQ[S[UZWX QMONMPLSLUMXOZQ[ TFXF W[[[)
  (LSXSXQWOVNTMQMNNLPKSKULXNZQ[S[VZXX WSWPVN QMONMPLSLUMXOZQ[)
  (UGTHUIVHVGUFSFQGPIP[ SFRGQIQ[ MMUM M[T[)
  (QMONNOMQMSNUOVQWSWUVVUWSWQVOUNSMQM ONNPNTOV UVVTVPUN VOWNYMYNWN NUMVLXLYM[P\\U\\X]Y^ LYMZP[U[X\\Y^Y_XaUbObLaK_K^L\\O[)
  (LFL[ MFM[ MPONRMTMWNXPX[ TMVNWPW[ IFMF I[P[ T[[[)
  (RFQGRHSGRF RMR[ SMS[ OMSM O[V[)
  (SFRGSHTGSF TMT_SaQbObNaN`O_P`Oa SMS_RaQb PMTM)
  (LFL[ MFM[ WMMW RSX[ QSW[ IFMF TMZM I[P[ T[Z[)
  (RFR[ SFS[ OFSF O[V[)
  (GMG[ HMH[ HPJNMMOMRNSPS[ OMQNRPR[ SPUNXMZM]N^P^[ ZM\\N]P][ DMHM D[K[ O[V[ Z[a[)
  (LML[ MMM[ MPONRMTMWNXPX[ TMVNWPW[ IMMM I[P[ T[[[)
  (QMNNLPKSKULXNZQ[S[VZXXYUYSXPVNSMQM QMONMPLSLUMXOZQ[ S[UZWXXUXSWPUNSM)
  (LMLb MMMb MPONQMSMVNXPYSYUXXVZS[Q[OZMX SMUNWPXSXUWXUZS[ IMMM IbPb)
  (WMWb XMXb WPUNSMQMNNLPKSKULXNZQ[S[UZWX QMONMPLSLUMXOZQ[ Tb[b)
  (NMN[ OMO[ OSPPRNTMWMXNXOWPVOWN KMOM K[R[)
  (WOXMXQWOVNTMPMNNMOMQNRPSUUWVXW MPNQPRUTWUXVXYWZU[Q[OZNYMWM[NY)
  (PFPWQZS[U[WZXX QFQWRZS[ MMUM)
  (LMLXMZP[R[UZWX MMMXNZP[ WMW[ XMX[ IMMM TMXM W[[[)
  (LMR[ MMRY XMR[ JMPM TMZM)
  (JMN[ KMNX RMN[ RMV[ SMVX ZMV[ GMNM WM]M)
  (LMW[ MMX[ XML[ JMPM TMZM J[P[ T[Z[)
  (LMR[ MMRY XMR[P_NaLbKbJaK`La JMPM TMZM)
  (WML[ XMM[ MMLQLMXM L[X[XWW[)
  (TBRCQDPFPHQJRKSMSOQQ RCQEQGRISJTLTNSPORSTTVTXSZR[Q]Q_Ra QSSUSWRYQZP\\P^Q`RaTb)
  (RBRb)
  (PBRCSDTFTHSJRKQMQOSQ RCSESGRIQJPLPNQPURQTPVPXQZR[S]S_Ra SSQUQWRYSZT\\T^S`RaPb)
  (IUISJPLONOPPTSVTXTZS[Q ISJQLPNPPQTTVUXUZT[Q[O)
  (QFOGNINKOMQNSNUMVKVIUGSFQF)
  ()
  dup
  dup
  dup
  dup
  dup
  dup
  dup
  dup
  dup
  dup
  dup
  dup
  dup
  dup
  dup
  dup
  dup
  dup
  dup
  dup
  dup
  dup
  dup
  dup
  dup
  dup
  dup
  dup
  dup
  dup
  dup
  dup
  dup
  dup
  dup
  dup
  dup
  dup
  dup
  dup
  dup
  dup
  dup
  dup
  dup
  dup
  dup
  dup
  dup
  dup
  dup
  dup
  dup
  dup
  dup
  dup
  dup
  dup
  dup
  dup
  dup
  dup
  dup
  dup
  dup
  dup
  dup
  dup
  dup
  dup
  dup
  dup
  dup
  dup
  dup
  dup
  dup
  dup
  dup
  dup
  dup
  dup
  dup
  dup
  dup
  dup
  dup
  dup
  dup
  dup
  dup
  dup
  dup
  dup
  dup
  dup
  dup
  dup
  dup
  dup
  dup
  dup
  dup
  dup
  dup
  dup
  dup
  dup
  dup
  dup
  dup
  dup
  dup
  dup
  dup
  dup
  dup
  dup
  dup
  dup
  dup
  dup
  dup
  dup
  dup
  dup
  dup
] def
/width [
  0
  0
  0
  0
  0
  0
  0
  0
  0
  0
  0
  0
  0
  0
  0
  0
  0
  0
  0
  0
  0
  0
  0
  0
  0
  0
  0
  0
  0
  0
  0
  0
  16
  10
  10
  21
  20
  24
  25
  10
  14
  14
  16
  26
  10
  26
  10
  22
  20
  20
  20
  20
  20
  20
  20
  20
  20
  20
  10
  10
  24
  26
  24
  18
  27
  20
  22
  21
  22
  21
  20
  23
  24
  11
  15
  22
  18
  25
  23
  22
  22
  22
  22
  20
  19
  24
  20
  24
  20
  21
  20
  14
  14
  14
  16
  16
  10
  20
  21
  19
  21
  19
  13
  19
  22
  11
  11
  21
  11
  33
  22
  20
  21
  20
  17
  17
  15
  22
  18
  24
  20
  19
  18
  14
  8
  14
  24
  14
  0
  0
  0
  0
  0
  0
  0
  0
  0
  0
  0
  0
  0
  0
  0
  0
  0
  0
  0
  0
  0
  0
  0
  0
  0
  0
  0
  0
  0
  0
  0
  0
  0
  0
  0
  0
  0
  0
  0
  0
  0
  0
  0
  0
  0
  0
  0
  0
  0
  0
  0
  0
  0
  0
  0
  0
  0
  0
  0
  0
  0
  0
  0
  0
  0
  0
  0
  0
  0
  0
  0
  0
  0
  0
  0
  0
  0
  0
  0
  0
  0
  0
  0
  0
  0
  0
  0
  0
  0
  0
  0
  0
  0
  0
  0
  0
  0
  0
  0
  0
  0
  0
  0
  0
  0
  0
  0
  0
  0
  0
  0
  0
  0
  0
  0
  0
  0
  0
  0
  0
  0
  0
  0
  0
  0
  0
  0
  0
] def
/left [
  0
  0
  0
  0
  0
  0
  0
  0
  0
  0
  0
  0
  0
  0
  0
  0
  0
  0
  0
  0
  0
  0
  0
  0
  0
  0
  0
  0
  0
  0
  0
  0
  -8
  -5
  -5
  -10
  -10
  -12
  -12
  -5
  -7
  -7
  -8
  -13
  -5
  -13
  -5
  -11
  -10
  -10
  -10
  -10
  -10
  -10
  -10
  -10
  -10
  -10
  -5
  -5
  -12
  -13
  -12
  -9
  -13
  -10
  -11
  -11
  -11
  -11
  -11
  -11
  -12
  -5
  -7
  -12
  -9
  -12
  -11
  -11
  -11
  -11
  -11
  -10
  -9
  -12
  -10
  -12
  -10
  -10
  -10
  -7
  -7
  -7
  -8
  -8
  -5
  -9
  -11
  -10
  -10
  -10
  -7
  -9
  -11
  -5
  -5
  -11
  -5
  -16
  -11
  -10
  -11
  -10
  -9
  -8
  -7
  -11
  -9
  -12
  -10
  -10
  -9
  -7
  -4
  -7
  -12
  -7
  0
  0
  0
  0
  0
  0
  0
  0
  0
  0
  0
  0
  0
  0
  0
  0
  0
  0
  0
  0
  0
  0
  0
  0
  0
  0
  0
  0
  0
  0
  0
  0
  0
  0
  0
  0
  0
  0
  0
  0
  0
  0
  0
  0
  0
  0
  0
  0
  0
  0
  0
  0
  0
  0
  0
  0
  0
  0
  0
  0
  0
  0
  0
  0
  0
  0
  0
  0
  0
  0
  0
  0
  0
  0
  0
  0
  0
  0
  0
  0
  0
  0
  0
  0
  0
  0
  0
  0
  0
  0
  0
  0
  0
  0
  0
  0
  0
  0
  0
  0
  0
  0
  0
  0
  0
  0
  0
  0
  0
  0
  0
  0
  0
  0
  0
  0
  0
  0
  0
  0
  0
  0
  0
  0
  0
  0
  0
  0
] def
/FontName /Hershey-Roman def
/BuildCharPath { 
	newpath
	/domove true def
	/isx true def
	0 0 moveto
	bodies charcode get { 
	    isx {
		dup 32 eq { pop /domove true def } 
			  { 82 sub left charcode get sub
			    /isx false def } ifelse
	    } { neg 91 add
		domove	{ moveto /domove false def } 
			{ lineto } ifelse
		/isx true def } 
	    ifelse
	} forall
} def
/BuildChar { 
    exch begin
    10 dict begin
	/charcode exch def
	BuildCharPath
	width charcode get 0
	pathbbox 1 add exch 1 add exch 4 2 roll 1 sub exch 1 sub exch 4 2 roll
	setcachedevice
	0 setlinewidth
	0 setlinewidth 0 setlinejoin
	BuildCharPath stroke
    end end
} def

/FontType 3 def
/FontMatrix [ 1 33 div 0 0 1 33 div 0 0 ] def
/FontBBox [ -7 -15 35 40 ] def
/Encoding 256 array def 0 1 255 { Encoding exch dup put } for
currentdict FontName exch definefont end pop
%%EndResource
