%!PS-AdobeFont-1.0
%%Title: Download font: Hershey Cyrillic
%%Pages: 0
%%EndComments
%%BeginResource: font Hershey-Cyrillic
30 dict begin
/bodies [
  ()
  dup
  dup
  dup
  dup
  dup
  dup
  dup
  dup
  dup
  dup
  dup
  dup
  dup
  dup
  dup
  dup
  dup
  dup
  dup
  dup
  dup
  dup
  dup
  dup
  dup
  dup
  dup
  dup
  dup
  dup
  dup
  dup
  (RFQHRTSHRF RHRN RYQZR[SZRY)
  (RMQNROSNRM R[QZRYSZS\\R^Q_)
  (SFLb YFRb LQZQ KWYW)
  (PBP_ TBT_ XIWJXKYJYIWGTFPFMGKIKKLMMNOOUQWRYT KKMMONUPWQXRYTYXWZT[P[MZKXKWLVMWLX)
  ([FI[ NFPHPJOLMMKMIKIIJGLFNFPGSHVHYG[F WTUUTWTYV[X[ZZ[X[VYTWT)
  ([NZO[P\\O\\N[MZMYNXPVUTXRZP[M[JZIXIUJSPORMSKSIRGPFNGMIMKNNPQUXWZZ[[[\\Z\\Y M[KZJXJUKSMQ MKNMVXXZZ[)
  (RHQGRFSGSIRKQL)
  (VBTDRGPKOPOTPYR]T`Vb TDRHQKPPPTQYR\\T`)
  (NBPDRGTKUPUTTYR]P`Nb PDRHSKTPTTSYR\\P`)
  (RFRR MIWO WIMO)
  (RIR[ IR[R)
  (R[QZRYSZS\\R^Q_)
  (IR[R)
  (RYQZR[SZRY)
  ([BIb)
  (QFNGLJKOKRLWNZQ[S[VZXWYRYOXJVGSFQF QFOGNHMJLOLRMWNYOZQ[ S[UZVYWWXRXOWJVHUGSF)
  (NJPISFS[ RGR[ N[W[)
  (LJMKLLKKKJLHMGPFTFWGXHYJYLXNUPPRNSLUKXK[ TFVGWHXJXLWNTPPR KYLXNXSZVZXYYX NXS[W[XZYXYV)
  (LJMKLLKKKJLHMGPFTFWGXIXLWNTOQO TFVGWIWLVNTO TOVPXRYTYWXYWZT[P[MZLYKWKVLUMVLW WQXTXWWYVZT[)
  (THT[ UFU[ UFJUZU Q[X[)
  (MFKP KPMNPMSMVNXPYSYUXXVZS[P[MZLYKWKVLUMVLW SMUNWPXSXUWXUZS[ MFWF MGRGWF)
  (WIVJWKXJXIWGUFRFOGMILKKOKULXNZQ[S[VZXXYUYTXQVOSNRNOOMQLT RFPGNIMKLOLUMXOZQ[ S[UZWXXUXTWQUOSN)
  (KFKL KJLHNFPFUIWIXHYF LHNGPGUI YFYIXLTQSSRVR[ XLSQRSQVQ[)
  (PFMGLILLMNPOTOWNXLXIWGTFPF PFNGMIMLNNPO TOVNWLWIVGTF POMPLQKSKWLYMZP[T[WZXYYWYSXQWPTO PONPMQLSLWMYNZP[ T[VZWYXWXSWQVPTO)
  (XMWPURRSQSNRLPKMKLLINGQFSFVGXIYLYRXVWXUZR[O[MZLXLWMVNWMX QSORMPLMLLMIOGQF SFUGWIXLXRWVVXTZR[)
  (RMQNROSNRM RYQZR[SZRY)
  (RMQNROSNRM R[QZRYSZS\\R^Q_)
  (ZIJRZ[)
  (IO[O IU[U)
  (JIZRJ[)
  (MJNKMLLKLJMHNGPFSFVGWHXJXLWNVORQRT SFUGVHWJWLVNTP RYQZR[SZRY)
  (WNVLTKQKOLNMMPMSNUPVSVUUVS QKOMNPNSOUPV WKVSVUXVZV\\T]Q]O\\L[JYHWGTFQFNGLHJJILHOHRIUJWLYNZQ[T[WZYYZX XKWSWUXV)
  (RFK[ RFY[ RIX[ MUVU I[O[ U[[[)
  (LFL[ MFM[ IFYFYLXF MPUPXQYRZTZWYYXZU[I[ UPWQXRYTYWXYWZU[)
  (LFL[ MFM[ IFUFXGYHZJZLYNXOUP UFWGXHYJYLXNWOUP MPUPXQYRZTZWYYXZU[I[ UPWQXRYTYWXYWZU[)
  (NFN[ OFO[ KFZFZLYF K[R[)
  (NFNLMTLXKZJ[ XFX[ YFY[ KF\\F G[\\[ G[Gb H[Gb [[\\b \\[\\b)
  (LFL[ MFM[ SLST IFYFYLXF MPSP I[Y[YUX[)
  (RFR[ SFS[ OFVF GGHHGIFHFGGFHFIGJIKMLONPWPYOZM[I\\G]F^F_G_H^I]H^G NPLQKSJXIZH[ NPMQLSKXJZI[G[FZEX WPYQZS[X\\Z][ WPXQYSZX[Z\\[^[_Z`X O[V[)
  (LIKFKLLINGPFTFWGXIXLWNTOQO TFVGWIWLVNTO TOVPXRYTYWXYWZT[O[MZLYKWKVLUMVLW WQXTXWWYVZT[)
  (KFK[ LFL[ XFX[ YFY[ HFOF UF\\F XHLY H[O[ U[\\[)
  (KFK[ LFL[ XFX[ YFY[ HFOF UF\\F XHLY H[O[ U[\\[ N@N?M?M@NBPCTCVBW@)
  (KFK[ LFL[ HFOF LPSPUOVMWIXGYFZF[G[HZIYHZG SPUQVSWXXZY[ SPTQUSVXWZX[Z[[Z\\X H[O[)
  (MFMLLTKXJZI[H[GZGYHXIYHZ XFX[ YFY[ JF\\F U[\\[)
  (KFK[ LFRX KFR[ YFR[ YFY[ ZFZ[ HFLF YF]F H[N[ V[][)
  (KFK[ LFL[ XFX[ YFY[ HFOF UF\\F LPXP H[O[ U[\\[)
  (QFNGLIKKJOJRKVLXNZQ[S[VZXXYVZRZOYKXIVGSFQF QFOGMILKKOKRLVMXOZQ[ S[UZWXXVYRYOXKWIUGSF)
  (KFK[ LFL[ XFX[ YFY[ HF\\F H[O[ U[\\[)
  (LFL[ MFM[ IFUFXGYHZJZMYOXPUQMQ UFWGXHYJYMXOWPUQ I[P[)
  (XIYLYFXIVGSFQFNGLIKKJNJSKVLXNZQ[S[VZXXYV QFOGMILKKNKSLVMXOZQ[)
  (RFR[ SFS[ LFKLKFZFZLYF O[V[)
  (KFRV LFSV ZFSVQYPZN[M[LZLYMXNYMZ IFOF VF\\F)
  (RFR[ SFS[ OFVF PILJJLIOIRJULWPXUXYW[U\\R\\O[LYJUIPI PIMJKLJOJRKUMWPX UXXWZU[R[OZLXJUI O[V[)
  (KFX[ LFY[ YFK[ IFOF UF[F I[O[ U[[[)
  (KFK[ LFL[ XFX[ YFY[ HFOF UF\\F H[\\[ [[\\b \\[\\b)
  (KFKQLSOTRTUSWQ LFLQMSOT WFW[ XFX[ HFOF TF[F T[[[)
  (GFG[ HFH[ RFR[ SFS[ ]F][ ^F^[ DFKF OFVF ZFaF D[a[)
  (GFG[ HFH[ RFR[ SFS[ ]F][ ^F^[ DFKF OFVF ZFaF D[a[ `[ab a[ab)
  (OBOb PBPb OBVB ObVb)
  (KFY^)
  (TBTb UBUb NBUB NbUb)
  (PLRITL MORJWO RJR[)
  (J]Z])
  (SFRGQIQKRLSKRJ)
  (NONPMPMONNPMTMVNWOXQXXYZZ[ WOWXXZZ[[[ WQVRPSMTLVLXMZP[S[UZWX PSNTMVMXNZP[)
  (XFWGQINKLNKQKULXNZQ[S[VZXXYUYSXPVNSMQMNNLPKS XFWHUIQJNLLN QMONMPLSLUMXOZQ[ S[UZWXXUXSWPUNSM)
  (MMM[ NMN[ JMUMXNYPYQXSUT UMWNXPXQWSUT NTUTXUYWYXXZU[J[ UTWUXWXXWZU[)
  (MMM[ NMN[ JMXMXRWM J[Q[)
  (NMNQMWLZK[ WMW[ XMX[ KM[M I[H`H[[[[`Z[)
  (LSXSXQWOVNTMQMNNLPKSKULXNZQ[S[VZXX WSWPVN QMONMPLSLUMXOZQ[)
  (RMR[ SMS[ OMVM JNIOHNIMJMKNMRNSPTUTWSXRZN[M\\M]N\\O[N PTNUMVKZJ[ PTNVLZK[I[HZGX UTWUXVZZ[[ UTWVYZZ[\\[]Z^X O[V[)
  (MOLMLQMONNPMTMWNXPXQWSTT TMVNWPWQVSTT QTTTWUXWXXWZT[P[MZLXLWMVNWMX TTVUWWWXVZT[)
  (LML[ MMM[ WMW[ XMX[ IMPM TM[M I[P[ T[[[ WNMZ)
  (LML[ MMM[ WMW[ XMX[ IMPM TM[M I[P[ T[[[ WNMZ OGOFNFNGOIQJSJUIVG)
  (MMM[ NMN[ JMQM NTPTSSTRVNWMXMYNXOWN PTSUTVVZW[ PTRUSVUZV[X[YZZX J[Q[)
  (NMNQMWLZK[J[IZJYKZ WMW[ XMX[ KM[M T[[[)
  (LML[ LMR[ MMRY XMR[ XMX[ YMY[ IMMM XM\\M I[O[ U[\\[)
  (LML[ MMM[ WMW[ XMX[ IMPM TM[M MTWT I[P[ T[[[)
  (QMNNLPKSKULXNZQ[S[VZXXYUYSXPVNSMQM QMONMPLSLUMXOZQ[ S[UZWXXUXSWPUNSM)
  (LML[ MMM[ WMW[ XMX[ IM[M I[P[ T[[[)
  (LMLb MMMb MPONQMSMVNXPYSYUXXVZS[Q[OZMX SMUNWPXSXUWXUZS[ IMMM IbPb)
  (WPVQWRXQXPVNTMQMNNLPKSKULXNZQ[S[VZXX QMONMPLSLUMXOZQ[)
  (RMR[ SMS[ MMLRLMYMYRXM O[V[)
  (LMR[ MMRY XMR[P_NaLbKbJaK`La JMPM TMZM)
  (RFRb SFSb OFSF RPQNPMNMLNKQKWLZN[P[QZRX NMMNLQLWMZN[ WMXNYQYWXZW[ SPTNUMWMYNZQZWYZW[U[TZSX ObVb)
  (LMW[ MMX[ XML[ JMPM TMZM J[P[ T[Z[)
  (LML[ MMM[ WMW[ XMX[ IMPM TM[M I[[[[`Z[)
  (LMLTMVPWRWUVWT MMMTNVPW WMW[ XMX[ IMPM TM[M T[[[)
  (HMH[ IMI[ RMR[ SMS[ \\M\\[ ]M][ EMLM OMVM YM`M E[`[)
  (HMH[ IMI[ RMR[ SMS[ \\M\\[ ]M][ EMLM OMVM YM`M E[`[``_[)
  (TBRCQDPFPHQJRKSMSOQQ RCQEQGRISJTLTNSPORSTTVTXSZR[Q]Q_Ra QSSUSWRYQZP\\P^Q`RaTb)
  (RBRb)
  (PBRCSDTFTHSJRKQMQOSQ RCSESGRIQJPLPNQPURQTPVPXQZR[S]S_Ra SSQUQWRYSZT\\T^S`RaPb)
  (IUISJPLONOPPTSVTXTZS[Q ISJQLPNPPQTTVUXUZT[Q[O)
  (QFOGNINKOMQNSNUMVKVIUGSFQF)
  ()
  dup
  dup
  dup
  dup
  dup
  dup
  dup
  dup
  dup
  dup
  dup
  dup
  dup
  dup
  dup
  dup
  dup
  dup
  dup
  dup
  dup
  dup
  dup
  dup
  dup
  dup
  dup
  dup
  dup
  dup
  dup
  dup
  dup
  dup
  dup
  dup
  dup
  dup
  dup
  dup
  dup
  dup
  dup
  dup
  dup
  dup
  dup
  dup
  dup
  dup
  dup
  dup
  dup
  dup
  dup
  dup
  dup
  dup
  dup
  dup
  dup
  dup
  dup
  dup
  dup
  dup
  dup
  dup
  dup
  dup
  dup
  dup
  dup
  dup
  dup
  dup
  dup
  dup
  dup
  dup
  dup
  dup
  dup
  dup
  dup
  dup
  dup
  dup
  dup
  dup
  dup
  dup
  dup
  dup
  dup
  dup
  dup
  dup
  dup
  dup
  dup
  dup
  dup
  dup
  dup
  dup
  dup
  dup
  dup
  dup
  dup
  dup
  dup
  dup
  dup
  dup
  dup
  dup
  dup
  dup
  dup
  dup
  dup
  dup
  dup
  dup
  dup
] def
/width [
  0
  0
  0
  0
  0
  0
  0
  0
  0
  0
  0
  0
  0
  0
  0
  0
  0
  0
  0
  0
  0
  0
  0
  0
  0
  0
  0
  0
  0
  0
  0
  0
  16
  10
  10
  21
  20
  24
  25
  10
  14
  14
  16
  26
  10
  26
  10
  22
  20
  20
  20
  20
  20
  20
  20
  20
  20
  20
  10
  10
  24
  26
  24
  18
  27
  20
  22
  22
  18
  24
  21
  31
  20
  24
  24
  24
  25
  25
  24
  22
  24
  22
  21
  19
  21
  25
  20
  24
  23
  33
  33
  14
  14
  14
  16
  16
  10
  20
  20
  20
  18
  23
  19
  27
  18
  22
  22
  20
  22
  23
  22
  20
  22
  21
  19
  19
  18
  21
  20
  22
  22
  31
  31
  14
  8
  14
  24
  14
  0
  0
  0
  0
  0
  0
  0
  0
  0
  0
  0
  0
  0
  0
  0
  0
  0
  0
  0
  0
  0
  0
  0
  0
  0
  0
  0
  0
  0
  0
  0
  0
  0
  0
  0
  0
  0
  0
  0
  0
  0
  0
  0
  0
  0
  0
  0
  0
  0
  0
  0
  0
  0
  0
  0
  0
  0
  0
  0
  0
  0
  0
  0
  0
  0
  0
  0
  0
  0
  0
  0
  0
  0
  0
  0
  0
  0
  0
  0
  0
  0
  0
  0
  0
  0
  0
  0
  0
  0
  0
  0
  0
  0
  0
  0
  0
  0
  0
  0
  0
  0
  0
  0
  0
  0
  0
  0
  0
  0
  0
  0
  0
  0
  0
  0
  0
  0
  0
  0
  0
  0
  0
  0
  0
  0
  0
  0
  0
] def
/left [
  0
  0
  0
  0
  0
  0
  0
  0
  0
  0
  0
  0
  0
  0
  0
  0
  0
  0
  0
  0
  0
  0
  0
  0
  0
  0
  0
  0
  0
  0
  0
  0
  -8
  -5
  -5
  -10
  -10
  -12
  -12
  -5
  -7
  -7
  -8
  -13
  -5
  -13
  -5
  -11
  -10
  -10
  -10
  -10
  -10
  -10
  -10
  -10
  -10
  -10
  -5
  -5
  -12
  -13
  -12
  -9
  -13
  -10
  -11
  -11
  -9
  -12
  -11
  -15
  -10
  -12
  -12
  -12
  -13
  -12
  -12
  -11
  -12
  -11
  -11
  -9
  -10
  -12
  -10
  -12
  -12
  -16
  -16
  -7
  -7
  -7
  -8
  -8
  -5
  -9
  -10
  -10
  -10
  -12
  -10
  -13
  -9
  -11
  -11
  -10
  -11
  -11
  -11
  -10
  -11
  -11
  -10
  -9
  -9
  -10
  -10
  -11
  -11
  -15
  -15
  -7
  -4
  -7
  -12
  -7
  0
  0
  0
  0
  0
  0
  0
  0
  0
  0
  0
  0
  0
  0
  0
  0
  0
  0
  0
  0
  0
  0
  0
  0
  0
  0
  0
  0
  0
  0
  0
  0
  0
  0
  0
  0
  0
  0
  0
  0
  0
  0
  0
  0
  0
  0
  0
  0
  0
  0
  0
  0
  0
  0
  0
  0
  0
  0
  0
  0
  0
  0
  0
  0
  0
  0
  0
  0
  0
  0
  0
  0
  0
  0
  0
  0
  0
  0
  0
  0
  0
  0
  0
  0
  0
  0
  0
  0
  0
  0
  0
  0
  0
  0
  0
  0
  0
  0
  0
  0
  0
  0
  0
  0
  0
  0
  0
  0
  0
  0
  0
  0
  0
  0
  0
  0
  0
  0
  0
  0
  0
  0
  0
  0
  0
  0
  0
  0
] def
/FontName /Hershey-Cyrillic def
/BuildCharPath { 
	newpath
	/domove true def
	/isx true def
	0 0 moveto
	bodies charcode get { 
	    isx {
		dup 32 eq { pop /domove true def } 
			  { 82 sub left charcode get sub
			    /isx false def } ifelse
	    } { neg 91 add
		domove	{ moveto /domove false def } 
			{ lineto } ifelse
		/isx true def } 
	    ifelse
	} forall
} def
/BuildChar { 
    exch begin
    10 dict begin
	/charcode exch def
	BuildCharPath
	width charcode get 0
	pathbbox 1 add exch 1 add exch 4 2 roll 1 sub exch 1 sub exch 4 2 roll
	setcachedevice
	0 setlinewidth
	0 setlinewidth 0 setlinejoin
	BuildCharPath stroke
    end end
} def

/FontType 3 def
/FontMatrix [ 1 33 div 0 0 1 33 div 0 0 ] def
/FontBBox [ -7 -15 35 40 ] def
/Encoding 256 array def 0 1 255 { Encoding exch dup put } for
currentdict FontName exch definefont end pop
%%EndResource
