%!PS-AdobeFont-1.0
%%Title: Download font: Hershey Script
%%Pages: 0
%%EndComments
%%BeginResource: font Hershey-Script
30 dict begin
/bodies [
  ()
  dup
  dup
  dup
  dup
  dup
  dup
  dup
  dup
  dup
  dup
  dup
  dup
  dup
  dup
  dup
  dup
  dup
  dup
  dup
  dup
  dup
  dup
  dup
  dup
  dup
  dup
  dup
  dup
  dup
  dup
  dup
  dup
  (UFTGRS UGRS UFVGRS PYOZP[QZPY)
  (PFNM QFNM YFWM ZFWM)
  (SFLb YFRb LQZQ KWYW)
  (TBL_ YBQ_ ZJYKZL[K[JZHYGVFRFOGMIMKNMONVRXT MKOMVQWRXTXWWYVZS[O[LZKYJWJVKULVKW)
  ([FI[ NFPHPJOLMMKMIKIIJGLFNFPGSHVHYG[F WTUUTWTYV[X[ZZ[X[VYTWT)
  (\\N[O\\P]O]N\\M[MYNWPRXPZN[K[HZGXGVHTISKRPPROTMUKUITGRFPGOIOLPRQUSXUZW[Y[ZYZX K[IZHXHVITJSPP OLPQQTSWUYWZYZZY)
  (UHTGUFVGVHUJSL)
  (ZBVESHQKOONTNXO]P`Qb VESIQMPPOUOZP_Qb)
  (SBTDUGVLVPUUSYQ\\N_Jb SBTEUJUOTTSWQ[N_)
  (TFTR OIYO YIOO)
  (RIR[ IR[R)
  (P[OZPYQZQ[P]N_)
  (IR[R)
  (PYOZP[QZPY)
  (_BEb)
  (TFQGOIMLLOKSKVLYMZO[Q[TZVXXUYRZNZKYHXGVFTF TFRGPINLMOLSLVMYO[ Q[SZUXWUXRYNYKXHVF)
  (TJO[ VFP[ VFSIPKNL UIQKNL)
  (OJPKOLNKNJOHPGSFVFYGZIZKYMWOTQPSMUKWI[ VFXGYIYKXMVOPS JYKXMXRZUZWYXW MXR[U[WZXW)
  (OJPKOLNKNJOHPGSFVFYGZIZKYMVOSP VFXGYIYKXMVO QPSPVQWRXTXWWYVZS[O[LZKYJWJVKULVKW SPUQVRWTWWVYUZS[)
  (XGR[ YFS[ YFJUZU)
  (QFLP QF[F QGVG[F LPMOPNSNVOWPXRXUWXUZR[O[LZKYJWJVKULVKW SNUOVPWRWUVXTZR[)
  (YIXJYKZJZIYGWFTFQGOIMLLOKSKWLYMZO[R[UZWXXVXSWQVPTOQOOPMRLT TFRGPINLMOLSLXMZ R[TZVXWVWRVP)
  (NFLL [FZIXLSRQUPWO[ XLRRPUOWN[ MIPFRFWI NHPGRGWIYIZH[F)
  (SFPGOHNJNMOOQPTPXOYNZLZIYGVFSF SFQGPHOJOMPOQP TPWOXNYLYIXGVF QPMQKSJUJXKZN[R[VZWYXWXTWRVQTP QPNQLSKUKXLZN[ R[UZVYWWWSVQ)
  (YMXOVQTRQROQNPMNMKNIPGSFVFXGYHZJZNYRXUVXTZQ[N[LZKXKWLVMWLX OQNONKOIQGSF XGYIYNXRWUUXSZQ[)
  (SMRNSOTNSM PYOZP[QZ)
  (SMRNSOTNSM P[OZPYQZQ[P]N_)
  (ZIJRZ[)
  (IO[O IU[U)
  (JIZRJ[)
  (OJPKOLNKNJOHPGSFWFZG[I[KZMYNSPQQQSRTTT WFYGZIZKYMXNVO PYOZP[QZPY)
  (WNVLTKQKOLNMMPMSNUPVSVUUVS QKOMNPNSOUPV WKVSVUXVZV\\T]Q]O\\L[JYHWGTFQFNGLHJJILHOHRIUJWLYNZQ[T[WZYYZX XKWSWUXV)
  (XFVHTKQPOSLWIZG[E[DZDXEWFXEY XFWJUTT[ XFU[ T[TYSVRTPRNQLQKRKTLWOZR[V[XZ)
  (UGTHSJQOOUNWLZJ[ THSKQSPVOXMZJ[H[GZGXHWIXHY OLNNMOKOJNJLKJMHOGRFXFZG[I[KZMXNTORO XFYGZIZKYMXN TOWPXQYSYVXYWZU[S[RZRXSU TOVPWQXSXVWYU[)
  (KHJJJLKNNOQOUNWMYKZIZGYFWFTGQJOMMQLULXMZP[R[UZWXXVXTWRURSSRU WFUGRJPMNQMUMXNZP[)
  (UGTHSJQOOUNWLZJ[ THSKQSPVOXMZJ[H[GZGXHWJWLXNZP[S[UZWXYTZOZLYIWGUFPFMGKIJKJMKNMNNMOK)
  (WIVJVLWMYMZKZIYGWFTFRGQHPJPLQNSO TFRHQJQMSO SOQONPLRKTKWLYMZO[R[UZWXXVXTWRURSSRU QOOPMRLTLXMZ)
  (WHVJTORUQWOZM[ QLPNNOLOKMKKLINGQF[FXGWHVKTSSVRXPZM[K[IZHYHXIWJXIY SFWGXG OSPRRQVQXPZMXT)
  (JIIKIMJOLPOPROTNWKXHXGWFVFTGRIQKPNPQQSSTUTWSYQZO WFUGSIRKQNQRST ZOYSWWUYSZO[L[JZIXIWJVKWJX YSWVUXRZO[)
  (LLKKKILGOFRFOQMWLYKZI[G[FZFXGWHXGY RFOONRLWKYI[ JTKSMRVOXN[L]J^H^G]F\\FZGXJWLURTVTYV[W[YZ[X \\FZHXLVRUVUYV[)
  (WHUKSPQUPWNZL[ YLWNTOQOONNLNJOHQGUFYFWHVJTPRVQXOZL[J[IZIXJWKXJY)
  (YFWHUKSPPYN] YMWOTPQPOONMNKOIQGUFYFWIVKSTQXPZN]M^K_J^J\\KZMXOWRVVU)
  (LLKKKIMGPFRFOQMWLYKZI[G[FZFXGWHXGY RFOONRLWKYI[ ZGWKUMSNPO ]G\\H]I^H^G]F\\FZGWLVMTNPO POSPTRUYV[ PORPSRTYV[W[YZ[X)
  (MILKLMMOOPRPUOWNZK[H[GZFYFWGVHTKPUOWMZK[ VHTLRSQVPXNZK[I[HZHXIWKWMXPZR[U[WZYX)
  (RFNOKUIXGZE[C[BZBXCWDXCY RFPMOQNVNZP[ RFQJPOOVOZP[ [FWORXP[ [FYMXQWVWZY[Z[\\Z^X [FZJYOXVXZY[)
  (RFQJOPMULWJZH[F[EZEXFWGXFY RFRKSVT[ RFSKTVT[ `G_H`IaHaG`F^F\\GZJYLWQUWT[)
  (SFQGOIMLLNKRKVLYMZO[Q[TZVXXUYSZOZKYHXGWGUHSJQNPSPV QGOJMNLRLVMYO[)
  (UGTHSJQOOUNWLZJ[ THSKQSPVOXMZJ[H[GZGXHWIXHY OLNNMOKOJNJLKJMHOGRFVFYGZH[J[MZOYPVQTQRP VFXGYHZJZMYOXPVQ)
  (UJULTNSOQPOPNNNLOIQGTFWFYGZIZMYPWSSWPYNZK[I[HZHXIWKWMXPZS[V[XZZX WFXGYIYMXPVSSVOYK[)
  (UGTHSJQOOUNWLZJ[ THSKQSPVOXMZJ[H[GZGXHWIXHY OLNNMOKOJNJLKJMHOGRFWFZG[I[KZMYNVORO WFYGZIZKYMXNVO ROUPVRWYX[ ROTPURVYX[Y[[Z]X)
  (NIMKMMNOPPSPVOXN[K\\H\\G[FZFXGWHVJUMSTRWPZN[ VJUNTUSXQZN[K[IZHXHWIVJWIX)
  (YHXJVOTUSWQZO[ SLRNPONOMMMKNIPGSF\\FZGYHXKVSUVTXRZO[M[KZJYJXKWLXKY UFYGZG)
  (HJJGLFMFOHOKNNKVKYL[ MFNHNKKSJVJYL[N[PZSWUTVR ZFVRUVUYW[X[ZZ\\X [FWRVVVYW[)
  (HJJGLFMFOHOKNOLVLYM[ MFNHNKLRKVKYM[N[QZTWVTXPYMZIZGYFXFWGVIVLWNYP[Q]Q)
  (ILHLGKGIHGJFNFMHLLKUJ[ LLLUK[ VFTHRLOUMYK[ VFUHTLSUR[ TLTUS[ `F^G\\IZLWUUYS[)
  (PKOLMLLKLIMGOFQFSGTITLSPQUOXMZJ[H[GZGXHWIXHY QFRGSISLRPPUNXLZJ[ ]G\\H]I^H^G]F[FYGWIULSPRURXSZT[U[WZYX)
  (JJLGNFOFQGQIOOORPT OFPGPINONRPTRTUSWQYNZL \\FZLWTUX ]F[LYQWUUXSZP[L[JZIXIWJVKWJX)
  (ZHYJWOVRUTSWQYOZL[ SLRNPONOMMMKNIPGSF]F[GZHYKXOVUTXQZL[H[GZGXHWJWLXOZQ[T[WZYX VFZG[G)
  (OBOb PBPb OBVB ObVb)
  (KFY^)
  (TBTb UBUb NBUB NbUb)
  (PLRITL MORJWO RJR[)
  (J]Z])
  (VFTHSJSKTLUKTJ)
  (UUTSRRPRNSMTLVLXMZO[Q[SZTX PRNTMVMYO[ VRTXTZV[XZYY[V WRUXUZV[)
  (LVNSPO SFMXMZO[P[RZTXUUURVVWWXWZV TFNXNZO[)
  (TSSTTTTSSRQROSNTMVMXNZP[S[VYXV QROTNVNYP[)
  (UUTSRRPRNSMTLVLXMZO[Q[SZTX PRNTMVMYO[ ZFTXTZV[XZYY[V [FUXUZV[)
  (OYQXRWSUSSRRQROSNTMVMXNZP[S[VYXV QROTNVNYP[)
  (RRUOWLXIXGWFUGTIKdKfLgNfOcPZQ[S[UZVYXV TISNRRO[M`Kd)
  (UUTSRRPRNSMTLVLXMZO[Q[SZTX PRNTMVMYO[ VRPd WRT[R`PdOfMgLfLdMaO_R]V[YY[V)
  (LVNSPO SFL[ TFM[ OUQSSRTRVSVUUXUZV[ TRUSUUTXTZV[XZYY[V)
  (SLRMSNTMSL QROXOZQ[SZTYVV RRPXPZQ[)
  (SLRMSNTMSL QRKd RRO[M`KdJfHgGfGdHaJ_M]Q[TYVV)
  (LVNSPO SFL[ TFM[ URUSVSURTRRTOU OURVSZT[ OUQVRZT[U[XYZV)
  (NVPSRO UFOXOZQ[SZTYVV VFPXPZQ[)
  (EVGSIRKSKUI[ IRJSJUH[ KUMSORPRRSRUP[ PRQSQUO[ RUTSVRWRYSYUXXXZY[ WRXSXUWXWZY[[Z\\Y^V)
  (IVKSMROSOUM[ MRNSNUL[ OUQSSRTRVSVUUXUZV[ TRUSUUTXTZV[XZYY[V)
  (RRPRNSMTLVLXMZO[Q[SZTYUWUUTSRRQSQURWTXVXXWYV PRNTMVMYO[)
  (LVNSPO QLHg RLIg OUQSSRTRVSVUUXUZV[ TRUSUUTXTZV[XZYY[V)
  (UUTSRRPRNSMTLVLXMZO[Q[SZ PRNTMVMYO[ VRPdPfQgSfTcT[V[YY[V WRT[R`Pd)
  (LVNSPRRSRUP[ PRQSQUO[ RUTSVRWRVU VRVUWWXWZV)
  (NVPSQQQSTUUWUYTZR[ QSSUTWTYR[ NZP[U[XYZV)
  (NVPSRO UFOXOZQ[SZTYVV VFPXPZQ[ PNVN)
  (NRLXLZN[O[QZSXUU ORMXMZN[ VRTXTZV[XZYY[V WRUXUZV[)
  (NRMTLWLZN[O[RZTXUUUR ORNTMWMZN[ URVVWWXWZV)
  (LRJTIWIZK[L[NZPX MRKTJWJZK[ RRPXPZR[S[UZWXXUXR SRQXQZR[ XRYVZW[W]V)
  (JVLSNRPRQSQUPXOZM[L[KZKYLYKZ WSVTWTWSVRURSSRUQXQZR[U[XYZV QSRU SSQU PXQZ QXOZ)
  (NRLXLZN[O[QZSXUU ORMXMZN[ VRPd WRT[R`PdOfMgLfLdMaO_R]V[YY[V)
  (LVNSPRRRTSTVSXPZN[ RRSSSVRXPZ N[P\\Q^QaPdNfLgKfKdLaO^R\\VYYV N[O\\P^PaOdNf)
  (TBRCQDPFPHQJRKSMSOQQ RCQEQGRISJTLTNSPORSTTVTXSZR[Q]Q_Ra QSSUSWRYQZP\\P^Q`RaTb)
  (RBRb)
  (PBRCSDTFTHSJRKQMQOSQ RCSESGRIQJPLPNQPURQTPVPXQZR[S]S_Ra SSQUQWRYSZT\\T^S`RaPb)
  (IUISJPLONOPPTSVTXTZS[Q ISJQLPNPPQTTVUXUZT[Q[O)
  (SFQGPIPKQMSNUNWMXKXIWGUFSF)
  ()
  dup
  dup
  dup
  dup
  dup
  dup
  dup
  dup
  dup
  dup
  dup
  dup
  dup
  dup
  dup
  dup
  dup
  dup
  dup
  dup
  dup
  dup
  dup
  dup
  dup
  dup
  dup
  dup
  dup
  dup
  dup
  dup
  dup
  dup
  dup
  dup
  dup
  dup
  dup
  dup
  dup
  dup
  dup
  dup
  dup
  dup
  dup
  dup
  dup
  dup
  dup
  dup
  dup
  dup
  dup
  dup
  dup
  dup
  dup
  dup
  dup
  dup
  dup
  dup
  dup
  dup
  dup
  dup
  dup
  dup
  dup
  dup
  dup
  dup
  dup
  dup
  dup
  dup
  dup
  dup
  dup
  dup
  dup
  dup
  dup
  dup
  dup
  dup
  dup
  dup
  dup
  dup
  dup
  dup
  dup
  dup
  dup
  dup
  dup
  dup
  dup
  dup
  dup
  dup
  dup
  dup
  dup
  dup
  dup
  dup
  dup
  dup
  dup
  dup
  dup
  dup
  dup
  dup
  dup
  dup
  dup
  dup
  dup
  dup
  dup
  dup
  dup
] def
/width [
  0
  0
  0
  0
  0
  0
  0
  0
  0
  0
  0
  0
  0
  0
  0
  0
  0
  0
  0
  0
  0
  0
  0
  0
  0
  0
  0
  0
  0
  0
  0
  0
  16
  11
  18
  21
  21
  24
  26
  11
  15
  15
  17
  26
  11
  26
  11
  22
  21
  21
  21
  21
  21
  21
  21
  21
  21
  21
  11
  11
  24
  26
  24
  21
  27
  23
  24
  21
  23
  19
  21
  22
  24
  16
  17
  24
  18
  28
  23
  21
  23
  21
  24
  20
  18
  22
  21
  23
  20
  22
  21
  14
  14
  14
  16
  16
  11
  16
  14
  12
  16
  12
  9
  16
  15
  8
  8
  14
  8
  25
  18
  14
  15
  16
  14
  12
  8
  16
  15
  21
  16
  16
  13
  14
  8
  14
  24
  15
  0
  0
  0
  0
  0
  0
  0
  0
  0
  0
  0
  0
  0
  0
  0
  0
  0
  0
  0
  0
  0
  0
  0
  0
  0
  0
  0
  0
  0
  0
  0
  0
  0
  0
  0
  0
  0
  0
  0
  0
  0
  0
  0
  0
  0
  0
  0
  0
  0
  0
  0
  0
  0
  0
  0
  0
  0
  0
  0
  0
  0
  0
  0
  0
  0
  0
  0
  0
  0
  0
  0
  0
  0
  0
  0
  0
  0
  0
  0
  0
  0
  0
  0
  0
  0
  0
  0
  0
  0
  0
  0
  0
  0
  0
  0
  0
  0
  0
  0
  0
  0
  0
  0
  0
  0
  0
  0
  0
  0
  0
  0
  0
  0
  0
  0
  0
  0
  0
  0
  0
  0
  0
  0
  0
  0
  0
  0
  0
] def
/left [
  0
  0
  0
  0
  0
  0
  0
  0
  0
  0
  0
  0
  0
  0
  0
  0
  0
  0
  0
  0
  0
  0
  0
  0
  0
  0
  0
  0
  0
  0
  0
  0
  -8
  -5
  -9
  -10
  -10
  -12
  -13
  -5
  -7
  -8
  -8
  -13
  -5
  -13
  -5
  -11
  -10
  -10
  -10
  -10
  -10
  -10
  -10
  -10
  -10
  -10
  -5
  -5
  -12
  -13
  -12
  -10
  -13
  -13
  -12
  -10
  -12
  -9
  -11
  -11
  -12
  -9
  -9
  -12
  -9
  -14
  -11
  -10
  -12
  -10
  -12
  -10
  -9
  -11
  -11
  -12
  -10
  -11
  -11
  -7
  -7
  -7
  -8
  -8
  -5
  -7
  -6
  -6
  -7
  -6
  -3
  -7
  -6
  -4
  -4
  -6
  -4
  -13
  -9
  -7
  -6
  -7
  -6
  -4
  -4
  -7
  -7
  -10
  -8
  -7
  -6
  -7
  -4
  -7
  -12
  -7
  0
  0
  0
  0
  0
  0
  0
  0
  0
  0
  0
  0
  0
  0
  0
  0
  0
  0
  0
  0
  0
  0
  0
  0
  0
  0
  0
  0
  0
  0
  0
  0
  0
  0
  0
  0
  0
  0
  0
  0
  0
  0
  0
  0
  0
  0
  0
  0
  0
  0
  0
  0
  0
  0
  0
  0
  0
  0
  0
  0
  0
  0
  0
  0
  0
  0
  0
  0
  0
  0
  0
  0
  0
  0
  0
  0
  0
  0
  0
  0
  0
  0
  0
  0
  0
  0
  0
  0
  0
  0
  0
  0
  0
  0
  0
  0
  0
  0
  0
  0
  0
  0
  0
  0
  0
  0
  0
  0
  0
  0
  0
  0
  0
  0
  0
  0
  0
  0
  0
  0
  0
  0
  0
  0
  0
  0
  0
  0
] def
/FontName /Hershey-Script def
/BuildCharPath { 
	newpath
	/domove true def
	/isx true def
	0 0 moveto
	bodies charcode get { 
	    isx {
		dup 32 eq { pop /domove true def } 
			  { 82 sub left charcode get sub
			    /isx false def } ifelse
	    } { neg 91 add
		domove	{ moveto /domove false def } 
			{ lineto } ifelse
		/isx true def } 
	    ifelse
	} forall
} def
/BuildChar { 
    exch begin
    10 dict begin
	/charcode exch def
	BuildCharPath
	width charcode get 0
	pathbbox 1 add exch 1 add exch 4 2 roll 1 sub exch 1 sub exch 4 2 roll
	setcachedevice
	0 setlinewidth
	0 setlinewidth 0 setlinejoin
	BuildCharPath stroke
    end end
} def

/FontType 3 def
/FontMatrix [ 1 33 div 0 0 1 33 div 0 0 ] def
/FontBBox [ -7 -15 35 40 ] def
/Encoding 256 array def 0 1 255 { Encoding exch dup put } for
currentdict FontName exch definefont end pop
%%EndResource
