%!PS-AdobeFont-1.0
%%Title: Download font: Hershey Italic Narrow
%%Pages: 0
%%EndComments
%%BeginResource: font Hershey-Italic-Narrow
30 dict begin
/bodies [
  ()
  dup
  dup
  dup
  dup
  dup
  dup
  dup
  dup
  dup
  dup
  dup
  dup
  dup
  dup
  dup
  dup
  dup
  dup
  dup
  dup
  dup
  dup
  dup
  dup
  dup
  dup
  dup
  dup
  dup
  dup
  dup
  dup
  (RKQLRSSLRK RLRO RVQWRXSWRV)
  (ROQPRQSPRO SWRXQWRVSWSYQ[)
  (RKN\\ VKR\\ NQWQ MVVV)
  (QHQ\\ THT\\ WLVLVMWMWLUKPKNLNNOPVSWT NNOOVRWTWVVWTXQXOWNVNUOUOVNV)
  (XKLX OKPLPNOOMOLNLLMKOKSLVLXK UTTUTWUXWXXWXUWTUT)
  (YPXPXQYQYPXOWOVPUTTVSWQXOXMWLVLTMSORRPSNSLRKPKOLONPQUWWXXXYW OXMVMTOR ONPPVWWX)
  (SLRMQLRKSLSNQP)
  (UHSJQMPPPTQWSZU\\ SJRLQPQTRXSZ)
  (OHQJSMTPTTSWQZO\\ QJRLSPSTRXQZ)
  (RJRP OKUO UKOO)
  (RLRX LRXR)
  (SWRXQWRVSWSYQ[)
  (LRXR)
  (RVQWRXSWRV)
  (K^YF)
  (QKOLNONTOWQXTXVWWTWOVLTKQK QKPLOOOTPWQX TXUWVTVOULTK)
  (PNSKSX RLRX OXVX)
  (OMONNNNMOLQKTKVLWNVPTQQROSNUNX TKULVNUPTQ NWOVPVSWVWWV PVSXVXWVWU)
  (OMONNNNMOLQKTKVLWNVPTQ TKULVNUPTQ RQTQVRWTWUVWTXQXOWNVNUOUOV TQURVTVUUWTX)
  (SMSX TKTX TKMTXT QXVX)
  (OKNQ OKVK OLSLVK NQOPQOTOVPWRWUVWTXQXOWNVNUOUOV TOUPVRVUUWTX)
  (VMVNWNWMVLTKRKPLOMNPNUOWQXTXVWWUWSVQTPQPNR RKPMOPOUPWQX TXUWVUVSUQTP)
  (NKNO VMRTPX WKTQQX NMPKRKUM NMPLRLUMVM)
  (QKOLNNOPQQTQVPWNVLTKQK QKPLONPPQQ TQUPVNULTK QQORNTNUOWQXTXVWWUWTVRTQ QQPROTOUPWQX TXUWVUVTURTQ)
  (OVOUNUNVOWQXSXUWVVWSWNVLTKQKOLNNNPORQSTSWQ SXUVVSVNULTK QKPLONOPPRQS)
  (ROQPRQSPRO RVQWRXSWRV)
  (ROQPRQSPRO SWRXQWRVSWSYQ[)
  (WLMRWX)
  (LPXP LTXT)
  (MLWRMX)
  (NNONOONONNOLQKTKVLWNWOVQSRRSRTST TKVMVPUQSR RWRXSXSWRW)
  (UPSOQOPQPRQTSTUS UOUSVTXTYRYQXNVLSKRKOLMNLQLRMUOWRXSXVW)
  (TKKX SMTX TKUX NTTT IXNX RXWX)
  (PKLX QKMX NKUKWLWNVPSQ UKVLVNUPSQ OQRQTRUSUUTWQXJX RQTSTUSWQX)
  (VLWLXKWNVLTKRKPLOMNOMRMUNWPXRXTWUU RKPMOONRNVPX)
  (PKLX QKMX NKTKVLWNWQVTUVTWQXJX TKULVNVQUTTVSWQX)
  (PKLX QKMX SORS NKXKWNWK OQRQ JXTXUUSX)
  (PKLX QKMX SORS NKXKWNWK OQRQ JXOX)
  (VLWLXKWNVLTKRKPLOMNOMRMUNWPXRXTWUVVS RKPMOONRNVPX RXTVUS SSXS)
  (PKLX QKMX XKTX YKUX NKSK VK[K OQVQ JXOX RXWX)
  (TKPX UKQX RKWK NXSX)
  (UKRUQWPX VKSURWPXOXMWLUMTNUMV SKXK)
  (PKLX QKMX YKOR RPTX SPUX NKSK VK[K JXOX RXWX)
  (QKMX RKNX OKTK KXUXVUTX)
  (OKKX OMPX PKQV YKPX YKUX ZKVX MKPK YK\\K IXMX SXXX)
  (PKLX PKTX QKTU XKTX NKQK VKZK JXNX)
  (RKPLOMNOMRMUNWPXRXTWUVVTWQWNVLTKRK RKPMOONRNVPX RXTVUTVQVMTK)
  (PKLX QKMX NKUKWLXMXOWQTROR UKWMWOVQTR JXOX)
  (RKPLOMNOMRMUNWPXRXTWUVVTWQWNVLTKRK RKPMOONRNVPX RXTVUTVQVMTK OWOVPUQURVRZS[T[UZ RVSZT[)
  (PKLX QKMX NKUKWLXMXOWQTROR UKWMWOVQTR SRTWUXVXWW SRTSUWVX JXOX)
  (WLXLYKXNWLUKRKPLOMOOPPUSVT ONPOURVSVVUWSXPXNWMULXMWNW)
  (TKPX UKQX PKNNOKZKYNYK NXSX)
  (PKMUMWOXSXUWVUYK QKNUNWOX NKSK WK[K)
  (OKPX PKQV YKPX MKRK VK[K)
  (NKMX OKNV TKMX TKSX UKTV ZKSX LKQK XK\\K)
  (PKTX QKUX YKLX NKSK VK[K JXOX RXWX)
  (PKRQPX QKSQ YKSQQX NKSK VK[K NXSX)
  (XKLX YKMX QKONPKYK LXUXVUTX)
  (PHP\\ QHQ\\ PHUH P\\U\\)
  (KFY^)
  (SHS\\ THT\\ OHTH O\\T\\)
  (RMRX OPPORLTOUP PORMTO)
  (JZZZ)
  (SKQMQORPSORNQO)
  (VOTVTWUXWXXWYU WOUVUWVX USUQSOQOOPNQMSMUNWPXRXTV QOOQNSNVPX)
  (OKMR PKNRNVPX NROPQOSOUPVRVTUVTWRXPXNWMUMR SOUQUTTVRX MKPK)
  (UPUQVQUPSOQOOPNQMSMUNWPXRXTWUV QOOQNSNVPX)
  (WKTVTWUXWXXWYU XKUVUWVX USUQSOQOOPNQMSMUNWPXRXTV QOOQNSNVPX UKXK)
  (NURTTSURUPSOQOOPNQMSMUNWPXRXTWUV QOOQNSNVPX)
  (WKXLXKVKTLSNPYO[N\\ VKULTNQYP[N\\L\\L[M\\ POVO)
  (VOTVSYR[ WOUVTYR[P\\M\\L[M[N\\ USUQSOQOOPNQMSMUNWPXRXTV QOOQNSNVPX)
  (PKLX QKMX OQPPROTOVPVRUUUWVX TOUPURTUTWUXWXXWYU NKQK)
  (SKSLTLTKSK NROPPOROSPSRRURWSX QORPRRQUQWRXTXUWVU)
  (TKTLULUKTK ORPPQOSOTPTRRYQ[O\\M\\M[N\\ ROSPSRQYP[O\\)
  (PKLX QKMX VPUQVQVPUOTORQPROR ORPSQWRXTXUWVU ORQSRWSX NKQK)
  (SKPVPWQXSXTWUU TKQVQWRX QKTK)
  (GRHPIOKOLPLQJX JOKPKQIX LQMPOOQOSPSQQX QORPRQPX SQTPVOXOZPZRYUYWZX XOYPYRXUXWYX[X\\W]U)
  (KRLPMOOOPPPQNX NOOPOQMX PQQPSOUOWPWRVUVWWX UOVPVRUUUWVXXXYWZU)
  (QOOPNQMSMUNWPXRXTWUVVTVRUPSOQO QOOQNSNVPX RXTVUTUQSO)
  (KRLPMOOOPPPQM\\ NOOPOQL\\ PQROTOVPWRWTVVUWSXQXOVOT TOVQVTUVSX J\\O\\)
  (VOR\\ WOS\\ USUQSOQOOPNQMSMUNWPXRXTV QOOQNSNVPX P\\U\\)
  (MRNPOOQORPRQPX POQPQQOX RQSPUOVOWPWQVQWP)
  (VPVQWQVPTOQOOPORQSTTVU OQQRTSVTVWTXQXOWNVOVOW)
  (SKPVPWQXSXTWUU TKQVQWRX POUO)
  (JRKPLONOOPORNUNWOX MONPNRMUMWOXQXSWTV VOTVTWUXWXXWYU WOUVUWVX)
  (KRLPMOOOPPPROUOWPX NOOPORNUNWPXQXSWUUVRVOUOVP)
  (IRJPKOMONPNRMUMWNX LOMPMRLULWNXOXQWRV TORVRWTX UOSVSWTXUXWWYUZRZOYOZP)
  (MRNPPOROSPSR QORPRRQUPWNXMXLWLVMVLW XPWQXQXPWOVOTPSRRURWSX QUQWRXTXVWWU)
  (JRKPLONOOPORNUNWOX MONPNRMUMWOXQXSWTV VOTVSYR[ WOUVTYR[P\\M\\L[M[N\\)
  (WOWPVQNVMWMX NQOOROUQ OPRPUQVQ NVOVRWUW OVRXUXVV)
  (SHQIPJPLRNSP QIPL SNRQ PJQLSNSPRQPRRSSTSVQXPZ RSSV PXQ[ STRVPXPZQ[S\\)
  (RHR\\)
  (QHSITJTLRNQP SITL QNRQ TJSLQNQPRQTRRSQTQVSXTZ RSQV TXS[ QTRVTXTZS[Q\\)
  (LTLRMPOPUSWSXR LRMQOQUTWTXRXP)
  (QKPLPNQOSOTNTLSKQK)
  ()
  dup
  dup
  dup
  dup
  dup
  dup
  dup
  dup
  dup
  dup
  dup
  dup
  dup
  dup
  dup
  dup
  dup
  dup
  dup
  dup
  dup
  dup
  dup
  dup
  dup
  dup
  dup
  dup
  dup
  dup
  dup
  dup
  dup
  dup
  dup
  dup
  dup
  dup
  dup
  dup
  dup
  dup
  dup
  dup
  dup
  dup
  dup
  dup
  dup
  dup
  dup
  dup
  dup
  dup
  dup
  dup
  dup
  dup
  dup
  dup
  dup
  dup
  dup
  dup
  dup
  dup
  dup
  dup
  dup
  dup
  dup
  dup
  dup
  dup
  dup
  dup
  dup
  dup
  dup
  dup
  dup
  dup
  dup
  dup
  dup
  dup
  dup
  dup
  dup
  dup
  dup
  dup
  dup
  dup
  dup
  dup
  dup
  dup
  dup
  dup
  dup
  dup
  dup
  dup
  dup
  dup
  dup
  dup
  dup
  dup
  dup
  dup
  dup
  dup
  dup
  dup
  dup
  dup
  dup
  dup
  dup
  dup
  dup
  dup
  dup
  dup
  dup
] def
/width [
  0
  0
  0
  0
  0
  0
  0
  0
  0
  0
  0
  0
  0
  0
  0
  0
  0
  0
  0
  0
  0
  0
  0
  0
  0
  0
  0
  0
  0
  0
  0
  0
  12
  8
  8
  14
  15
  16
  17
  8
  10
  10
  10
  18
  8
  18
  8
  14
  13
  13
  13
  13
  13
  13
  13
  13
  13
  13
  8
  8
  16
  18
  16
  13
  17
  14
  15
  13
  15
  15
  14
  14
  17
  9
  12
  16
  13
  19
  16
  14
  15
  14
  16
  15
  15
  17
  14
  18
  15
  13
  13
  10
  14
  10
  10
  16
  8
  15
  14
  13
  15
  12
  11
  14
  15
  10
  10
  13
  8
  24
  17
  13
  15
  14
  12
  13
  9
  17
  14
  20
  16
  16
  14
  11
  6
  11
  16
  10
  0
  0
  0
  0
  0
  0
  0
  0
  0
  0
  0
  0
  0
  0
  0
  0
  0
  0
  0
  0
  0
  0
  0
  0
  0
  0
  0
  0
  0
  0
  0
  0
  0
  0
  0
  0
  0
  0
  0
  0
  0
  0
  0
  0
  0
  0
  0
  0
  0
  0
  0
  0
  0
  0
  0
  0
  0
  0
  0
  0
  0
  0
  0
  0
  0
  0
  0
  0
  0
  0
  0
  0
  0
  0
  0
  0
  0
  0
  0
  0
  0
  0
  0
  0
  0
  0
  0
  0
  0
  0
  0
  0
  0
  0
  0
  0
  0
  0
  0
  0
  0
  0
  0
  0
  0
  0
  0
  0
  0
  0
  0
  0
  0
  0
  0
  0
  0
  0
  0
  0
  0
  0
  0
  0
  0
  0
  0
  0
] def
/left [
  0
  0
  0
  0
  0
  0
  0
  0
  0
  0
  0
  0
  0
  0
  0
  0
  0
  0
  0
  0
  0
  0
  0
  0
  0
  0
  0
  0
  0
  0
  0
  0
  -6
  -4
  -4
  -7
  -7
  -8
  -8
  -4
  -5
  -5
  -5
  -9
  -4
  -9
  -4
  -7
  -6
  -6
  -6
  -6
  -6
  -6
  -6
  -6
  -6
  -6
  -4
  -4
  -8
  -9
  -8
  -6
  -8
  -7
  -8
  -7
  -8
  -8
  -8
  -7
  -8
  -4
  -6
  -8
  -7
  -9
  -8
  -7
  -8
  -7
  -8
  -7
  -7
  -8
  -7
  -9
  -7
  -6
  -6
  -5
  -7
  -5
  -5
  -8
  -4
  -7
  -8
  -7
  -7
  -7
  -5
  -7
  -7
  -5
  -5
  -7
  -4
  -12
  -8
  -7
  -8
  -7
  -6
  -6
  -4
  -9
  -8
  -10
  -8
  -9
  -7
  -6
  -3
  -5
  -8
  -5
  0
  0
  0
  0
  0
  0
  0
  0
  0
  0
  0
  0
  0
  0
  0
  0
  0
  0
  0
  0
  0
  0
  0
  0
  0
  0
  0
  0
  0
  0
  0
  0
  0
  0
  0
  0
  0
  0
  0
  0
  0
  0
  0
  0
  0
  0
  0
  0
  0
  0
  0
  0
  0
  0
  0
  0
  0
  0
  0
  0
  0
  0
  0
  0
  0
  0
  0
  0
  0
  0
  0
  0
  0
  0
  0
  0
  0
  0
  0
  0
  0
  0
  0
  0
  0
  0
  0
  0
  0
  0
  0
  0
  0
  0
  0
  0
  0
  0
  0
  0
  0
  0
  0
  0
  0
  0
  0
  0
  0
  0
  0
  0
  0
  0
  0
  0
  0
  0
  0
  0
  0
  0
  0
  0
  0
  0
  0
  0
] def
/FontName /Hershey-Italic-Narrow def
/BuildCharPath { 
	newpath
	/domove true def
	/isx true def
	0 0 moveto
	bodies charcode get { 
	    isx {
		dup 32 eq { pop /domove true def } 
			  { 82 sub left charcode get sub
			    /isx false def } ifelse
	    } { neg 91 add
		domove	{ moveto /domove false def } 
			{ lineto } ifelse
		/isx true def } 
	    ifelse
	} forall
} def
/BuildChar { 
    exch begin
    10 dict begin
	/charcode exch def
	BuildCharPath
	width charcode get 0
	pathbbox 1 add exch 1 add exch 4 2 roll 1 sub exch 1 sub exch 4 2 roll
	setcachedevice
	0 setlinewidth
	0 setlinewidth 0 setlinejoin
	BuildCharPath stroke
    end end
} def

/FontType 3 def
/FontMatrix [ 1 33 div 0 0 1 33 div 0 0 ] def
/FontBBox [ -7 -15 35 40 ] def
/Encoding 256 array def 0 1 255 { Encoding exch dup put } for
currentdict FontName exch definefont end pop
%%EndResource
