%!PS-AdobeFont-1.0
%%Title: Download font: Hershey Script Narrow
%%Pages: 0
%%EndComments
%%BeginResource: font Hershey-Script-Narrow
30 dict begin
/bodies [
  ()
  dup
  dup
  dup
  dup
  dup
  dup
  dup
  dup
  dup
  dup
  dup
  dup
  dup
  dup
  dup
  dup
  dup
  dup
  dup
  dup
  dup
  dup
  dup
  dup
  dup
  dup
  dup
  dup
  dup
  dup
  dup
  dup
  (UFTGRS UGRS UFVGRS PYOZP[QZPY)
  (PFNM QFNM YFWM ZFWM)
  (SBLb YBRb LOZO KUYU)
  (TBL_ YBQ_ ZJYKZL[K[JZHYGVFRFOGMIMKNMONVRXT MKOMVQWRXTXWWYVZS[O[LZKYJWJVKULVKW)
  ([FI[ NFPHPJOLMMKMIKIIJGLFNFPGSHVHYG[F WTUUTWTYV[X[ZZ[X[VYTWT)
  (\\N[O\\P]O]N\\M[MYNWPRXPZN[K[HZGXGVHTISKRPPROTMUKUITGRFPGOIOLPRQUSXUZW[Y[ZYZX K[IZHXHVITJSPP OLPQQTSWUYWZYZZY)
  (UHTGUFVGVHUJSL)
  (ZBVESHQKOONTNXO]P`Qb VESIQMPPOUOZP_Qb)
  (SBTDUGVLVPUUSYQ\\N_Jb SBTEUJUOTTSWQ[N_)
  (TFTR OIYO YIOO)
  (RIR[ IR[R)
  (P[OZPYQZQ[P]N_)
  (IR[R)
  (RYQZR[SZRY)
  (_BEb)
  (TFQGOIMLLOKSKVLYMZO[Q[TZVXXUYRZNZKYHXGVFTF TFRGPINLMOLSLVMYO[ Q[SZUXWUXRYNYKXHVF)
  (TJO[ VFP[ VFSIPKNL UIQKNL)
  (OJPKOLNKNJOHPGSFVFYGZIZKYMWOTQPSMUKWI[ VFXGYIYKXMVOPS JYKXMXRZUZWYXW MXR[U[WZXW)
  (OJPKOLNKNJOHPGSFVFYGZIZKYMVOSP VFXGYIYKXMVO QPSPVQWRXTXWWYVZS[O[LZKYJWJVKULVKW SPUQVRWTWWVYUZS[)
  (XGR[ YFS[ YFJUZU)
  (QFLP QF[F QGVG[F LPMOPNSNVOWPXRXUWXUZR[O[LZKYJWJVKULVKW SNUOVPWRWUVXTZR[)
  (YIXJYKZJZIYGWFTFQGOIMLLOKSKWLYMZO[R[UZWXXVXSWQVPTOQOOPMRLT TFRGPINLMOLSLXMZ R[TZVXWVWRVP)
  (NFLL [FZIXLSRQUPWO[ XLRRPUOWN[ MIPFRFWI NHPGRGWIYIZH[F)
  (SFPGOHNJNMOOQPTPXOYNZLZIYGVFSF SFQGPHOJOMPOQP TPWOXNYLYIXGVF QPMQKSJUJXKZN[R[VZWYXWXTWRVQTP QPNQLSKUKXLZN[ R[UZVYWWWSVQ)
  (YMXOVQTRQROQNPMNMKNIPGSFVFXGYHZJZNYRXUVXTZQ[N[LZKXKWLVMWLX OQNONKOIQGSF XGYIYNXRWUUXSZQ[)
  (SMRNSOTNSM PYOZP[QZ)
  (SMRNSOTNSM P[OZPYQZQ[P]N_)
  (ZIJRZ[)
  (IO[O IU[U)
  (JIZRJ[)
  (OJPKOLNKNJOHPGSFWFZG[I[KZMYNSPQQQSRTTT WFYGZIZKYMXNVO PYOZP[QZPY)
  (WNVLTKQKOLNMMPMSNUPVSVUUVS QKOMNPNSOUPV WKVSVUXVZV\\T]Q]O\\L[JYHWGTFQFNGLHJJILHOHRIUJWLYNZQ[T[WZYYZX XKWSWUXV)
  (G[IZLWOSSLVFV[UXSUQSNQLQKRKTLVNXQZT[Y[)
  (SHTITLSPRSQUOXMZK[J[IZIWJRKOLMNJPHRGUFXFZG[I[KZMYNWOTP SPTPWQXRYTYWXYWZU[R[PZOX)
  (TLTMUNWNYMZKZIYGWFTFQGOIMLLNKRKVLYMZO[Q[TZVXWV)
  (TFRGQIPMOSNVMXKZI[G[FZFXGWIWKXMZP[S[VZXXZT[O[KZHYGWFTFRHRJSMUPWRZT\\U)
  (VJVKWLYLZKZIYGVFRFOGNINLONPOSPPPMQLRKTKWLYMZP[S[VZXXYV)
  (RLPLNKMINGQFTFXG[G]F XGVNTTRXPZN[L[JZIXIVJULUNV QPZP)
  (G[IZMVPQQNRJRGQFPFOGNINLONQOUOXNYMZKZQYVXXVZS[O[LZJXIVIT)
  (MMKLJJJIKGMFNFPGQIQKPONULYJ[H[GZGX MRVOXN[L]J^H^G]F\\FZHXLVRUWUZV[W[YZZY\\V)
  (WVUTSQROQLQIRGSFUFVGWIWLVQTVSXQZO[M[KZJXJVKUMUOV)
  (T^R[PVOPOJPGRFTFUGVJVMURR[PaOdNfLgKfKdLaN^P\\SZWX)
  (MMKLJJJIKGMFNFPGQIQKPONULYJ[H[GZGX ^I^G]F\\FZGXIVLTNROPO ROSQSXTZU[V[XZYY[V)
  (MRORSQVOXMYKYHXFVFUGTISNRSQVPXNZL[J[IZIXJWLWNXQZT[V[YZ[X)
  (EMCLBJBICGEFFFHGIIIKHPGTE[ GTJLLHMGOFPFRGSISKRPQTO[ QTTLVHWGYFZF\\G]I]K\\PZWZZ[[\\[^Z_YaV)
  (JMHLGJGIHGJFKFMGNINKMPLTJ[ LTOLQHRGTFVFXGYIYKXPVWVZW[X[ZZ[Y]V)
  (TFQGOIMLLNKRKVLYMZO[Q[TZVXXUYSZOZKYHXGVFTFRHRKSNUQWSZU\\V)
  (SHTITLSPRSQUOXMZK[J[IZIWJRKOLMNJPHRGUFZF\\G]H^J^M]O\\PZQWQUPTO)
  (ULTNSOQPOPNNNLOIQGTFWFYGZIZMYPWSSWPYNZK[I[HZHXIWKWMXPZS[V[YZ[X)
  (SHTITLSPRSQUOXMZK[J[IZIWJRKOLMNJPHRGUFYF[G\\H]J]M\\O[PYQVQSPTQUSUXVZX[ZZ[Y]V)
  (H[JZLXOTQQSMTJTGSFRFQGPIPKQMSOVQXSYUYWXYWZT[P[MZKXJVJT)
  (RLPLNKMINGQFTFXG[G]F XGVNTTRXPZN[L[JZIXIVJULUNV)
  (JMHLGJGIHGJFKFMGNINKMOLRKVKXLZN[P[RZSYUUXMZF XMWQVWVZW[X[ZZ[Y]V)
  (KMILHJHIIGKFLFNGOIOKNOMRLVLYM[O[QZTWVTXPYMZIZGYFXFWGVIVKWNYP[Q)
  (HMFLEJEIFGHFIFKGLILLK[ UFK[ UFS[ aF_G\\JYNVTS[)
  (NLLLKKKILGNFPFRGSISLQUQXRZT[V[XZYXYVXUVU ]I]G\\FZFXGVITLPUNXLZJ[H[GZGX)
  (KMILHJHIIGKFLFNGOIOKNOMRLVLXMZN[P[RZTXVUWSYM [FYMVWT]RbPfNgMfMdNaP^S[VY[V)
  (ULTNSOQPOPNNNLOIQGTFWFYGZIZMYPWTTWPZN[K[JZJXKWNWPXQYR[R^QaPcNfLgKfKdLaN^Q[TYZV)
  (OBOb PBPb OBVB ObVb)
  (KFY^)
  (TBTb UBUb NBUB NbUb)
  (PLRITL MORJWO RJR[)
  (J]Z])
  (VFTHSJSKTLUKTJ)
  (UUTSRRPRNSMTLVLXMZO[Q[SZTXVRUWUZV[W[YZZY\\V)
  (MVOSRNSLTITGSFQGPIOMNTNZO[P[RZTXUUURVVWWYW[V)
  (TTTSSRQROSNTMVMXNZP[S[VYXV)
  (UUTSRRPRNSMTLVLXMZO[Q[SZTXZF VRUWUZV[W[YZZY\\V)
  (OYQXRWSUSSRRQROSNUNXOZQ[S[UZVYXV)
  (OVSQUNVLWIWGVFTGSIQQNZKaJdJfKgMfNcOZP[R[TZUYWV)
  (UUTSRRPRNSMTLVLXMZO[Q[SZTY VRTYPdOfMgLfLdMaP^S\\U[XY[V)
  (MVOSRNSLTITGSFQGPIOMNSM[ M[NXOVQSSRURVSVUUXUZV[W[YZZY\\V)
  (SMSNTNTMSM PVRRPXPZQ[R[TZUYWV)
  (SMSNTNTMSM PVRRLdKfIgHfHdIaL^O\\Q[TYWV)
  (MVOSRNSLTITGSFQGPIOMNSM[ M[NXOVQSSRURVSVUTVQV QVSWTZU[V[XZYY[V)
  (OVQSTNULVIVGUFSGRIQMPTPZQ[R[TZUYWV)
  (EVGSIRJSJTIXH[ IXJVLSNRPRQSQTPXO[ PXQVSSURWRXSXUWXWZX[Y[[Z\\Y^V)
  (JVLSNROSOTNXM[ NXOVQSSRURVSVUUXUZV[W[YZZY\\V)
  (RRPRNSMTLVLXMZO[Q[SZTYUWUUTSRRQSQURWTXWXYWZV)
  (KVMSNQMUGg MUNSPRRRTSUUUWTYSZQ[ MZO[R[UZWYZV)
  (UUTSRRPRNSMTLVLXMZO[Q[SZ VRUUSZPaOdOfPgRfScS\\U[XY[V)
  (MVOSPQPSSSTTTVSYSZT[U[WZXYZV)
  (NVPSQQQSSVTXTZR[ NZP[T[VZWYYV)
  (OVQSSO VFPXPZQ[S[UZVYXV PNWN)
  (LVNRLXLZM[O[QZSXUU VRTXTZU[V[XZYY[V)
  (LVNRMWMZN[O[RZTXUUUR URVVWWYW[V)
  (LRJTIWIYJ[L[NZPX RRPXPZQ[S[UZWXXUXR XRYVZW\\W^V)
  (JVLSNRPRQSQZR[U[XYZV WSVRTRSSOZN[L[KZ)
  (LVNRLXLZM[O[QZSXUU VRPdOfMgLfLdMaP^S\\U[XY[V)
  (LVNSPRRRTTTVSXQZN[P\\Q^QaPdOfMgLfLdMaP^S\\WYZV)
  (TBRCQDPFPHQJRKSMSOQQ RCQEQGRISJTLTNSPORSTTVTXSZR[Q]Q_Ra QSSUSWRYQZP\\P^Q`RaTb)
  (RBRb)
  (PBRCSDTFTHSJRKQMQOSQ RCSESGRIQJPLPNQPURQTPVPXQZR[S]S_Ra SSQUQWRYSZT\\T^S`RaPb)
  (IUISJPLONOPPTSVTXTZS[Q ISJQLPNPPQTTVUXUZT[Q[O)
  (QFOGNINKOMQNSNUMVKVIUGSFQF)
  ()
  dup
  dup
  dup
  dup
  dup
  dup
  dup
  dup
  dup
  dup
  dup
  dup
  dup
  dup
  dup
  dup
  dup
  dup
  dup
  dup
  dup
  dup
  dup
  dup
  dup
  dup
  dup
  dup
  dup
  dup
  dup
  dup
  dup
  dup
  dup
  dup
  dup
  dup
  dup
  dup
  dup
  dup
  dup
  dup
  dup
  dup
  dup
  dup
  dup
  dup
  dup
  dup
  dup
  dup
  dup
  dup
  dup
  dup
  dup
  dup
  dup
  dup
  dup
  dup
  dup
  dup
  dup
  dup
  dup
  dup
  dup
  dup
  dup
  dup
  dup
  dup
  dup
  dup
  dup
  dup
  dup
  dup
  dup
  dup
  dup
  dup
  dup
  dup
  dup
  dup
  dup
  dup
  dup
  dup
  dup
  dup
  dup
  dup
  dup
  dup
  dup
  dup
  dup
  dup
  dup
  dup
  dup
  dup
  dup
  dup
  dup
  dup
  dup
  dup
  dup
  dup
  dup
  dup
  dup
  dup
  dup
  dup
  dup
  dup
  dup
  dup
  dup
] def
/width [
  0
  0
  0
  0
  0
  0
  0
  0
  0
  0
  0
  0
  0
  0
  0
  0
  0
  0
  0
  0
  0
  0
  0
  0
  0
  0
  0
  0
  0
  0
  0
  0
  16
  11
  18
  21
  21
  24
  26
  11
  15
  15
  17
  26
  11
  26
  10
  22
  21
  21
  21
  21
  21
  21
  21
  21
  21
  21
  11
  11
  24
  26
  24
  21
  27
  20
  23
  20
  23
  20
  20
  23
  24
  17
  15
  24
  19
  33
  24
  21
  25
  22
  25
  20
  19
  24
  23
  28
  24
  23
  21
  14
  14
  14
  16
  16
  11
  16
  14
  11
  16
  10
  8
  15
  15
  7
  7
  14
  8
  25
  18
  14
  15
  15
  13
  11
  9
  15
  15
  21
  16
  15
  14
  14
  8
  14
  24
  14
  0
  0
  0
  0
  0
  0
  0
  0
  0
  0
  0
  0
  0
  0
  0
  0
  0
  0
  0
  0
  0
  0
  0
  0
  0
  0
  0
  0
  0
  0
  0
  0
  0
  0
  0
  0
  0
  0
  0
  0
  0
  0
  0
  0
  0
  0
  0
  0
  0
  0
  0
  0
  0
  0
  0
  0
  0
  0
  0
  0
  0
  0
  0
  0
  0
  0
  0
  0
  0
  0
  0
  0
  0
  0
  0
  0
  0
  0
  0
  0
  0
  0
  0
  0
  0
  0
  0
  0
  0
  0
  0
  0
  0
  0
  0
  0
  0
  0
  0
  0
  0
  0
  0
  0
  0
  0
  0
  0
  0
  0
  0
  0
  0
  0
  0
  0
  0
  0
  0
  0
  0
  0
  0
  0
  0
  0
  0
  0
] def
/left [
  0
  0
  0
  0
  0
  0
  0
  0
  0
  0
  0
  0
  0
  0
  0
  0
  0
  0
  0
  0
  0
  0
  0
  0
  0
  0
  0
  0
  0
  0
  0
  0
  -8
  -5
  -9
  -10
  -10
  -12
  -13
  -5
  -7
  -8
  -8
  -13
  -5
  -13
  -5
  -11
  -10
  -10
  -10
  -10
  -10
  -10
  -10
  -10
  -10
  -10
  -5
  -5
  -12
  -13
  -12
  -10
  -13
  -11
  -12
  -10
  -11
  -10
  -10
  -11
  -12
  -9
  -8
  -12
  -9
  -18
  -13
  -10
  -12
  -10
  -12
  -10
  -10
  -13
  -12
  -15
  -12
  -12
  -10
  -7
  -7
  -7
  -8
  -8
  -5
  -6
  -5
  -5
  -6
  -4
  -3
  -6
  -5
  -2
  -2
  -5
  -3
  -13
  -8
  -6
  -7
  -6
  -5
  -4
  -3
  -6
  -6
  -9
  -8
  -6
  -6
  -7
  -4
  -7
  -12
  -7
  0
  0
  0
  0
  0
  0
  0
  0
  0
  0
  0
  0
  0
  0
  0
  0
  0
  0
  0
  0
  0
  0
  0
  0
  0
  0
  0
  0
  0
  0
  0
  0
  0
  0
  0
  0
  0
  0
  0
  0
  0
  0
  0
  0
  0
  0
  0
  0
  0
  0
  0
  0
  0
  0
  0
  0
  0
  0
  0
  0
  0
  0
  0
  0
  0
  0
  0
  0
  0
  0
  0
  0
  0
  0
  0
  0
  0
  0
  0
  0
  0
  0
  0
  0
  0
  0
  0
  0
  0
  0
  0
  0
  0
  0
  0
  0
  0
  0
  0
  0
  0
  0
  0
  0
  0
  0
  0
  0
  0
  0
  0
  0
  0
  0
  0
  0
  0
  0
  0
  0
  0
  0
  0
  0
  0
  0
  0
  0
] def
/FontName /Hershey-Script-Narrow def
/BuildCharPath { 
	newpath
	/domove true def
	/isx true def
	0 0 moveto
	bodies charcode get { 
	    isx {
		dup 32 eq { pop /domove true def } 
			  { 82 sub left charcode get sub
			    /isx false def } ifelse
	    } { neg 91 add
		domove	{ moveto /domove false def } 
			{ lineto } ifelse
		/isx true def } 
	    ifelse
	} forall
} def
/BuildChar { 
    exch begin
    10 dict begin
	/charcode exch def
	BuildCharPath
	width charcode get 0
	pathbbox 1 add exch 1 add exch 4 2 roll 1 sub exch 1 sub exch 4 2 roll
	setcachedevice
	0 setlinewidth
	0 setlinewidth 0 setlinejoin
	BuildCharPath stroke
    end end
} def

/FontType 3 def
/FontMatrix [ 1 33 div 0 0 1 33 div 0 0 ] def
/FontBBox [ -7 -15 35 40 ] def
/Encoding 256 array def 0 1 255 { Encoding exch dup put } for
currentdict FontName exch definefont end pop
%%EndResource
