%!PS-AdobeFont-1.0
%%Title: Download font: Hershey Romand
%%Pages: 0
%%EndComments
%%BeginResource: font Hershey-Romand
30 dict begin
/bodies [
  ()
  dup
  dup
  dup
  dup
  dup
  dup
  dup
  dup
  dup
  dup
  dup
  dup
  dup
  dup
  dup
  dup
  dup
  dup
  dup
  dup
  dup
  dup
  dup
  dup
  dup
  dup
  dup
  dup
  dup
  dup
  dup
  dup
  (RFRTST RFSFST RXQYQZR[S[TZTYSXRX RYRZSZSYRY)
  (NFMGMM NGMM NFOGMM WFVGVM WGVM WFXGVM)
  (SFLb YFRb LQZQ KWYW)
  (RBR_S_ RBSBS_ WIYIWGTFQFNGLILKMMNNVRWSXUXWWYTZQZOYNX WIVHTGQGNHMIMKNMVQXSYUYWXYWZT[Q[NZLXNX XXUZ)
  ([FI[ NFPHPJOLMMKMIKIIJGLFNFPGSHVHYG[F WTUUTWTYV[X[ZZ[X[VYTWT)
  (\\MZMXNWPUVTXSYQZMZKYJWJUKSLRQOSMTKTISGQFPFNGMIMKNNPQUWXZZ[\\[ \\M\\NZNXO YNXPVVUXSZQ[M[KZJYIWIUJSLQQNRMSKSIRG SHQGPGNH OGNINKONQQVWXYZZ\\Z\\[)
  (THSIRIQHQGRFSFTGTJSLQM RGRHSHSGRG SITJ THSL)
  (UBSDQGOKNPNTOYQ]S`UbVb UBVBTDRGPKOPOTPYR]T`Vb)
  (NBPDRGTKUPUTTYR]P`NbOb NBOBQDSGUKVPVTUYS]Q`Ob)
  (RFQGSQRR RFRR RFSGQQRR MINIVOWO MIWO MIMJWNWO WIVINOMO WIMO WIWJMNMO)
  (RIRZSZ RISISZ JQ[Q[R JQJR[R)
  (TZS[R[QZQYRXSXTYT\\S^Q_ RYRZSZSYRY S[T\\ TZS^)
  (JQ[Q[R JQJR[R)
  (RXQYQZR[S[TZTYSXRX RYRZSZSYRY)
  ([BIbJb [B\\BJb)
  (QFNGLJKOKRLWNZQ[S[VZXWYRYOXJVGSFQF OGMJLOLRMWOZ NYQZSZVY UZWWXRXOWJUG VHSGQGNH)
  (NJPISFS[ NJNKPJRHR[S[)
  (LKLJMHNGPFTFVGWHXJXLWNUQL[ LKMKMJNHPGTGVHWJWLVNTQK[ LZYZY[ K[Y[)
  (MFXFQO MFMGWG WFPO QNSNVOXQYTYUXXVZS[P[MZLYKWLW POSOVPXS TOWQXTXUWXTZ XVVYSZPZMYLW OZLX)
  (UIU[V[ VFV[ VFKVZV UILV LUZUZV)
  (MFLO NGMN MFWFWG NGWG MNPMSMVNXPYSYUXXVZS[P[MZLYKWLW LOMOONSNVOXR TNWPXSXUWXTZ XVVYSZPZMYLW OZLX)
  (VGWIXIWGTFRFOGMJLOLTMXOZR[S[VZXXYUYTXQVOSNRNOOMQ WHTGRGOH PGNJMOMTNXQZ MVOYRZSZVYXV TZWXXUXTWQTO XSVPSOROOPMS QONQMT)
  (KFYFO[ KFKGXG XFN[O[)
  (PFMGLILKMMNNPOTPVQWRXTXWWYTZPZMYLWLTMRNQPPTOVNWMXKXIWGTFPF NGMIMKNMPNTOVPXRYTYWXYWZT[P[MZLYKWKTLRNPPOTNVMWKWIVG WHTGPGMH LXOZ UZXX)
  (WPURRSQSNRLPKMKLLINGQFRFUGWIXMXRWWUZR[P[MZLXMXNZ WMVPSR WNUQRRQRNQLN PRMPLMLLMIPG LKNHQGRGUHWK SGVIWMWRVWTZ UYRZPZMY)
  (RMQNQORPSPTOTNSMRM RNROSOSNRN RXQYQZR[S[TZTYSXRX RYRZSZSYRY)
  (RMQNQORPSPTOTNSMRM RNROSOSNRN TZS[R[QZQYRXSXTYT\\S^Q_ RYRZSZSYRY S[T\\ TZS^)
  (ZIJRZ[)
  (JM[M[N JMJN[N JU[U[V JUJV[V)
  (JIZRJ[)
  (LKLJMHNGQFTFWGXHYJYLXNWOUPRQ LKMKMJNHQGTGWHXJXLWNUORP MIPG UGXI XMTP RPRTSTSP RXQYQZR[S[TZTYSXRX RYRZSZSYRY)
  (WNVLTKQKOLNMMPMSNUPVSVUUVS QKOMNPNSOUPV WKVSVUXVZV\\T]Q]O\\L[JYHWGTFQFNGLHJJILHOHRIUJWLYNZQ[T[WZYYZX XKWSWUXV)
  (RFJ[ RIK[J[ RIY[Z[ RFZ[ MUWU LVXV)
  (LFL[ MGMZ LFTFWGXHYJYMXOWPTQ MGTGWHXJXMWOTP MPTPWQXRYTYWXYWZT[L[ MQTQWRXTXWWYTZMZ)
  (ZKYIWGUFQFOGMILKKNKSLVMXOZQ[U[WZYXZV ZKYKXIWHUGQGOHMKLNLSMVOYQZUZWYXXYVZV)
  (LFL[ MGMZ LFSFVGXIYKZNZSYVXXVZS[L[ MGSGVHWIXKYNYSXVWXVYSZMZ)
  (MFM[ NGNZ MFYF NGYGYF NPTPTQ NQTQ NZYZY[ M[Y[)
  (MFM[ NGN[M[ MFYF NGYGYF NPTPTQ NQTQ)
  (ZKYIWGUFQFOGMILKKNKSLVMXOZQ[U[WZYXZVZRUR ZKYKXIWHUGQGOHNIMKLNLSMVNXOYQZUZWYXXYVYSUSUR)
  (KFK[ KFLFL[K[ YFXFX[Y[ YFY[ LPXP LQXQ)
  (RFR[S[ RFSFS[)
  (VFVVUYSZQZOYNVMV VFWFWVVYUZS[Q[OZNYMV)
  (LFL[M[ LFMFM[ ZFYFMR ZFMS POY[Z[ QOZ[)
  (MFM[ MFNFNZ NZYZY[ M[Y[)
  (JFJ[ KKK[J[ KKR[ JFRX ZFRX YKR[ YKY[Z[ ZFZ[)
  (KFK[ LIL[K[ LIY[ KFXX XFXX XFYFY[)
  (PFNGLIKKJNJSKVLXNZP[T[VZXXYVZSZNYKXIVGTFPF QGNHLKKNKSLVNYQZSZVYXVYSYNXKVHSGQG)
  (LFL[ MGM[L[ LFUFWGXHYJYMXOWPUQMQ MGUGWHXJXMWOUPMP)
  (PFNGLIKKJNJSKVLXNZP[T[VZXXYVZSZNYKXIVGTFPF QGNHLKKNKSLVNYQZSZVYXVYSYNXKVHSGQG SXX]Y] SXTXY])
  (LFL[ MGM[L[ LFTFWGXHYJYMXOWPTQMQ MGTGWHXJXMWOTPMP RQX[Y[ SQY[)
  (YIWGTFPFMGKIKKLMMNOOTQVRWSXUXXWYTZPZNYMXKX YIWIVHTGPGMHLILKMMONTPVQXSYUYXWZT[P[MZKX)
  (RGR[ SGS[R[ LFYFYG LFLGYG)
  (KFKULXNZQ[S[VZXXYUYF KFLFLUMXNYQZSZVYWXXUXFYF)
  (JFR[ JFKFRX ZFYFRX ZFR[)
  (GFM[ GFHFMX RFMX RIM[ RIW[ RFWX ]F\\FWX ]FW[)
  (KFX[Y[ KFLFY[ YFXFK[ YFL[K[)
  (KFRPR[S[ KFLFSP ZFYFRP ZFSPS[)
  (XFK[ YFL[ KFYF KFKGXG LZYZY[ K[Y[)
  (OBOb PBPb OBVB ObVb)
  (KFY^)
  (TBTb UBUb NBUB NbUb)
  (PLRITL MORJWO RJR[)
  (J]Z])
  (TFRGQIQLRMSMTLTKSJRJQK RKRLSLSKRK RGQK QIRJ)
  (WMW[X[ WMXMX[ WPUNSMPMNNLPKSKULXNZP[S[UZWX WPSNPNNOMPLSLUMXNYPZSZWX)
  (LFL[M[ LFMFM[ MPONQMTMVNXPYSYUXXVZT[Q[OZMX MPQNTNVOWPXSXUWXVYTZQZMX)
  (XPVNTMQMONMPLSLUMXOZQ[T[VZXX XPWQVOTNQNOONPMSMUNXOYQZTZVYWWXX)
  (WFW[X[ WFXFX[ WPUNSMPMNNLPKSKULXNZP[S[UZWX WPSNPNNOMPLSLUMXNYPZSZWX)
  (MTXTXQWOVNTMQMONMPLSLUMXOZQ[T[VZXX MSWSWQVOTNQNOONPMSMUNXOYQZTZVYWWXX)
  (WFUFSGRJR[S[ WFWGUGSH TGSJS[ OMVMVN OMONVN)
  (XMWMW\\V_U`SaQaO`N_L_ XMX\\W_UaSbPbNaL_ WPUNSMPMNNLPKSKULXNZP[S[UZWX WPSNPNNOMPLSLUMXNYPZSZWX)
  (LFL[M[ LFMFM[ MQPNRMUMWNXQX[ MQPORNTNVOWQW[X[)
  (RFQGQHRISITHTGSFRF RGRHSHSGRG RMR[S[ RMSMS[)
  (RFQGQHRISITHTGSFRF RGRHSHSGRG RMRbSb RMSMSb)
  (LFL[M[ LFMFM[ XMWMMW XMMX PTV[X[ QSX[)
  (RFR[S[ RFSFS[)
  (GMG[H[ GMHMH[ HQKNMMPMRNSQS[ HQKOMNONQORQR[S[ SQVNXM[M]N^Q^[ SQVOXNZN\\O]Q][^[)
  (LML[M[ LMMMM[ MQPNRMUMWNXQX[ MQPORNTNVOWQW[X[)
  (QMONMPLSLUMXOZQ[T[VZXXYUYSXPVNTMQM QNOONPMSMUNXOYQZTZVYWXXUXSWPVOTNQN)
  (LMLbMb LMMMMb MPONQMTMVNXPYSYUXXVZT[Q[OZMX MPQNTNVOWPXSXUWXVYTZQZMX)
  (WMWbXb WMXMXb WPUNSMPMNNLPKSKULXNZP[S[UZWX WPSNPNNOMPLSLUMXNYPZSZWX)
  (OMO[P[ OMPMP[ PSQPSNUMXM PSQQSOUNXNXM)
  (XPWNTMQMNNMPNRPSUUWV VUWWWXVZ WYTZQZNY OZNXMX XPWPVN WOTNQNNO ONNPOR NQPRUTWUXWXXWZT[Q[NZMX)
  (RFR[S[ RFSFS[ OMVMVN OMONVN)
  (LMLWMZO[R[TZWW LMMMMWNYPZRZTYWW WMW[X[ WMXMX[)
  (LMR[ LMMMRY XMWMRY XMR[)
  (IMN[ IMJMNX RMNX RPN[ RPV[ RMVX [MZMVX [MV[)
  (LMW[X[ LMMMX[ XMWML[ XMM[L[)
  (LMR[ LMMMRY XMWMRYNb XMR[ObNb)
  (VNL[ XMNZ LMXM LMLNVN NZXZX[ L[X[)
  (TBRCQDPFPHQJRKSMSOQQ RCQEQGRISJTLTNSPORSTTVTXSZR[Q]Q_Ra QSSUSWRYQZP\\P^Q`RaTb)
  (RBRb)
  (PBRCSDTFTHSJRKQMQOSQ RCSESGRIQJPLPNQPURQTPVPXQZR[S]S_Ra SSQUQWRYSZT\\T^S`RaPb)
  (IUISJPLONOPPTSVTXTZS[Q ISJQLPNPPQTTVUXUZT[Q[O)
  (QFOGNINKOMQNSNUMVKVIUGSFQF QFNIOMSNVKUGQF SFOGNKQNUMVISF)
  ()
  dup
  dup
  dup
  dup
  dup
  dup
  dup
  dup
  dup
  dup
  dup
  dup
  dup
  dup
  dup
  dup
  dup
  dup
  dup
  dup
  dup
  dup
  dup
  dup
  dup
  dup
  dup
  dup
  dup
  dup
  dup
  dup
  dup
  dup
  dup
  dup
  dup
  dup
  dup
  dup
  dup
  dup
  dup
  dup
  dup
  dup
  dup
  dup
  dup
  dup
  dup
  dup
  dup
  dup
  dup
  dup
  dup
  dup
  dup
  dup
  dup
  dup
  dup
  dup
  dup
  dup
  dup
  dup
  dup
  dup
  dup
  dup
  dup
  dup
  dup
  dup
  dup
  dup
  dup
  dup
  dup
  dup
  dup
  dup
  dup
  dup
  dup
  dup
  dup
  dup
  dup
  dup
  dup
  dup
  dup
  dup
  dup
  dup
  dup
  dup
  dup
  dup
  dup
  dup
  dup
  dup
  dup
  dup
  dup
  dup
  dup
  dup
  dup
  dup
  dup
  dup
  dup
  dup
  dup
  dup
  dup
  dup
  dup
  dup
  dup
  dup
  dup
] def
/width [
  0
  0
  0
  0
  0
  0
  0
  0
  0
  0
  0
  0
  0
  0
  0
  0
  0
  0
  0
  0
  0
  0
  0
  0
  0
  0
  0
  0
  0
  0
  0
  0
  16
  11
  18
  21
  19
  24
  25
  11
  14
  14
  16
  25
  11
  25
  11
  23
  20
  20
  20
  20
  20
  20
  20
  20
  20
  20
  11
  11
  24
  25
  24
  19
  27
  20
  20
  21
  21
  19
  18
  21
  22
  9
  17
  21
  17
  24
  22
  22
  20
  22
  20
  20
  17
  22
  20
  26
  20
  19
  20
  14
  14
  14
  16
  16
  11
  20
  20
  18
  20
  18
  14
  20
  20
  9
  9
  19
  9
  31
  20
  19
  20
  20
  14
  17
  11
  20
  16
  24
  18
  16
  18
  14
  8
  14
  24
  14
  0
  0
  0
  0
  0
  0
  0
  0
  0
  0
  0
  0
  0
  0
  0
  0
  0
  0
  0
  0
  0
  0
  0
  0
  0
  0
  0
  0
  0
  0
  0
  0
  0
  0
  0
  0
  0
  0
  0
  0
  0
  0
  0
  0
  0
  0
  0
  0
  0
  0
  0
  0
  0
  0
  0
  0
  0
  0
  0
  0
  0
  0
  0
  0
  0
  0
  0
  0
  0
  0
  0
  0
  0
  0
  0
  0
  0
  0
  0
  0
  0
  0
  0
  0
  0
  0
  0
  0
  0
  0
  0
  0
  0
  0
  0
  0
  0
  0
  0
  0
  0
  0
  0
  0
  0
  0
  0
  0
  0
  0
  0
  0
  0
  0
  0
  0
  0
  0
  0
  0
  0
  0
  0
  0
  0
  0
  0
  0
] def
/left [
  0
  0
  0
  0
  0
  0
  0
  0
  0
  0
  0
  0
  0
  0
  0
  0
  0
  0
  0
  0
  0
  0
  0
  0
  0
  0
  0
  0
  0
  0
  0
  0
  -8
  -5
  -9
  -10
  -9
  -12
  -12
  -5
  -7
  -7
  -8
  -12
  -5
  -12
  -5
  -11
  -10
  -10
  -10
  -10
  -10
  -10
  -10
  -10
  -10
  -10
  -5
  -5
  -12
  -12
  -12
  -9
  -13
  -10
  -10
  -10
  -10
  -9
  -9
  -10
  -11
  -4
  -8
  -10
  -9
  -12
  -11
  -11
  -10
  -11
  -10
  -10
  -8
  -11
  -10
  -13
  -10
  -9
  -10
  -7
  -7
  -7
  -8
  -8
  -5
  -10
  -10
  -9
  -10
  -9
  -6
  -10
  -10
  -4
  -4
  -10
  -4
  -15
  -10
  -9
  -10
  -10
  -7
  -8
  -5
  -10
  -8
  -12
  -9
  -8
  -9
  -7
  -4
  -7
  -12
  -7
  0
  0
  0
  0
  0
  0
  0
  0
  0
  0
  0
  0
  0
  0
  0
  0
  0
  0
  0
  0
  0
  0
  0
  0
  0
  0
  0
  0
  0
  0
  0
  0
  0
  0
  0
  0
  0
  0
  0
  0
  0
  0
  0
  0
  0
  0
  0
  0
  0
  0
  0
  0
  0
  0
  0
  0
  0
  0
  0
  0
  0
  0
  0
  0
  0
  0
  0
  0
  0
  0
  0
  0
  0
  0
  0
  0
  0
  0
  0
  0
  0
  0
  0
  0
  0
  0
  0
  0
  0
  0
  0
  0
  0
  0
  0
  0
  0
  0
  0
  0
  0
  0
  0
  0
  0
  0
  0
  0
  0
  0
  0
  0
  0
  0
  0
  0
  0
  0
  0
  0
  0
  0
  0
  0
  0
  0
  0
  0
] def
/FontName /Hershey-Romand def
/BuildCharPath { 
	newpath
	/domove true def
	/isx true def
	0 0 moveto
	bodies charcode get { 
	    isx {
		dup 32 eq { pop /domove true def } 
			  { 82 sub left charcode get sub
			    /isx false def } ifelse
	    } { neg 91 add
		domove	{ moveto /domove false def } 
			{ lineto } ifelse
		/isx true def } 
	    ifelse
	} forall
} def
/BuildChar { 
    exch begin
    10 dict begin
	/charcode exch def
	BuildCharPath
	width charcode get 0
	pathbbox 1 add exch 1 add exch 4 2 roll 1 sub exch 1 sub exch 4 2 roll
	setcachedevice
	0 setlinewidth
	0 setlinewidth 0 setlinejoin
	BuildCharPath stroke
    end end
} def

/FontType 3 def
/FontMatrix [ 1 33 div 0 0 1 33 div 0 0 ] def
/FontBBox [ -7 -15 35 40 ] def
/Encoding 256 array def 0 1 255 { Encoding exch dup put } for
currentdict FontName exch definefont end pop
%%EndResource
