[schematic2]
uniq 283
[tools]
[detail]
w 1442 683 100 0 in_field egenSub.CalcPosition.OUTH 928 1504 1248 1504 1248 672 1696 672 elongouts.InField.SLNK
w 1606 875 100 0 PKO_CUR egenSub.CalcPosition.OUTG 928 1568 1280 1568 1280 864 2016 864 outhier.PKO_CUR.p
w 1622 939 100 0 BAS_CUR egenSub.CalcPosition.OUTF 928 1632 1312 1632 1312 928 2016 928 outhier.BAS_CUR.p
w 1106 1931 -100 0 n#271 egenSub.CalcPosition.VALB 928 1920 1344 1920 1344 1216 1760 1216 eaos.CurY.DOL
w 1570 1579 -100 0 n#270 eaos.CurX.DOL 1824 1568 1376 1568 1376 1984 928 1984 egenSub.CalcPosition.VALA
w 274 747 100 0 z_offset eais.ZOffset.VAL 128 736 480 736 480 1568 640 1568 egenSub.CalcPosition.INPG
w 258 1035 100 0 y_offset eais.YOffset.VAL 128 1024 448 1024 448 1632 640 1632 egenSub.CalcPosition.INPF
w 242 1195 100 0 x_offset eais.XOffset.VAL 128 1184 416 1184 416 1696 640 1696 egenSub.CalcPosition.INPE
w 226 1355 100 0 pickoff_offset eais.PkoOffset.VAL 128 1344 384 1344 384 1760 640 1760 egenSub.CalcPosition.INPD
w 208 1520 100 0 base_offset eais.BasOffset.VAL 128 1504 352 1504 352 1824 640 1824 egenSub.CalcPosition.INPC
w 1430 1707 100 0 cur_pos egenSub.CalcPosition.OUTE 928 1696 2016 1696 outhier.CUR_POS.p
w 1442 1835 100 0 z_cur egenSub.CalcPosition.OUTC 928 1824 2016 1824 outhier.Z_CUR.p
w 246 1899 100 0 pko_pos inhier.PKO_POS.P -64 1888 640 1888 egenSub.CalcPosition.INPB
w 1436 1771 100 0 pr_cur egenSub.CalcPosition.OUTD 928 1760 2016 1760 outhier.PR_CUR.p
w 1442 1899 100 0 y_cur egenSub.CalcPosition.OUTB 928 1888 2016 1888 outhier.Y_CUR.p
w 1442 1963 100 0 x_cur egenSub.CalcPosition.OUTA 928 1952 2016 1952 outhier.X_CUR.p
w 246 1963 100 0 bas_pos inhier.BAS_POS.P -64 1952 640 1952 egenSub.CalcPosition.INPA
[cell use]
use elongouts 1856 752 100 0 InField
xform 0 1824 672
p 1760 512 100 0 1 LOW:-1
p 1760 480 100 0 1 LSV:MINOR
p 1760 544 100 0 1 OMSL:supervisory
p 1840 752 100 512 -1 PV:$(top)$(assy)
p 1760 576 100 0 1 SCAN:Passive
use outhier 2016 1776 100 0 PR_CUR
xform 0 2000 1760
use outhier 2016 1904 100 0 Y_CUR
xform 0 2000 1888
use outhier 2016 1968 100 0 X_CUR
xform 0 2000 1952
use outhier 2016 1840 100 0 Z_CUR
xform 0 2000 1824
use outhier 2016 1712 100 0 CUR_POS
xform 0 2000 1696
use outhier 2032 928 100 0 BAS_CUR
xform 0 2000 928
use outhier 2032 864 100 0 PKO_CUR
xform 0 2000 864
use eaos 2000 1616 100 0 CurX
xform 0 1952 1536
p 1888 1312 100 0 1 EGU:mm
p 1888 1376 100 0 0 EGUF:0
p 1888 1344 100 0 0 EGUL:0
p 1888 1376 100 0 1 HOPR:150
p 1888 1344 100 0 1 LOPR:-25.0
p 1888 1408 100 0 1 OMSL:closed_loop
p 1984 1616 100 512 -1 PV:$(top)$(assy)
p 1888 1440 100 0 1 SCAN:.1 second
p 2160 1504 100 0 1 def(OUT):0
use eaos 1936 1264 100 0 CurY
xform 0 1888 1184
p 1824 960 100 0 1 EGU:mm
p 1824 1024 100 0 0 EGUF:0
p 1824 992 100 0 0 EGUL:0
p 1824 1024 100 0 1 HOPR:150.0
p 1824 992 100 0 1 LOPR:-150.0
p 1824 1056 100 0 1 OMSL:closed_loop
p 1920 1264 100 512 -1 PV:$(top)$(assy)
p 1824 1088 100 0 1 SCAN:.1 second
p 2144 1152 100 0 1 def(OUT):0.0
use eais 48 816 100 0 ZOffset
xform 0 0 752
p -48 720 100 0 1 PREC:3
p 48 816 100 512 -1 PV:$(top)$(assy)
use eais 48 1104 100 0 YOffset
xform 0 0 1040
p 0 1008 100 256 1 PREC:3
p 48 1104 100 512 -1 PV:$(top)$(assy)
use eais 48 1264 100 0 XOffset
xform 0 0 1200
p 0 1168 100 256 1 PREC:3
p 48 1264 100 512 -1 PV:$(top)$(assy)
use eais 64 1424 100 0 PkoOffset
xform 0 0 1360
p 0 1328 100 256 1 PREC:3
p 48 1424 100 512 -1 PV:$(top)$(assy)
use eais 64 1584 100 0 BasOffset
xform 0 0 1520
p 0 1488 100 256 1 PREC:3
p 48 1584 100 512 -1 PV:$(top)$(assy)
use inhier -96 1888 100 512 PKO_POS
xform 0 -64 1888
use inhier -96 1952 100 512 BAS_POS
xform 0 -64 1952
use egenSub 896 2048 100 0 CalcPosition
xform 0 784 1616
p 784 1104 100 256 1 EFLG:ON CHANGE
p 720 1984 70 0 -1 FTA:DOUBLE
p 720 1920 70 0 -1 FTB:DOUBLE
p 720 1856 70 0 -1 FTC:DOUBLE
p 720 1792 70 0 -1 FTD:DOUBLE
p 720 1728 70 0 -1 FTE:DOUBLE
p 720 1664 70 0 -1 FTF:DOUBLE
p 720 1600 70 0 -1 FTG:DOUBLE
p 848 1984 70 512 -1 FTVA:DOUBLE
p 848 1920 70 512 -1 FTVB:DOUBLE
p 848 1856 70 512 -1 FTVC:DOUBLE
p 848 1792 70 512 -1 FTVD:DOUBLE
p 848 1728 75 512 -1 FTVE:DOUBLE
p 848 1664 70 512 -1 FTVF:DOUBLE
p 848 1600 70 512 -1 FTVG:DOUBLE
p 848 1536 70 512 -1 FTVH:LONG
p 848 1712 100 0 0 NOE:1
p 848 1696 70 512 1 NOVE:4
p 656 1152 100 0 1 PREC:2
p 880 2048 100 512 1 PV:$(top)$(assy)
p 784 1232 70 256 1 SCAN:.1 second
p 784 1184 100 256 1 SNAM:oiAngles2Position
p 656 1118 70 0 0 def(INPC):0.0
p 656 1086 70 0 0 def(INPD):0.0
p 656 1054 70 0 0 def(INPE):0.0
p 656 1024 70 0 0 def(INPF):0.0
p 656 992 70 0 0 def(OUTE):0.000000000000000e+00
p 2144 928 100 0 1 def(OUTF):$(top)$(assy)Assembly.SIJ
p 2144 864 100 0 1 def(OUTG):$(top)$(assy)Assembly.SIK
p 928 1514 75 0 -1 pproc(OUTH):PP
p 417 1222 100 0 0 typ(OUTE):path
use f2BorderC -416 -153 100 0 f2BorderC#91
xform 0 1264 1152
p 2836 -24 100 512 1 File:f2OiwfsCalcPos.sch
p 2532 160 120 256 -1 Project:Gemini Flamingos-2 OIWFS
p 2244 20 150 0 1 Rev:
p 2524 96 120 256 -1 Title:Calculate X/Y Position
p 2564 32 100 1024 -1 author:B.Wooff
p 2564 0 100 1024 -1 date:June 9, 2005
[comments]
