[schematic2]
uniq 3
[tools]
[detail]
s 832 1904 500 256 Flamingos 2 - Cerro Pachon
s 832 1760 500 256 OIWFS Probe Controller
[cell use]
use f2OpcCfg 640 1223 100 0 f2OpcCfg#1
xform 0 800 1384
p 576 1088 100 0 -1 set0001:top f2:wfs:
p 576 1056 100 0 -1 set0002:sadtop f2:wfs:
p 576 1024 100 0 -1 set0003:assy1 probe
p 576 992 100 0 -1 set0004:assySimm NONE
p 576 928 100 0 -1 set0006:xycom XYCOM-240
p 576 896 100 0 -1 set0007:iointr .1 second
p 576 832 100 0 -1 set0008:agProbeOffset ag:wfs:oi:probeOffset.J
p 800 992 100 0 -1 set0009:devSimm NONE
p 800 960 100 0 -1 set0010:data_dir ./data
p 800 1024 100 0 -1 set0011:dev1 Bas
p 960 1024 100 0 -1 set0012:dev2 Pko
p 576 768 100 0 -1 set0013:A_MARK 0
p 576 736 100 0 -1 set0014:A_CLEAR 1
p 576 704 100 0 -1 set0015:A_PRESET 2
p 576 672 100 0 -1 set0016:A_START 3
p 576 640 100 0 -1 set0017:A_STOP 4
p 576 608 100 0 -1 set0018:A_INIT 0
p 576 576 100 0 -1 set0019:A_MOVE 1
p 576 544 100 0 -1 set0020:A_TRACK 2
p 576 512 100 0 -1 set0021:A_INDEX 3
p 576 480 100 0 -1 set0022:A_PARK 4
p 576 448 100 0 -1 set0023:A_TEST 5
p 576 416 100 0 -1 set0024:A_UPDATE 6
p 576 384 100 0 -1 set0025:A_IDLE 0
p 576 352 100 0 -1 set0026:A_PAUSED 1
p 576 320 100 0 -1 set0027:A_BUSY 2
p 576 288 100 0 -1 set0028:A_ERROR 3
p 800 768 100 0 -1 set0029:D_STOP 0
p 800 704 100 0 -1 set0030:D_CHECK 1
p 800 672 100 0 -1 set0031:D_GO 2
p 800 608 100 0 -1 set0032:D_INIT 0
p 800 576 100 0 -1 set0033:D_MOVE 1
p 800 544 100 0 -1 set0034:D_TRACK 2
p 800 512 100 0 -1 set0035:D_INDEX 3
p 800 480 100 0 -1 set0036:D_PARK 4
p 800 448 100 0 -1 set0037:D_TEST 5
p 800 384 100 0 -1 set0038:D_IDLE 0
p 800 320 100 0 -1 set0039:D_BUSY 1
p 800 288 100 0 -1 set0040:D_ERROR 2
p 1024 768 100 0 -1 set0041:F_STOP 0
p 1024 736 100 0 -1 set0042:F_MOVE 1
p 1024 704 100 0 -1 set0043:F_FOLLOW 2
p 1024 640 100 0 -1 set0044:debug_0 QUIET
p 1024 608 100 0 -1 set0045:debug_1 NONE
p 1024 576 100 0 -1 set0046:debug_2 MIN
p 1024 544 100 0 -1 set0047:debug_3 FULL
p 1024 512 100 0 -1 set0048:debug_4 MAX
use f2BorderC -896 -265 100 0 f2BorderC#0
xform 0 784 1040
p 2356 -136 100 512 1 File:f2OpcCP.sch
p 2052 48 120 256 -1 Project:Gemini Flamingos 2 OIWFS
p 128 -80 100 1792 -1 Rev:0.1
p 2044 -16 120 256 -1 Title:Probe Controller top level database
p 2084 -80 100 1024 -1 author:B.Wooff
p 2224 -112 100 1280 -1 date:June 14, 2005
[comments]
