StartFontMetrics 2.0
Comment Generated by Fontographer 4.0.4 2/15/96 at 12:20 PM
FontName CMEX10
FullName CMEX10
FamilyName CMEX10
Weight Medium
Notice Computer Modern Math Extension, 10pt.  Produced by Electronic Book Technologies.  Based on fonts created for TeX.
ItalicAngle 0
IsFixedPitch false
UnderlinePosition -64.9414
UnderlineThickness 9.76562
Version 001.000
EncodingScheme AppleStandard
FontBBox -25 -2968 1516 774
CapHeight 774
XHeight 774
Descender -1160
Ascender 774
StartCharMetrics 129
C 0 ; WX 458 ; N NUL ; B 4 -2962 458 773 ;
C 1 ; WX 462 ; N Eth ; B 0 -2962 462 773 ;
C 2 ; WX 417 ; N eth ; B 0 -2962 417 773 ;
C 3 ; WX 416 ; N Lslash ; B 0 -2962 416 773 ;
C 4 ; WX 470 ; N lslash ; B 0 -2962 470 773 ;
C 5 ; WX 470 ; N Scaron ; B 0 -2962 470 773 ;
C 6 ; WX 468 ; N scaron ; B 0 -2962 468 773 ;
C 7 ; WX 468 ; N Yacute ; B 0 -2962 468 773 ;
C 8 ; WX 580 ; N yacute ; B 0 -2962 580 773 ;
C 9 ; WX 580 ; N HT ; B 0 -2962 580 773 ;
C 10 ; WX 468 ; N LF ; B 0 -2962 468 773 ;
C 11 ; WX 468 ; N Thorn ; B 0 -2962 468 773 ;
C 12 ; WX 329 ; N thorn ; B 0 -2962 329 773 ;
C 13 ; WX 553 ; N CR ; B 0 -2962 553 773 ;
C 14 ; WX 574 ; N Zcaron ; B 0 -2962 574 773 ;
C 15 ; WX 575 ; N zcaron ; B 0 -2962 575 773 ;
C 16 ; WX 597 ; N DLE ; B 0 -2962 597 773 ;
C 17 ; WX 599 ; N DC1 ; B 0 -2962 599 773 ;
C 18 ; WX 733 ; N DC2 ; B 0 -2962 733 773 ;
C 19 ; WX 734 ; N DC3 ; B 0 -2962 734 773 ;
C 20 ; WX 528 ; N DC4 ; B 0 -2962 528 773 ;
C 21 ; WX 528 ; N onehalf ; B 0 -2962 528 773 ;
C 22 ; WX 580 ; N onequarter ; B 0 -2962 580 773 ;
C 23 ; WX 580 ; N onesuperior ; B 0 -2962 580 773 ;
C 24 ; WX 580 ; N threequarters ; B 0 -2962 580 773 ;
C 25 ; WX 580 ; N threesuperior ; B 0 -2962 580 773 ;
C 26 ; WX 750 ; N twosuperior ; B 0 -2962 750 773 ;
C 27 ; WX 748 ; N brokenbar ; B 0 -2962 748 773 ;
C 28 ; WX 748 ; N minus ; B 0 -2962 748 773 ;
C 29 ; WX 751 ; N multiply ; B 0 -2962 751 773 ;
C 30 ; WX 1045 ; N RS ; B 0 -2962 1045 773 ;
C 31 ; WX 1045 ; N US ; B 0 -2962 1045 773 ;
C 32 ; WX 791 ; N space ; B 0 -2966 791 773 ;
C 33 ; WX 791 ; N exclam ; B 33 -2967 791 773 ;
C 34 ; WX 581 ; N quotedbl ; B 275 -2967 581 773 ;
C 35 ; WX 581 ; N numbersign ; B 11 -2967 581 773 ;
C 36 ; WX 637 ; N dollar ; B 274 -2965 637 773 ;
C 37 ; WX 638 ; N percent ; B 12 -2964 638 773 ;
C 38 ; WX 638 ; N ampersand ; B 274 -2964 638 773 ;
C 39 ; WX 638 ; N quotesingle ; B 11 -2964 638 773 ;
C 40 ; WX 805 ; N parenleft ; B 143 -2966 805 773 ;
C 41 ; WX 805 ; N parenright ; B 143 -2966 805 773 ;
C 42 ; WX 805 ; N asterisk ; B 142 -2967 805 773 ;
C 43 ; WX 808 ; N plus ; B 107 -2966 808 773 ;
C 44 ; WX 1253 ; N comma ; B 57 -2901 1253 773 ;
C 45 ; WX 1250 ; N hyphen ; B 58 -2901 1250 773 ;
C 46 ; WX 799 ; N period ; B 58 -1715 799 773 ;
C 47 ; WX 789 ; N slash ; B 55 -1715 789 773 ;
C 48 ; WX 874 ; N zero ; B 300 -1775 874 773 ;
C 49 ; WX 874 ; N one ; B 33 -1774 874 773 ;
C 50 ; WX 667 ; N two ; B 332 -1764 667 773 ;
C 51 ; WX 669 ; N three ; B 11 -1764 669 773 ;
C 52 ; WX 669 ; N four ; B 332 -1760 669 773 ;
C 53 ; WX 669 ; N five ; B 11 -1759 669 773 ;
C 54 ; WX 669 ; N six ; B 331 -602 669 773 ;
C 55 ; WX 669 ; N seven ; B 274 -603 669 773 ;
C 56 ; WX 887 ; N eight ; B 388 -908 887 773 ;
C 57 ; WX 889 ; N nine ; B 169 -909 889 773 ;
C 58 ; WX 889 ; N colon ; B 389 -896 889 773 ;
C 59 ; WX 889 ; N semicolon ; B 169 -896 889 773 ;
C 60 ; WX 889 ; N less ; B 169 -1812 889 773 ;
C 61 ; WX 889 ; N equal ; B 388 -1812 889 773 ;
C 62 ; WX 889 ; N greater ; B 388 -306 889 773 ;
C 63 ; WX 667 ; N question ; B 314 -603 667 773 ;
C 64 ; WX 875 ; N at ; B 301 -1761 875 773 ;
C 65 ; WX 875 ; N A ; B 33 -1763 875 773 ;
C 66 ; WX 875 ; N B ; B 298 -605 875 773 ;
C 67 ; WX 875 ; N C ; B 477 -604 875 773 ;
C 68 ; WX 613 ; N D ; B 116 -1765 613 773 ;
C 69 ; WX 610 ; N E ; B 90 -1765 610 773 ;
C 70 ; WX 834 ; N F ; B 59 -1002 834 773 ;
C 71 ; WX 1113 ; N G ; B 59 -1402 1113 773 ;
C 72 ; WX 468 ; N H ; B 55 -1109 598 773 ;
C 73 ; WX 556 ; N I ; B 54 -2185 916 773 ;
C 74 ; WX 1110 ; N J ; B 59 -1001 1110 773 ;
C 75 ; WX 1516 ; N K ; B 60 -1400 1516 773 ;
C 76 ; WX 1111 ; N L ; B 59 -1002 1111 773 ;
C 77 ; WX 1516 ; N M ; B 59 -1400 1516 773 ;
C 78 ; WX 1110 ; N N ; B 59 -1001 1110 773 ;
C 79 ; WX 1516 ; N O ; B 59 -1401 1516 773 ;
C 80 ; WX 1056 ; N P ; B 60 -1000 1056 773 ;
C 81 ; WX 944 ; N Q ; B 60 -999 944 773 ;
C 82 ; WX 471 ; N R ; B 60 -1108 603 773 ;
C 83 ; WX 836 ; N S ; B 60 -1001 836 773 ;
C 84 ; WX 836 ; N T ; B 60 -1000 836 773 ;
C 85 ; WX 836 ; N U ; B 59 -1000 836 773 ;
C 86 ; WX 836 ; N V ; B 60 -1000 836 773 ;
C 87 ; WX 836 ; N W ; B 60 -1001 836 773 ;
C 88 ; WX 1445 ; N X ; B 59 -1403 1445 773 ;
C 89 ; WX 1280 ; N Y ; B 60 -1401 1280 773 ;
C 90 ; WX 542 ; N Z ; B 54 -2185 916 773 ;
C 91 ; WX 1114 ; N bracketleft ; B 60 -1402 1114 773 ;
C 92 ; WX 1113 ; N backslash ; B 60 -1403 1113 773 ;
C 93 ; WX 1113 ; N bracketright ; B 59 -1403 1113 773 ;
C 94 ; WX 1113 ; N asciicircum ; B 59 -1402 1113 773 ;
C 95 ; WX 1113 ; N underscore ; B 59 -1402 1113 773 ;
C 96 ; WX 946 ; N grave ; B 60 -1000 946 773 ;
C 97 ; WX 1277 ; N a ; B 59 -1401 1277 773 ;
C 98 ; WX 555 ; N b ; B 0 567 555 773 ;
C 99 ; WX 1000 ; N c ; B -1 581 1000 773 ;
C 100 ; WX 1442 ; N d ; B -1 580 1443 773 ;
C 101 ; WX 553 ; N e ; B 2 611 553 773 ;
C 102 ; WX 1000 ; N f ; B 2 629 1000 773 ;
C 103 ; WX 1441 ; N g ; B 2 628 1439 751 ;
C 104 ; WX 471 ; N h ; B 226 -1760 471 773 ;
C 105 ; WX 474 ; N i ; B 20 -1760 474 773 ;
C 106 ; WX 528 ; N j ; B 226 -1761 528 773 ;
C 107 ; WX 528 ; N k ; B 20 -1761 528 773 ;
C 108 ; WX 528 ; N l ; B 226 -1761 528 773 ;
C 109 ; WX 528 ; N m ; B 20 -1761 528 773 ;
C 110 ; WX 669 ; N n ; B 121 -1759 669 773 ;
C 111 ; WX 669 ; N o ; B 121 -1759 669 773 ;
C 112 ; WX 1001 ; N p ; B 112 -1160 1024 773 ;
C 113 ; WX 1003 ; N q ; B 112 -1766 1025 773 ;
C 114 ; WX 972 ; N r ; B 109 -2315 995 773 ;
C 115 ; WX 976 ; N s ; B 109 -2905 996 773 ;
C 116 ; WX 1054 ; N t ; B 112 -1806 1054 773 ;
C 117 ; WX 1054 ; N u ; B 704 -620 1054 773 ;
C 118 ; WX 1054 ; N v ; B 704 -581 1077 773 ;
C 119 ; WX 777 ; N w ; B 256 -602 777 773 ;
C 120 ; WX 669 ; N x ; B 116 -598 669 773 ;
C 121 ; WX 670 ; N y ; B 116 -590 670 773 ;
C 122 ; WX 448 ; N z ; B -24 -208 448 773 ;
C 123 ; WX 446 ; N braceleft ; B -5 -209 466 773 ;
C 124 ; WX 448 ; N bar ; B -23 5 452 773 ;
C 125 ; WX 448 ; N braceright ; B -6 5 470 773 ;
C 126 ; WX 779 ; N asciitilde ; B 59 -598 779 773 ;
C 127 ; WX 779 ; N DEL ; B 0 -2962 779 773 ;
C 202 ; WX 791 ; N nbspace ; B 0 0 0 0 ;
EndCharMetrics
StartKernData
StartKernPairs 0
EndKernPairs
EndKernData
EndFontMetrics
