StartFontMetrics 2.0
Comment Generated by Fontographer 4.0.4 2/15/96 at 12:52 PM
FontName CMMI7
FullName CMMI7
FamilyName CMMI7
Weight Medium
Notice Computer Modern Math Italic, 7pt.  Produced by Electronic Book Technologies.  Based on fonts created for TeX.
ItalicAngle 0
IsFixedPitch false
UnderlinePosition -64.9414
UnderlineThickness 9.76562
Version 001.000
EncodingScheme AppleStandard
FontBBox -2 -244 1170 748
CapHeight 681
XHeight 435
Descender -193
Ascender 692
StartCharMetrics 129
C 0 ; WX 692 ; N NUL ; B 73 1 788 676 ;
C 1 ; WX 957 ; N Eth ; B 73 3 883 708 ;
C 2 ; WX 866 ; N eth ; B 73 -18 820 700 ;
C 3 ; WX 795 ; N Lslash ; B 57 1 744 708 ;
C 4 ; WX 844 ; N lslash ; B 77 1 855 672 ;
C 5 ; WX 928 ; N Scaron ; B 73 1 949 672 ;
C 6 ; WX 883 ; N scaron ; B 84 1 883 680 ;
C 7 ; WX 670 ; N Yacute ; B 48 2 778 697 ;
C 8 ; WX 769 ; N yacute ; B 49 0 720 680 ;
C 9 ; WX 717 ; N HT ; B 52 1 775 680 ;
C 10 ; WX 878 ; N LF ; B 105 0 868 700 ;
C 11 ; WX 742 ; N Thorn ; B 65 -7 673 433 ;
C 12 ; WX 646 ; N thorn ; B 37 -192 644 700 ;
C 13 ; WX 600 ; N CR ; B 29 -214 602 433 ;
C 14 ; WX 520 ; N Zcaron ; B 65 -11 503 700 ;
C 15 ; WX 473 ; N zcaron ; B 69 -6 422 427 ;
C 16 ; WX 520 ; N DLE ; B 65 -203 523 696 ;
C 17 ; WX 590 ; N DC1 ; B 49 -212 565 434 ;
C 18 ; WX 541 ; N DC2 ; B 65 -5 509 700 ;
C 19 ; WX 422 ; N DC3 ; B 73 -4 371 434 ;
C 20 ; WX 668 ; N DC4 ; B 77 -6 618 434 ;
C 21 ; WX 678 ; N onehalf ; B 77 -8 622 692 ;
C 22 ; WX 695 ; N onequarter ; B 53 -212 645 434 ;
C 23 ; WX 568 ; N onesuperior ; B 73 1 581 434 ;
C 24 ; WX 517 ; N threequarters ; B 41 -203 491 696 ;
C 25 ; WX 664 ; N threesuperior ; B 45 -5 636 426 ;
C 26 ; WX 584 ; N twosuperior ; B 53 -214 558 433 ;
C 27 ; WX 661 ; N brokenbar ; B 61 -6 633 426 ;
C 28 ; WX 524 ; N minus ; B 45 -5 577 426 ;
C 29 ; WX 632 ; N multiply ; B 49 -5 589 434 ;
C 30 ; WX 681 ; N RS ; B 69 -200 648 692 ;
C 31 ; WX 717 ; N US ; B 49 -201 657 434 ;
C 32 ; WX 754 ; N space ; B 0 -201 663 692 ;
C 33 ; WX 717 ; N exclam ; B 37 -5 676 434 ;
C 34 ; WX 539 ; N quotedbl ; B 53 -18 474 446 ;
C 35 ; WX 690 ; N numbersign ; B 49 -6 637 700 ;
C 36 ; WX 949 ; N dollar ; B 45 -6 916 425 ;
C 37 ; WX 588 ; N percent ; B 97 -194 558 433 ;
C 38 ; WX 439 ; N ampersand ; B 53 -107 455 433 ;
C 39 ; WX 749 ; N quotesingle ; B 73 -212 692 434 ;
C 40 ; WX 1140 ; N parenleft ; B 81 227 1055 429 ;
C 41 ; WX 1140 ; N parenright ; B 81 72 1055 274 ;
C 42 ; WX 1137 ; N asterisk ; B 81 227 1055 429 ;
C 43 ; WX 1140 ; N plus ; B 81 72 1055 274 ;
C 44 ; WX 341 ; N comma ; B 81 226 256 497 ;
C 45 ; WX 339 ; N hyphen ; B 81 226 256 497 ;
C 46 ; WX 585 ; N period ; B 49 -26 534 530 ;
C 47 ; WX 588 ; N slash ; B 49 -26 534 530 ;
C 48 ; WX 585 ; N zero ; B 61 -17 521 446 ;
C 49 ; WX 588 ; N one ; B 125 1 478 446 ;
C 50 ; WX 585 ; N two ; B 65 1 509 446 ;
C 51 ; WX 588 ; N three ; B 65 -212 517 446 ;
C 52 ; WX 588 ; N four ; B 49 -192 534 454 ;
C 53 ; WX 588 ; N five ; B 73 -212 509 446 ;
C 54 ; WX 585 ; N six ; B 65 -17 517 661 ;
C 55 ; WX 588 ; N seven ; B 81 -212 549 458 ;
C 56 ; WX 588 ; N eight ; B 65 -17 517 661 ;
C 57 ; WX 585 ; N nine ; B 65 -212 517 446 ;
C 58 ; WX 339 ; N colon ; B 117 0 224 111 ;
C 59 ; WX 339 ; N semicolon ; B 117 -194 236 111 ;
C 60 ; WX 893 ; N less ; B 109 -74 781 577 ;
C 61 ; WX 585 ; N equal ; B 81 -244 501 748 ;
C 62 ; WX 893 ; N greater ; B 109 -74 781 577 ;
C 63 ; WX 590 ; N question ; B 45 17 541 489 ;
C 64 ; WX 610 ; N at ; B 65 -19 629 712 ;
C 65 ; WX 861 ; N A ; B 57 1 807 708 ;
C 66 ; WX 864 ; N B ; B 77 0 833 680 ;
C 67 ; WX 815 ; N C ; B 73 -18 839 700 ;
C 68 ; WX 930 ; N D ; B 77 0 888 680 ;
C 69 ; WX 837 ; N E ; B 73 0 836 676 ;
C 70 ; WX 725 ; N F ; B 73 1 820 676 ;
C 71 ; WX 886 ; N G ; B 73 -19 841 700 ;
C 72 ; WX 932 ; N H ; B 73 0 955 680 ;
C 73 ; WX 505 ; N I ; B 69 0 530 680 ;
C 74 ; WX 627 ; N J ; B 109 -18 685 680 ;
C 75 ; WX 961 ; N K ; B 73 0 976 680 ;
C 76 ; WX 783 ; N L ; B 73 1 715 680 ;
C 77 ; WX 1091 ; N M ; B 81 0 1129 680 ;
C 78 ; WX 903 ; N N ; B 73 0 956 680 ;
C 79 ; WX 866 ; N O ; B 73 -18 820 700 ;
C 80 ; WX 725 ; N P ; B 77 1 827 680 ;
C 81 ; WX 898 ; N Q ; B 73 -192 819 700 ;
C 82 ; WX 859 ; N R ; B 77 -17 842 680 ;
C 83 ; WX 703 ; N S ; B 77 -19 708 700 ;
C 84 ; WX 676 ; N T ; B 45 1 791 672 ;
C 85 ; WX 781 ; N U ; B 97 -19 829 680 ;
C 86 ; WX 671 ; N V ; B 81 -18 859 680 ;
C 87 ; WX 1076 ; N W ; B 81 -18 1169 680 ;
C 88 ; WX 935 ; N X ; B 49 0 931 680 ;
C 89 ; WX 673 ; N Y ; B 61 0 853 680 ;
C 90 ; WX 776 ; N Z ; B 84 0 792 680 ;
C 91 ; WX 463 ; N bracketleft ; B 81 -19 379 748 ;
C 92 ; WX 463 ; N backslash ; B 97 -218 363 728 ;
C 93 ; WX 466 ; N bracketright ; B 81 -214 380 712 ;
C 94 ; WX 1140 ; N asciicircum ; B 81 131 1055 374 ;
C 95 ; WX 1135 ; N underscore ; B 81 127 1055 382 ;
C 96 ; WX 480 ; N grave ; B 25 -7 435 700 ;
C 97 ; WX 617 ; N a ; B 65 -7 570 433 ;
C 98 ; WX 505 ; N b ; B 69 -7 466 692 ;
C 99 ; WX 512 ; N c ; B 65 -7 491 433 ;
C 100 ; WX 593 ; N d ; B 65 -6 573 692 ;
C 101 ; WX 544 ; N e ; B 69 -5 490 434 ;
C 102 ; WX 554 ; N f ; B 77 -202 606 700 ;
C 103 ; WX 556 ; N g ; B 45 -202 531 433 ;
C 104 ; WX 668 ; N h ; B 77 -6 618 692 ;
C 105 ; WX 402 ; N i ; B 49 -6 347 665 ;
C 106 ; WX 476 ; N j ; B -1 -202 439 665 ;
C 107 ; WX 603 ; N k ; B 77 -5 561 692 ;
C 108 ; WX 363 ; N l ; B 60 -7 280 692 ;
C 109 ; WX 1008 ; N m ; B 49 -6 962 434 ;
C 110 ; WX 708 ; N n ; B 49 -5 653 434 ;
C 111 ; WX 561 ; N o ; B 65 -7 531 433 ;
C 112 ; WX 585 ; N p ; B 1 -192 553 434 ;
C 113 ; WX 522 ; N q ; B 65 -193 510 434 ;
C 114 ; WX 529 ; N r ; B 49 -6 506 434 ;
C 115 ; WX 537 ; N s ; B 73 -6 466 434 ;
C 116 ; WX 432 ; N t ; B 41 -7 372 621 ;
C 117 ; WX 676 ; N u ; B 49 -5 621 434 ;
C 118 ; WX 571 ; N v ; B 49 -5 525 434 ;
C 119 ; WX 822 ; N w ; B 49 -7 773 433 ;
C 120 ; WX 646 ; N x ; B 49 -5 577 434 ;
C 121 ; WX 578 ; N y ; B 49 -200 557 434 ;
C 122 ; WX 546 ; N z ; B 61 -7 518 434 ;
C 123 ; WX 397 ; N braceleft ; B 49 -7 347 433 ;
C 124 ; WX 437 ; N bar ; B -1 -202 395 433 ;
C 125 ; WX 727 ; N braceright ; B 104 -211 692 446 ;
C 126 ; WX 585 ; N asciitilde ; B 205 509 690 716 ;
C 127 ; WX 339 ; N DEL ; B 291 537 757 665 ;
C 202 ; WX 754 ; N nbspace ; B 0 0 0 0 ;
EndCharMetrics
StartKernData
StartKernPairs 0
EndKernPairs
EndKernData
EndFontMetrics
