StartFontMetrics 2.0
Comment Generated by Fontographer 4.0.4 2/15/96 at 11:59 AM
FontName CMMI10
FullName CMMI10
FamilyName CMMI10
Weight Medium
Notice Computer Modern Math Italic, 10pt.  Produced by Electronic Book Technologies.  Based on fonts created for TeX.
ItalicAngle 0
IsFixedPitch false
UnderlinePosition -64.9414
UnderlineThickness 9.76562
Version 001.000
EncodingScheme AppleStandard
FontBBox -2 -247 1045 749
CapHeight 682
XHeight 440
Descender -194
Ascender 693
StartCharMetrics 129
C 0 ; WX 615 ; N NUL ; B 40 1 717 679 ;
C 1 ; WX 832 ; N Eth ; B 48 0 785 715 ;
C 2 ; WX 764 ; N eth ; B 50 -20 737 704 ;
C 3 ; WX 694 ; N Lslash ; B 34 0 663 715 ;
C 4 ; WX 741 ; N lslash ; B 53 1 773 676 ;
C 5 ; WX 830 ; N Scaron ; B 40 1 875 679 ;
C 6 ; WX 779 ; N scaron ; B 59 1 803 682 ;
C 7 ; WX 583 ; N Yacute ; B 29 0 696 704 ;
C 8 ; WX 666 ; N yacute ; B 23 0 637 682 ;
C 9 ; WX 609 ; N HT ; B 29 0 690 682 ;
C 10 ; WX 771 ; N LF ; B 82 1 782 704 ;
C 11 ; WX 638 ; N Thorn ; B 45 -10 598 440 ;
C 12 ; WX 566 ; N thorn ; B 26 -193 584 704 ;
C 13 ; WX 515 ; N CR ; B 20 -216 541 440 ;
C 14 ; WX 443 ; N Zcaron ; B 45 -9 448 704 ;
C 15 ; WX 404 ; N zcaron ; B 50 -10 374 428 ;
C 16 ; WX 436 ; N DLE ; B 47 -204 470 695 ;
C 17 ; WX 496 ; N DC1 ; B 31 -214 493 440 ;
C 18 ; WX 468 ; N DC2 ; B 45 -9 451 704 ;
C 19 ; WX 351 ; N DC3 ; B 56 -9 320 440 ;
C 20 ; WX 574 ; N DC4 ; B 56 -10 543 440 ;
C 21 ; WX 583 ; N onehalf ; B 53 -12 546 693 ;
C 22 ; WX 603 ; N onequarter ; B 31 -215 570 440 ;
C 23 ; WX 493 ; N onesuperior ; B 53 0 521 440 ;
C 24 ; WX 436 ; N threequarters ; B 26 -204 443 695 ;
C 25 ; WX 568 ; N threesuperior ; B 26 -10 563 428 ;
C 26 ; WX 517 ; N twosuperior ; B 30 -216 499 440 ;
C 27 ; WX 572 ; N brokenbar ; B 42 -9 565 429 ;
C 28 ; WX 436 ; N minus ; B 26 -9 506 429 ;
C 29 ; WX 541 ; N multiply ; B 31 -9 520 440 ;
C 30 ; WX 596 ; N RS ; B 50 -204 570 692 ;
C 31 ; WX 625 ; N US ; B 31 -205 590 440 ;
C 32 ; WX 651 ; N space ; B 0 -205 601 692 ;
C 33 ; WX 622 ; N exclam ; B 11 -9 601 440 ;
C 34 ; WX 465 ; N quotedbl ; B 29 -22 423 451 ;
C 35 ; WX 590 ; N numbersign ; B 31 -9 559 704 ;
C 36 ; WX 824 ; N dollar ; B 26 -9 812 429 ;
C 37 ; WX 515 ; N percent ; B 76 -194 499 440 ;
C 38 ; WX 364 ; N ampersand ; B 34 -108 407 440 ;
C 39 ; WX 654 ; N quotesingle ; B 47 -217 615 440 ;
C 40 ; WX 1000 ; N parenleft ; B 56 231 941 428 ;
C 41 ; WX 1000 ; N parenright ; B 56 73 941 270 ;
C 42 ; WX 1000 ; N asterisk ; B 56 231 941 428 ;
C 43 ; WX 1000 ; N plus ; B 56 73 941 270 ;
C 44 ; WX 273 ; N comma ; B 56 231 217 465 ;
C 45 ; WX 278 ; N hyphen ; B 56 231 217 465 ;
C 46 ; WX 499 ; N period ; B 29 -1 468 503 ;
C 47 ; WX 499 ; N slash ; B 29 -1 468 503 ;
C 48 ; WX 499 ; N zero ; B 42 -21 454 451 ;
C 49 ; WX 500 ; N one ; B 95 0 416 451 ;
C 50 ; WX 500 ; N two ; B 45 0 446 451 ;
C 51 ; WX 499 ; N three ; B 42 -216 454 451 ;
C 52 ; WX 500 ; N four ; B 29 -194 468 461 ;
C 53 ; WX 500 ; N five ; B 50 -216 446 451 ;
C 54 ; WX 499 ; N six ; B 42 -21 454 665 ;
C 55 ; WX 500 ; N seven ; B 56 -216 482 461 ;
C 56 ; WX 499 ; N eight ; B 42 -21 454 665 ;
C 57 ; WX 500 ; N nine ; B 42 -216 454 451 ;
C 58 ; WX 276 ; N colon ; B 86 0 187 104 ;
C 59 ; WX 276 ; N semicolon ; B 86 -193 198 104 ;
C 60 ; WX 776 ; N less ; B 84 -38 690 540 ;
C 61 ; WX 500 ; N equal ; B 56 -247 440 749 ;
C 62 ; WX 776 ; N greater ; B 84 -38 690 540 ;
C 63 ; WX 499 ; N question ; B 3 17 493 487 ;
C 64 ; WX 528 ; N at ; B 42 -21 562 715 ;
C 65 ; WX 750 ; N A ; B 37 1 717 715 ;
C 66 ; WX 758 ; N B ; B 42 0 754 681 ;
C 67 ; WX 713 ; N C ; B 53 -22 760 704 ;
C 68 ; WX 827 ; N D ; B 42 0 801 682 ;
C 69 ; WX 738 ; N E ; B 40 0 759 679 ;
C 70 ; WX 643 ; N F ; B 40 1 745 679 ;
C 71 ; WX 785 ; N G ; B 53 -21 762 704 ;
C 72 ; WX 829 ; N H ; B 40 1 876 682 ;
C 73 ; WX 439 ; N I ; B 34 0 493 682 ;
C 74 ; WX 553 ; N J ; B 73 -20 628 682 ;
C 75 ; WX 851 ; N K ; B 40 0 888 682 ;
C 76 ; WX 682 ; N L ; B 40 0 640 682 ;
C 77 ; WX 969 ; N M ; B 45 0 1039 682 ;
C 78 ; WX 802 ; N N ; B 40 0 877 682 ;
C 79 ; WX 763 ; N O ; B 50 -20 737 704 ;
C 80 ; WX 640 ; N P ; B 42 0 749 682 ;
C 81 ; WX 789 ; N Q ; B 50 -194 738 704 ;
C 82 ; WX 757 ; N R ; B 42 -22 752 681 ;
C 83 ; WX 612 ; N S ; B 53 -21 643 704 ;
C 84 ; WX 581 ; N T ; B 26 0 702 676 ;
C 85 ; WX 684 ; N U ; B 70 -21 757 682 ;
C 86 ; WX 583 ; N V ; B 59 -21 768 682 ;
C 87 ; WX 943 ; N W ; B 56 -20 1044 682 ;
C 88 ; WX 826 ; N X ; B 29 0 848 682 ;
C 89 ; WX 577 ; N Y ; B 37 1 758 682 ;
C 90 ; WX 684 ; N Z ; B 59 1 720 682 ;
C 91 ; WX 386 ; N bracketleft ; B 57 -21 329 749 ;
C 92 ; WX 388 ; N backslash ; B 82 -215 304 726 ;
C 93 ; WX 388 ; N bracketright ; B 57 -215 329 715 ;
C 94 ; WX 1000 ; N asciicircum ; B 56 133 941 371 ;
C 95 ; WX 1000 ; N underscore ; B 56 131 941 381 ;
C 96 ; WX 417 ; N grave ; B 11 -10 396 704 ;
C 97 ; WX 527 ; N a ; B 42 -10 496 440 ;
C 98 ; WX 429 ; N b ; B 48 -10 410 692 ;
C 99 ; WX 432 ; N c ; B 45 -9 428 440 ;
C 100 ; WX 518 ; N d ; B 42 -9 515 692 ;
C 101 ; WX 467 ; N e ; B 48 -10 429 439 ;
C 102 ; WX 487 ; N f ; B 53 -205 551 704 ;
C 103 ; WX 476 ; N g ; B 17 -206 472 440 ;
C 104 ; WX 574 ; N h ; B 56 -10 543 692 ;
C 105 ; WX 342 ; N i ; B 31 -8 290 660 ;
C 106 ; WX 417 ; N j ; B -1 -204 404 660 ;
C 107 ; WX 518 ; N k ; B 56 -9 503 692 ;
C 108 ; WX 295 ; N l ; B 45 -10 256 692 ;
C 109 ; WX 878 ; N m ; B 31 -10 846 440 ;
C 110 ; WX 600 ; N n ; B 31 -10 568 440 ;
C 111 ; WX 484 ; N o ; B 45 -9 464 440 ;
C 112 ; WX 528 ; N p ; B -1 -193 512 440 ;
C 113 ; WX 446 ; N q ; B 42 -194 451 440 ;
C 114 ; WX 449 ; N r ; B 31 -9 431 440 ;
C 115 ; WX 468 ; N s ; B 53 -9 415 440 ;
C 116 ; WX 361 ; N t ; B 23 -9 326 624 ;
C 117 ; WX 571 ; N u ; B 31 -9 540 440 ;
C 118 ; WX 484 ; N v ; B 31 -9 464 440 ;
C 119 ; WX 716 ; N w ; B 31 -9 687 440 ;
C 120 ; WX 571 ; N x ; B 31 -9 523 440 ;
C 121 ; WX 490 ; N y ; B 31 -204 487 440 ;
C 122 ; WX 464 ; N z ; B 45 -10 465 440 ;
C 123 ; WX 320 ; N braceleft ; B 31 -10 291 439 ;
C 124 ; WX 391 ; N bar ; B -1 -206 365 440 ;
C 125 ; WX 635 ; N braceright ; B 76 -214 615 451 ;
C 126 ; WX 500 ; N asciitilde ; B 181 515 621 715 ;
C 127 ; WX 278 ; N DEL ; B 265 540 649 663 ;
C 202 ; WX 651 ; N nbspace ; B 0 0 0 0 ;
EndCharMetrics
StartKernData
StartKernPairs 0
EndKernPairs
EndKernData
EndFontMetrics
