[symbol2]
bbox 32 32 320 288
uniq 46
[tools]
[attributes]
[layers]
<symbol>
l 100 0 0 74 155 flamSadInsConfig
r 0 32 32 320 288
[comments]
RCS: $Name:  $ $Id: flamSadInsConfig.sym,v 0.0 2005/09/01 20:21:37 drashkin Exp $
