
Target Information
name    

10010-05-01-00     NIL           NIL           NIL           NIL          
10014-02-01-00     NIL           NIL           NIL           NIL          
10014-02-02-00     NIL           NIL           NIL           NIL          
10014-02-03-00     NIL           NIL           NIL           NIL          
10014-02-05-00     NIL           NIL           NIL           NIL          
10014-03-01-00     NIL           NIL           NIL           NIL          
10014-03-02-00     NIL           NIL           NIL           NIL          
10014-03-03-00     NIL           NIL           NIL           NIL          
10014-03-05-00     NIL           NIL           NIL           NIL          
10022-10-01-00     NIL           NIL           NIL           NIL          
10022-10-02-00     NIL           NIL           NIL           NIL          
10022-10-03-00     NIL           NIL           NIL           NIL          
10022-10-04-00     NIL           NIL           NIL           NIL          
10022-10-05-00     NIL           NIL           NIL           NIL          
10022-10-06-00     NIL           NIL           NIL           NIL          
10022-10-07-00     NIL           NIL           NIL           NIL          
10022-10-08-00     NIL           NIL           NIL           NIL          
10022-10-09-00     NIL           NIL           NIL           NIL          
10022-10-10-00     NIL           NIL           NIL           NIL          
10022-10-11-00     NIL           NIL           NIL           NIL          
10022-10-12-00     NIL           NIL           NIL           NIL          
10022-10-13-00     NIL           NIL           NIL           NIL          
10022-10-14-00     NIL           NIL           NIL           NIL          
10022-10-15-00     NIL           NIL           NIL           NIL          
10022-10-16-00     NIL           NIL           NIL           NIL          
10022-10-17-00     NIL           NIL           NIL           NIL          
10022-10-18-00     NIL           NIL           NIL           NIL          
10022-10-19-00     NIL           NIL           NIL           NIL          
10022-10-20-00     NIL           NIL           NIL           NIL          
10027-01-01-00     NIL           NIL           NIL           NIL          
10031-01-01-00     NIL           NIL           NIL           NIL          
10031-01-02-00     NIL           NIL           NIL           NIL          
10031-01-03-00     NIL           NIL           NIL           NIL          
10031-01-04-00     NIL           NIL           NIL           NIL          
10031-01-05-00     NIL           NIL           NIL           NIL          
10031-01-06-00     NIL           NIL           NIL           NIL          
10031-01-07-00     NIL           NIL           NIL           NIL          
10031-01-08-00     NIL           NIL           NIL           NIL          
10031-01-09-00     NIL           NIL           NIL           NIL          
10031-01-10-00     NIL           NIL           NIL           NIL          
10031-01-11-00     NIL           NIL           NIL           NIL          
10031-01-12-00     NIL           NIL           NIL           NIL          
10031-01-13-00     NIL           NIL           NIL           NIL          
10031-01-14-00     NIL           NIL           NIL           NIL          
10031-01-15-00     NIL           NIL           NIL           NIL          
10046-02-01-00     NIL           NIL           NIL           NIL          
10054-03-12-00     NIL           NIL           NIL           NIL          
10069-09-01-00     NIL           NIL           NIL           NIL          
10076-05-02-00     NIL           NIL           NIL           NIL          
10076-05-03-00     NIL           NIL           NIL           NIL          
10076-05-05-00     NIL           NIL           NIL           NIL          
10077-06-02-00     NIL           NIL           NIL           NIL          
10077-06-03-00     NIL           NIL           NIL           NIL          
10077-06-05-00     NIL           NIL           NIL           NIL          
10078-06-01-00     NIL           NIL           NIL           NIL          
 
Scheduled activities:
Name            start date       start end  dur   dur    min   -exp. time---  conf suit  suit/
                                                (days)   dur    req  act/req    #        max
---gap(   2)---                     0    2
10022-10-10-00   22Apr95 04h14m     2    9    7  0.02d  0.02d    2000s  1.05    0    91  0.91*
                 22Apr95 04h13m  -   22Apr95 04h49m
   Total: 0.025d (2146s)  Overhead following task: 0s
10022-10-08-00   22Apr95 04h49m     9   23   14  0.05d  0.02d    2000s  0.75    0    24  0.24*
                 22Apr95 04h49m  -   22Apr95 05h11m
                 22Apr95 05h49m  -   22Apr95 05h59m
   Total: 0.022d (1939s)  Overhead following task: 0s
10022-10-13-00   22Apr95 05h59m    23   30    7  0.02d  0.02d    2000s  1.05    0    82  0.82*
                 22Apr95 05h59m  -   22Apr95 06h48m
   Total: 0.034d (2902s)  Overhead following task: 0s
---gap(  10)---                    30   40
10022-10-20-00   22Apr95 07h24m    40   47    7  0.02d  0.02d    2000s  1.05    0   100  1.00*
                 22Apr95 07h25m  -   22Apr95 07h59m
   Total: 0.024d (2036s)  Overhead following task: 51s
---gap(   1)---                    47   48
10014-03-01-00   22Apr95 08h04m    48   90   42  0.15d  0.14d   10000s  0.75    0    40  0.98*
                 22Apr95 08h00m  -   22Apr95 08h24m
                 22Apr95 09h01m  -   22Apr95 10h00m
                 22Apr95 10h38m  -   22Apr95 11h37m
   Total: 0.099d (8576s)  Overhead following task: 75s
---gap(  15)---                    90  105
10031-01-01-00   22Apr95 12h49m   105  127   22  0.08d  0.07d    5000s  0.78    0    40  0.87*
                 22Apr95 12h11m  -   22Apr95 13h10m
                 22Apr95 13h48m  -   22Apr95 14h46m
   Total: 0.082d (7069s)  Overhead following task: 75s
---gap(  18)---                   127  145
10014-03-03-00   22Apr95 16h09m   145  186   41  0.14d  0.14d   10000s  0.75    0    40  0.98*
                 22Apr95 15h27m  -   22Apr95 16h27m
                 22Apr95 17h04m  -   22Apr95 18h02m
                 22Apr95 18h40m  -   22Apr95 19h40m
   Total: 0.123d (10656s)  Overhead following task: 0s
---gap(  16)---                   186  202
10014-03-05-00   22Apr95 20h54m   202  244   42  0.15d  0.14d   10000s  0.75    0    40  0.98*
                 22Apr95 20h17m  -   22Apr95 21h16m
                 22Apr95 21h53m  -   22Apr95 22h53m
                 22Apr95 23h30m  -   23Apr95 00h29m
   Total: 0.124d (10711s)  Overhead following task: 293s
---gap(  17)---                   244  261
10076-05-02-00   23Apr95 01h49m   261  303   42  0.15d  0.14d   10000s  0.75    0    40  0.98*
                 23Apr95 01h10m  -   23Apr95 02h09m
                 23Apr95 02h46m  -   23Apr95 03h46m
                 23Apr95 04h23m  -   23Apr95 05h23m
   Total: 0.124d (10726s)  Overhead following task: 243s
---gap(   8)---                   303  311
10022-10-09-00   23Apr95 05h59m   311  318    7  0.02d  0.02d    2000s  1.05    0    91  0.91*
                 23Apr95 05h57m  -   23Apr95 06h34m
   Total: 0.026d (2225s)  Overhead following task: 0s
10022-10-15-00   23Apr95 06h34m   318  332   14  0.05d  0.02d    2000s  0.75    0    24  0.24*
                 23Apr95 06h34m  -   23Apr95 06h56m
                 23Apr95 07h34m  -   23Apr95 07h44m
   Total: 0.022d (1938s)  Overhead following task: 0s
10022-10-02-00   23Apr95 07h44m   332  339    7  0.02d  0.02d    2000s  1.05    0    82  0.82*
                 23Apr95 07h44m  -   23Apr95 08h33m
   Total: 0.034d (2900s)  Overhead following task: 0s
---gap(  10)---                   339  349
10022-10-04-00   23Apr95 09h09m   349  356    7  0.02d  0.02d    2000s  1.05    0   100  1.00*
                 23Apr95 09h10m  -   23Apr95 09h44m
   Total: 0.024d (2037s)  Overhead following task: 0s
10022-10-01-00   23Apr95 09h44m   356  370   14  0.05d  0.02d    2000s  0.75    0    20  0.20*
                 23Apr95 09h44m  -   23Apr95 10h09m
                 23Apr95 10h47m  -   23Apr95 10h54m
   Total: 0.022d (1938s)  Overhead following task: 0s
10022-10-14-00   23Apr95 10h54m   370  377    7  0.02d  0.02d    2000s  1.05    0    82  0.82*
                 23Apr95 10h54m  -   23Apr95 11h29m
   Total: 0.024d (2100s)  Overhead following task: 402s
---gap(   2)---                   377  379
10054-03-12-00   23Apr95 11h39m   379  394   15  0.05d  0.02d    3000s  0.70    0    39  0.51*
                 23Apr95 11h36m  -   23Apr95 11h58m
                 23Apr95 12h34m  -   23Apr95 12h54m
   Total: 0.029d (2506s)  Overhead following task: 287s
---gap(   1)---                   394  395
10069-09-01-00   23Apr95 12h59m   395  417   22  0.08d  0.07d    5000s  0.84    0    44  0.96*
                 23Apr95 12h59m  -   23Apr95 13h18m
                 23Apr95 13h56m  -   23Apr95 14h55m
   Total: 0.054d (4707s)  Overhead following task: 201s
---gap(   9)---                   417  426
10022-10-16-00   23Apr95 15h34m   426  433    7  0.02d  0.02d    2000s  1.05    0   100  1.00*
                 23Apr95 15h36m  -   23Apr95 16h09m
   Total: 0.023d (1963s)  Overhead following task: 0s
10022-10-05-00   23Apr95 16h09m   433  447   14  0.05d  0.02d    2000s  0.75    0    20  0.20*
                 23Apr95 16h09m  -   23Apr95 16h33m
                 23Apr95 17h13m  -   23Apr95 17h19m
   Total: 0.021d (1777s)  Overhead following task: 0s
10022-10-12-00   23Apr95 17h19m   447  454    7  0.02d  0.02d    2000s  1.05    0    82  0.82*
                 23Apr95 17h19m  -   23Apr95 18h10m
   Total: 0.035d (3053s)  Overhead following task: 71s
---gap(  11)---                   454  465
10027-01-01-00   23Apr95 18h49m   465  533   68  0.24d  0.23d   18000s  0.70    0    39  0.95*
                 23Apr95 18h46m  -   23Apr95 19h45m
                 23Apr95 20h22m  -   23Apr95 21h21m
                 23Apr95 21h59m  -   23Apr95 22h58m
                 23Apr95 23h35m  -   24Apr95 00h34m
   Total: 0.164d (14172s)  Overhead following task: 71s
---gap(   9)---                   533  542
10022-10-07-00   24Apr95 01h14m   542  549    7  0.02d  0.02d    2000s  1.05    0   100  1.00*
                 24Apr95 01h16m  -   24Apr95 01h49m
   Total: 0.023d (2001s)  Overhead following task: 0s
10022-10-18-00   24Apr95 01h49m   549  563   14  0.05d  0.02d    2000s  0.75    0    20  0.20*
                 24Apr95 01h49m  -   24Apr95 02h15m
                 24Apr95 02h52m  -   24Apr95 02h59m
   Total: 0.022d (1938s)  Overhead following task: 0s
10022-10-17-00   24Apr95 02h59m   563  570    7  0.02d  0.02d    2000s  1.05    0    82  0.82*
                 24Apr95 02h59m  -   24Apr95 03h51m
   Total: 0.036d (3124s)  Overhead following task: 71s
---gap(  18)---                   570  588
10031-01-15-00   24Apr95 05h04m   588  610   22  0.08d  0.07d    5000s  0.84    0    44  0.96*
                 24Apr95 04h25m  -   24Apr95 05h24m
                 24Apr95 06h02m  -   24Apr95 07h00m
   Total: 0.082d (7062s)  Overhead following task: 71s
---gap(  29)---                   610  639
10022-10-19-00   24Apr95 09h19m   639  646    7  0.02d  0.02d    2000s  1.05    0   100  1.00*
                 24Apr95 09h19m  -   24Apr95 09h54m
   Total: 0.025d (2133s)  Overhead following task: 0s
10022-10-03-00   24Apr95 09h54m   646  659   13  0.05d  0.02d    2000s  0.75    0    22  0.22*
                 24Apr95 09h54m  -   24Apr95 10h18m
                 24Apr95 10h55m  -   24Apr95 10h59m
   Total: 0.019d (1638s)  Overhead following task: 0s
10022-10-11-00   24Apr95 10h59m   659  666    7  0.02d  0.02d    2000s  1.05    0    91  0.91*
                 24Apr95 10h59m  -   24Apr95 11h34m
   Total: 0.024d (2100s)  Overhead following task: 0s
10022-10-06-00   24Apr95 11h34m   666  680   14  0.05d  0.02d    2000s  0.75    0    24  0.24*
                 24Apr95 11h34m  -   24Apr95 11h54m
                 24Apr95 12h32m  -   24Apr95 12h44m
   Total: 0.022d (1938s)  Overhead following task: 71s
---gap(   4)---                   680  684
10031-01-10-00   24Apr95 13h04m   684  707   23  0.08d  0.07d    5000s  0.84    0    43  0.93*
                 24Apr95 12h45m  -   24Apr95 13h27m
                 24Apr95 14h04m  -   24Apr95 15h03m
   Total: 0.070d (6007s)  Overhead following task: 0s
---gap(  16)---                   707  723
10031-01-02-00   24Apr95 16h19m   723  745   22  0.08d  0.07d    5000s  0.78    0    40  0.87*
                 24Apr95 15h41m  -   24Apr95 16h40m
                 24Apr95 17h17m  -   24Apr95 18h16m
   Total: 0.082d (7051s)  Overhead following task: 207s
---gap(  17)---                   745  762
10077-06-05-00   24Apr95 19h34m   762  784   22  0.08d  0.08d    6000s  0.70    0    44  0.96
                 24Apr95 18h54m  -   24Apr95 19h54m
                 24Apr95 20h31m  -   24Apr95 21h30m
   Total: 0.083d (7160s)  Overhead following task: 207s
---gap(  16)---                   784  800
10031-01-03-00   24Apr95 22h44m   800  823   23  0.08d  0.07d    5000s  0.84    0    43  0.93*
                 24Apr95 22h07m  -   24Apr95 23h06m
                 24Apr95 23h44m  -   25Apr95 00h43m
   Total: 0.082d (7060s)  Overhead following task: 0s
---gap(  16)---                   823  839
10031-01-11-00   25Apr95 01h59m   839  861   22  0.08d  0.07d    5000s  0.78    0    40  0.87*
                 25Apr95 01h20m  -   25Apr95 02h19m
                 25Apr95 02h58m  -   25Apr95 03h56m
   Total: 0.081d (7005s)  Overhead following task: 0s
---gap(  17)---                   861  878
10031-01-14-00   25Apr95 05h14m   878  900   22  0.08d  0.07d    5000s  0.84    0    46  1.00*
                 25Apr95 04h33m  -   25Apr95 05h32m
                 25Apr95 06h10m  -   25Apr95 07h09m
   Total: 0.082d (7060s)  Overhead following task: 0s
---gap(  16)---                   900  916
10031-01-08-00   25Apr95 08h24m   916  939   23  0.08d  0.07d    5000s  0.84    0    43  0.93*
                 25Apr95 07h47m  -   25Apr95 08h45m
                 25Apr95 09h23m  -   25Apr95 10h22m
   Total: 0.082d (7060s)  Overhead following task: 0s
---gap(  16)---                   939  955
10031-01-13-00   25Apr95 11h39m   955  977   22  0.08d  0.07d    5000s  0.84    0    44  0.96*
                 25Apr95 11h00m  -   25Apr95 11h59m
                 25Apr95 12h36m  -   25Apr95 13h35m
   Total: 0.082d (7059s)  Overhead following task: 0s
---gap(  36)---                   977 1013
10031-01-07-00   25Apr95 16h29m  1013 1035   22  0.08d  0.07d    5000s  0.84    0    44  0.96*
                 25Apr95 15h49m  -   25Apr95 16h47m
                 25Apr95 17h26m  -   25Apr95 18h25m
   Total: 0.081d (6988s)  Overhead following task: 0s
---gap(  16)---                  1035 1051
10031-01-09-00   25Apr95 19h39m  1051 1074   23  0.08d  0.07d    5000s  0.84    0    43  0.93*
                 25Apr95 19h02m  -   25Apr95 20h01m
                 25Apr95 20h39m  -   25Apr95 21h38m
   Total: 0.082d (7059s)  Overhead following task: 0s
---gap(  16)---                  1074 1090
10031-01-05-00   25Apr95 22h54m  1090 1112   22  0.08d  0.07d    5000s  0.78    0    40  0.87*
                 25Apr95 22h16m  -   25Apr95 23h14m
                 25Apr95 23h52m  -   26Apr95 00h51m
   Total: 0.082d (7059s)  Overhead following task: 0s
---gap(  17)---                  1112 1129
10031-01-06-00   26Apr95 02h09m  1129 1151   22  0.08d  0.07d    5000s  0.84    0    44  0.96*
                 26Apr95 01h29m  -   26Apr95 02h28m
                 26Apr95 03h05m  -   26Apr95 04h04m
   Total: 0.082d (7059s)  Overhead following task: 0s
---gap(  36)---                  1151 1187
10031-01-04-00   26Apr95 06h59m  1187 1209   22  0.08d  0.07d    5000s  0.84    0    46  1.00*
                 26Apr95 06h18m  -   26Apr95 07h17m
                 26Apr95 07h55m  -   26Apr95 08h54m
   Total: 0.082d (7059s)  Overhead following task: 206s
---gap(  17)---                  1209 1226
10077-06-02-00   26Apr95 10h14m  1226 1248   22  0.08d  0.08d    6000s  0.70    0    46  1.00
                 26Apr95 09h32m  -   26Apr95 10h32m
                 26Apr95 11h09m  -   26Apr95 12h09m
   Total: 0.083d (7160s)  Overhead following task: 120s
---gap(  16)---                  1248 1264
10076-05-05-00   26Apr95 13h24m  1264 1305   41  0.14d  0.14d   10000s  0.69    0    32  0.78*
                 26Apr95 12h53m  -   26Apr95 13h52m
                 26Apr95 14h29m  -   26Apr95 15h17m
                 26Apr95 16h06m  -   26Apr95 16h55m
   Total: 0.108d (9355s)  Overhead following task: 215s
---gap(  15)---                  1305 1320
10046-02-01-00   26Apr95 18h04m  1320 1402   82  0.28d  0.28d   20000s  0.70    0    36  0.92*
                 26Apr95 17h33m  -   26Apr95 18h31m
                 26Apr95 19h10m  -   26Apr95 20h08m
                 26Apr95 20h46m  -   26Apr95 21h45m
                 26Apr95 22h23m  -   26Apr95 23h21m
                 26Apr95 23h59m  -   27Apr95 00h58m
   Total: 0.203d (17545s)  Overhead following task: 114s
---gap(  15)---                  1402 1417
10010-05-01-00   27Apr95 02h09m  1417 1499   82  0.28d  0.28d   20000s  0.70    0    36  0.95*
                 27Apr95 01h41m  -   27Apr95 02h40m
                 27Apr95 03h18m  -   27Apr95 04h17m
                 27Apr95 04h55m  -   27Apr95 05h53m
                 27Apr95 06h31m  -   27Apr95 07h30m
                 27Apr95 08h08m  -   27Apr95 09h06m
   Total: 0.204d (17589s)  Overhead following task: 106s
---gap(  13)---                  1499 1512
10078-06-01-00   27Apr95 10h04m  1512 1595   83  0.29d  0.28d   20000s  0.70    0    33  0.82*
                 27Apr95 09h48m  -   27Apr95 10h48m
                 27Apr95 11h25m  -   27Apr95 12h24m
                 27Apr95 13h02m  -   27Apr95 14h01m
                 27Apr95 14h38m  -   27Apr95 15h24m
                 27Apr95 16h15m  -   27Apr95 17h03m
   Total: 0.189d (16293s)  Overhead following task: 266s
---gap(  16)---                  1595 1611
10014-02-01-00   27Apr95 18h19m  1611 1653   42  0.15d  0.14d   10000s  0.75    0    39  0.95*
                 27Apr95 17h43m  -   27Apr95 18h42m
                 27Apr95 19h19m  -   27Apr95 20h18m
                 27Apr95 20h56m  -   27Apr95 21h55m
   Total: 0.123d (10625s)  Overhead following task: 0s
---gap(  16)---                  1653 1669
10014-02-02-00   27Apr95 23h09m  1669 1711   42  0.15d  0.14d   10000s  0.75    0    39  0.95*
                 27Apr95 22h32m  -   27Apr95 23h31m
                 28Apr95 00h09m  -   28Apr95 01h08m
                 28Apr95 01h45m  -   28Apr95 02h44m
   Total: 0.123d (10626s)  Overhead following task: 0s
---gap(  16)---                  1711 1727
10014-02-05-00   28Apr95 03h59m  1727 1769   42  0.15d  0.14d   10000s  0.75    0    40  0.98*
                 28Apr95 03h22m  -   28Apr95 04h21m
                 28Apr95 04h59m  -   28Apr95 05h58m
                 28Apr95 06h35m  -   28Apr95 07h34m
   Total: 0.123d (10627s)  Overhead following task: 0s
---gap(  16)---                  1769 1785
10014-02-03-00   28Apr95 08h49m  1785 1827   42  0.15d  0.14d   10000s  0.75    0    40  0.98*
                 28Apr95 08h12m  -   28Apr95 09h11m
                 28Apr95 09h48m  -   28Apr95 10h47m
                 28Apr95 11h25m  -   28Apr95 12h24m
   Total: 0.123d (10629s)  Overhead following task: 265s
---gap(  15)---                  1827 1842
10076-05-03-00   28Apr95 13h34m  1842 1885   43  0.15d  0.14d   10000s  0.69    0    31  0.76*
                 28Apr95 13h10m  -   28Apr95 14h09m
                 28Apr95 14h47m  -   28Apr95 15h32m
                 28Apr95 16h24m  -   28Apr95 17h12m
   Total: 0.105d (9115s)  Overhead following task: 251s
---gap(  16)---                  1885 1901
10031-01-12-00   28Apr95 18h29m  1901 1923   22  0.08d  0.07d    5000s  0.78    0    40  0.87*
                 28Apr95 17h51m  -   28Apr95 18h50m
                 28Apr95 19h28m  -   28Apr95 20h27m
   Total: 0.082d (7064s)  Overhead following task: 74s
---gap(  17)---                  1923 1940
10014-03-02-00   28Apr95 21h44m  1940 1982   42  0.15d  0.14d   10000s  0.75    0    40  0.98*
                 28Apr95 21h06m  -   28Apr95 22h06m
                 28Apr95 22h43m  -   28Apr95 23h43m
                 29Apr95 00h20m  -   29Apr95 01h19m
   Total: 0.125d (10758s)  Overhead following task: 262s
---gap(   9)---                  1982 1991
10077-06-03-00   29Apr95 01h59m  1991 2016   25  0.09d  0.08d    6000s  0.80    0    44  0.96*
                 29Apr95 01h56m  -   29Apr95 02h56m
                 29Apr95 03h33m  -   29Apr95 04h04m
   Total: 0.063d (5449s)  Overhead following task: 0s
Schedule time span  :   7.00 days
Total scheduled time:   4.87 days ( 69.64%)
Total gaps          :   2.12 days ( 30.36%)
Total exp time      :   2.95 days (255000 sec,  42.16% of schedule time span)
Total minimum duration:   4.32 days (expansion factor actual/min:   1.128)
Optimized schedule:
  Total exp time :   4.09d (    353532s)
  Total overhead :   0.05d (      4274s)
  Efficiency     :  58.45%
Unscheduled activities:
10012-04-01-00  - not sched -                                   20000s                       
10028-01-01-00  - not sched -                                   40000s                       
10028-02-01-00  - not sched -                                   40000s                       
10043-04-01-00  - not sched -                                   16000s                       
10049-05-01-00  - not sched -                                   30000s                       
10055-11-01-00  - not sched -                                   15000s                       
10056-02-02-00  - not sched -                                   60000s                       
Total minimum time not scheduled:    3.07 days
 62 tasks, 55 assigned, 0 assigned with conflicts
 mean preference  :    50.16  mean conflicts  :     0.00
 summed preference:     2759  summed conflicts:        0