'xrdef {Distrib-title}{Distribution}
'xrdef {Distrib-pg}{3}
'xrdef {Distrib-snt}{}
'xrdef {Copying-title}{GNU GENERAL PUBLIC LICENSE}
'xrdef {Copying-pg}{5}
'xrdef {Copying-snt}{}
'xrdef {Intro-title}{Introduction}
'xrdef {Intro-pg}{13}
'xrdef {Intro-snt}{}
'xrdef {Screen-title}{The Organization of the Screen}
'xrdef {Screen-pg}{15}
'xrdef {Screen-snt}{Chapter'tie1}
'xrdef {Point-title}{Point}
'xrdef {Point-pg}{15}
'xrdef {Point-snt}{Section'tie1.1}
'xrdef {Echo Area-title}{The Echo Area}
'xrdef {Echo Area-pg}{16}
'xrdef {Echo Area-snt}{Section'tie1.2}
'xrdef {Mode Line-title}{The Mode Line}
'xrdef {Mode Line-pg}{17}
'xrdef {Mode Line-snt}{Section'tie1.3}
'xrdef {User Input-title}{Kinds of User Input}
'xrdef {User Input-pg}{19}
'xrdef {User Input-snt}{Section'tie2.1}
'xrdef {Keys-title}{Keys}
'xrdef {Keys-pg}{20}
'xrdef {Keys-snt}{Section'tie2.2}
'xrdef {Commands-title}{Keys and Commands}
'xrdef {Commands-pg}{21}
'xrdef {Commands-snt}{Section'tie2.3}
'xrdef {Text Characters-title}{Character Set for Text}
'xrdef {Text Characters-pg}{22}
'xrdef {Text Characters-snt}{Section'tie2.4}
'xrdef {Entering Emacs-title}{Entering and Exiting Emacs}
'xrdef {Entering Emacs-pg}{23}
'xrdef {Entering Emacs-snt}{Chapter'tie3}
'xrdef {Exiting-title}{Exiting Emacs}
'xrdef {Exiting-pg}{24}
'xrdef {Exiting-snt}{Section'tie3.1}
'xrdef {Basic-title}{Basic Editing Commands}
'xrdef {Basic-pg}{27}
'xrdef {Basic-snt}{Chapter'tie4}
'xrdef {Inserting Text-title}{Inserting Text}
'xrdef {Inserting Text-pg}{27}
'xrdef {Inserting Text-snt}{Section'tie4.1}
'xrdef {Moving Point-title}{Changing the Location of Point}
'xrdef {Moving Point-pg}{28}
'xrdef {Moving Point-snt}{Section'tie4.2}
'xrdef {Erasing-title}{Erasing Text}
'xrdef {Erasing-pg}{29}
'xrdef {Erasing-snt}{Section'tie4.3}
'xrdef {Undo-title}{Undoing Changes}
'xrdef {Undo-pg}{30}
'xrdef {Undo-snt}{Section'tie4.4}
'xrdef {Basic Files-title}{Files}
'xrdef {Basic Files-pg}{31}
'xrdef {Basic Files-snt}{Section'tie4.5}
'xrdef {Basic Help-title}{Help}
'xrdef {Basic Help-pg}{32}
'xrdef {Basic Help-snt}{Section'tie4.6}
'xrdef {Blank Lines-title}{Blank Lines}
'xrdef {Blank Lines-pg}{32}
'xrdef {Blank Lines-snt}{Section'tie4.7}
'xrdef {Continuation Lines-title}{Continuation Lines}
'xrdef {Continuation Lines-pg}{33}
'xrdef {Continuation Lines-snt}{Section'tie4.8}
'xrdef {Position Info-title}{Cursor Position Information}
'xrdef {Position Info-pg}{33}
'xrdef {Position Info-snt}{Section'tie4.9}
'xrdef {Arguments-title}{Numeric Arguments}
'xrdef {Arguments-pg}{35}
'xrdef {Arguments-snt}{Section'tie4.10}
'xrdef {Minibuffer-title}{The Minibuffer}
'xrdef {Minibuffer-pg}{37}
'xrdef {Minibuffer-snt}{Chapter'tie5}
'xrdef {Minibuffer File-title}{Minibuffers for File Names}
'xrdef {Minibuffer File-pg}{37}
'xrdef {Minibuffer File-snt}{Section'tie5.1}
'xrdef {Minibuffer Edit-title}{Editing in the Minibuffer}
'xrdef {Minibuffer Edit-pg}{38}
'xrdef {Minibuffer Edit-snt}{Section'tie5.2}
'xrdef {Completion-title}{Completion}
'xrdef {Completion-pg}{39}
'xrdef {Completion-snt}{Section'tie5.3}
'xrdef {Completion Example-title}{Completion Example}
'xrdef {Completion Example-pg}{39}
'xrdef {Completion Example-snt}{Section'tie5.3.1}
'xrdef {Completion Commands-title}{Completion Commands}
'xrdef {Completion Commands-pg}{40}
'xrdef {Completion Commands-snt}{Section'tie5.3.2}
'xrdef {Strict Completion-title}{Strict Completion}
'xrdef {Strict Completion-pg}{41}
'xrdef {Strict Completion-snt}{Section'tie5.3.3}
'xrdef {Completion Options-title}{Completion Options}
'xrdef {Completion Options-pg}{41}
'xrdef {Completion Options-snt}{Section'tie5.3.4}
'xrdef {Minibuffer History-title}{Minibuffer History}
'xrdef {Minibuffer History-pg}{42}
'xrdef {Minibuffer History-snt}{Section'tie5.4}
'xrdef {Repetition-title}{Repeating Minibuffer Commands}
'xrdef {Repetition-pg}{43}
'xrdef {Repetition-snt}{Section'tie5.5}
'xrdef {M-x-title}{Running Commands by Name}
'xrdef {M-x-pg}{45}
'xrdef {M-x-snt}{Chapter'tie6}
'xrdef {Help-title}{Help}
'xrdef {Help-pg}{47}
'xrdef {Help-snt}{Chapter'tie7}
'xrdef {Key Help-title}{Documentation for a Key}
'xrdef {Key Help-pg}{48}
'xrdef {Key Help-snt}{Section'tie7.1}
'xrdef {Name Help-title}{Help by Command or Variable Name}
'xrdef {Name Help-pg}{48}
'xrdef {Name Help-snt}{Section'tie7.2}
'xrdef {Apropos-title}{Apropos}
'xrdef {Apropos-pg}{49}
'xrdef {Apropos-snt}{Section'tie7.3}
'xrdef {Library Keywords-title}{Keyword Search for Lisp Libraries}
'xrdef {Library Keywords-pg}{50}
'xrdef {Library Keywords-snt}{Section'tie7.4}
'xrdef {Misc Help-title}{Other Help Commands}
'xrdef {Misc Help-pg}{52}
'xrdef {Misc Help-snt}{Section'tie7.5}
'xrdef {Mark-title}{The Mark and the Region}
'xrdef {Mark-pg}{55}
'xrdef {Mark-snt}{Chapter'tie8}
'xrdef {Setting Mark-title}{Setting the Mark}
'xrdef {Setting Mark-pg}{55}
'xrdef {Setting Mark-snt}{Section'tie8.1}
'xrdef {Transient Mark-title}{Transient Mark Mode}
'xrdef {Transient Mark-pg}{56}
'xrdef {Transient Mark-snt}{Section'tie8.2}
'xrdef {Using Region-title}{Operating on the Region}
'xrdef {Using Region-pg}{57}
'xrdef {Using Region-snt}{Section'tie8.3}
'xrdef {Marking Objects-title}{Commands to Mark Textual Objects}
'xrdef {Marking Objects-pg}{58}
'xrdef {Marking Objects-snt}{Section'tie8.4}
'xrdef {Mark Ring-title}{The Mark Ring}
'xrdef {Mark Ring-pg}{59}
'xrdef {Mark Ring-snt}{Section'tie8.5}
'xrdef {Global Mark Ring-title}{The Global Mark Ring}
'xrdef {Global Mark Ring-pg}{59}
'xrdef {Global Mark Ring-snt}{Section'tie8.6}
'xrdef {Killing-title}{Deletion and Killing}
'xrdef {Killing-pg}{61}
'xrdef {Killing-snt}{Section'tie9.1}
'xrdef {Deletion-title}{Deletion}
'xrdef {Deletion-pg}{61}
'xrdef {Deletion-snt}{Section'tie9.1.1}
'xrdef {Killing by Lines-title}{Killing by Lines}
'xrdef {Killing by Lines-pg}{62}
'xrdef {Killing by Lines-snt}{Section'tie9.1.2}
'xrdef {Other Kill Commands-title}{Other Kill Commands}
'xrdef {Other Kill Commands-pg}{63}
'xrdef {Other Kill Commands-snt}{Section'tie9.1.3}
'xrdef {Yanking-title}{Yanking}
'xrdef {Yanking-pg}{63}
'xrdef {Yanking-snt}{Section'tie9.2}
'xrdef {Kill Ring-title}{The Kill Ring}
'xrdef {Kill Ring-pg}{64}
'xrdef {Kill Ring-snt}{Section'tie9.2.1}
'xrdef {Appending Kills-title}{Appending Kills}
'xrdef {Appending Kills-pg}{64}
'xrdef {Appending Kills-snt}{Section'tie9.2.2}
'xrdef {Earlier Kills-title}{Yanking Earlier Kills}
'xrdef {Earlier Kills-pg}{65}
'xrdef {Earlier Kills-snt}{Section'tie9.2.3}
'xrdef {Accumulating Text-title}{Accumulating Text}
'xrdef {Accumulating Text-pg}{66}
'xrdef {Accumulating Text-snt}{Section'tie9.3}
'xrdef {Rectangles-title}{Rectangles}
'xrdef {Rectangles-pg}{67}
'xrdef {Rectangles-snt}{Section'tie9.4}
'xrdef {Registers-title}{Registers}
'xrdef {Registers-pg}{71}
'xrdef {Registers-snt}{Chapter'tie10}
'xrdef {RegPos-title}{Saving Positions in Registers}
'xrdef {RegPos-pg}{71}
'xrdef {RegPos-snt}{Section'tie10.1}
'xrdef {RegText-title}{Saving Text in Registers}
'xrdef {RegText-pg}{71}
'xrdef {RegText-snt}{Section'tie10.2}
'xrdef {RegRect-title}{Saving Rectangles in Registers}
'xrdef {RegRect-pg}{72}
'xrdef {RegRect-snt}{Section'tie10.3}
'xrdef {RegConfig-title}{Saving Window Configurations in Registers}
'xrdef {RegConfig-pg}{72}
'xrdef {RegConfig-snt}{Section'tie10.4}
'xrdef {RegFiles-title}{Keeping File Names in Registers}
'xrdef {RegFiles-pg}{72}
'xrdef {RegFiles-snt}{Section'tie10.5}
'xrdef {Bookmarks-title}{Bookmarks}
'xrdef {Bookmarks-pg}{73}
'xrdef {Bookmarks-snt}{Section'tie10.6}
'xrdef {Display-title}{Controlling the Display}
'xrdef {Display-pg}{75}
'xrdef {Display-snt}{Chapter'tie11}
'xrdef {Scrolling-title}{Scrolling}
'xrdef {Scrolling-pg}{75}
'xrdef {Scrolling-snt}{Section'tie11.1}
'xrdef {Horizontal Scrolling-title}{Horizontal Scrolling}
'xrdef {Horizontal Scrolling-pg}{76}
'xrdef {Horizontal Scrolling-snt}{Section'tie11.2}
'xrdef {Selective Display-title}{Selective Display}
'xrdef {Selective Display-pg}{77}
'xrdef {Selective Display-snt}{Section'tie11.3}
'xrdef {European Display-title}{European Character Set Display}
'xrdef {European Display-pg}{77}
'xrdef {European Display-snt}{Section'tie11.4}
'xrdef {Optional Mode Line-title}{Optional Mode Line Features}
'xrdef {Optional Mode Line-pg}{79}
'xrdef {Optional Mode Line-snt}{Section'tie11.5}
'xrdef {Display Vars-title}{Variables Controlling Display}
'xrdef {Display Vars-pg}{79}
'xrdef {Display Vars-snt}{Section'tie11.6}
'xrdef {Search-title}{Searching and Replacement}
'xrdef {Search-pg}{83}
'xrdef {Search-snt}{Chapter'tie12}
'xrdef {Incremental Search-title}{Incremental Search}
'xrdef {Incremental Search-pg}{83}
'xrdef {Incremental Search-snt}{Section'tie12.1}
'xrdef {Nonincremental Search-title}{Nonincremental Search}
'xrdef {Nonincremental Search-pg}{86}
'xrdef {Nonincremental Search-snt}{Section'tie12.2}
'xrdef {Word Search-title}{Word Search}
'xrdef {Word Search-pg}{86}
'xrdef {Word Search-snt}{Section'tie12.3}
'xrdef {Regexp Search-title}{Regular Expression Search}
'xrdef {Regexp Search-pg}{87}
'xrdef {Regexp Search-snt}{Section'tie12.4}
'xrdef {Regexps-title}{Syntax of Regular Expressions}
'xrdef {Regexps-pg}{88}
'xrdef {Regexps-snt}{Section'tie12.5}
'xrdef {Search Case-title}{Searching and Case}
'xrdef {Search Case-pg}{92}
'xrdef {Search Case-snt}{Section'tie12.6}
'xrdef {Replace-title}{Replacement Commands}
'xrdef {Replace-pg}{93}
'xrdef {Replace-snt}{Section'tie12.7}
'xrdef {Unconditional Replace-title}{Unconditional Replacement}
'xrdef {Unconditional Replace-pg}{93}
'xrdef {Unconditional Replace-snt}{Section'tie12.7.1}
'xrdef {Regexp Replace-title}{Regexp Replacement}
'xrdef {Regexp Replace-pg}{93}
'xrdef {Regexp Replace-snt}{Section'tie12.7.2}
'xrdef {Replacement and Case-title}{Replace Commands and Case}
'xrdef {Replacement and Case-pg}{94}
'xrdef {Replacement and Case-snt}{Section'tie12.7.3}
'xrdef {Query Replace-title}{Query Replace}
'xrdef {Query Replace-pg}{94}
'xrdef {Query Replace-snt}{Section'tie12.7.4}
'xrdef {Other Repeating Search-title}{Other Search-and-Loop Commands}
'xrdef {Other Repeating Search-pg}{96}
'xrdef {Other Repeating Search-snt}{Section'tie12.8}
'xrdef {Fixit-title}{Commands for Fixing Typos}
'xrdef {Fixit-pg}{97}
'xrdef {Fixit-snt}{Chapter'tie13}
'xrdef {Kill Errors-title}{Killing Your Mistakes}
'xrdef {Kill Errors-pg}{97}
'xrdef {Kill Errors-snt}{Section'tie13.1}
'xrdef {Transpose-title}{Transposing Text}
'xrdef {Transpose-pg}{97}
'xrdef {Transpose-snt}{Section'tie13.2}
'xrdef {Fixing Case-title}{Case Conversion}
'xrdef {Fixing Case-pg}{98}
'xrdef {Fixing Case-snt}{Section'tie13.3}
'xrdef {Spelling-title}{Checking and Correcting Spelling}
'xrdef {Spelling-pg}{99}
'xrdef {Spelling-snt}{Section'tie13.4}
'xrdef {Files-title}{File Handling}
'xrdef {Files-pg}{103}
'xrdef {Files-snt}{Chapter'tie14}
'xrdef {File Names-title}{File Names}
'xrdef {File Names-pg}{103}
'xrdef {File Names-snt}{Section'tie14.1}
'xrdef {Visiting-title}{Visiting Files}
'xrdef {Visiting-pg}{104}
'xrdef {Visiting-snt}{Section'tie14.2}
'xrdef {Saving-title}{Saving Files}
'xrdef {Saving-pg}{107}
'xrdef {Saving-snt}{Section'tie14.3}
'xrdef {Backup-title}{Backup Files}
'xrdef {Backup-pg}{109}
'xrdef {Backup-snt}{Section'tie14.3.1}
'xrdef {Backup Names-title}{Single or Numbered Backups}
'xrdef {Backup Names-pg}{109}
'xrdef {Backup Names-snt}{Section'tie14.3.1.1}
'xrdef {Backup Deletion-title}{Automatic Deletion of Backups}
'xrdef {Backup Deletion-pg}{110}
'xrdef {Backup Deletion-snt}{Section'tie14.3.1.2}
'xrdef {Backup Copying-title}{Copying vs.\spacefactor =1000  Renaming}
'xrdef {Backup Copying-pg}{110}
'xrdef {Backup Copying-snt}{Section'tie14.3.1.3}
'xrdef {Interlocking-title}{Protection against Simultaneous Editing}
'xrdef {Interlocking-pg}{111}
'xrdef {Interlocking-snt}{Section'tie14.3.2}
'xrdef {Reverting-title}{Reverting a Buffer}
'xrdef {Reverting-pg}{112}
'xrdef {Reverting-snt}{Section'tie14.4}
'xrdef {Auto Save-title}{Auto-Saving: Protection Against Disasters}
'xrdef {Auto Save-pg}{113}
'xrdef {Auto Save-snt}{Section'tie14.5}
'xrdef {Auto Save Files-title}{Auto-Save Files}
'xrdef {Auto Save Files-pg}{113}
'xrdef {Auto Save Files-snt}{Section'tie14.5.1}
'xrdef {Auto Save Control-title}{Controlling Auto-Saving}
'xrdef {Auto Save Control-pg}{114}
'xrdef {Auto Save Control-snt}{Section'tie14.5.2}
'xrdef {Recover-title}{Recovering Data from Auto-Saves}
'xrdef {Recover-pg}{115}
'xrdef {Recover-snt}{Section'tie14.5.3}
'xrdef {File Aliases-title}{File Name Aliases}
'xrdef {File Aliases-pg}{115}
'xrdef {File Aliases-snt}{Section'tie14.6}
'xrdef {Version Control-title}{Version Control}
'xrdef {Version Control-pg}{116}
'xrdef {Version Control-snt}{Section'tie14.7}
'xrdef {Version Systems-title}{Supported Version Control Systems}
'xrdef {Version Systems-pg}{116}
'xrdef {Version Systems-snt}{Section'tie14.7.1}
'xrdef {VC Concepts-title}{Concepts of Version Control}
'xrdef {VC Concepts-pg}{117}
'xrdef {VC Concepts-snt}{Section'tie14.7.2}
'xrdef {Editing with VC-title}{Editing with Version Control}
'xrdef {Editing with VC-pg}{117}
'xrdef {Editing with VC-snt}{Section'tie14.7.3}
'xrdef {Check-Out-title}{Check-Out}
'xrdef {Check-Out-pg}{118}
'xrdef {Check-Out-snt}{Section'tie14.7.3.1}
'xrdef {Check-In-title}{Check-In}
'xrdef {Check-In-pg}{118}
'xrdef {Check-In-snt}{Section'tie14.7.3.2}
'xrdef {Registering-title}{Registering a File for Version Control}
'xrdef {Registering-pg}{119}
'xrdef {Registering-snt}{Section'tie14.7.3.3}
'xrdef {Version Control Undo-title}{Undoing Version Control Actions}
'xrdef {Version Control Undo-pg}{119}
'xrdef {Version Control Undo-snt}{Section'tie14.7.3.4}
'xrdef {VC Mode Line-title}{The VC Mode Line}
'xrdef {VC Mode Line-pg}{120}
'xrdef {VC Mode Line-snt}{Section'tie14.7.3.5}
'xrdef {CVS and VC-title}{Using VC with CVS}
'xrdef {CVS and VC-pg}{120}
'xrdef {CVS and VC-snt}{Section'tie14.7.3.6}
'xrdef {Log Entries-title}{Log Entries}
'xrdef {Log Entries-pg}{120}
'xrdef {Log Entries-snt}{Section'tie14.7.4}
'xrdef {Change Logs and VC-title}{Change Logs and VC}
'xrdef {Change Logs and VC-pg}{121}
'xrdef {Change Logs and VC-snt}{Section'tie14.7.5}
'xrdef {Old Versions-title}{Examining And Comparing Old Versions}
'xrdef {Old Versions-pg}{122}
'xrdef {Old Versions-snt}{Section'tie14.7.6}
'xrdef {Branches-title}{Multiple Branches of a File}
'xrdef {Branches-pg}{123}
'xrdef {Branches-snt}{Section'tie14.7.7}
'xrdef {Switching Branches-title}{Switching between Branches}
'xrdef {Switching Branches-pg}{124}
'xrdef {Switching Branches-snt}{Section'tie14.7.7.1}
'xrdef {Creating Branches-title}{Creating New Branches}
'xrdef {Creating Branches-pg}{124}
'xrdef {Creating Branches-snt}{Section'tie14.7.7.2}
'xrdef {Multi-User Branching-title}{Multi-User Branching}
'xrdef {Multi-User Branching-pg}{124}
'xrdef {Multi-User Branching-snt}{Section'tie14.7.7.3}
'xrdef {Status in VC-title}{VC Status Commands}
'xrdef {Status in VC-pg}{125}
'xrdef {Status in VC-snt}{Section'tie14.7.8}
'xrdef {Renaming and VC-title}{Renaming VC Work Files and Master Files}
'xrdef {Renaming and VC-pg}{126}
'xrdef {Renaming and VC-snt}{Section'tie14.7.9}
'xrdef {Snapshots-title}{Snapshots}
'xrdef {Snapshots-pg}{126}
'xrdef {Snapshots-snt}{Section'tie14.7.10}
'xrdef {Making Snapshots-title}{Making and Using Snapshots}
'xrdef {Making Snapshots-pg}{126}
'xrdef {Making Snapshots-snt}{Section'tie14.7.10.1}
'xrdef {Snapshot Caveats-title}{Snapshot Caveats}
'xrdef {Snapshot Caveats-pg}{127}
'xrdef {Snapshot Caveats-snt}{Section'tie14.7.10.2}
'xrdef {Version Headers-title}{Inserting Version Control Headers}
'xrdef {Version Headers-pg}{127}
'xrdef {Version Headers-snt}{Section'tie14.7.11}
'xrdef {Customizing VC-title}{Customizing VC}
'xrdef {Customizing VC-pg}{129}
'xrdef {Customizing VC-snt}{Section'tie14.7.12}
'xrdef {Directories-title}{File Directories}
'xrdef {Directories-pg}{130}
'xrdef {Directories-snt}{Section'tie14.8}
'xrdef {Comparing Files-title}{Comparing Files}
'xrdef {Comparing Files-pg}{130}
'xrdef {Comparing Files-snt}{Section'tie14.9}
'xrdef {Misc File Ops-title}{Miscellaneous File Operations}
'xrdef {Misc File Ops-pg}{131}
'xrdef {Misc File Ops-snt}{Section'tie14.10}
'xrdef {Buffers-title}{Using Multiple Buffers}
'xrdef {Buffers-pg}{133}
'xrdef {Buffers-snt}{Chapter'tie15}
'xrdef {Select Buffer-title}{Creating and Selecting Buffers}
'xrdef {Select Buffer-pg}{133}
'xrdef {Select Buffer-snt}{Section'tie15.1}
'xrdef {List Buffers-title}{Listing Existing Buffers}
'xrdef {List Buffers-pg}{134}
'xrdef {List Buffers-snt}{Section'tie15.2}
'xrdef {Misc Buffer-title}{Miscellaneous Buffer Operations}
'xrdef {Misc Buffer-pg}{135}
'xrdef {Misc Buffer-snt}{Section'tie15.3}
'xrdef {Kill Buffer-title}{Killing Buffers}
'xrdef {Kill Buffer-pg}{136}
'xrdef {Kill Buffer-snt}{Section'tie15.4}
'xrdef {Several Buffers-title}{Operating on Several Buffers}
'xrdef {Several Buffers-pg}{136}
'xrdef {Several Buffers-snt}{Section'tie15.5}
'xrdef {Indirect Buffers-title}{Indirect Buffers}
'xrdef {Indirect Buffers-pg}{138}
'xrdef {Indirect Buffers-snt}{Section'tie15.6}
'xrdef {Windows-title}{Multiple Windows}
'xrdef {Windows-pg}{141}
'xrdef {Windows-snt}{Chapter'tie16}
'xrdef {Basic Window-title}{Concepts of Emacs Windows}
'xrdef {Basic Window-pg}{141}
'xrdef {Basic Window-snt}{Section'tie16.1}
'xrdef {Split Window-title}{Splitting Windows}
'xrdef {Split Window-pg}{142}
'xrdef {Split Window-snt}{Section'tie16.2}
'xrdef {Other Window-title}{Using Other Windows}
'xrdef {Other Window-pg}{142}
'xrdef {Other Window-snt}{Section'tie16.3}
'xrdef {Pop Up Window-title}{Displaying in Another Window}
'xrdef {Pop Up Window-pg}{143}
'xrdef {Pop Up Window-snt}{Section'tie16.4}
'xrdef {Force Same Window-title}{Forcing Display in the Same Window}
'xrdef {Force Same Window-pg}{144}
'xrdef {Force Same Window-snt}{Section'tie16.5}
'xrdef {Change Window-title}{Deleting and Rearranging Windows}
'xrdef {Change Window-pg}{145}
'xrdef {Change Window-snt}{Section'tie16.6}
'xrdef {Frames-title}{Frames and X Windows}
'xrdef {Frames-pg}{147}
'xrdef {Frames-snt}{Chapter'tie17}
'xrdef {Mouse Commands-title}{Mouse Commands for Editing}
'xrdef {Mouse Commands-pg}{147}
'xrdef {Mouse Commands-snt}{Section'tie17.1}
'xrdef {Secondary Selection-title}{Secondary Selection}
'xrdef {Secondary Selection-pg}{149}
'xrdef {Secondary Selection-snt}{Section'tie17.2}
'xrdef {Mouse References-title}{Following References with the Mouse}
'xrdef {Mouse References-pg}{150}
'xrdef {Mouse References-snt}{Section'tie17.3}
'xrdef {Menu Mouse Clicks-title}{Mouse Clicks for Menus}
'xrdef {Menu Mouse Clicks-pg}{150}
'xrdef {Menu Mouse Clicks-snt}{Section'tie17.4}
'xrdef {Mode Line Mouse-title}{Mode Line Mouse Commands}
'xrdef {Mode Line Mouse-pg}{151}
'xrdef {Mode Line Mouse-snt}{Section'tie17.5}
'xrdef {Creating Frames-title}{Creating Frames}
'xrdef {Creating Frames-pg}{151}
'xrdef {Creating Frames-snt}{Section'tie17.6}
'xrdef {Multiple Displays-title}{Multiple Displays}
'xrdef {Multiple Displays-pg}{152}
'xrdef {Multiple Displays-snt}{Section'tie17.7}
'xrdef {Special Buffer Frames-title}{Special Buffer Frames}
'xrdef {Special Buffer Frames-pg}{152}
'xrdef {Special Buffer Frames-snt}{Section'tie17.8}
'xrdef {Frame Parameters-title}{Setting Frame Parameters}
'xrdef {Frame Parameters-pg}{153}
'xrdef {Frame Parameters-snt}{Section'tie17.9}
'xrdef {Scroll Bars-title}{Scroll Bars}
'xrdef {Scroll Bars-pg}{155}
'xrdef {Scroll Bars-snt}{Section'tie17.10}
'xrdef {Menu Bars-title}{Menu Bars}
'xrdef {Menu Bars-pg}{155}
'xrdef {Menu Bars-snt}{Section'tie17.11}
'xrdef {Faces-title}{Using Multiple Typefaces}
'xrdef {Faces-pg}{156}
'xrdef {Faces-snt}{Section'tie17.12}
'xrdef {Modifying Faces-title}{Modifying Faces}
'xrdef {Modifying Faces-pg}{157}
'xrdef {Modifying Faces-snt}{Section'tie17.13}
'xrdef {Misc X-title}{Miscellaneous X Window Features}
'xrdef {Misc X-pg}{158}
'xrdef {Misc X-snt}{Section'tie17.14}
'xrdef {Major Modes-title}{Major Modes}
'xrdef {Major Modes-pg}{161}
'xrdef {Major Modes-snt}{Chapter'tie18}
'xrdef {Choosing Modes-title}{How Major Modes are Chosen}
'xrdef {Choosing Modes-pg}{161}
'xrdef {Choosing Modes-snt}{Section'tie18.1}
'xrdef {Indentation-title}{Indentation}
'xrdef {Indentation-pg}{165}
'xrdef {Indentation-snt}{Chapter'tie19}
'xrdef {Indentation Commands-title}{Indentation Commands and Techniques}
'xrdef {Indentation Commands-pg}{165}
'xrdef {Indentation Commands-snt}{Section'tie19.1}
'xrdef {Tab Stops-title}{Tab Stops}
'xrdef {Tab Stops-pg}{167}
'xrdef {Tab Stops-snt}{Section'tie19.2}
'xrdef {Just Spaces-title}{Tabs vs. Spaces}
'xrdef {Just Spaces-pg}{167}
'xrdef {Just Spaces-snt}{Section'tie19.3}
'xrdef {Text-title}{Commands for Human Languages}
'xrdef {Text-pg}{169}
'xrdef {Text-snt}{Chapter'tie20}
'xrdef {Words-title}{Words}
'xrdef {Words-pg}{169}
'xrdef {Words-snt}{Section'tie20.1}
'xrdef {Sentences-title}{Sentences}
'xrdef {Sentences-pg}{171}
'xrdef {Sentences-snt}{Section'tie20.2}
'xrdef {Paragraphs-title}{Paragraphs}
'xrdef {Paragraphs-pg}{172}
'xrdef {Paragraphs-snt}{Section'tie20.3}
'xrdef {Pages-title}{Pages}
'xrdef {Pages-pg}{173}
'xrdef {Pages-snt}{Section'tie20.4}
'xrdef {Filling-title}{Filling Text}
'xrdef {Filling-pg}{174}
'xrdef {Filling-snt}{Section'tie20.5}
'xrdef {Auto Fill-title}{Auto Fill Mode}
'xrdef {Auto Fill-pg}{174}
'xrdef {Auto Fill-snt}{Section'tie20.5.1}
'xrdef {Fill Commands-title}{Explicit Fill Commands}
'xrdef {Fill Commands-pg}{175}
'xrdef {Fill Commands-snt}{Section'tie20.5.2}
'xrdef {Fill Prefix-title}{The Fill Prefix}
'xrdef {Fill Prefix-pg}{176}
'xrdef {Fill Prefix-snt}{Section'tie20.5.3}
'xrdef {Case-title}{Case Conversion Commands}
'xrdef {Case-pg}{178}
'xrdef {Case-snt}{Section'tie20.6}
'xrdef {Text Mode-title}{Text Mode}
'xrdef {Text Mode-pg}{179}
'xrdef {Text Mode-snt}{Section'tie20.7}
'xrdef {Outline Mode-title}{Outline Mode}
'xrdef {Outline Mode-pg}{179}
'xrdef {Outline Mode-snt}{Section'tie20.8}
'xrdef {Outline Format-title}{Format of Outlines}
'xrdef {Outline Format-pg}{180}
'xrdef {Outline Format-snt}{Section'tie20.8.1}
'xrdef {Outline Motion-title}{Outline Motion Commands}
'xrdef {Outline Motion-pg}{181}
'xrdef {Outline Motion-snt}{Section'tie20.8.2}
'xrdef {Outline Visibility-title}{Outline Visibility Commands}
'xrdef {Outline Visibility-pg}{182}
'xrdef {Outline Visibility-snt}{Section'tie20.8.3}
'xrdef {Outline Views-title}{Viewing One Outline in Multiple Views}
'xrdef {Outline Views-pg}{183}
'xrdef {Outline Views-snt}{Section'tie20.8.4}
'xrdef {TeX Mode-title}{\TeX{} Mode}
'xrdef {TeX Mode-pg}{184}
'xrdef {TeX Mode-snt}{Section'tie20.9}
'xrdef {TeX Editing-title}{\TeX{} Editing Commands}
'xrdef {TeX Editing-pg}{184}
'xrdef {TeX Editing-snt}{Section'tie20.9.1}
'xrdef {LaTeX Editing-title}{La\TeX{} Editing Commands}
'xrdef {LaTeX Editing-pg}{186}
'xrdef {LaTeX Editing-snt}{Section'tie20.9.2}
'xrdef {TeX Print-title}{\TeX{} Printing Commands}
'xrdef {TeX Print-pg}{186}
'xrdef {TeX Print-snt}{Section'tie20.9.3}
'xrdef {TeX Distrib-title}{Unix \TeX{} Distribution}
'xrdef {TeX Distrib-pg}{189}
'xrdef {TeX Distrib-snt}{Section'tie20.9.4}
'xrdef {Nroff Mode-title}{Nroff Mode}
'xrdef {Nroff Mode-pg}{189}
'xrdef {Nroff Mode-snt}{Section'tie20.10}
'xrdef {Formatted Text-title}{Editing Formatted Text}
'xrdef {Formatted Text-pg}{190}
'xrdef {Formatted Text-snt}{Section'tie20.11}
'xrdef {Requesting Formatted Text-title}{Requesting to Edit Formatted Text}
'xrdef {Requesting Formatted Text-pg}{190}
'xrdef {Requesting Formatted Text-snt}{Section'tie20.11.1}
'xrdef {Hard and Soft Newlines-title}{Hard and Soft Newlines}
'xrdef {Hard and Soft Newlines-pg}{191}
'xrdef {Hard and Soft Newlines-snt}{Section'tie20.11.2}
'xrdef {Editing Format Info-title}{Editing Format Information}
'xrdef {Editing Format Info-pg}{192}
'xrdef {Editing Format Info-snt}{Section'tie20.11.3}
'xrdef {Format Faces-title}{Faces in Formatted Text}
'xrdef {Format Faces-pg}{192}
'xrdef {Format Faces-snt}{Section'tie20.11.4}
'xrdef {Format Colors-title}{Colors in Formatted Text}
'xrdef {Format Colors-pg}{193}
'xrdef {Format Colors-snt}{Section'tie20.11.5}
'xrdef {Format Indentation-title}{Indentation in Formatted Text}
'xrdef {Format Indentation-pg}{194}
'xrdef {Format Indentation-snt}{Section'tie20.11.6}
'xrdef {Format Justification-title}{Justification in Formatted Text}
'xrdef {Format Justification-pg}{195}
'xrdef {Format Justification-snt}{Section'tie20.11.7}
'xrdef {Format Properties-title}{Setting Other Text Properties}
'xrdef {Format Properties-pg}{196}
'xrdef {Format Properties-snt}{Section'tie20.11.8}
'xrdef {Forcing Enriched Mode-title}{Forcing Enriched Mode}
'xrdef {Forcing Enriched Mode-pg}{196}
'xrdef {Forcing Enriched Mode-snt}{Section'tie20.11.9}
'xrdef {Programs-title}{Editing Programs}
'xrdef {Programs-pg}{199}
'xrdef {Programs-snt}{Chapter'tie21}
'xrdef {Program Modes-title}{Major Modes for Programming Languages}
'xrdef {Program Modes-pg}{199}
'xrdef {Program Modes-snt}{Section'tie21.1}
'xrdef {Lists-title}{Lists and Sexps}
'xrdef {Lists-pg}{200}
'xrdef {Lists-snt}{Section'tie21.2}
'xrdef {List Commands-title}{List And Sexp Commands}
'xrdef {List Commands-pg}{201}
'xrdef {List Commands-snt}{Section'tie21.3}
'xrdef {Defuns-title}{Defuns}
'xrdef {Defuns-pg}{202}
'xrdef {Defuns-snt}{Section'tie21.4}
'xrdef {Program Indent-title}{Indentation for Programs}
'xrdef {Program Indent-pg}{203}
'xrdef {Program Indent-snt}{Section'tie21.5}
'xrdef {Basic Indent-title}{Basic Program Indentation Commands}
'xrdef {Basic Indent-pg}{203}
'xrdef {Basic Indent-snt}{Section'tie21.5.1}
'xrdef {Multi-line Indent-title}{Indenting Several Lines}
'xrdef {Multi-line Indent-pg}{204}
'xrdef {Multi-line Indent-snt}{Section'tie21.5.2}
'xrdef {Lisp Indent-title}{Customizing Lisp Indentation}
'xrdef {Lisp Indent-pg}{205}
'xrdef {Lisp Indent-snt}{Section'tie21.5.3}
'xrdef {C Indent-title}{Customizing C Indentation}
'xrdef {C Indent-pg}{206}
'xrdef {C Indent-snt}{Section'tie21.5.4}
'xrdef {Matching-title}{Automatic Display Of Matching Parentheses}
'xrdef {Matching-pg}{209}
'xrdef {Matching-snt}{Section'tie21.6}
'xrdef {Comments-title}{Manipulating Comments}
'xrdef {Comments-pg}{210}
'xrdef {Comments-snt}{Section'tie21.7}
'xrdef {Comment Commands-title}{Comment Commands}
'xrdef {Comment Commands-pg}{210}
'xrdef {Comment Commands-snt}{Section'tie21.7.1}
'xrdef {Multi-Line Comments-title}{Multiple Lines of Comments}
'xrdef {Multi-Line Comments-pg}{211}
'xrdef {Multi-Line Comments-snt}{Section'tie21.7.2}
'xrdef {Options for Comments-title}{Options Controlling Comments}
'xrdef {Options for Comments-pg}{212}
'xrdef {Options for Comments-snt}{Section'tie21.7.3}
'xrdef {Balanced Editing-title}{Editing Without Unbalanced Parentheses}
'xrdef {Balanced Editing-pg}{213}
'xrdef {Balanced Editing-snt}{Section'tie21.8}
'xrdef {Symbol Completion-title}{Completion for Symbol Names}
'xrdef {Symbol Completion-pg}{213}
'xrdef {Symbol Completion-snt}{Section'tie21.9}
'xrdef {Documentation-title}{Documentation Commands}
'xrdef {Documentation-pg}{214}
'xrdef {Documentation-snt}{Section'tie21.10}
'xrdef {Change Log-title}{Change Logs}
'xrdef {Change Log-pg}{214}
'xrdef {Change Log-snt}{Section'tie21.11}
'xrdef {Tags-title}{Tags Tables}
'xrdef {Tags-pg}{216}
'xrdef {Tags-snt}{Section'tie21.12}
'xrdef {Tag Syntax-title}{Source File Tag Syntax}
'xrdef {Tag Syntax-pg}{216}
'xrdef {Tag Syntax-snt}{Section'tie21.12.1}
'xrdef {Create Tags Table-title}{Creating Tags Tables}
'xrdef {Create Tags Table-pg}{217}
'xrdef {Create Tags Table-snt}{Section'tie21.12.2}
'xrdef {Select Tags Table-title}{Selecting a Tags Table}
'xrdef {Select Tags Table-pg}{219}
'xrdef {Select Tags Table-snt}{Section'tie21.12.3}
'xrdef {Find Tag-title}{Finding a Tag}
'xrdef {Find Tag-pg}{220}
'xrdef {Find Tag-snt}{Section'tie21.12.4}
'xrdef {Tags Search-title}{Searching and Replacing with Tags Tables}
'xrdef {Tags Search-pg}{221}
'xrdef {Tags Search-snt}{Section'tie21.12.5}
'xrdef {Tags Stepping-title}{Stepping Through a Tags Table}
'xrdef {Tags Stepping-pg}{222}
'xrdef {Tags Stepping-snt}{Section'tie21.12.6}
'xrdef {List Tags-title}{Tags Table Inquiries}
'xrdef {List Tags-pg}{222}
'xrdef {List Tags-snt}{Section'tie21.12.7}
'xrdef {Emerge-title}{Merging Files with Emerge}
'xrdef {Emerge-pg}{223}
'xrdef {Emerge-snt}{Section'tie21.13}
'xrdef {Overview of Emerge-title}{Overview of Emerge}
'xrdef {Overview of Emerge-pg}{223}
'xrdef {Overview of Emerge-snt}{Section'tie21.13.1}
'xrdef {Submodes of Emerge-title}{Submodes of Emerge}
'xrdef {Submodes of Emerge-pg}{224}
'xrdef {Submodes of Emerge-snt}{Section'tie21.13.2}
'xrdef {State of Difference-title}{State of a Difference}
'xrdef {State of Difference-pg}{225}
'xrdef {State of Difference-snt}{Section'tie21.13.3}
'xrdef {Merge Commands-title}{Merge Commands}
'xrdef {Merge Commands-pg}{226}
'xrdef {Merge Commands-snt}{Section'tie21.13.4}
'xrdef {Exiting Emerge-title}{Exiting Emerge}
'xrdef {Exiting Emerge-pg}{227}
'xrdef {Exiting Emerge-snt}{Section'tie21.13.5}
'xrdef {Combining in Emerge-title}{Combining the Two Versions}
'xrdef {Combining in Emerge-pg}{228}
'xrdef {Combining in Emerge-snt}{Section'tie21.13.6}
'xrdef {Fine Points of Emerge-title}{Fine Points of Emerge}
'xrdef {Fine Points of Emerge-pg}{228}
'xrdef {Fine Points of Emerge-snt}{Section'tie21.13.7}
'xrdef {C Mode-title}{C Mode}
'xrdef {C Mode-pg}{228}
'xrdef {C Mode-snt}{Section'tie21.14}
'xrdef {Fortran-title}{Fortran Mode}
'xrdef {Fortran-pg}{230}
'xrdef {Fortran-snt}{Section'tie21.15}
'xrdef {Fortran Motion-title}{Motion Commands}
'xrdef {Fortran Motion-pg}{230}
'xrdef {Fortran Motion-snt}{Section'tie21.15.1}
'xrdef {Fortran Indent-title}{Fortran Indentation}
'xrdef {Fortran Indent-pg}{230}
'xrdef {Fortran Indent-snt}{Section'tie21.15.2}
'xrdef {ForIndent Commands-title}{Fortran Indentation Commands}
'xrdef {ForIndent Commands-pg}{231}
'xrdef {ForIndent Commands-snt}{Section'tie21.15.2.1}
'xrdef {ForIndent Cont-title}{Continuation Lines}
'xrdef {ForIndent Cont-pg}{231}
'xrdef {ForIndent Cont-snt}{Section'tie21.15.2.2}
'xrdef {ForIndent Num-title}{Line Numbers}
'xrdef {ForIndent Num-pg}{232}
'xrdef {ForIndent Num-snt}{Section'tie21.15.2.3}
'xrdef {ForIndent Conv-title}{Syntactic Conventions}
'xrdef {ForIndent Conv-pg}{232}
'xrdef {ForIndent Conv-snt}{Section'tie21.15.2.4}
'xrdef {ForIndent Vars-title}{Variables for Fortran Indentation}
'xrdef {ForIndent Vars-pg}{233}
'xrdef {ForIndent Vars-snt}{Section'tie21.15.2.5}
'xrdef {Fortran Comments-title}{Fortran Comments}
'xrdef {Fortran Comments-pg}{234}
'xrdef {Fortran Comments-snt}{Section'tie21.15.3}
'xrdef {Fortran Autofill-title}{Fortran Auto Fill Mode}
'xrdef {Fortran Autofill-pg}{235}
'xrdef {Fortran Autofill-snt}{Section'tie21.15.4}
'xrdef {Fortran Columns-title}{Checking Columns in Fortran}
'xrdef {Fortran Columns-pg}{236}
'xrdef {Fortran Columns-snt}{Section'tie21.15.5}
'xrdef {Fortran Abbrev-title}{Fortran Keyword Abbrevs}
'xrdef {Fortran Abbrev-pg}{236}
'xrdef {Fortran Abbrev-snt}{Section'tie21.15.6}
'xrdef {Asm Mode-title}{Asm Mode}
'xrdef {Asm Mode-pg}{237}
'xrdef {Asm Mode-snt}{Section'tie21.16}
'xrdef {Building-title}{Compiling and Testing Programs}
'xrdef {Building-pg}{239}
'xrdef {Building-snt}{Chapter'tie22}
'xrdef {Compilation-title}{Running Compilations under Emacs}
'xrdef {Compilation-pg}{239}
'xrdef {Compilation-snt}{Section'tie22.1}
'xrdef {Debuggers-title}{Running Debuggers Under Emacs}
'xrdef {Debuggers-pg}{241}
'xrdef {Debuggers-snt}{Section'tie22.2}
'xrdef {Starting GUD-title}{Starting GUD}
'xrdef {Starting GUD-pg}{241}
'xrdef {Starting GUD-snt}{Section'tie22.2.1}
'xrdef {Debugger Operation-title}{Debugger Operation}
'xrdef {Debugger Operation-pg}{242}
'xrdef {Debugger Operation-snt}{Section'tie22.2.2}
'xrdef {Commands of GUD-title}{Commands of GUD}
'xrdef {Commands of GUD-pg}{243}
'xrdef {Commands of GUD-snt}{Section'tie22.2.3}
'xrdef {GUD Customization-title}{GUD Customization}
'xrdef {GUD Customization-pg}{244}
'xrdef {GUD Customization-snt}{Section'tie22.2.4}
'xrdef {Executing Lisp-title}{Executing Lisp Expressions}
'xrdef {Executing Lisp-pg}{245}
'xrdef {Executing Lisp-snt}{Section'tie22.3}
'xrdef {Lisp Libraries-title}{Libraries of Lisp Code for Emacs}
'xrdef {Lisp Libraries-pg}{246}
'xrdef {Lisp Libraries-snt}{Section'tie22.4}
'xrdef {Lisp Eval-title}{Evaluating Emacs-Lisp Expressions}
'xrdef {Lisp Eval-pg}{247}
'xrdef {Lisp Eval-snt}{Section'tie22.5}
'xrdef {Lisp Interaction-title}{Lisp Interaction Buffers}
'xrdef {Lisp Interaction-pg}{249}
'xrdef {Lisp Interaction-snt}{Section'tie22.6}
'xrdef {External Lisp-title}{Running an External Lisp}
'xrdef {External Lisp-pg}{249}
'xrdef {External Lisp-snt}{Section'tie22.7}
'xrdef {Abbrevs-title}{Abbrevs}
'xrdef {Abbrevs-pg}{251}
'xrdef {Abbrevs-snt}{Chapter'tie23}
'xrdef {Abbrev Concepts-title}{Abbrev Concepts}
'xrdef {Abbrev Concepts-pg}{251}
'xrdef {Abbrev Concepts-snt}{Section'tie23.1}
'xrdef {Defining Abbrevs-title}{Defining Abbrevs}
'xrdef {Defining Abbrevs-pg}{251}
'xrdef {Defining Abbrevs-snt}{Section'tie23.2}
'xrdef {Expanding Abbrevs-title}{Controlling Abbrev Expansion}
'xrdef {Expanding Abbrevs-pg}{252}
'xrdef {Expanding Abbrevs-snt}{Section'tie23.3}
'xrdef {Editing Abbrevs-title}{Examining and Editing Abbrevs}
'xrdef {Editing Abbrevs-pg}{254}
'xrdef {Editing Abbrevs-snt}{Section'tie23.4}
'xrdef {Saving Abbrevs-title}{Saving Abbrevs}
'xrdef {Saving Abbrevs-pg}{254}
'xrdef {Saving Abbrevs-snt}{Section'tie23.5}
'xrdef {Dynamic Abbrevs-title}{Dynamic Abbrev Expansion}
'xrdef {Dynamic Abbrevs-pg}{255}
'xrdef {Dynamic Abbrevs-snt}{Section'tie23.6}
'xrdef {Picture-title}{Editing Pictures}
'xrdef {Picture-pg}{257}
'xrdef {Picture-snt}{Chapter'tie24}
'xrdef {Basic Picture-title}{Basic Editing in Picture Mode}
'xrdef {Basic Picture-pg}{257}
'xrdef {Basic Picture-snt}{Section'tie24.1}
'xrdef {Insert in Picture-title}{Controlling Motion after Insert}
'xrdef {Insert in Picture-pg}{258}
'xrdef {Insert in Picture-snt}{Section'tie24.2}
'xrdef {Tabs in Picture-title}{Picture Mode Tabs}
'xrdef {Tabs in Picture-pg}{259}
'xrdef {Tabs in Picture-snt}{Section'tie24.3}
'xrdef {Rectangles in Picture-title}{Picture Mode Rectangle Commands}
'xrdef {Rectangles in Picture-pg}{259}
'xrdef {Rectangles in Picture-snt}{Section'tie24.4}
'xrdef {Sending Mail-title}{Sending Mail}
'xrdef {Sending Mail-pg}{261}
'xrdef {Sending Mail-snt}{Chapter'tie25}
'xrdef {Mail Format-title}{The Format of the Mail Buffer}
'xrdef {Mail Format-pg}{261}
'xrdef {Mail Format-snt}{Section'tie25.1}
'xrdef {Mail Headers-title}{Mail Header Fields}
'xrdef {Mail Headers-pg}{262}
'xrdef {Mail Headers-snt}{Section'tie25.2}
'xrdef {Mail Aliases-title}{Mail Aliases}
'xrdef {Mail Aliases-pg}{264}
'xrdef {Mail Aliases-snt}{Section'tie25.3}
'xrdef {Mail Mode-title}{Mail Mode}
'xrdef {Mail Mode-pg}{265}
'xrdef {Mail Mode-snt}{Section'tie25.4}
'xrdef {Distracting NSA-title}{Distracting the NSA}
'xrdef {Distracting NSA-pg}{268}
'xrdef {Distracting NSA-snt}{Section'tie25.5}
'xrdef {Rmail-title}{Reading Mail with Rmail}
'xrdef {Rmail-pg}{269}
'xrdef {Rmail-snt}{Chapter'tie26}
'xrdef {Rmail Basics-title}{Basic Concepts of Rmail}
'xrdef {Rmail Basics-pg}{269}
'xrdef {Rmail Basics-snt}{Section'tie26.1}
'xrdef {Rmail Scrolling-title}{Scrolling Within a Message}
'xrdef {Rmail Scrolling-pg}{270}
'xrdef {Rmail Scrolling-snt}{Section'tie26.2}
'xrdef {Rmail Motion-title}{Moving Among Messages}
'xrdef {Rmail Motion-pg}{270}
'xrdef {Rmail Motion-snt}{Section'tie26.3}
'xrdef {Rmail Deletion-title}{Deleting Messages}
'xrdef {Rmail Deletion-pg}{271}
'xrdef {Rmail Deletion-snt}{Section'tie26.4}
'xrdef {Rmail Inbox-title}{Rmail Files and Inboxes}
'xrdef {Rmail Inbox-pg}{272}
'xrdef {Rmail Inbox-snt}{Section'tie26.5}
'xrdef {Rmail Files-title}{Multiple Rmail Files}
'xrdef {Rmail Files-pg}{274}
'xrdef {Rmail Files-snt}{Section'tie26.6}
'xrdef {Rmail Output-title}{Copying Messages Out to Files}
'xrdef {Rmail Output-pg}{275}
'xrdef {Rmail Output-snt}{Section'tie26.7}
'xrdef {Rmail Labels-title}{Labels}
'xrdef {Rmail Labels-pg}{276}
'xrdef {Rmail Labels-snt}{Section'tie26.8}
'xrdef {Rmail Reply-title}{Sending Replies}
'xrdef {Rmail Reply-pg}{278}
'xrdef {Rmail Reply-snt}{Section'tie26.9}
'xrdef {Rmail Summary-title}{Summaries}
'xrdef {Rmail Summary-pg}{280}
'xrdef {Rmail Summary-snt}{Section'tie26.10}
'xrdef {Rmail Make Summary-title}{Making Summaries}
'xrdef {Rmail Make Summary-pg}{280}
'xrdef {Rmail Make Summary-snt}{Section'tie26.10.1}
'xrdef {Rmail Summary Edit-title}{Editing in Summaries}
'xrdef {Rmail Summary Edit-pg}{281}
'xrdef {Rmail Summary Edit-snt}{Section'tie26.10.2}
'xrdef {Rmail Sorting-title}{Sorting the Rmail File}
'xrdef {Rmail Sorting-pg}{282}
'xrdef {Rmail Sorting-snt}{Section'tie26.11}
'xrdef {Rmail Display-title}{Display of Messages}
'xrdef {Rmail Display-pg}{283}
'xrdef {Rmail Display-snt}{Section'tie26.12}
'xrdef {Rmail Editing-title}{Editing Within a Message}
'xrdef {Rmail Editing-pg}{283}
'xrdef {Rmail Editing-snt}{Section'tie26.13}
'xrdef {Rmail Digest-title}{Digest Messages}
'xrdef {Rmail Digest-pg}{284}
'xrdef {Rmail Digest-snt}{Section'tie26.14}
'xrdef {Out of Rmail-title}{Converting an Rmail File to Inbox Format}
'xrdef {Out of Rmail-pg}{284}
'xrdef {Out of Rmail-snt}{Section'tie26.15}
'xrdef {Rmail Rot13-title}{Reading Rot13 Messages}
'xrdef {Rmail Rot13-pg}{284}
'xrdef {Rmail Rot13-snt}{Section'tie26.16}
'xrdef {Dired-title}{Dired, the Directory Editor}
'xrdef {Dired-pg}{287}
'xrdef {Dired-snt}{Chapter'tie27}
'xrdef {Dired Enter-title}{Entering Dired}
'xrdef {Dired Enter-pg}{287}
'xrdef {Dired Enter-snt}{Section'tie27.1}
'xrdef {Dired Commands-title}{Commands in the Dired Buffer}
'xrdef {Dired Commands-pg}{287}
'xrdef {Dired Commands-snt}{Section'tie27.2}
'xrdef {Dired Deletion-title}{Deleting Files with Dired}
'xrdef {Dired Deletion-pg}{287}
'xrdef {Dired Deletion-snt}{Section'tie27.3}
'xrdef {Flagging Many Files-title}{Flagging Many Files}
'xrdef {Flagging Many Files-pg}{288}
'xrdef {Flagging Many Files-snt}{Section'tie27.4}
'xrdef {Dired Visiting-title}{Visiting Files in Dired}
'xrdef {Dired Visiting-pg}{289}
'xrdef {Dired Visiting-snt}{Section'tie27.5}
'xrdef {Marks vs Flags-title}{Dired Marks vs. Flags}
'xrdef {Marks vs Flags-pg}{290}
'xrdef {Marks vs Flags-snt}{Section'tie27.6}
'xrdef {Operating on Files-title}{Operating on Files}
'xrdef {Operating on Files-pg}{291}
'xrdef {Operating on Files-snt}{Section'tie27.7}
'xrdef {Shell Commands in Dired-title}{Shell Commands in Dired}
'xrdef {Shell Commands in Dired-pg}{293}
'xrdef {Shell Commands in Dired-snt}{Section'tie27.8}
'xrdef {Transforming File Names-title}{Transforming File Names in Dired}
'xrdef {Transforming File Names-pg}{294}
'xrdef {Transforming File Names-snt}{Section'tie27.9}
'xrdef {Comparison in Dired-title}{File Comparison with Dired}
'xrdef {Comparison in Dired-pg}{295}
'xrdef {Comparison in Dired-snt}{Section'tie27.10}
'xrdef {Subdirectories in Dired-title}{Subdirectories in Dired}
'xrdef {Subdirectories in Dired-pg}{295}
'xrdef {Subdirectories in Dired-snt}{Section'tie27.11}
'xrdef {Subdirectory Motion-title}{Moving Over Subdirectories}
'xrdef {Subdirectory Motion-pg}{296}
'xrdef {Subdirectory Motion-snt}{Section'tie27.12}
'xrdef {Hiding Subdirectories-title}{Hiding Subdirectories}
'xrdef {Hiding Subdirectories-pg}{296}
'xrdef {Hiding Subdirectories-snt}{Section'tie27.13}
'xrdef {Dired Updating-title}{Updating the Dired Buffer}
'xrdef {Dired Updating-pg}{296}
'xrdef {Dired Updating-snt}{Section'tie27.14}
'xrdef {Dired and Find-title}{Dired and \code {find}}
'xrdef {Dired and Find-pg}{297}
'xrdef {Dired and Find-snt}{Section'tie27.15}
'xrdef {Calendar/Diary-title}{The Calendar and the Diary}
'xrdef {Calendar/Diary-pg}{299}
'xrdef {Calendar/Diary-snt}{Chapter'tie28}
'xrdef {Calendar Motion-title}{Movement in the Calendar}
'xrdef {Calendar Motion-pg}{299}
'xrdef {Calendar Motion-snt}{Section'tie28.1}
'xrdef {Calendar Unit Motion-title}{Motion by Standard Lengths of Time}
'xrdef {Calendar Unit Motion-pg}{299}
'xrdef {Calendar Unit Motion-snt}{Section'tie28.1.1}
'xrdef {Move to Beginning or End-title}{Beginning or End of Week, Month or Year}
'xrdef {Move to Beginning or End-pg}{300}
'xrdef {Move to Beginning or End-snt}{Section'tie28.1.2}
'xrdef {Specified Dates-title}{Specified Dates}
'xrdef {Specified Dates-pg}{301}
'xrdef {Specified Dates-snt}{Section'tie28.1.3}
'xrdef {Scroll Calendar-title}{Scrolling in the Calendar}
'xrdef {Scroll Calendar-pg}{301}
'xrdef {Scroll Calendar-snt}{Section'tie28.2}
'xrdef {Counting Days-title}{Counting Days}
'xrdef {Counting Days-pg}{302}
'xrdef {Counting Days-snt}{Section'tie28.3}
'xrdef {General Calendar-title}{Miscellaneous Calendar Commands}
'xrdef {General Calendar-pg}{302}
'xrdef {General Calendar-snt}{Section'tie28.4}
'xrdef {Holidays-title}{Holidays}
'xrdef {Holidays-pg}{303}
'xrdef {Holidays-snt}{Section'tie28.5}
'xrdef {Sunrise/Sunset-title}{Times of Sunrise and Sunset}
'xrdef {Sunrise/Sunset-pg}{304}
'xrdef {Sunrise/Sunset-snt}{Section'tie28.6}
'xrdef {Lunar Phases-title}{Phases of the Moon}
'xrdef {Lunar Phases-pg}{305}
'xrdef {Lunar Phases-snt}{Section'tie28.7}
'xrdef {Other Calendars-title}{Conversion To and From Other Calendars}
'xrdef {Other Calendars-pg}{306}
'xrdef {Other Calendars-snt}{Section'tie28.8}
'xrdef {Calendar Systems-title}{Supported Calendar Systems}
'xrdef {Calendar Systems-pg}{306}
'xrdef {Calendar Systems-snt}{Section'tie28.8.1}
'xrdef {To Other Calendar-title}{Converting To Other Calendars}
'xrdef {To Other Calendar-pg}{307}
'xrdef {To Other Calendar-snt}{Section'tie28.8.2}
'xrdef {From Other Calendar-title}{Converting From Other Calendars}
'xrdef {From Other Calendar-pg}{307}
'xrdef {From Other Calendar-snt}{Section'tie28.8.3}
'xrdef {Mayan Calendar-title}{Converting from the Mayan Calendar}
'xrdef {Mayan Calendar-pg}{308}
'xrdef {Mayan Calendar-snt}{Section'tie28.8.4}
'xrdef {Diary-title}{The Diary}
'xrdef {Diary-pg}{309}
'xrdef {Diary-snt}{Section'tie28.9}
'xrdef {Diary Commands-title}{Commands Displaying Diary Entries}
'xrdef {Diary Commands-pg}{310}
'xrdef {Diary Commands-snt}{Section'tie28.9.1}
'xrdef {Format of Diary File-title}{The Diary File}
'xrdef {Format of Diary File-pg}{311}
'xrdef {Format of Diary File-snt}{Section'tie28.9.2}
'xrdef {Date Formats-title}{Date Formats}
'xrdef {Date Formats-pg}{312}
'xrdef {Date Formats-snt}{Section'tie28.9.3}
'xrdef {Adding to Diary-title}{Commands to Add to the Diary}
'xrdef {Adding to Diary-pg}{313}
'xrdef {Adding to Diary-snt}{Section'tie28.9.4}
'xrdef {Special Diary Entries-title}{Special Diary Entries}
'xrdef {Special Diary Entries-pg}{314}
'xrdef {Special Diary Entries-snt}{Section'tie28.9.5}
'xrdef {Appointments-title}{Appointments}
'xrdef {Appointments-pg}{316}
'xrdef {Appointments-snt}{Section'tie28.10}
'xrdef {Daylight Savings-title}{Daylight Savings Time}
'xrdef {Daylight Savings-pg}{317}
'xrdef {Daylight Savings-snt}{Section'tie28.11}
'xrdef {GNUS-title}{GNUS}
'xrdef {GNUS-pg}{319}
'xrdef {GNUS-snt}{Section'tie29.1}
'xrdef {Buffers of GNUS-title}{GNUS's Three Buffers}
'xrdef {Buffers of GNUS-pg}{319}
'xrdef {Buffers of GNUS-snt}{Section'tie29.1.1}
'xrdef {GNUS Startup-title}{When GNUS Starts Up}
'xrdef {GNUS Startup-pg}{319}
'xrdef {GNUS Startup-snt}{Section'tie29.1.2}
'xrdef {Summary of GNUS-title}{Summary of GNUS Commands}
'xrdef {Summary of GNUS-pg}{320}
'xrdef {Summary of GNUS-snt}{Section'tie29.1.3}
'xrdef {Shell-title}{Running Shell Commands from Emacs}
'xrdef {Shell-pg}{322}
'xrdef {Shell-snt}{Section'tie29.2}
'xrdef {Single Shell-title}{Single Shell Commands}
'xrdef {Single Shell-pg}{322}
'xrdef {Single Shell-snt}{Section'tie29.2.1}
'xrdef {Interactive Shell-title}{Interactive Inferior Shell}
'xrdef {Interactive Shell-pg}{323}
'xrdef {Interactive Shell-snt}{Section'tie29.2.2}
'xrdef {Shell Mode-title}{Shell Mode}
'xrdef {Shell Mode-pg}{324}
'xrdef {Shell Mode-snt}{Section'tie29.2.3}
'xrdef {Shell History-title}{Shell Command History}
'xrdef {Shell History-pg}{327}
'xrdef {Shell History-snt}{Section'tie29.2.4}
'xrdef {Shell Ring-title}{Shell History Ring}
'xrdef {Shell Ring-pg}{327}
'xrdef {Shell Ring-snt}{Section'tie29.2.4.1}
'xrdef {Shell History Copying-title}{Shell History Copying}
'xrdef {Shell History Copying-pg}{328}
'xrdef {Shell History Copying-snt}{Section'tie29.2.4.2}
'xrdef {History References-title}{Shell History References}
'xrdef {History References-pg}{328}
'xrdef {History References-snt}{Section'tie29.2.4.3}
'xrdef {Shell Options-title}{Shell Mode Options}
'xrdef {Shell Options-pg}{329}
'xrdef {Shell Options-snt}{Section'tie29.2.5}
'xrdef {Remote Host-title}{Remote Host Shell}
'xrdef {Remote Host-pg}{330}
'xrdef {Remote Host-snt}{Section'tie29.2.6}
'xrdef {Emacs Server-title}{Using Emacs as a Server}
'xrdef {Emacs Server-pg}{330}
'xrdef {Emacs Server-snt}{Section'tie29.3}
'xrdef {Hardcopy-title}{Hardcopy Output}
'xrdef {Hardcopy-pg}{331}
'xrdef {Hardcopy-snt}{Section'tie29.4}
'xrdef {Postscript-title}{Postscript Hardcopy}
'xrdef {Postscript-pg}{332}
'xrdef {Postscript-snt}{Section'tie29.5}
'xrdef {Sorting-title}{Sorting Text}
'xrdef {Sorting-pg}{333}
'xrdef {Sorting-snt}{Section'tie29.6}
'xrdef {Narrowing-title}{Narrowing}
'xrdef {Narrowing-pg}{335}
'xrdef {Narrowing-snt}{Section'tie29.7}
'xrdef {Two-Column-title}{Two-Column Editing}
'xrdef {Two-Column-pg}{336}
'xrdef {Two-Column-snt}{Section'tie29.8}
'xrdef {Editing Binary Files-title}{Editing Binary Files}
'xrdef {Editing Binary Files-pg}{338}
'xrdef {Editing Binary Files-snt}{Section'tie29.9}
'xrdef {Saving Emacs Sessions-title}{Saving Emacs Sessions}
'xrdef {Saving Emacs Sessions-pg}{338}
'xrdef {Saving Emacs Sessions-snt}{Section'tie29.10}
'xrdef {Recursive Edit-title}{Recursive Editing Levels}
'xrdef {Recursive Edit-pg}{339}
'xrdef {Recursive Edit-snt}{Section'tie29.11}
'xrdef {Emulation-title}{Emulation}
'xrdef {Emulation-pg}{340}
'xrdef {Emulation-snt}{Section'tie29.12}
'xrdef {Dissociated Press-title}{Dissociated Press}
'xrdef {Dissociated Press-pg}{341}
'xrdef {Dissociated Press-snt}{Section'tie29.13}
'xrdef {Amusements-title}{Other Amusements}
'xrdef {Amusements-pg}{342}
'xrdef {Amusements-snt}{Section'tie29.14}
'xrdef {Customization-title}{Customization}
'xrdef {Customization-pg}{343}
'xrdef {Customization-snt}{Chapter'tie30}
'xrdef {Minor Modes-title}{Minor Modes}
'xrdef {Minor Modes-pg}{343}
'xrdef {Minor Modes-snt}{Section'tie30.1}
'xrdef {Variables-title}{Variables}
'xrdef {Variables-pg}{345}
'xrdef {Variables-snt}{Section'tie30.2}
'xrdef {Examining-title}{Examining and Setting Variables}
'xrdef {Examining-pg}{346}
'xrdef {Examining-snt}{Section'tie30.2.1}
'xrdef {Edit Options-title}{Editing Variable Values}
'xrdef {Edit Options-pg}{346}
'xrdef {Edit Options-snt}{Section'tie30.2.2}
'xrdef {Hooks-title}{Hooks}
'xrdef {Hooks-pg}{347}
'xrdef {Hooks-snt}{Section'tie30.2.3}
'xrdef {Locals-title}{Local Variables}
'xrdef {Locals-pg}{348}
'xrdef {Locals-snt}{Section'tie30.2.4}
'xrdef {File Variables-title}{Local Variables in Files}
'xrdef {File Variables-pg}{350}
'xrdef {File Variables-snt}{Section'tie30.2.5}
'xrdef {Keyboard Macros-title}{Keyboard Macros}
'xrdef {Keyboard Macros-pg}{352}
'xrdef {Keyboard Macros-snt}{Section'tie30.3}
'xrdef {Basic Kbd Macro-title}{Basic Use}
'xrdef {Basic Kbd Macro-pg}{353}
'xrdef {Basic Kbd Macro-snt}{Section'tie30.3.1}
'xrdef {Save Kbd Macro-title}{Naming and Saving Keyboard Macros}
'xrdef {Save Kbd Macro-pg}{354}
'xrdef {Save Kbd Macro-snt}{Section'tie30.3.2}
'xrdef {Kbd Macro Query-title}{Executing Macros with Variations}
'xrdef {Kbd Macro Query-pg}{354}
'xrdef {Kbd Macro Query-snt}{Section'tie30.3.3}
'xrdef {Key Bindings-title}{Customizing Key Bindings}
'xrdef {Key Bindings-pg}{355}
'xrdef {Key Bindings-snt}{Section'tie30.4}
'xrdef {Keymaps-title}{Keymaps}
'xrdef {Keymaps-pg}{355}
'xrdef {Keymaps-snt}{Section'tie30.4.1}
'xrdef {Prefix Keymaps-title}{Prefix Keymaps}
'xrdef {Prefix Keymaps-pg}{356}
'xrdef {Prefix Keymaps-snt}{Section'tie30.4.2}
'xrdef {Local Keymaps-title}{Local Keymaps}
'xrdef {Local Keymaps-pg}{357}
'xrdef {Local Keymaps-snt}{Section'tie30.4.3}
'xrdef {Minibuffer Maps-title}{Minibuffer Keymaps}
'xrdef {Minibuffer Maps-pg}{358}
'xrdef {Minibuffer Maps-snt}{Section'tie30.4.4}
'xrdef {Rebinding-title}{Changing Key Bindings Interactively}
'xrdef {Rebinding-pg}{359}
'xrdef {Rebinding-snt}{Section'tie30.4.5}
'xrdef {Init Rebinding-title}{Rebinding Keys in Your Init File}
'xrdef {Init Rebinding-pg}{360}
'xrdef {Init Rebinding-snt}{Section'tie30.4.6}
'xrdef {Function Keys-title}{Rebinding Function Keys}
'xrdef {Function Keys-pg}{361}
'xrdef {Function Keys-snt}{Section'tie30.4.7}
'xrdef {Named ASCII Chars-title}{Named ASCII Control Characters}
'xrdef {Named ASCII Chars-pg}{362}
'xrdef {Named ASCII Chars-snt}{Section'tie30.4.8}
'xrdef {Mouse Buttons-title}{Rebinding Mouse Buttons}
'xrdef {Mouse Buttons-pg}{363}
'xrdef {Mouse Buttons-snt}{Section'tie30.4.9}
'xrdef {Disabling-title}{Disabling Commands}
'xrdef {Disabling-pg}{365}
'xrdef {Disabling-snt}{Section'tie30.4.10}
'xrdef {Keyboard Translations-title}{Keyboard Translations}
'xrdef {Keyboard Translations-pg}{365}
'xrdef {Keyboard Translations-snt}{Section'tie30.5}
'xrdef {Syntax-title}{The Syntax Table}
'xrdef {Syntax-pg}{366}
'xrdef {Syntax-snt}{Section'tie30.6}
'xrdef {Init File-title}{The Init File, \file {~/.emacs}}
'xrdef {Init File-pg}{366}
'xrdef {Init File-snt}{Section'tie30.7}
'xrdef {Init Syntax-title}{Init File Syntax}
'xrdef {Init Syntax-pg}{367}
'xrdef {Init Syntax-snt}{Section'tie30.7.1}
'xrdef {Init Examples-title}{Init File Examples}
'xrdef {Init Examples-pg}{368}
'xrdef {Init Examples-snt}{Section'tie30.7.2}
'xrdef {Terminal Init-title}{Terminal-specific Initialization}
'xrdef {Terminal Init-pg}{370}
'xrdef {Terminal Init-snt}{Section'tie30.7.3}
'xrdef {Find Init-title}{How Emacs Finds Your Init File}
'xrdef {Find Init-pg}{370}
'xrdef {Find Init-snt}{Section'tie30.7.4}
'xrdef {Quitting-title}{Quitting and Aborting}
'xrdef {Quitting-pg}{373}
'xrdef {Quitting-snt}{Section'tie31.1}
'xrdef {Lossage-title}{Dealing with Emacs Trouble}
'xrdef {Lossage-pg}{374}
'xrdef {Lossage-snt}{Section'tie31.2}
'xrdef {DEL Gets Help-title}{If \key {DEL} Fails to Delete}
'xrdef {DEL Gets Help-pg}{374}
'xrdef {DEL Gets Help-snt}{Section'tie31.2.1}
'xrdef {Stuck Recursive-title}{Recursive Editing Levels}
'xrdef {Stuck Recursive-pg}{375}
'xrdef {Stuck Recursive-snt}{Section'tie31.2.2}
'xrdef {Screen Garbled-title}{Garbage on the Screen}
'xrdef {Screen Garbled-pg}{375}
'xrdef {Screen Garbled-snt}{Section'tie31.2.3}
'xrdef {Text Garbled-title}{Garbage in the Text}
'xrdef {Text Garbled-pg}{375}
'xrdef {Text Garbled-snt}{Section'tie31.2.4}
'xrdef {Unasked-for Search-title}{Spontaneous Entry to Incremental Search}
'xrdef {Unasked-for Search-pg}{375}
'xrdef {Unasked-for Search-snt}{Section'tie31.2.5}
'xrdef {Memory Full-title}{Running out of Memory}
'xrdef {Memory Full-pg}{376}
'xrdef {Memory Full-snt}{Section'tie31.2.6}
'xrdef {Emergency Escape-title}{Emergency Escape}
'xrdef {Emergency Escape-pg}{376}
'xrdef {Emergency Escape-snt}{Section'tie31.2.7}
'xrdef {Total Frustration-title}{Help for Total Frustration}
'xrdef {Total Frustration-pg}{377}
'xrdef {Total Frustration-snt}{Section'tie31.2.8}
'xrdef {Bugs-title}{Reporting Bugs}
'xrdef {Bugs-pg}{377}
'xrdef {Bugs-snt}{Section'tie31.3}
'xrdef {Bug Criteria-title}{When Is There a Bug}
'xrdef {Bug Criteria-pg}{378}
'xrdef {Bug Criteria-snt}{Section'tie31.3.1}
'xrdef {Understanding Bug Reporting-title}{Understanding Bug Reporting}
'xrdef {Understanding Bug Reporting-pg}{379}
'xrdef {Understanding Bug Reporting-snt}{Section'tie31.3.2}
'xrdef {Checklist-title}{Checklist for Bug Reports}
'xrdef {Checklist-pg}{379}
'xrdef {Checklist-snt}{Section'tie31.3.3}
'xrdef {Sending Patches-title}{Sending Patches for GNU Emacs}
'xrdef {Sending Patches-pg}{385}
'xrdef {Sending Patches-snt}{Section'tie31.3.4}
'xrdef {Service-title}{How To Get Help with GNU Emacs}
'xrdef {Service-pg}{386}
'xrdef {Service-snt}{Section'tie31.4}
'xrdef {Command Arguments-title}{Command Line Arguments}
'xrdef {Command Arguments-pg}{389}
'xrdef {Command Arguments-snt}{Appendix'tie'char65{}}
'xrdef {Action Arguments-title}{Action Arguments}
'xrdef {Action Arguments-pg}{389}
'xrdef {Action Arguments-snt}{Section'tie'char65.1}
'xrdef {Initial Options-title}{Initial Options}
'xrdef {Initial Options-pg}{390}
'xrdef {Initial Options-snt}{Section'tie'char65.2}
'xrdef {Command Example-title}{Command Argument Example}
'xrdef {Command Example-pg}{391}
'xrdef {Command Example-snt}{Section'tie'char65.3}
'xrdef {Resume Arguments-title}{Resuming Emacs with Arguments}
'xrdef {Resume Arguments-pg}{392}
'xrdef {Resume Arguments-snt}{Section'tie'char65.4}
'xrdef {Environment-title}{Environment Variables}
'xrdef {Environment-pg}{392}
'xrdef {Environment-snt}{Section'tie'char65.5}
'xrdef {General Variables-title}{General Variables}
'xrdef {General Variables-pg}{393}
'xrdef {General Variables-snt}{Section'tie'char65.5.1}
'xrdef {Misc Variables-title}{Misc Variables}
'xrdef {Misc Variables-pg}{395}
'xrdef {Misc Variables-snt}{Section'tie'char65.5.2}
'xrdef {Display X-title}{Specifying the Display Name}
'xrdef {Display X-pg}{395}
'xrdef {Display X-snt}{Section'tie'char65.6}
'xrdef {Font X-title}{Font Specification Options}
'xrdef {Font X-pg}{396}
'xrdef {Font X-snt}{Section'tie'char65.7}
'xrdef {Colors X-title}{Window Color Options}
'xrdef {Colors X-pg}{398}
'xrdef {Colors X-snt}{Section'tie'char65.8}
'xrdef {Window Size X-title}{Options for Window Geometry}
'xrdef {Window Size X-pg}{398}
'xrdef {Window Size X-snt}{Section'tie'char65.9}
'xrdef {Borders X-title}{Internal and External Borders}
'xrdef {Borders X-pg}{399}
'xrdef {Borders X-snt}{Section'tie'char65.10}
'xrdef {Icons X-title}{Icons}
'xrdef {Icons X-pg}{400}
'xrdef {Icons X-snt}{Section'tie'char65.11}
'xrdef {Resources X-title}{X Resources}
'xrdef {Resources X-pg}{401}
'xrdef {Resources X-snt}{Section'tie'char65.12}
'xrdef {Lucid Resources-title}{Lucid Menu X Resources}
'xrdef {Lucid Resources-pg}{404}
'xrdef {Lucid Resources-snt}{Section'tie'char65.13}
'xrdef {Motif Resources-title}{Motif Menu X Resources}
'xrdef {Motif Resources-pg}{404}
'xrdef {Motif Resources-snt}{Section'tie'char65.14}
'xrdef {Antinews-title}{Emacs 19.28 Antinews}
'xrdef {Antinews-pg}{407}
'xrdef {Antinews-snt}{Appendix'tie'char66{}}
'xrdef {MS-DOS-title}{MS-DOS Issues}
'xrdef {MS-DOS-pg}{409}
'xrdef {MS-DOS-snt}{Appendix'tie'char67{}}
'xrdef {Manifesto-title}{The GNU Manifesto}
'xrdef {Manifesto-pg}{411}
'xrdef {Manifesto-snt}{}
'xrdef {Top-title}{What's GNU? Gnu's Not Unix!}
'xrdef {Top-pg}{411}
'xrdef {Top-snt}{}
'xrdef {Glossary-title}{Glossary}
'xrdef {Glossary-pg}{421}
'xrdef {Glossary-snt}{}
'xrdef {Key Index-title}{Key (Character) Index}
'xrdef {Key Index-pg}{441}
'xrdef {Key Index-snt}{}
'xrdef {Command Index-title}{Command and Function Index}
'xrdef {Command Index-pg}{449}
'xrdef {Command Index-snt}{}
'xrdef {Variable Index-title}{Variable Index}
'xrdef {Variable Index-pg}{459}
'xrdef {Variable Index-snt}{}
'xrdef {Concept Index-title}{Concept Index}
'xrdef {Concept Index-pg}{463}
'xrdef {Concept Index-snt}{}
