%!PS-Adobe-2.0 EPSF-2.0
%%Title: (Directory map of ImageMagick)
%%Creator: pstree, (C) 1990 Gisle Aas, NR
%%DocumentFonts: Times-Roman
%%BoundingBox: 60 392 310 742
60.0 0 translate
/s {show} bind def
/m {moveto} bind def
/Times-Roman findfont 10 scalefont setfont
0.1 setlinewidth
90 732 m(ImageMagick.htm)s
90 722 m(ImageMagick.man)s
90 712 m(Imakefile)s
90 702 m(Install)s
90 692 m(Magick.tmpl)s
90 682 m(Make.com)s
90 672 m(Makefile)s
90 662 m(Makefile.in)s
90 652 m(Manifest.ps)s
90 642 m(README)s
90 632 m(X.h)s
90 622 m(animate.c)s
90 612 m(animate.h)s
90 602 m(animate.man)s
90 592 m(combine.c)s
90 582 m(combine.man)s
90 572 m(configure)s
90 562 m(convert.c)s
90 552 m(convert.man)s
90 542 m(display.c)s
90 532 m(display.h)s
90 522 m(display.man)s
90 512 m(identify.c)s
90 502 m(identify.man)s
180 492 m(Makefile)s
180 482 m(README)s
180 472 m(arrow.gif)s
180 462 m(background.gif)s
180 452 m(ball.gif)s
180 442 m(home.gif)s
90 467 m(images)s
(images) stringwidth pop 91.0 add 470.3 m
[ 495.3 485.3 475.3 465.3 455.3 445.3]
{gsave 176.0 exch lineto stroke grestore} forall
90 432 m(import.c)s
90 422 m(import.man)s
90 412 m(install-sh)s
180 402 m(Colorlist.h)s
180 392 m(Imakefile)s
180 382 m(Make.com)s
180 372 m(Makefile)s
180 362 m(Makefile.in)s
180 352 m(PreRvIcccm.c)s
180 342 m(PreRvIcccm.h)s
180 332 m(X.c)s
180 322 m(X.h)s
180 312 m(XWDFile.h)s
180 302 m(colors.c)s
180 292 m(compress.c)s
180 282 m(compress.h)s
180 272 m(decode.c)s
180 262 m(encode.c)s
180 252 m(error.c)s
180 242 m(error.h)s
180 232 m(image.c)s
180 222 m(image.h)s
180 212 m(logo.h)s
180 202 m(magick.h)s
180 192 m(monitor.c)s
180 182 m(monitor.h)s
180 172 m(quantize.c)s
180 162 m(segment.c)s
180 152 m(shear.c)s
180 142 m(signature.c)s
180 132 m(utility.c)s
180 122 m(utility.h)s
180 112 m(vms.c)s
180 102 m(vms.h)s
180 92 m(widget.c)s
180 82 m(widget.h)s
90 242 m(magick)s
(magick) stringwidth pop 91.0 add 245.3 m
[ 405.3 395.3 385.3 375.3 365.3 355.3 345.3 335.3 325.3 315.3 305.3 295.3 285.3 275.3 265.3 255.3 245.3 235.3 225.3 215.3 205.3 195.3 185.3 175.3 165.3 155.3 145.3 135.3 125.3 115.3 105.3 95.3 85.3]
{gsave 176.0 exch lineto stroke grestore} forall
90 72 m(miff.man)s
90 62 m(mogrify.c)s
0 397 m(ImageMagick)s
(ImageMagick) stringwidth pop 1.0 add 400.3 m
[ 735.3 725.3 715.3 705.3 695.3 685.3 675.3 665.3 655.3 645.3 635.3 625.3 615.3 605.3 595.3 585.3 575.3 565.3 555.3 545.3 535.3 525.3 515.3 505.3 470.3 435.3 425.3 415.3 245.3 75.3 65.3]
{gsave 86.0 exch lineto stroke grestore} forall
showpage
60.0 0 translate
90 732 m(mogrify.man)s
90 722 m(montage.c)s
90 712 m(montage.man)s
90 702 m(quantize.man)s
180 692 m(Makefile)s
180 682 m(README)s
180 672 m(dna.script)s
90 682 m(scenes)s
(scenes) stringwidth pop 91.0 add 685.3 m
[ 695.3 685.3 675.3]
{gsave 176.0 exch lineto stroke grestore} forall
180 662 m(xsnap)s
90 662 m(scripts)s
(scripts) stringwidth pop 91.0 add 665.3 m
[ 665.3]
{gsave 176.0 exch lineto stroke grestore} forall
180 652 m(Changelog.html)s
180 642 m(Magick.html)s
180 632 m(README.html)s
180 622 m(animate.html)s
180 612 m(combine.html)s
180 602 m(convert.html)s
180 592 m(display.html)s
180 582 m(formats.html)s
180 572 m(identify.html)s
180 562 m(import.html)s
180 552 m(miff.html)s
180 542 m(mogrify.html)s
180 532 m(montage.html)s
180 522 m(quantize.html)s
180 512 m(tools.html)s
180 502 m(xtp.html)s
90 577 m(www)s
(www) stringwidth pop 91.0 add 580.3 m
[ 655.3 645.3 635.3 625.3 615.3 605.3 595.3 585.3 575.3 565.3 555.3 545.3 535.3 525.3 515.3 505.3]
{gsave 176.0 exch lineto stroke grestore} forall
180 492 m(Imakefile)s
180 482 m(Makefile)s
180 472 m(Makefile.in)s
180 462 m(README)s
180 452 m(configure)s
180 442 m(network.c)s
180 432 m(regular.c)s
180 422 m(regular.h)s
180 412 m(xtp.c)s
180 402 m(xtp.h)s
180 392 m(xtp.man)s
90 442 m(xtp)s
(xtp) stringwidth pop 91.0 add 445.3 m
[ 495.3 485.3 475.3 465.3 455.3 445.3 435.3 425.3 415.3 405.3 395.3]
{gsave 176.0 exch lineto stroke grestore} forall
0 587 m(ImageMagick)s
(ImageMagick) stringwidth pop 1.0 add 590.3 m
[ 735.3 725.3 715.3 705.3 685.3 665.3 580.3 445.3]
{gsave 86.0 exch lineto stroke grestore} forall
showpage
