[symbol2]
bbox 32 32 416 416
uniq 115
[tools]
[attributes]
[layers]
<symbol>
l 100 0 0 160 64 trecsExposure
r 0 32 32 416 416
[comments]
RCS: $Name:  $ $Id: trecsExposure.sym,v 0.1 2003/02/15 03:02:14 trecs beta $
