[symbol2]
bbox -64 -64 320 320
uniq 110
[tools]
[attributes]
[layers]
<symbol>
l 100 0 0 64 -32 trecsHeartbeat
r 0 -64 -64 320 320
[comments]
RCS: $Name:  $ $Id: trecsHeartbeat.sym,v 0.1 2003/02/15 03:02:14 trecs beta $
